{
  "header": {
    "model": "ECMWF-HRES",
    "refTime": "2019-04-06T12:00:00Z",
    "dsttime": "2019-04-06T12:00:00Z",
    "update": "2019-04-06T19:36:49Z",
    "dsttimeTs": 1554552000000,
    "step": 3,
    "updateTs": 1554579409000,
    "elevation": 298,
    "modelElevation": 277.89769623523625,
    "cache": "modelNotCached"
  },
  "data": {
    "dewpoint-1000h": [
      278.4375821005276,
      280.32432373765295,
      279.42523548578174,
      280.4610439134438,
      280.3512218494454,
      278.35132962523824,
      276.78897228350655,
      275.55000958678295,
      277.30940838872385,
      279.4347947265247,
      280.6730676692952,
      280.85516208259537,
      280.5656550065124,
      279.7911089002838,
      279.3181903532796,
      280.45489764523177,
      279.2960011866246,
      280.9273244761896,
      281.3729803755874,
      282.40362057535367,
      283.4581294750222,
      279.59742846648135,
      277.0274155627485,
      274.26900370234654,
      276.2380784693698,
      278.44335160420934,
      277.5996192361801,
      277.76243769133043,
      277.4597301176849,
      275.422404551633,
      275.3622780192339,
      273.2252502125387,
      274.30713935104615,
      275.0634678871032,
      272.8999089634575,
      271.38741330315577,
      271.44697960045767,
      269.49664166768616,
      269.4522896708338,
      271.3918132878516,
      270.8962327730269,
      272.63482934609436,
      272.2730598622657,
      271.38741330315577,
      271.3041702365605,
      271.00934252085244,
      273.2782925394847,
      274.4706051362508
    ],
    "dewpoint-150h": [
      191.0129798934463,
      194.897651017152,
      193.49511312094438,
      192.7707119473832,
      191.0129798934463,
      192.7707119473832,
      191.72177560670406,
      194.16078763321957,
      194.16078763321957,
      195.31432287013024,
      192.7707119473832,
      194.16078763321957,
      194.16078763321957,
      193.42283361324507,
      192.7707119473832,
      194.16078763321957,
      194.16078763321957,
      194.16078763321957,
      192.7707119473832,
      192.7707119473832,
      194.16078763321957,
      192.7707119473832,
      192.7707119473832,
      194.16078763321957,
      193.42283361324507,
      192.7707119473832,
      192.7707119473832,
      194.16078763321957,
      191.0129798934463,
      194.16078763321957,
      192.7707119473832,
      193.42283361324507,
      193.42283361324507,
      192.7707119473832,
      192.7707119473832,
      193.42283361324507,
      193.42283361324507,
      193.42283361324507,
      191.0129798934463,
      193.42283361324507,
      192.0451833171674,
      194.16078763321957,
      194.16078763321957,
      193.42283361324507,
      193.79194710401822,
      191.0129798934463,
      193.42283361324507,
      193.79194710401822
    ],
    "dewpoint-200h": [
      201.36053880652491,
      200.95011306667215,
      201.53940792630982,
      201.53940792630982,
      201.85049115050757,
      201.30111625019077,
      201.58085902939672,
      199.5631647761348,
      201.576225940278,
      202.7639027931368,
      203.62843793700245,
      204.83608624349364,
      204.25589739881445,
      203.81296815448334,
      203.66243000053817,
      203.36989793817895,
      202.74879548138603,
      201.63550767451966,
      200.9265653441595,
      201.52132109036472,
      202.9088995459854,
      202.24706751934966,
      201.78768995542106,
      202.38846795618787,
      201.35859299337565,
      200.16282540841087,
      199.5631647761348,
      200.39240168978222,
      202.7639027931368,
      202.6481427096785,
      203.790178471539,
      203.5072064813305,
      203.2943120784514,
      203.790178471539,
      203.12159156885934,
      203.05803544798778,
      202.38846795618787,
      202.43455497550843,
      202.38846795618787,
      202.32852114026565,
      203.66243000053817,
      203.06569274371748,
      201.78768995542106,
      202.19349978601377,
      202.19349978601377,
      201.7867522453805,
      201.85049115050757,
      201.264732095665
    ],
    "dewpoint-300h": [
      213.6293178559685,
      214.16594791038742,
      216.98757297853464,
      213.6293178559685,
      213.29050642312637,
      212.05290360250535,
      216.0322189477544,
      218.09953779409605,
      218.94881907348764,
      219.30455187618008,
      221.8881199162549,
      220.7139764192214,
      220.3032959131055,
      220.4422171990875,
      220.84693648953476,
      220.11476704797826,
      219.37136319726898,
      219.87356847022153,
      221.14999999999998,
      221.04288833572323,
      220.75850762982859,
      221.14999999999998,
      221.14999999999998,
      221.1073024780795,
      218.21747265317813,
      219.26754142290844,
      219.54011432850558,
      219.40399699464047,
      219.76259128543225,
      220.14999999999998,
      220.06530258887747,
      220.14999999999998,
      220.64999999999998,
      220.91271199302878,
      220.01904207344668,
      219.7257636926104,
      219.42283663211214,
      217.91801306384747,
      219.3121174297292,
      219.7185240532597,
      220.11476704797826,
      221.1073024780795,
      221.14999999999998,
      220.14999999999998,
      220.06530258887747,
      218.2479593380149,
      218.7405800136491,
      219.14999999999998
    ],
    "dewpoint-400h": [
      223.60623610299095,
      222.39215420548874,
      223.698079280162,
      221.91371325874738,
      221.14717303237535,
      220.5988964763669,
      229.0521823215135,
      233.1935140606958,
      235.54231125215074,
      234.22634431350284,
      239.14999999999998,
      235.43202468747054,
      235.21594547346206,
      237.26633987442912,
      238.08069267872963,
      236.1640229815754,
      232.3104109325166,
      234.03474212114736,
      234.10803726671944,
      234.18083549574823,
      234.324969285006,
      237.09087293868245,
      233.96094284464886,
      234.6075744966522,
      237.09087293868245,
      237.03517061349467,
      236.9480297787547,
      235.87863341338533,
      236.69026383393833,
      236.2648709930298,
      235.990383690874,
      236.87132981135625,
      238.0485024755657,
      233.4808527109612,
      235.00188406491074,
      233.57196040041157,
      232.92710362005062,
      232.08164144507242,
      232.24048666033144,
      233.21854094868007,
      231.46877081630745,
      231.92035964770196,
      230.53182503558347,
      231.46877081630745,
      236.63718975827027,
      237.14999999999998,
      237.14999999999998,
      236.64999999999998
    ],
    "dewpoint-500h": [
      238.8752813295356,
      233.4450711439405,
      234.67588515491838,
      235.35211921028457,
      234.247565599579,
      230.79005314076568,
      237.1608530031039,
      245.0133034161021,
      249.3775284498713,
      248.90940540109344,
      247.3983271540742,
      244.44893368238877,
      242.96569075135443,
      247.30020869122714,
      249.03567838758653,
      248.50942689723075,
      247.87929903163683,
      248.32776397570075,
      246.8369518825642,
      250.14141090254716,
      250.14141090254716,
      248.84107195335264,
      248.65096768810452,
      247.50447379536283,
      245.8287662083728,
      244.25235908219622,
      247.01861920801989,
      247.58712938769813,
      243.8806102272885,
      242.37197124202464,
      243.10013493427812,
      243.78582365058998,
      245.63336020450242,
      245.4691821014296,
      246.19101400928673,
      246.6767059670548,
      247.6645158254978,
      247.97622637324682,
      248.96551345030088,
      246.49851342668006,
      245.63336020450242,
      246.7984278437182,
      244.72588684628698,
      246.0342905833645,
      248.90323738369548,
      249.97930202769487,
      249.80625530229304,
      249.57175193380894
    ],
    "dewpoint-600h": [
      254.03870973467767,
      254.4538970322342,
      249.83781006352024,
      248.60830996375125,
      249.54158707591336,
      250.127207034672,
      251.22270587075292,
      251.5980983147686,
      252.1914186997844,
      253.44791332965045,
      251.45936742674775,
      251.87112189011003,
      250.44342709069858,
      249.54158707591336,
      256.78921578622317,
      259.8444775085066,
      259.63758372722424,
      257.8593863124792,
      257.2937155372408,
      258.2494430136275,
      257.8593863124792,
      258.0880426245953,
      258.92341686936106,
      259.25695808616126,
      257.8593863124792,
      257.1209796129785,
      256.24467162651996,
      256.80890883830114,
      254.29721682513303,
      254.6733398015371,
      254.76571204326365,
      254.2014763399259,
      253.71196861664114,
      253.20335390459695,
      253.51090363837417,
      253.20335390459695,
      253.0991961482951,
      253.51090363837417,
      253.20335390459695,
      251.6625763845917,
      249.91013571632539,
      249.22016245303314,
      249.3612329774111,
      249.7751459198164,
      250.23126451321266,
      254.08285379929967,
      257.86691945359195,
      257.7994752975502
    ],
    "dewpoint-700h": [
      263.19868279998826,
      263.30200182422004,
      261.82702181512167,
      260.4726661479438,
      259.54674180046896,
      259.81889977469694,
      259.1935122770461,
      254.95599479331165,
      257.3994492579567,
      257.660425691628,
      254.9289804071621,
      257.9438062398586,
      263.1034797527812,
      266.59419591558935,
      267.4205918725408,
      266.8327631553731,
      267.39889474330477,
      267.6112303249613,
      266.6835958065344,
      266.4141603873071,
      266.19769329630304,
      264.01670562021957,
      262.7776266078678,
      259.9359259476249,
      260.17561614360574,
      259.5642828053704,
      259.68425816353516,
      258.91387488294964,
      250.48575727099367,
      251.34516943452758,
      252.00490482882873,
      252.59815646601507,
      253.8813656873305,
      252.52070004016386,
      250.87385921550495,
      247.69022897617313,
      240.1347119367627,
      234.1780100385668,
      233.15884046768076,
      232.2113506707695,
      232.2113506707695,
      233.30434532964156,
      235.25712900086472,
      245.6119223215526,
      258.7348109394008,
      261.6309599878255,
      265.8478437870346,
      266.6835958065344
    ],
    "dewpoint-800h": [
      272.7468519044865,
      270.2275825060815,
      269.47475955055785,
      268.8291032641223,
      268.8281397854562,
      268.5899933340443,
      266.69131700837846,
      271.81312999580047,
      272.3227381083734,
      270.6477496138969,
      271.71506580698474,
      272.8984646295003,
      272.8984646295004,
      273.63777207431167,
      272.87264126065446,
      273.64006887715794,
      274.4298133077518,
      273.7828326250568,
      273.01720364524783,
      272.0217899662895,
      271.9033934391488,
      270.71411201479043,
      267.9398813841243,
      270.30992343768924,
      269.7338536959576,
      270.4770018570408,
      270.82999727083785,
      270.37023990771917,
      270.06339496636724,
      269.5065697775075,
      267.87509477997713,
      269.52496081356236,
      269.3075727845293,
      266.07807799962853,
      252.3246709306584,
      255.08226998027754,
      256.7239033680273,
      256.41426066624774,
      262.72575112738735,
      267.11162288577754,
      267.430254506057,
      264.96569821666657,
      267.0626154996326,
      266.62961166425697,
      266.1480228692054,
      269.43289020295396,
      270.6268591475075,
      270.41873692175466
    ],
    "dewpoint-850h": [
      275.26543952363767,
      274.4961293893429,
      272.0734037318079,
      273.61211596317827,
      272.7791732537157,
      271.0129179025849,
      271.6188107892661,
      272.2617191173075,
      273.1329391958362,
      273.23041732537575,
      273.2290114256414,
      273.89091278224805,
      275.51336784551256,
      274.89820127212903,
      274.17817312272496,
      274.54230287578446,
      274.9859357796814,
      274.452057911595,
      274.9859357796814,
      274.7695355690126,
      274.08000945313677,
      272.6497330186012,
      270.50097018864847,
      271.6209116629253,
      271.84548312975,
      272.16873940316793,
      272.67726532765727,
      272.4216851151195,
      272.1141421333932,
      271.75449143585064,
      271.103466406238,
      270.44229264781467,
      270.4879570153021,
      269.8076115884497,
      269.1416826601693,
      269.8728817719677,
      269.70872210846625,
      267.6315183220923,
      269.2825162622113,
      268.91987962906285,
      268.33055393836077,
      269.1887975946363,
      269.1362295965088,
      268.5485887924158,
      268.3361907655795,
      270.3568609943577,
      270.9665380657815,
      271.3751559392154
    ],
    "dewpoint-900h": [
      276.3881246762582,
      275.49765877233006,
      274.12329822092585,
      272.7438935181448,
      272.6352976334959,
      273.2290114256414,
      274.5695392991887,
      273.49041044046226,
      274.4423058640896,
      273.83513924930975,
      274.05209133812184,
      274.6711850268329,
      274.7956587388039,
      276.34776332558977,
      276.40825569985543,
      276.7648149011927,
      276.66156498801524,
      275.14952119383236,
      276.34776332558977,
      275.7045602023494,
      273.02229266379993,
      272.77655255561353,
      273.1379310718454,
      272.8117724513144,
      273.8532812259802,
      274.4384389705121,
      274.06425259340614,
      273.37998286081813,
      273.4235147829863,
      273.4235147829863,
      272.6930219795186,
      271.02871361328215,
      271.96719765162027,
      272.07001838923713,
      269.51542779007985,
      269.6516049935935,
      269.4662752393444,
      268.9410384601493,
      268.23424309703637,
      269.6558493231939,
      269.20088594836886,
      270.2170166513292,
      268.93600319869614,
      269.00217273854554,
      268.46203846210716,
      271.4505267481701,
      271.59407489049875,
      272.14313700139064
    ],
    "dewpoint-925h": [
      277.0311693757239,
      275.73804254163645,
      274.6787526230658,
      274.08252400560986,
      274.7056270452743,
      274.8490426038573,
      275.39318835395414,
      274.1193927237401,
      274.6657705462668,
      274.7195611558831,
      274.93201178349227,
      274.93201178349227,
      275.3622780192339,
      276.65042771616726,
      278.0500961349952,
      279.0041661895708,
      277.82151309476643,
      275.45651199710727,
      277.37463744716905,
      276.93067931787056,
      275.5015464760814,
      273.0739900310925,
      274.7514664473678,
      273.2623623757199,
      274.06805789202053,
      275.2880252954392,
      274.2290492550431,
      274.06425259340614,
      274.47625645716323,
      273.8511226511132,
      273.9890558341078,
      272.13612503225704,
      272.5268545204869,
      272.52593476319703,
      269.55663506778654,
      268.72790433086135,
      268.6696045095934,
      267.77361602832144,
      268.59202180306977,
      269.8507381148329,
      269.59540433581725,
      270.56547220021463,
      269.5309038327454,
      269.0585526423088,
      268.57023344008195,
      270.435973013493,
      271.99115207632286,
      272.92117961043425
    ],
    "dewpoint-950h": [
      277.18606956214705,
      276.38397454560607,
      275.38196459524505,
      275.25481807670866,
      275.9269476084953,
      276.1799507241717,
      275.73804254163645,
      274.3305546715748,
      275.8584539717646,
      275.0939861128057,
      276.5463351879167,
      276.87062203218477,
      276.34776332558977,
      276.13508966172856,
      278.0500961349952,
      279.8465781212408,
      278.07629942179267,
      276.78897228350655,
      279.10198121298777,
      278.99053409324046,
      276.0863248515512,
      274.6711850268329,
      275.95434539631395,
      273.1952598826477,
      274.9442262364611,
      276.42716757488904,
      275.18215970552575,
      275.15013333093003,
      274.452057911595,
      274.30575962385035,
      274.33409282570864,
      272.35538929497375,
      273.2370156607806,
      273.02229266379993,
      270.43977011874443,
      269.1085358595868,
      268.8206275573886,
      267.923121088109,
      268.91641128737956,
      270.9372192769118,
      269.9099968523085,
      270.95668386434886,
      270.09274835650376,
      269.2628837580639,
      269.12684028878743,
      270.0450150288842,
      272.4149994127408,
      273.39031490708186
    ],
    "dewpoint-surface": [
      278.04999999999995,
      277.65,
      276.49999999999994,
      276.4,
      276.25,
      276.79999999999995,
      276.9,
      275.44999999999993,
      276.29999999999995,
      277.15,
      277.44999999999993,
      278.04999999999995,
      277.79999999999995,
      277.9,
      279.15,
      280.65,
      278.65,
      279.15,
      279.65,
      279.65,
      279.15,
      277.69999999999993,
      276.69999999999993,
      274.84999999999997,
      275.9,
      276.84999999999997,
      275.74999999999994,
      275.75,
      275.29999999999995,
      275.15,
      275.44999999999993,
      273.54999999999995,
      274.25,
      273.5999999999999,
      271.5999999999999,
      269.9,
      269.74999999999994,
      269.29999999999995,
      270.09999999999997,
      271.79999999999995,
      271.15,
      271.9,
      271.19999999999993,
      270.19999999999993,
      270.04999999999995,
      270.69999999999993,
      273.34999999999997,
      274.29999999999995
    ],
    "gh-1000h": [
      44.40797244094489,
      51.76852008489175,
      56.31675996555123,
      53.26538470410924,
      51.59000715120567,
      58.053474486343475,
      54.52637872170271,
      47.28794944943405,
      44.98591481606792,
      48.23989219365157,
      55.21913831815945,
      58.75966758427657,
      58.01042691929132,
      66.52633450725887,
      69.45552795890745,
      65.20612773745077,
      61.576763964074814,
      69.6251018854577,
      78.15055018147143,
      81.02241672305615,
      80.06955893208658,
      88.6121585875984,
      89.10273322157968,
      82.2730953186516,
      77.50382935531496,
      87.75808163139766,
      98.80913393516238,
      98.55404158464569,
      98.01777036171259,
      104.29662124753938,
      102.12104761318898,
      92.91263802595967,
      93.5498046875,
      107.38228000430615,
      119.83936123585136,
      126.02999661663387,
      126.40962183193892,
      134.2337982898622,
      136.26412939837599,
      132.5075279896654,
      126.66110589936022,
      135.24630136564957,
      144.78369525098424,
      149.5285932886319,
      150.45654873585136,
      158.5577248400591,
      163.20614888348916,
      163.63219349778547
    ],
    "gh-150h": [
      13491.747139517716,
      13493.61137426181,
      13492.797274852363,
      13479.091258612205,
      13462.189376230315,
      13458.137241633858,
      13466.534602608268,
      13473.124723179133,
      13472.008150836615,
      13473.511903297243,
      13470.783310777559,
      13471.243756151574,
      13457.82360359252,
      13456.26393331693,
      13465.599470964567,
      13463.885919045275,
      13466.053795521653,
      13463.73957308071,
      13466.317667322835,
      13455.305394931102,
      13446.550688976378,
      13445.382412647637,
      13440.464505413385,
      13445.286417322835,
      13442.233790600394,
      13442.700049212599,
      13442.124784694883,
      13438.169137549212,
      13419.776605561023,
      13421.53777066929,
      13432.379859744095,
      13441.181194635827,
      13440.64453125,
      13445.535648375984,
      13447.566836860236,
      13439.517655019685,
      13427.568866879921,
      13427.194359005905,
      13440.340120570867,
      13445.562776820867,
      13445.056994340552,
      13451.44140625,
      13451.984375,
      13442.8531003937,
      13432.67470472441,
      13438.98108390748,
      13447.910279281496,
      13455.208876722441
    ],
    "gh-200h": [
      11625.996647391732,
      11631.30668676181,
      11623.597871555117,
      11617.412801427165,
      11606.565606545275,
      11604.890071358268,
      11615.972994586615,
      11624.473609744095,
      11624.033218503937,
      11629.48077632874,
      11629.338951771653,
      11620.488773375984,
      11611.736466535433,
      11612.374446358268,
      11618.258581446851,
      11626.44515871063,
      11624.603807824804,
      11623.819174458662,
      11621.156465305117,
      11621.893885334646,
      11609.931656003937,
      11600.575049212599,
      11604.21139886811,
      11608.958200049212,
      11602.68879183071,
      11598.027251476378,
      11598.792538139764,
      11593.666369340552,
      11581.811546505905,
      11579.011687992126,
      11591.16498523622,
      11593.24640132874,
      11600.178672490158,
      11607.638102854331,
      11605.404312253937,
      11596.169537401574,
      11583.47825418307,
      11584.922613188977,
      11597.88059793307,
      11606.356329970473,
      11603.251660925196,
      11607.841289370079,
      11605.708876722441,
      11599.436546505905,
      11594.640286663385,
      11587.716658464567,
      11601.4624753937,
      11609.652897391732
    ],
    "gh-300h": [
      9048.47527066929,
      9047.260396161417,
      9050.527312992126,
      9044.51393331693,
      9036.62201648622,
      9039.528143454725,
      9050.096026082678,
      9060.903235728347,
      9065.765532726378,
      9072.689837598426,
      9077.995294045275,
      9077.12324680118,
      9071.018116387795,
      9071.653758612205,
      9074.451310285433,
      9080.028697096457,
      9080.808778297243,
      9084.238988681102,
      9084.591473917322,
      9077.378321850394,
      9066.73314468504,
      9059.091904527559,
      9063.312746062991,
      9066.827909694883,
      9067.24172613189,
      9063.46001476378,
      9059.986005167322,
      9053.238035187009,
      9042.470103346457,
      9036.54948941929,
      9040.48176058071,
      9049.771130659448,
      9054.15234375,
      9056.221456692914,
      9056.032972440946,
      9055.19875738189,
      9048.269315944883,
      9050.650282972441,
      9063.211644931102,
      9074.03644808071,
      9075.16621555118,
      9076.941898375984,
      9076.296290600394,
      9072.25406003937,
      9061.49809301181,
      9061.074403297243,
      9061.457277312991,
      9065.687315452757
    ],
    "gh-400h": [
      7117.896007627953,
      7113.144039124016,
      7115.780757874016,
      7111.639763779527,
      7103.563453494095,
      7104.49295644685,
      7113.041123277559,
      7127.407388041339,
      7132.566221702756,
      7136.287493848426,
      7141.15701894685,
      7140.984190452756,
      7134.262395423229,
      7134.078463336614,
      7139.401605561024,
      7141.150990403543,
      7144.637149360236,
      7147.685562253937,
      7149.088275098426,
      7142.810839074803,
      7133.588090551181,
      7131.116418553149,
      7131.387087844489,
      7132.703924704724,
      7134.015409694882,
      7131.014333169292,
      7129.176119586614,
      7125.697250246063,
      7114.5023683562995,
      7111.28546382874,
      7118.686484990158,
      7122.228346456693,
      7125.065452755905,
      7129.9008058562995,
      7131.86764886811,
      7127.89499261811,
      7120.43014886811,
      7122.751660925197,
      7133.682855561024,
      7141.710260826771,
      7145.714628444882,
      7145.534356545276,
      7147.671628937008,
      7144.086583415355,
      7139.975732037402,
      7136.076556348426,
      7142.480099655511,
      7148.991849163386
    ],
    "gh-500h": [
      5521.973394438976,
      5520.174581692913,
      5519.563084399606,
      5515.608544537402,
      5507.01454847441,
      5509.459245816929,
      5520.0191313976375,
      5528.696512057087,
      5531.297244094489,
      5535.329601377953,
      5537.907634104331,
      5537.320681594489,
      5528.246062992126,
      5529.732929379921,
      5534.87109375,
      5540.759104330708,
      5540.049397145669,
      5547.213828740158,
      5546.883827509842,
      5541.812684547244,
      5534.472933070866,
      5535.986281988189,
      5535.368356299212,
      5537.580862450787,
      5538.440606545276,
      5533.5445066437005,
      5536.20297121063,
      5528.964013287402,
      5522.784295029527,
      5520.1697834645665,
      5525.387918307087,
      5531.682148129921,
      5534.627583661418,
      5535.392378198819,
      5537.913385826771,
      5534.404681348426,
      5530.571881151574,
      5531.850393700787,
      5542.973671259842,
      5551.556256151574,
      5549.411355807087,
      5554.153727854331,
      5554.92578125,
      5551.039339320866,
      5545.421690452756,
      5547.188607283464,
      5553.1536048228345,
      5556.755105807087
    ],
    "gh-600h": [
      4152.430988942544,
      4152.545039139395,
      4152.170663908711,
      4146.388135534572,
      4141.202246478223,
      4143.016763041339,
      4149.370624692421,
      4158.132952832801,
      4160.298474409448,
      4163.723127229946,
      4166.509450356792,
      4164.11329470657,
      4156.764300489051,
      4157.721039539247,
      4162.218740388164,
      4169.500413308932,
      4172.333063561146,
      4173.180381474533,
      4175.019121785802,
      4175.181734820989,
      4168.319749246432,
      4169.0278570220225,
      4169.401930441068,
      4173.779927411418,
      4168.308074710876,
      4170.03611935593,
      4169.979257658711,
      4167.133698711245,
      4158.601908526082,
      4157.499640517348,
      4164.9107829416835,
      4167.936492679626,
      4169.432057778667,
      4171.926605945497,
      4175.340009073573,
      4175.792126753198,
      4169.888145146408,
      4171.386734128937,
      4182.424616295521,
      4188.14566160187,
      4188.4100832000495,
      4190.0967681163875,
      4192.037143977608,
      4188.090576171875,
      4183.150000384474,
      4184.929314560777,
      4192.180917814961,
      4198.964613065945
    ],
    "gh-700h": [
      2952.9049427903547,
      2956.2050550565946,
      2953.349915031373,
      2946.1208053949313,
      2941.078201894685,
      2943.479824757013,
      2947.589895653912,
      2953.5629613681103,
      2954.428066944513,
      2957.90461791031,
      2959.9077263779527,
      2961.563982145054,
      2956.964776467151,
      2962.8580985482286,
      2968.4283206969735,
      2972.479913185901,
      2972.620588167446,
      2976.6710406926672,
      2980.1034137395422,
      2979.711777574434,
      2973.911744125246,
      2976.573795829232,
      2975.2508804441436,
      2977.0121089905265,
      2974.9949826218012,
      2974.0270304041587,
      2978.4129898191436,
      2975.32635257751,
      2965.6181640625,
      2967.208711398868,
      2969.9892847256397,
      2974.177886242003,
      2975.3758054718255,
      2976.836029773622,
      2982.199428288017,
      2981.836443082554,
      2976.684800996555,
      2979.2789200910433,
      2990.457946296752,
      2994.8771703524853,
      2993.84243894562,
      2994.74740480438,
      2998.346714290108,
      2997.348146453617,
      2993.0740457369584,
      2996.726806640625,
      3004.258043184055,
      3008.7600020761565
    ],
    "gh-800h": [
      1887.492614265502,
      1891.1289619986464,
      1887.0370959184302,
      1879.3089109405757,
      1872.8074441744586,
      1876.7864942175197,
      1881.2390021376723,
      1888.0038216658463,
      1891.4264579232283,
      1892.9712606114665,
      1897.3439595380169,
      1900.6719788078249,
      1895.555298812746,
      1903.1648083784448,
      1905.1482183501475,
      1907.430508350763,
      1906.923476331816,
      1915.5795360174704,
      1919.3806075449065,
      1918.061123585138,
      1913.3290765717275,
      1917.379867433563,
      1920.062150129183,
      1923.7543829970473,
      1919.1718788447342,
      1918.9900575172244,
      1923.4840328186515,
      1917.7542811115895,
      1912.4175727423722,
      1914.5850955031988,
      1915.971818097933,
      1919.2892701156495,
      1918.6791453924704,
      1920.2178830124262,
      1925.7086556502213,
      1923.1990784171999,
      1919.6705024298722,
      1922.462069774237,
      1931.7398768147145,
      1939.4611066683071,
      1940.6577129213829,
      1940.5466558501475,
      1943.528947004183,
      1942.7043264794538,
      1936.8601785494586,
      1940.2624550166092,
      1948.1835245447835,
      1954.8703094242126
    ],
    "gh-850h": [
      1396.092806117741,
      1401.207411878691,
      1396.6099286417323,
      1389.5746378260335,
      1383.523943082554,
      1387.4869817298227,
      1393.9638864111712,
      1399.9965839536171,
      1401.8096452848179,
      1403.6681936669538,
      1406.2858079324558,
      1407.0663601131891,
      1404.5288162832185,
      1410.6614057886318,
      1415.0003575602855,
      1415.5966931440698,
      1416.140609621063,
      1423.1371589720718,
      1426.9545994555856,
      1427.0837806040845,
      1425.1739915262056,
      1430.0159268116388,
      1432.8544902651329,
      1434.996793491634,
      1429.2284002829724,
      1431.2494559701033,
      1435.8918245570867,
      1429.656647929995,
      1425.2031942052165,
      1428.808318851501,
      1430.5734594149853,
      1433.3695462444634,
      1432.5536359651821,
      1436.3544787309302,
      1441.7204647514764,
      1438.8766320896898,
      1435.9652051550197,
      1439.8969169076033,
      1449.7087613804133,
      1458.0683478407973,
      1457.724686269685,
      1458.4513621893454,
      1461.1277124600147,
      1460.847108375369,
      1456.829330324188,
      1458.5338644192914,
      1466.163068636196,
      1471.3995851531743
    ],
    "gh-900h": [
      928.268585445374,
      933.3510338490404,
      929.1688145915355,
      922.8068174827756,
      918.9797555517963,
      922.8290784940945,
      929.2808578371063,
      929.996674304872,
      930.4967569666585,
      933.3639713797982,
      935.541352039247,
      936.2426719365158,
      933.565841074065,
      939.5589493879183,
      945.1403289554626,
      946.9936465766486,
      945.7565898745079,
      951.8584330401083,
      957.4149852362204,
      958.4157464936023,
      955.7700022299459,
      962.3914881428395,
      964.935302734375,
      965.3262583815206,
      959.7596829632137,
      962.4286974809302,
      968.1190233606053,
      964.0814199372539,
      959.0661198172982,
      962.3243956077756,
      966.8633812130906,
      968.7833396130659,
      968.4933851347195,
      974.148331769808,
      980.563628429503,
      980.6556656003937,
      978.4634942482776,
      982.1534279650591,
      992.2696023775836,
      999.4436477300688,
      996.3806902066929,
      1000.8839101716289,
      1003.7147976131889,
      1002.4483690637303,
      998.9569928026574,
      1004.5254098486713,
      1011.9262791430856,
      1016.7646830401083
    ],
    "gh-925h": [
      699.5258759025514,
      706.3924322653943,
      702.5718370572788,
      698.5812309445358,
      694.6434877650945,
      698.3020983117772,
      703.5624572273315,
      702.5699991541585,
      701.6911696786956,
      705.3880364125168,
      707.2613033985529,
      708.1095076433317,
      705.2982067198266,
      712.7101496899222,
      717.4655742495079,
      718.9289411409634,
      716.6170793668491,
      724.8595454899345,
      728.9448816494679,
      730.2309987225871,
      730.5093970111036,
      735.096844650629,
      739.5234336552658,
      737.3290548249493,
      731.9506128266102,
      736.1825430562177,
      742.8550065408542,
      740.6258554533711,
      734.6024592842643,
      739.5567725474441,
      743.9830819678118,
      743.4206523745079,
      742.5436871145654,
      751.6660526305672,
      757.8703962911771,
      759.5701546255998,
      757.5296408585676,
      762.1545082152359,
      772.352541345311,
      775.6366065318191,
      771.6506196269839,
      778.3715563195897,
      782.0443458857499,
      782.748345923236,
      780.4363290381244,
      785.8745774396762,
      793.3033086821788,
      795.7928476408711
    ],
    "gh-950h": [
      477.4077289010596,
      484.61972394327483,
      482.57409824161084,
      477.2473089263195,
      474.171197485736,
      478.8948538472333,
      483.11623556782877,
      479.7664166548121,
      479.0601698507474,
      480.70679639831303,
      484.0910172349825,
      485.1707693986067,
      483.30146212840646,
      490.14786091001014,
      498.20851976289526,
      495.10713496170644,
      494.84873349647825,
      499.5280915883582,
      506.91964793768454,
      510.26251737339294,
      508.5738664762241,
      512.9551152507152,
      517.241908276175,
      514.1528204970473,
      509.2155708853654,
      516.2203032726377,
      523.1587182518066,
      521.9142143745122,
      516.3668697086845,
      521.2772863192821,
      526.0232481468381,
      522.1437603807824,
      521.3770107373477,
      531.9975662832185,
      541.7497744823065,
      543.2944975124569,
      541.5661549004983,
      548.2412682480699,
      557.144381665808,
      556.8844074639749,
      552.4500609870971,
      559.4745622770054,
      566.1400855357252,
      566.4969739012831,
      565.4772832825428,
      572.1845229742095,
      579.2619040181318,
      580.6224911907526
    ],
    "gh-surface": [
      null,
      null,
      null,
      null,
      null,
      null,
      null,
      null,
      null,
      null,
      null,
      null,
      null,
      null,
      null,
      null,
      null,
      null,
      null,
      null,
      null,
      null,
      null,
      null,
      null,
      null,
      null,
      null,
      null,
      null,
      null,
      null,
      null,
      null,
      null,
      null,
      null,
      null,
      null,
      null,
      null,
      null,
      null,
      null,
      null,
      null,
      null,
      null
    ],
    "rh-1000h": [
      49,
      59.5,
      68,
      78,
      88.5,
      82.5,
      53,
      40,
      42.5,
      52.5,
      65,
      75,
      76,
      74.5,
      67.5,
      62,
      52,
      62,
      66,
      75.5,
      86.5,
      76,
      50.5,
      36.5,
      42,
      59.5,
      64,
      74,
      83,
      77,
      56.5,
      38.5,
      43,
      53.5,
      56,
      57.5,
      65,
      59.5,
      46.5,
      41,
      37,
      48,
      53.5,
      57.5,
      65,
      68,
      72.5,
      69.5
    ],
    "rh-150h": [
      1.5,
      2.5,
      2,
      2,
      1.5,
      2,
      1.5,
      2.5,
      2.5,
      3,
      2,
      2.5,
      2.5,
      2.5,
      2,
      2.5,
      2.5,
      2.5,
      2,
      2,
      2.5,
      2,
      2,
      2.5,
      2.5,
      2,
      2,
      2.5,
      1.5,
      2.5,
      2,
      2.5,
      2.5,
      2,
      2,
      2.5,
      2.5,
      2.5,
      1.5,
      2.5,
      2,
      2.5,
      2.5,
      2.5,
      2.5,
      1.5,
      2.5,
      2.5
    ],
    "rh-200h": [
      9.5,
      9.5,
      11,
      11,
      13,
      12,
      12.5,
      10.5,
      16,
      19,
      21.5,
      25.5,
      23.5,
      23.5,
      24.5,
      23.5,
      21.5,
      19.5,
      16.5,
      18,
      22,
      20,
      16.5,
      18,
      15.5,
      13,
      10.5,
      10.5,
      19,
      16.5,
      22,
      22.5,
      20.5,
      22,
      20,
      17.5,
      18,
      16,
      18,
      19,
      24.5,
      22.5,
      16.5,
      17.5,
      17.5,
      15.5,
      13,
      13.5
    ],
    "rh-300h": [
      35.5,
      38,
      54,
      35.5,
      34,
      29,
      48,
      69.5,
      77,
      71.5,
      97,
      95,
      90.5,
      92,
      96.5,
      88.5,
      81,
      86,
      100,
      98.75,
      95.5,
      100,
      100,
      99.5,
      70.5,
      80,
      93,
      91.5,
      95.5,
      100,
      99,
      100,
      100,
      97.25,
      87.5,
      84.5,
      81.5,
      76.5,
      90.5,
      95,
      88.5,
      99.5,
      100,
      100,
      99,
      84.5,
      84.5,
      100
    ],
    "rh-400h": [
      23.5,
      18.5,
      21.5,
      17.5,
      16,
      15,
      39,
      60.5,
      77,
      61,
      100,
      69,
      67.5,
      83,
      90,
      82,
      50,
      66,
      66.5,
      67,
      68,
      90,
      65.5,
      70,
      90,
      89.5,
      98,
      88,
      95.5,
      91.5,
      89,
      97.25,
      99,
      65.5,
      80.5,
      69.5,
      65,
      59.5,
      60.5,
      67,
      50.5,
      58.5,
      50.5,
      50.5,
      86,
      100,
      100,
      100
    ],
    "rh-500h": [
      32,
      18.5,
      21,
      22.5,
      21,
      14,
      27,
      57.5,
      85.5,
      82,
      68.5,
      50,
      43.5,
      65,
      76,
      72.5,
      68.5,
      74.5,
      68,
      91.5,
      91.5,
      81.5,
      87.5,
      75.5,
      62,
      58.5,
      75.5,
      79.5,
      56.5,
      49,
      52.5,
      56,
      66.5,
      65.5,
      70,
      76.5,
      87.5,
      90,
      90,
      72,
      66.5,
      74,
      58.5,
      69,
      89.5,
      98.5,
      97,
      95
    ],
    "rh-600h": [
      55.5,
      57.5,
      38.5,
      34.5,
      37.5,
      39.5,
      43.5,
      41.5,
      42,
      45,
      41,
      42.5,
      37.5,
      37.5,
      70,
      90,
      88.5,
      76.5,
      73,
      79,
      76.5,
      84.5,
      90.5,
      93,
      76.5,
      78,
      72.5,
      76,
      61.5,
      63.5,
      64,
      61,
      58.5,
      56,
      57.5,
      56,
      55.5,
      57.5,
      56,
      49,
      42,
      39.5,
      40,
      41.5,
      45,
      65.5,
      90,
      89.5
    ],
    "rh-700h": [
      64,
      65.5,
      55.5,
      48.5,
      45.5,
      46,
      41.5,
      27.5,
      34,
      35,
      29,
      40.5,
      64,
      88.5,
      92.5,
      85.5,
      92,
      96,
      96.5,
      91,
      89.5,
      78.5,
      66,
      51,
      52,
      51,
      51.5,
      48,
      25.5,
      27.5,
      27,
      28,
      30,
      27.5,
      24,
      18,
      9,
      5,
      4.5,
      4,
      4,
      4.5,
      5.5,
      15,
      49.5,
      65,
      90.5,
      96.5
    ],
    "rh-800h": [
      91,
      74,
      67.5,
      62.5,
      65,
      65,
      57.5,
      96.5,
      94.5,
      80,
      82,
      87.5,
      87.5,
      95,
      92.5,
      92,
      96,
      96,
      90.5,
      86,
      90,
      85.5,
      71,
      84.5,
      77.5,
      82.5,
      87.5,
      85.5,
      87,
      89.5,
      78,
      93,
      91.5,
      68,
      21,
      26.5,
      32.5,
      32.5,
      57,
      83.5,
      90.5,
      70,
      83.5,
      82,
      75,
      90,
      98,
      96.5
    ],
    "rh-850h": [
      86,
      85.5,
      72.5,
      85.5,
      84,
      72.5,
      78,
      69,
      70.5,
      71,
      70.5,
      69,
      77.5,
      79.5,
      75.5,
      77.5,
      80,
      77,
      80,
      81,
      79,
      73,
      63,
      67,
      66,
      69.5,
      75.5,
      76.5,
      77.5,
      78.5,
      77,
      70.5,
      71.5,
      72.5,
      75.5,
      81.5,
      83.5,
      73,
      80,
      79,
      69,
      81.5,
      80,
      73,
      77,
      95,
      96.5,
      98
    ],
    "rh-900h": [
      69.5,
      67.5,
      65.5,
      63.5,
      63,
      70.5,
      75,
      56.5,
      58.5,
      56,
      55,
      57.5,
      60,
      67,
      72,
      69,
      68.5,
      59.5,
      67,
      68.5,
      56.5,
      55.5,
      61,
      52,
      58,
      67,
      67.5,
      66.5,
      71.5,
      71.5,
      69,
      56,
      60,
      69,
      63.5,
      66,
      66.5,
      66.5,
      68.5,
      61.5,
      53.5,
      65.5,
      66,
      69.5,
      72,
      95,
      98.5,
      98.5
    ],
    "rh-925h": [
      61.5,
      60,
      59.5,
      61,
      66,
      69,
      67,
      50,
      52,
      50.5,
      53,
      53,
      56.5,
      64,
      75.5,
      78,
      65,
      51.5,
      63,
      67.5,
      59,
      53,
      64,
      47,
      51.5,
      66.5,
      66,
      67.5,
      74.5,
      74,
      75,
      49.5,
      54.5,
      62.5,
      57.5,
      60.5,
      64,
      64.5,
      62.5,
      55,
      47,
      58,
      60.5,
      64.5,
      69.5,
      87.5,
      96,
      91.5
    ],
    "rh-950h": [
      54.5,
      55,
      58.5,
      62,
      72,
      78.5,
      60,
      44.5,
      46.5,
      47,
      57.5,
      65,
      67,
      66,
      75.5,
      70,
      58,
      53,
      66.5,
      70.5,
      61.5,
      57.5,
      57,
      41,
      46.5,
      63,
      66,
      70.5,
      77,
      82,
      66.5,
      44,
      48.5,
      56.5,
      55.5,
      58,
      64.5,
      65,
      55,
      48.5,
      42,
      52,
      56,
      61,
      66,
      76.5,
      86,
      81.5
    ],
    "rh-surface": [
      47.696374286450606,
      62.13339241109963,
      72.46777934810515,
      85.43183941129587,
      92.22571419609669,
      79.24361407860215,
      51.70202622149592,
      39.71643616439866,
      42.18425410611059,
      58.04783376242726,
      67.6975640483218,
      75.49949424460252,
      79.39132132009968,
      74.71400043911896,
      66.72095597537266,
      62.83165245566351,
      51.343752907206486,
      64.56393013029998,
      69.06052120003011,
      78.86477898153379,
      93.3522259387568,
      73.67792063892705,
      47.77892120907848,
      36.85915403814141,
      41.006516906776696,
      60.721594560123016,
      64.22286450950817,
      76.14420255965518,
      85.31151060753021,
      75.5197090492369,
      54.99448201968531,
      38.1607886333912,
      42.82382675939819,
      55.05755021266749,
      58.40571836472092,
      58.991987991592275,
      66.01471733154574,
      59.254576457351725,
      45.582004387006215,
      39.545073135597335,
      36.48072462188258,
      48.65178543356225,
      54.79066140298482,
      58.65683030529385,
      65.38293101937174,
      67.64843596616161,
      69.41078748384662,
      68.65400465880627
    ],
    "temp-1000h": [
      289.15,
      288.15,
      285.15,
      284.15,
      282.15,
      281.15,
      286.15,
      289.15,
      290.15,
      289.15,
      287.15,
      285.15,
      284.65,
      284.15,
      285.15,
      287.65,
      289.15,
      288.15,
      287.65,
      286.65,
      285.65,
      283.65,
      287.15,
      289.15,
      289.15,
      286.15,
      284.15,
      282.15,
      280.15,
      279.15,
      283.65,
      287.15,
      286.65,
      284.15,
      281.15,
      279.15,
      277.44999999999993,
      276.65,
      280.15,
      284.15,
      285.15,
      283.15,
      281.15,
      279.15,
      277.29999999999995,
      276.34999999999997,
      277.79999999999995,
      279.65
    ],
    "temp-150h": [
      221.14999999999998,
      222.14999999999998,
      222.14999999999998,
      221.14999999999998,
      221.14999999999998,
      221.14999999999998,
      222.14999999999998,
      221.14999999999998,
      221.14999999999998,
      221.14999999999998,
      221.14999999999998,
      221.14999999999998,
      221.14999999999998,
      220.14999999999998,
      221.14999999999998,
      221.14999999999998,
      221.14999999999998,
      221.14999999999998,
      221.14999999999998,
      221.14999999999998,
      221.14999999999998,
      221.14999999999998,
      221.14999999999998,
      221.14999999999998,
      220.14999999999998,
      221.14999999999998,
      221.14999999999998,
      221.14999999999998,
      221.14999999999998,
      221.14999999999998,
      221.14999999999998,
      220.14999999999998,
      220.14999999999998,
      221.14999999999998,
      221.14999999999998,
      220.14999999999998,
      220.14999999999998,
      220.14999999999998,
      221.14999999999998,
      220.14999999999998,
      220.14999999999998,
      221.14999999999998,
      221.14999999999998,
      220.14999999999998,
      220.64999999999998,
      221.14999999999998,
      220.14999999999998,
      220.64999999999998
    ],
    "temp-200h": [
      219.14999999999998,
      218.64999999999998,
      218.14999999999998,
      218.14999999999998,
      217.14999999999998,
      217.14999999999998,
      217.14999999999998,
      216.14999999999998,
      215.14999999999998,
      215.14999999999998,
      215.14999999999998,
      215.14999999999998,
      215.14999999999998,
      214.64999999999998,
      214.14999999999998,
      214.14999999999998,
      214.14999999999998,
      213.64999999999998,
      214.14999999999998,
      214.14999999999998,
      214.14999999999998,
      214.14999999999998,
      215.14999999999998,
      215.14999999999998,
      215.14999999999998,
      215.14999999999998,
      216.14999999999998,
      217.14999999999998,
      215.14999999999998,
      216.14999999999998,
      215.14999999999998,
      214.64999999999998,
      215.14999999999998,
      215.14999999999998,
      215.14999999999998,
      216.14999999999998,
      215.14999999999998,
      216.14999999999998,
      215.14999999999998,
      214.64999999999998,
      214.14999999999998,
      214.14999999999998,
      215.14999999999998,
      215.14999999999998,
      215.14999999999998,
      215.64999999999998,
      217.14999999999998,
      216.14999999999998
    ],
    "temp-300h": [
      222.14999999999998,
      222.14999999999998,
      222.14999999999998,
      222.14999999999998,
      222.14999999999998,
      222.14999999999998,
      222.14999999999998,
      221.14999999999998,
      221.14999999999998,
      222.14999999999998,
      222.14999999999998,
      221.14999999999998,
      221.14999999999998,
      221.14999999999998,
      221.14999999999998,
      221.14999999999998,
      221.14999999999998,
      221.14999999999998,
      221.14999999999998,
      221.14999999999998,
      221.14999999999998,
      221.14999999999998,
      221.14999999999998,
      221.14999999999998,
      221.14999999999998,
      221.14999999999998,
      220.14999999999998,
      220.14999999999998,
      220.14999999999998,
      220.14999999999998,
      220.14999999999998,
      220.14999999999998,
      220.64999999999998,
      221.14999999999998,
      221.14999999999998,
      221.14999999999998,
      221.14999999999998,
      220.14999999999998,
      220.14999999999998,
      220.14999999999998,
      221.14999999999998,
      221.14999999999998,
      221.14999999999998,
      220.14999999999998,
      220.14999999999998,
      219.64999999999998,
      220.14999999999998,
      219.14999999999998
    ],
    "temp-400h": [
      237.14999999999998,
      238.14999999999998,
      238.14999999999998,
      238.14999999999998,
      238.14999999999998,
      238.14999999999998,
      238.14999999999998,
      238.14999999999998,
      238.14999999999998,
      239.14999999999998,
      239.14999999999998,
      239.14999999999998,
      239.14999999999998,
      239.14999999999998,
      239.14999999999998,
      238.14999999999998,
      239.14999999999998,
      238.14999999999998,
      238.14999999999998,
      238.14999999999998,
      238.14999999999998,
      238.14999999999998,
      238.14999999999998,
      238.14999999999998,
      238.14999999999998,
      238.14999999999998,
      237.14999999999998,
      237.14999999999998,
      237.14999999999998,
      237.14999999999998,
      237.14999999999998,
      237.14999999999998,
      238.14999999999998,
      237.64999999999998,
      237.14999999999998,
      237.14999999999998,
      237.14999999999998,
      237.14999999999998,
      237.14999999999998,
      237.14999999999998,
      238.14999999999998,
      237.14999999999998,
      237.14999999999998,
      238.14999999999998,
      238.14999999999998,
      237.14999999999998,
      237.14999999999998,
      236.64999999999998
    ],
    "temp-500h": [
      251.14999999999998,
      251.14999999999998,
      251.14999999999998,
      251.14999999999998,
      250.64999999999998,
      251.14999999999998,
      251.14999999999998,
      251.14999999999998,
      251.14999999999998,
      251.14999999999998,
      251.64999999999998,
      252.14999999999998,
      252.14999999999998,
      252.14999999999998,
      252.14999999999998,
      252.14999999999998,
      252.14999999999998,
      251.64999999999998,
      251.14999999999998,
      251.14999999999998,
      251.14999999999998,
      251.14999999999998,
      250.14999999999998,
      250.64999999999998,
      251.14999999999998,
      250.14999999999998,
      250.14999999999998,
      250.14999999999998,
      250.14999999999998,
      250.14999999999998,
      250.14999999999998,
      250.14999999999998,
      250.14999999999998,
      250.14999999999998,
      250.14999999999998,
      249.64999999999998,
      249.14999999999998,
      249.14999999999998,
      250.14999999999998,
      250.14999999999998,
      250.14999999999998,
      250.14999999999998,
      250.64999999999998,
      250.14999999999998,
      250.14999999999998,
      250.14999999999998,
      250.14999999999998,
      250.14999999999998
    ],
    "temp-600h": [
      261.15,
      261.15,
      261.15,
      261.15,
      261.15,
      261.15,
      261.15,
      262.15,
      262.65,
      263.15,
      262.15,
      262.15,
      262.15,
      261.15,
      261.15,
      261.15,
      261.15,
      261.15,
      261.15,
      261.15,
      261.15,
      260.15,
      260.15,
      260.15,
      261.15,
      260.15,
      260.15,
      260.15,
      260.15,
      260.15,
      260.15,
      260.15,
      260.15,
      260.15,
      260.15,
      260.15,
      260.15,
      260.15,
      260.15,
      260.15,
      260.15,
      260.15,
      260.15,
      260.15,
      259.65,
      259.15,
      259.15,
      259.15
    ],
    "temp-700h": [
      268.99999999999994,
      268.79999999999995,
      269.44999999999993,
      269.79999999999995,
      269.65,
      269.79999999999995,
      270.49999999999994,
      271.29999999999995,
      271.19999999999993,
      271.09999999999997,
      270.54999999999995,
      269.44999999999993,
      268.9,
      268.19999999999993,
      268.44999999999993,
      268.9,
      268.49999999999994,
      268.15,
      267.15,
      267.65,
      267.65,
      267.15,
      268.15,
      268.54999999999995,
      268.54999999999995,
      268.15,
      268.15,
      268.25,
      267.15,
      267.15,
      268.15,
      268.34999999999997,
      268.9,
      268.5,
      268.4,
      268.44999999999993,
      268.24999999999994,
      268.15,
      268.15,
      268.4,
      268.4,
      268.34999999999997,
      268.34999999999997,
      268.3499999999999,
      267.65,
      267.15,
      267.15,
      267.15
    ],
    "temp-800h": [
      274.04999999999995,
      274.3499999999999,
      274.84999999999997,
      275.24999999999994,
      274.69999999999993,
      274.44999999999993,
      274.15,
      272.29999999999995,
      273.09999999999997,
      273.69999999999993,
      274.44999999999993,
      274.74999999999994,
      274.75,
      274.34999999999997,
      273.94999999999993,
      274.79999999999995,
      275,
      274.34999999999997,
      274.4,
      274.09999999999997,
      273.34999999999997,
      272.84999999999997,
      272.54999999999995,
      272.59999999999997,
      273.19999999999993,
      273.09999999999997,
      272.65,
      272.49999999999994,
      271.94999999999993,
      270.99999999999994,
      271.19999999999993,
      270.49999999999994,
      270.49999999999994,
      271.19999999999993,
      271.9,
      271.94999999999993,
      271.04999999999995,
      270.69999999999993,
      270.04999999999995,
      269.49999999999994,
      268.75,
      269.65,
      269.44999999999993,
      269.24999999999994,
      269.94999999999993,
      270.84999999999997,
      270.9,
      270.9
    ],
    "temp-850h": [
      277.4,
      276.69999999999993,
      276.54999999999995,
      275.79999999999995,
      275.19999999999993,
      275.44999999999993,
      275.04999999999995,
      277.44999999999993,
      278.04999999999995,
      278.04999999999995,
      278.15,
      279.15,
      279.15,
      278.15,
      278.15,
      278.15,
      278.15,
      278.15,
      278.15,
      277.74999999999994,
      277.4,
      277.04999999999995,
      276.9,
      277.19999999999993,
      277.65,
      277.25,
      276.5999999999999,
      276.15,
      275.65,
      275.09999999999997,
      274.69999999999993,
      275.25,
      275.09999999999997,
      274.19999999999993,
      272.94999999999993,
      272.65,
      272.15,
      271.8499999999999,
      272.29999999999995,
      272.09999999999997,
      273.3499999999999,
      271.94999999999993,
      272.15,
      272.79999999999995,
      271.8499999999999,
      271.04999999999995,
      271.44999999999993,
      271.65
    ],
    "temp-900h": [
      281.65,
      281.15,
      280.15,
      279.15,
      279.15,
      278.15,
      278.65,
      281.65,
      282.15,
      282.15,
      282.65,
      282.65,
      282.15,
      282.15,
      281.15,
      282.15,
      282.15,
      282.65,
      282.15,
      281.15,
      281.15,
      281.15,
      280.15,
      282.15,
      281.65,
      280.15,
      279.65,
      279.15,
      278.15,
      278.15,
      277.9,
      279.15,
      279.15,
      277.24999999999994,
      275.75,
      275.34999999999997,
      275.04999999999995,
      274.5,
      273.3499999999999,
      276.34999999999997,
      277.8499999999999,
      276.04999999999995,
      274.5999999999999,
      273.94999999999993,
      272.9,
      272.15,
      271.79999999999995,
      272.3499999999999
    ],
    "temp-925h": [
      284.15,
      283.15,
      282.15,
      281.15,
      280.65,
      280.15,
      281.15,
      284.15,
      284.15,
      284.65,
      284.15,
      284.15,
      283.65,
      283.15,
      282.15,
      282.65,
      284.15,
      285.15,
      284.15,
      282.65,
      283.15,
      282.15,
      281.15,
      284.15,
      283.65,
      281.15,
      280.15,
      279.65,
      278.65,
      278.09999999999997,
      278.04999999999995,
      282.15,
      281.15,
      279.15,
      277.19999999999993,
      275.5999999999999,
      274.75,
      273.69999999999993,
      274.99999999999994,
      278.15,
      280.15,
      278.15,
      276.44999999999993,
      275.04999999999995,
      273.49999999999994,
      272.25,
      272.54999999999995,
      274.15
    ],
    "temp-950h": [
      286.15,
      285.15,
      283.15,
      282.15,
      280.65,
      279.65,
      283.15,
      286.15,
      287.15,
      286.15,
      284.65,
      283.15,
      282.15,
      282.15,
      282.15,
      285.15,
      286.15,
      286.15,
      285.15,
      284.15,
      283.15,
      282.65,
      284.15,
      286.15,
      286.15,
      283.15,
      281.15,
      280.15,
      278.15,
      277.09999999999997,
      280.15,
      284.15,
      283.65,
      281.15,
      278.65,
      276.59999999999997,
      274.79999999999995,
      273.75,
      277.15,
      281.15,
      282.15,
      280.15,
      278.15,
      276.04999999999995,
      274.79999999999995,
      273.69999999999993,
      274.49999999999994,
      276.24999999999994
    ],
    "temp-surface": [
      289.15,
      284.65,
      281.15,
      278.65,
      277.4,
      280.15,
      286.65,
      289.15,
      289.15,
      285.15,
      283.15,
      282.15,
      281.15,
      282.15,
      285.15,
      287.65,
      288.65,
      285.65,
      285.15,
      283.15,
      280.15,
      282.15,
      287.65,
      289.65,
      289.15,
      284.15,
      282.15,
      279.65,
      277.54999999999995,
      279.15,
      284.15,
      287.65,
      286.65,
      282.15,
      279.15,
      277.19999999999993,
      275.44999999999993,
      276.5,
      281.15,
      285.15,
      285.65,
      282.15,
      279.65,
      277.59999999999997,
      275.9,
      276.09999999999997,
      278.5,
      279.65
    ],
    "wind_u-1000h": [
      -3,
      -2.75,
      -1.5,
      -1,
      -1.5,
      -1.5,
      -4,
      -4.75,
      -3.25,
      -2.25,
      -2.5,
      -2.25,
      -1.75,
      -0.5,
      -1,
      -2.25,
      -2.5,
      -1.5,
      0.75,
      -0.25,
      0,
      -0.25,
      -2.5,
      -2.75,
      -2.75,
      -3,
      -2.5,
      -2.25,
      -1.75,
      -2,
      -3,
      -3.5,
      -4.5,
      -3.75,
      -3.25,
      -2.5,
      -1.5,
      -2,
      -3.75,
      -4.25,
      -4.5,
      -3.75,
      -3,
      -1.75,
      -0.75,
      -0.5,
      -3,
      -3.5
    ],
    "wind_u-150h": [
      6.5,
      4.5,
      2.75,
      2.5,
      2.5,
      1.5,
      0.75,
      2,
      2,
      1.25,
      0,
      2,
      3.5,
      1,
      0,
      2.5,
      4,
      3.5,
      2,
      3.5,
      5,
      4.5,
      4,
      5.5,
      6,
      5.5,
      6.5,
      5.5,
      5.5,
      6.5,
      6.5,
      5,
      6,
      5.5,
      5,
      4.5,
      4.75,
      5,
      4,
      4,
      4,
      4.25,
      4,
      3.5,
      2.75,
      3.25,
      4,
      4
    ],
    "wind_u-200h": [
      4.5,
      5,
      3,
      3,
      5,
      3.25,
      0.75,
      2,
      3.5,
      1.75,
      0.25,
      0.5,
      1,
      1.5,
      1.75,
      1.75,
      2,
      2.25,
      2.5,
      3.25,
      4.75,
      4.25,
      5,
      5.25,
      6.25,
      7.5,
      5.5,
      6.5,
      7.25,
      5.5,
      5.75,
      7.5,
      5.25,
      4.25,
      3,
      3.75,
      4.75,
      3.75,
      2.75,
      3.5,
      3.75,
      3,
      2.25,
      1.75,
      1.75,
      1.75,
      -0.25,
      1.5
    ],
    "wind_u-300h": [
      1.5,
      2,
      1.75,
      3.25,
      4.5,
      7.5,
      6.25,
      6.25,
      3.25,
      8.25,
      5.75,
      3,
      1.25,
      1.75,
      1.25,
      -1.5,
      0.5,
      1.5,
      2.5,
      2.5,
      2.75,
      2.25,
      2.75,
      4.75,
      8.25,
      7,
      4,
      3.5,
      4.75,
      3.5,
      3.75,
      5.25,
      6.25,
      5,
      6.25,
      9,
      8.25,
      6.75,
      7.5,
      6.75,
      6,
      5.5,
      3,
      -0.25,
      -1.75,
      -2.5,
      -1.5,
      -4.25
    ],
    "wind_u-400h": [
      1,
      2.75,
      1.25,
      2.75,
      3.75,
      4,
      5,
      5.5,
      5.75,
      5.25,
      3.25,
      2.75,
      -0.75,
      -2.25,
      4.75,
      1.5,
      1,
      0.5,
      -0.25,
      -0.25,
      2,
      3,
      3.25,
      3,
      5.5,
      6.75,
      5.25,
      4.75,
      2.5,
      0.5,
      -0.5,
      -0.25,
      2,
      2.5,
      1.75,
      2.25,
      4.75,
      5,
      4.75,
      4.75,
      5,
      1.5,
      -1.25,
      -1.75,
      -1.5,
      -1,
      -2.5,
      -3.5
    ],
    "wind_u-500h": [
      0.75,
      1.25,
      0.25,
      0.25,
      1.75,
      2.5,
      4.25,
      3.75,
      2.25,
      0,
      -1.75,
      -2.5,
      -3,
      -1,
      5.25,
      3,
      0.25,
      -0.5,
      1.5,
      5,
      4.75,
      1.75,
      1,
      2.5,
      4.25,
      4.5,
      2.75,
      3,
      2,
      1.5,
      1.25,
      0.25,
      -0.25,
      -1.25,
      -2.25,
      -1.5,
      -1,
      -1,
      0,
      1,
      0.25,
      -2.75,
      -2,
      -2.75,
      -2.25,
      -3,
      -2.25,
      -3
    ],
    "wind_u-600h": [
      -0.25,
      -2,
      0.5,
      0,
      -0.25,
      0.25,
      -0.25,
      -0.5,
      1,
      -2,
      -2.5,
      -4.25,
      -3.75,
      -4.25,
      1.25,
      3.75,
      2.5,
      1.75,
      2,
      2.75,
      2.75,
      4,
      4.25,
      3.75,
      3.75,
      3.5,
      2.25,
      1.5,
      2.75,
      0.25,
      -0.75,
      -0.5,
      -0.5,
      -1.25,
      -1.75,
      -2,
      -2,
      -3,
      -3.75,
      -3.75,
      -4.75,
      -4.75,
      -6.25,
      -6.25,
      -6.5,
      -6.5,
      -6,
      -2.5
    ],
    "wind_u-700h": [
      -7,
      -6.75,
      -5,
      -4.75,
      -5.75,
      -7.5,
      -6.75,
      -3.75,
      -3.25,
      -3.25,
      -1,
      -1,
      0.5,
      -1.5,
      0.75,
      1.25,
      1,
      0.75,
      0.5,
      1.75,
      2.75,
      3,
      3,
      2,
      1.75,
      0.5,
      0.25,
      1.5,
      -2,
      -3.75,
      -1.75,
      -1.25,
      -3,
      -3,
      -2.5,
      -3,
      -4.75,
      -5.25,
      -6.5,
      -6,
      -6.75,
      -7.5,
      -7.75,
      -7.75,
      -6,
      -7.5,
      -6,
      -3.5
    ],
    "wind_u-800h": [
      -7.75,
      -8.25,
      -10.5,
      -10.25,
      -8.25,
      -8.25,
      -9.75,
      -6.75,
      -8.25,
      -9.75,
      -4.25,
      -1.25,
      -2.5,
      -4,
      -5.25,
      -2,
      -1,
      -2.5,
      -3.5,
      -3,
      -3.25,
      -3.5,
      -4.5,
      -3.25,
      -4.25,
      -0.75,
      -0.25,
      0.25,
      -2.25,
      -1.75,
      -1.75,
      -3.5,
      -2,
      -3.75,
      -5.25,
      -5.5,
      -6.25,
      -6.5,
      -6,
      -4.5,
      -5.25,
      -5.5,
      -5.5,
      -4.25,
      -6.25,
      -8.75,
      -8,
      -5.25
    ],
    "wind_u-850h": [
      -6.75,
      -6.25,
      -9.25,
      -9.5,
      -8.5,
      -8.25,
      -7.5,
      -7.5,
      -8,
      -7,
      -7,
      -3.5,
      -2.75,
      -3.75,
      -6,
      -4.75,
      -3,
      -3.75,
      -4,
      -2.75,
      -4.5,
      -4.25,
      -4.5,
      -4,
      -5.25,
      -3.5,
      -3.25,
      -2,
      -2.5,
      -2.5,
      -4.25,
      -4.5,
      -3.5,
      -4.5,
      -4.5,
      -4.75,
      -4.75,
      -5.5,
      -7.25,
      -6.25,
      -6.25,
      -8.5,
      -8.5,
      -5.5,
      -5,
      -9.5,
      -8.75,
      -6.5
    ],
    "wind_u-900h": [
      -5.25,
      -6.5,
      -7,
      -4.5,
      -6.25,
      -7.25,
      -6.5,
      -7.75,
      -6.5,
      -5.75,
      -8.25,
      -6.75,
      -5.25,
      -3.5,
      -4.25,
      -5,
      -3.75,
      -4.5,
      -5,
      -3.5,
      -5,
      -5.25,
      -5.25,
      -4,
      -5,
      -8.75,
      -8,
      -6,
      -4.5,
      -4.5,
      -6.5,
      -5,
      -6.25,
      -8.75,
      -11.75,
      -9.75,
      -8,
      -7.5,
      -7.25,
      -6.5,
      -6.5,
      -10.25,
      -12,
      -8.5,
      -7.5,
      -9.75,
      -9,
      -6
    ],
    "wind_u-925h": [
      -4.75,
      -6.75,
      -5.5,
      -3.75,
      -5.75,
      -6.75,
      -6.25,
      -7.5,
      -5.75,
      -6,
      -9,
      -8.25,
      -6.75,
      -4,
      -2.5,
      -3.25,
      -3.5,
      -4.75,
      -4.5,
      -3.25,
      -3.25,
      -5.25,
      -4,
      -4,
      -4.75,
      -10,
      -10.5,
      -8,
      -6.25,
      -6.25,
      -5.5,
      -5.25,
      -6.75,
      -10.5,
      -12.75,
      -11.5,
      -9.75,
      -9.5,
      -5.75,
      -6.5,
      -6.5,
      -10.25,
      -11,
      -9.75,
      -8.75,
      -8.25,
      -5.5,
      -5.5
    ],
    "wind_u-950h": [
      -4.25,
      -6.75,
      -4.25,
      -3.5,
      -4.5,
      -5.75,
      -5.75,
      -7,
      -5.25,
      -5.25,
      -8.25,
      -7.5,
      -5.5,
      -3,
      -1.25,
      -2.75,
      -3.5,
      -4.25,
      -2.25,
      -2.25,
      -2.5,
      -3.5,
      -3.5,
      -3.75,
      -4.5,
      -8.25,
      -8.75,
      -8,
      -7,
      -6.25,
      -5,
      -5,
      -6.75,
      -9.5,
      -10.25,
      -9.25,
      -7.75,
      -7,
      -5.25,
      -6.25,
      -6.75,
      -9.75,
      -9,
      -8,
      -6.25,
      -5.5,
      -4.75,
      -5.5
    ],
    "wind_u-surface": [
      -3,
      -2.75,
      -1.5,
      -1.5,
      -1.5,
      -2,
      -4.25,
      -5,
      -3.75,
      -1.75,
      -2.5,
      -2.5,
      -1.75,
      -0.75,
      -1,
      -2.25,
      -2.5,
      -1,
      0.5,
      -0.5,
      -0.25,
      -0.5,
      -2.5,
      -3,
      -2.75,
      -3.5,
      -3,
      -2.5,
      -1.75,
      -2.5,
      -3.5,
      -3.75,
      -4.5,
      -4.25,
      -3.75,
      -3,
      -2,
      -2.5,
      -3.75,
      -4.5,
      -4.75,
      -4.25,
      -3.25,
      -2.25,
      -1,
      -1,
      -3,
      -3.75
    ],
    "wind_v-1000h": [
      1.25,
      0.75,
      2,
      1.5,
      -0.5,
      -0.25,
      0.25,
      0.25,
      1.75,
      -0.5,
      -0.25,
      -1,
      -0.5,
      0.25,
      0,
      0.25,
      -1,
      1,
      0,
      -1.25,
      -1.75,
      -1,
      -0.75,
      -0.5,
      -3.75,
      -1.75,
      -1.25,
      -1,
      -1.25,
      -1.25,
      -1.75,
      -1.5,
      -1.25,
      -1.5,
      -2,
      -2,
      -2,
      -2,
      -2.25,
      -2.25,
      -1.75,
      -1.25,
      -2.5,
      -2.5,
      -2.5,
      -2.5,
      -2.5,
      -2.5
    ],
    "wind_v-150h": [
      5.75,
      5.25,
      6.25,
      6.5,
      5.5,
      5,
      5.75,
      7,
      4.5,
      4.25,
      4,
      4.5,
      2.5,
      0.75,
      3.5,
      4,
      2.75,
      0.5,
      2,
      2.5,
      1.5,
      1.5,
      2,
      3.75,
      1.75,
      1.5,
      2,
      1,
      2,
      2.5,
      1,
      3.75,
      3,
      2,
      2,
      2.5,
      3,
      2.5,
      1.5,
      2,
      2.5,
      1.75,
      1,
      1,
      -0.5,
      1,
      -0.25,
      -0.75
    ],
    "wind_v-200h": [
      1,
      2,
      0.5,
      4.5,
      5.25,
      2.25,
      3,
      5.5,
      5.75,
      3.75,
      5.5,
      6,
      5,
      5.25,
      4.75,
      4,
      4.5,
      4,
      4.25,
      4.5,
      4,
      3.5,
      4.75,
      4.5,
      5.25,
      3.5,
      3,
      4.5,
      2,
      3,
      4.25,
      3,
      3.5,
      4,
      4.75,
      5,
      3.75,
      2.5,
      3.5,
      3,
      2.5,
      2.25,
      1.25,
      2,
      1,
      -1.5,
      0.25,
      0.5
    ],
    "wind_v-300h": [
      -3.5,
      -3,
      -1.75,
      -0.75,
      0.5,
      2.25,
      2.5,
      6,
      5.5,
      5,
      4.25,
      3.5,
      8.75,
      6.5,
      1.75,
      2.5,
      4.5,
      4,
      3,
      1.75,
      2.5,
      4,
      3.5,
      5,
      4.75,
      3.5,
      3.75,
      5.5,
      6.5,
      7,
      7.25,
      8,
      8.75,
      7,
      6.25,
      5.25,
      4,
      5.5,
      7.5,
      10,
      11.25,
      8.75,
      4.25,
      1.5,
      0.5,
      0.25,
      4,
      2
    ],
    "wind_v-400h": [
      -0.5,
      -3.5,
      -2.75,
      -0.5,
      0.75,
      1.75,
      3.5,
      6,
      7,
      4,
      4.75,
      4,
      1.75,
      2.25,
      5.5,
      4.5,
      4.25,
      0.75,
      0,
      1.25,
      2,
      2.75,
      4.75,
      6,
      5.25,
      3.75,
      3.25,
      2.5,
      1.5,
      1.5,
      1.25,
      3.5,
      5,
      3.25,
      2.5,
      2.75,
      3,
      2.75,
      3,
      2.75,
      -0.25,
      -2.5,
      1,
      2.75,
      3.25,
      1.75,
      3,
      3.5
    ],
    "wind_v-500h": [
      -0.25,
      -1.75,
      -2.25,
      0.25,
      1,
      2,
      4.25,
      4.5,
      4.75,
      4.5,
      6.25,
      6,
      6,
      1.5,
      0.5,
      0,
      1.25,
      2.25,
      3,
      2,
      0,
      1,
      3,
      4,
      3,
      2.25,
      1.5,
      2.5,
      2.75,
      1.75,
      2,
      2.5,
      2.25,
      2,
      1.5,
      2.25,
      1.5,
      1,
      2,
      0.5,
      -2,
      2,
      0.75,
      1.5,
      -0.75,
      1,
      1,
      0.75
    ],
    "wind_v-600h": [
      -1.75,
      -0.75,
      0.5,
      -0.5,
      1,
      1.75,
      3,
      4.5,
      4,
      4.25,
      5,
      5.75,
      4.5,
      2,
      2.5,
      2.75,
      3,
      1,
      2.5,
      0.5,
      1.5,
      2.25,
      1.75,
      0.25,
      0.25,
      0.25,
      -0.25,
      1,
      -0.5,
      -1,
      0.5,
      1.25,
      0.5,
      -0.5,
      0,
      0.25,
      -0.5,
      -1.5,
      -0.75,
      0,
      -1,
      -1.25,
      -0.25,
      -1,
      -3,
      -3.25,
      -1.5,
      2
    ],
    "wind_v-700h": [
      0,
      -1,
      0.25,
      1.25,
      1.25,
      2.5,
      3,
      4.25,
      2.75,
      3.25,
      2.5,
      2,
      4.25,
      4.25,
      6.25,
      4.75,
      1.5,
      1.25,
      -0.25,
      1.25,
      -0.25,
      0,
      -2.75,
      -2,
      -2,
      -2.75,
      -1.25,
      -2,
      -3.75,
      -1.5,
      -0.25,
      -2,
      -1.25,
      -0.75,
      -0.25,
      -1.5,
      -1.75,
      -1.75,
      -1,
      -0.5,
      -0.5,
      -2.25,
      -3.25,
      -1.75,
      -1.25,
      -2.75,
      -1.25,
      0
    ],
    "wind_v-800h": [
      0,
      1.5,
      2,
      2.25,
      2.5,
      1.25,
      3,
      2.5,
      1.5,
      1.75,
      7.25,
      5.75,
      3,
      1.75,
      0.5,
      2,
      0.5,
      -3,
      -2,
      -3,
      -2.5,
      -3.75,
      -2.5,
      -1.5,
      1,
      1,
      0.5,
      -1.75,
      -2,
      -1.5,
      -2.75,
      -2,
      -2.75,
      -3.5,
      -3,
      -1.25,
      -2,
      -1,
      0.25,
      0.5,
      -3.25,
      -1.25,
      0.5,
      -1.75,
      -2,
      -2.25,
      -1.75,
      -1.25
    ],
    "wind_v-850h": [
      1.75,
      1,
      2,
      2.25,
      2.5,
      1.5,
      3,
      3.25,
      2.75,
      4,
      6,
      6.25,
      5,
      2,
      1.25,
      2.25,
      0.25,
      -3.25,
      -2.25,
      -1.5,
      -2,
      -1.25,
      -1.25,
      -1,
      -1.5,
      0,
      1.25,
      1.25,
      1,
      -0.75,
      -1.5,
      -2.5,
      -3,
      -3.5,
      -1.25,
      -0.25,
      -1,
      -1.75,
      -0.5,
      -2.75,
      -3.25,
      -3.25,
      1,
      -1.5,
      -5.75,
      -4.75,
      -2.5,
      -3
    ],
    "wind_v-900h": [
      2.25,
      3,
      2.75,
      3.25,
      2.25,
      1.25,
      2,
      1.5,
      4,
      3.5,
      3,
      4.5,
      4.75,
      3.75,
      3,
      -0.25,
      -1.75,
      -2.25,
      -1,
      0.25,
      0,
      -0.5,
      0.25,
      -1,
      -4.75,
      -0.75,
      2.75,
      3.75,
      3,
      0.5,
      -2.25,
      -2.5,
      -2.75,
      -1.75,
      -0.25,
      1,
      -0.5,
      -1.25,
      -2.5,
      -3.25,
      -3,
      -3.5,
      -1.75,
      -0.5,
      -2.75,
      -2.5,
      -3.5,
      -4.75
    ],
    "wind_v-925h": [
      1.75,
      3.75,
      4.75,
      5.25,
      3.5,
      2.75,
      1.25,
      1,
      3.5,
      2.5,
      0.75,
      3.25,
      4.25,
      4.5,
      3,
      0,
      -1.5,
      -1.25,
      -0.5,
      -0.75,
      0,
      -0.75,
      -1,
      -1,
      -5,
      -2.25,
      1.5,
      2.75,
      2,
      0.75,
      -2,
      -2.5,
      -2.25,
      -2.25,
      -2.5,
      -1.25,
      -1.5,
      -2.25,
      -3.25,
      -3.25,
      -3,
      -3.25,
      -3.25,
      -2.75,
      -3.25,
      -3.25,
      -4.25,
      -4.25
    ],
    "wind_v-950h": [
      1.75,
      3,
      5.75,
      5.5,
      1.5,
      1.5,
      0.75,
      0.75,
      3.25,
      1,
      -0.25,
      0.5,
      2,
      3.25,
      0.5,
      0.25,
      -1.5,
      0.25,
      -0.25,
      -2.25,
      -1.5,
      -1.75,
      -1,
      -0.75,
      -5.5,
      -3,
      -0.75,
      -0.25,
      -0.5,
      -1,
      -2.25,
      -2.25,
      -2.25,
      -2.75,
      -3.75,
      -3.25,
      -3.25,
      -3.5,
      -3.25,
      -3.25,
      -2.75,
      -3.25,
      -4.5,
      -4.75,
      -4.25,
      -3.5,
      -3.75,
      -4.25
    ],
    "wind_v-surface": [
      1.25,
      0.75,
      1.75,
      2,
      -0.5,
      -0.25,
      0.25,
      0.25,
      2,
      -0.5,
      -0.25,
      -1,
      -0.5,
      0.25,
      0,
      0.5,
      -1,
      1,
      0,
      -1.5,
      -1.5,
      -1.25,
      -0.75,
      -0.75,
      -3.75,
      -1.75,
      -1.25,
      -1,
      -1.25,
      -1.5,
      -1.75,
      -1.5,
      -1.25,
      -1.75,
      -2.5,
      -2.25,
      -2.5,
      -2.5,
      -2.5,
      -2.5,
      -2,
      -1.5,
      -2.75,
      -3,
      -3,
      -2.5,
      -2.5,
      -2.75
    ],
    "hours": [
      1554562800000,
      1554573600000,
      1554584400000,
      1554595200000,
      1554606000000,
      1554616800000,
      1554627600000,
      1554638400000,
      1554649200000,
      1554660000000,
      1554670800000,
      1554681600000,
      1554692400000,
      1554703200000,
      1554714000000,
      1554724800000,
      1554735600000,
      1554746400000,
      1554757200000,
      1554768000000,
      1554778800000,
      1554789600000,
      1554800400000,
      1554811200000,
      1554822000000,
      1554832800000,
      1554843600000,
      1554854400000,
      1554865200000,
      1554876000000,
      1554886800000,
      1554897600000,
      1554908400000,
      1554919200000,
      1554930000000,
      1554940800000,
      1554951600000,
      1554962400000,
      1554973200000,
      1554984000000,
      1554994800000,
      1555005600000,
      1555016400000,
      1555027200000,
      1555038000000,
      1555048800000,
      1555059600000,
      1555070400000
    ]
  }
}
