{
"site" : "Osijek - Cepin",
"id" : 10064,
"orientations" : "02220222",
"forecasts" : { 
	"2019-04-05T05:00:00+02:00" : {
		"windSpeed" : 5.6,
		"windDir" : 125,
		"rain" : 0,
		"cloudbase" : 3297.12,
		"flyability" : 0,
		"reason" : "windSpeed",
		"timestamp" :1554436800
		},
	"2019-04-05T08:00:00+02:00" : {
		"windSpeed" : 6.3,
		"windDir" : 127,
		"rain" : 1,
		"cloudbase" : 5290.88,
		"flyability" : 0,
		"reason" : "windSpeed, rain",
		"timestamp" :1554447600
		},
	"2019-04-05T11:00:00+02:00" : {
		"windSpeed" : 6,
		"windDir" : 121,
		"rain" : 1,
		"cloudbase" : 3775.6000000001,
		"flyability" : 0,
		"reason" : "windSpeed, rain",
		"timestamp" :1554458400
		},
	"2019-04-05T14:00:00+02:00" : {
		"windSpeed" : 7.7,
		"windDir" : 121,
		"rain" : 1,
		"cloudbase" : 2250,
		"flyability" : 0,
		"reason" : "windSpeed, rain",
		"timestamp" :1554469200
		},
	"2019-04-05T17:00:00+02:00" : {
		"windSpeed" : 3.8,
		"windDir" : 267,
		"rain" : 1,
		"cloudbase" : 1635.3599999999,
		"flyability" : 0,
		"reason" : "rain",
		"timestamp" :1554480000
		},
	"2019-04-05T20:00:00+02:00" : {
		"windSpeed" : 2.2,
		"windDir" : 117,
		"rain" : 1,
		"cloudbase" : 3100,
		"flyability" : 0,
		"reason" : "rain",
		"timestamp" :1554490800
		},
	"2019-04-05T23:00:00+02:00" : {
		"windSpeed" : 2.2,
		"windDir" : 153,
		"rain" : 0,
		"cloudbase" : null,
		"flyability" : 100,
		"reason" : "",
		"timestamp" :1554501600
		},
	"2019-04-06T02:00:00+02:00" : {
		"windSpeed" : 2,
		"windDir" : 187,
		"rain" : 1,
		"cloudbase" : null,
		"flyability" : 0,
		"reason" : "windDir, rain",
		"timestamp" :1554512400
		},
	"2019-04-06T05:00:00+02:00" : {
		"windSpeed" : 1.8,
		"windDir" : 196,
		"rain" : 0,
		"cloudbase" : null,
		"flyability" : 0,
		"reason" : "windDir",
		"timestamp" :1554523200
		},
	"2019-04-06T08:00:00+02:00" : {
		"windSpeed" : 0.6,
		"windDir" : 117,
		"rain" : 0,
		"cloudbase" : 30,
		"flyability" : 0,
		"reason" : "cloudbase",
		"timestamp" :1554534000
		},
	"2019-04-06T11:00:00+02:00" : {
		"windSpeed" : 1.4,
		"windDir" : 135,
		"rain" : 0,
		"cloudbase" : null,
		"flyability" : 100,
		"reason" : "",
		"timestamp" :1554544800
		},
	"2019-04-06T14:00:00+02:00" : {
		"windSpeed" : 1.1,
		"windDir" : 117,
		"rain" : 0,
		"cloudbase" : null,
		"flyability" : 100,
		"reason" : "",
		"timestamp" :1554555600
		},
	"2019-04-06T17:00:00+02:00" : {
		"windSpeed" : 0.9,
		"windDir" : 326,
		"rain" : 0,
		"cloudbase" : null,
		"flyability" : 100,
		"reason" : "",
		"timestamp" :1554566400
		},
	"2019-04-06T20:00:00+02:00" : {
		"windSpeed" : 2.9,
		"windDir" : 26,
		"rain" : 0,
		"cloudbase" : 3100,
		"flyability" : 100,
		"reason" : "",
		"timestamp" :1554577200
		},
	"2019-04-06T23:00:00+02:00" : {
		"windSpeed" : 2.1,
		"windDir" : 83,
		"rain" : 0,
		"cloudbase" : null,
		"flyability" : 100,
		"reason" : "",
		"timestamp" :1554588000
		},
	"2019-04-07T02:00:00+02:00" : {
		"windSpeed" : 2.6,
		"windDir" : 107,
		"rain" : 0,
		"cloudbase" : null,
		"flyability" : 100,
		"reason" : "",
		"timestamp" :1554598800
		},
	"2019-04-07T05:00:00+02:00" : {
		"windSpeed" : 2.7,
		"windDir" : 124,
		"rain" : 0,
		"cloudbase" : null,
		"flyability" : 100,
		"reason" : "",
		"timestamp" :1554609600
		},
	"2019-04-07T08:00:00+02:00" : {
		"windSpeed" : 2.5,
		"windDir" : 135,
		"rain" : 0,
		"cloudbase" : null,
		"flyability" : 100,
		"reason" : "",
		"timestamp" :1554620400
		},
	"2019-04-07T11:00:00+02:00" : {
		"windSpeed" : 2.5,
		"windDir" : 120,
		"rain" : 0,
		"cloudbase" : null,
		"flyability" : 100,
		"reason" : "",
		"timestamp" :1554631200
		},
	"2019-04-07T14:00:00+02:00" : {
		"windSpeed" : 2.3,
		"windDir" : 97,
		"rain" : 1,
		"cloudbase" : null,
		"flyability" : 0,
		"reason" : "rain",
		"timestamp" :1554642000
		},
	"2019-04-07T17:00:00+02:00" : {
		"windSpeed" : 2.8,
		"windDir" : 96,
		"rain" : 0,
		"cloudbase" : 8557.76,
		"flyability" : 100,
		"reason" : "",
		"timestamp" :1554652800
		},
	"2019-04-07T20:00:00+02:00" : {
		"windSpeed" : 2.5,
		"windDir" : 155,
		"rain" : 1,
		"cloudbase" : 6459.92,
		"flyability" : 0,
		"reason" : "rain",
		"timestamp" :1554663600
		},
	"2019-04-07T23:00:00+02:00" : {
		"windSpeed" : 1.6,
		"windDir" : 141,
		"rain" : 1,
		"cloudbase" : 5100,
		"flyability" : 0,
		"reason" : "rain",
		"timestamp" :1554674400
		},
	"2019-04-08T02:00:00+02:00" : {
		"windSpeed" : 1.9,
		"windDir" : 83,
		"rain" : 1,
		"cloudbase" : 2934.88,
		"flyability" : 0,
		"reason" : "rain",
		"timestamp" :1554685200
		},
	"2019-04-08T05:00:00+02:00" : {
		"windSpeed" : 2.4,
		"windDir" : 87,
		"rain" : 1,
		"cloudbase" : 1922,
		"flyability" : 0,
		"reason" : "rain",
		"timestamp" :1554696000
		},
	"2019-04-08T08:00:00+02:00" : {
		"windSpeed" : 2.5,
		"windDir" : 88,
		"rain" : 0,
		"cloudbase" : 2250,
		"flyability" : 100,
		"reason" : "",
		"timestamp" :1554706800
		},
	"2019-04-08T11:00:00+02:00" : {
		"windSpeed" : 3.6,
		"windDir" : 92,
		"rain" : 0,
		"cloudbase" : 675.99999999999,
		"flyability" : 100,
		"reason" : "",
		"timestamp" :1554717600
		},
	"2019-04-08T14:00:00+02:00" : {
		"windSpeed" : 3.5,
		"windDir" : 86,
		"rain" : 0,
		"cloudbase" : 1403.44,
		"flyability" : 100,
		"reason" : "",
		"timestamp" :1554728400
		},
	"2019-04-08T17:00:00+02:00" : {
		"windSpeed" : 2.8,
		"windDir" : 77,
		"rain" : 0,
		"cloudbase" : 2963.6800000004,
		"flyability" : 100,
		"reason" : "",
		"timestamp" :1554739200
		},
	"2019-04-08T20:00:00+02:00" : {
		"windSpeed" : 2.6,
		"windDir" : 33,
		"rain" : 0,
		"cloudbase" : 2432.88,
		"flyability" : 100,
		"reason" : "",
		"timestamp" :1554750000
		},
	"2019-04-08T23:00:00+02:00" : {
		"windSpeed" : 2.1,
		"windDir" : 346,
		"rain" : 0,
		"cloudbase" : 5296.9599999998,
		"flyability" : 0,
		"reason" : "windDir",
		"timestamp" :1554760800
		},
	"2019-04-09T02:00:00+02:00" : {
		"windSpeed" : 2.4,
		"windDir" : 312,
		"rain" : 0,
		"cloudbase" : 2278,
		"flyability" : 100,
		"reason" : "",
		"timestamp" :1554771600
		},
	"2019-04-09T05:00:00+02:00" : {
		"windSpeed" : 2.4,
		"windDir" : 286,
		"rain" : 0,
		"cloudbase" : 7908.1599999993,
		"flyability" : 100,
		"reason" : "",
		"timestamp" :1554782400
		},
	"2019-04-09T08:00:00+02:00" : {
		"windSpeed" : 3,
		"windDir" : 295,
		"rain" : 0,
		"cloudbase" : 8379.9999999999,
		"flyability" : 100,
		"reason" : "",
		"timestamp" :1554793200
		},
	"2019-04-09T11:00:00+02:00" : {
		"windSpeed" : 2.1,
		"windDir" : 315,
		"rain" : 1,
		"cloudbase" : 8200,
		"flyability" : 0,
		"reason" : "rain",
		"timestamp" :1554804000
		},
	"2019-04-09T14:00:00+02:00" : {
		"windSpeed" : 0.9,
		"windDir" : 57,
		"rain" : 0,
		"cloudbase" : 7700,
		"flyability" : 100,
		"reason" : "",
		"timestamp" :1554814800
		},
	"2019-04-09T17:00:00+02:00" : {
		"windSpeed" : 1.6,
		"windDir" : 108,
		"rain" : 1,
		"cloudbase" : 9029.12,
		"flyability" : 0,
		"reason" : "rain",
		"timestamp" :1554825600
		},
	"2019-04-09T20:00:00+02:00" : {
		"windSpeed" : 2.7,
		"windDir" : 240,
		"rain" : 1,
		"cloudbase" : 3122.2400000002,
		"flyability" : 0,
		"reason" : "rain",
		"timestamp" :1554836400
		},
	"2019-04-09T23:00:00+02:00" : {
		"windSpeed" : 3,
		"windDir" : 308,
		"rain" : 1,
		"cloudbase" : 2809.5199999999,
		"flyability" : 0,
		"reason" : "rain",
		"timestamp" :1554847200
		},
	"2019-04-10T02:00:00+02:00" : {
		"windSpeed" : 2.5,
		"windDir" : 237,
		"rain" : 1,
		"cloudbase" : 3034.88,
		"flyability" : 0,
		"reason" : "rain",
		"timestamp" :1554858000
		},
	"2019-04-10T05:00:00+02:00" : {
		"windSpeed" : 1.9,
		"windDir" : 242,
		"rain" : 1,
		"cloudbase" : 1922.1599999999,
		"flyability" : 0,
		"reason" : "rain",
		"timestamp" :1554868800
		},
	"2019-04-10T08:00:00+02:00" : {
		"windSpeed" : 2.2,
		"windDir" : 257,
		"rain" : 1,
		"cloudbase" : 1900,
		"flyability" : 0,
		"reason" : "rain",
		"timestamp" :1554879600
		},
	"2019-04-10T11:00:00+02:00" : {
		"windSpeed" : 3.4,
		"windDir" : 275,
		"rain" : 0,
		"cloudbase" : 680,
		"flyability" : 100,
		"reason" : "",
		"timestamp" :1554890400
		},
	"2019-04-10T14:00:00+02:00" : {
		"windSpeed" : 3.5,
		"windDir" : 262,
		"rain" : 0,
		"cloudbase" : null,
		"flyability" : 100,
		"reason" : "",
		"timestamp" :1554901200
		},
	"2019-04-10T17:00:00+02:00" : {
		"windSpeed" : 3.3,
		"windDir" : 250,
		"rain" : 0,
		"cloudbase" : null,
		"flyability" : 100,
		"reason" : "",
		"timestamp" :1554912000
		},
	"2019-04-10T20:00:00+02:00" : {
		"windSpeed" : 2.2,
		"windDir" : 255,
		"rain" : 0,
		"cloudbase" : null,
		"flyability" : 100,
		"reason" : "",
		"timestamp" :1554922800
		},
	"2019-04-10T23:00:00+02:00" : {
		"windSpeed" : 2.1,
		"windDir" : 224,
		"rain" : 0,
		"cloudbase" : null,
		"flyability" : 100,
		"reason" : "",
		"timestamp" :1554933600
		},
	"2019-04-11T02:00:00+02:00" : {
		"windSpeed" : 2.2,
		"windDir" : 261,
		"rain" : 0,
		"cloudbase" : null,
		"flyability" : 100,
		"reason" : "",
		"timestamp" :1554944400
		}
	}
}