{
"site" : "Brigsteer",
"id" : 10080,
"orientations" : "00000220",
"forecasts" : { 
	"2019-04-20T16:00:00+01:00" : {
		"windSpeed" : 2.5,
		"windDir" : 235,
		"rain" : 0,
		"cloudbase" : 9988.6012,
		"flyability" : 100,
		"reason" : "",
		"timestamp" :1555768800
		},
	"2019-04-20T19:00:00+01:00" : {
		"windSpeed" : 1,
		"windDir" : 183,
		"rain" : 0,
		"cloudbase" : null,
		"flyability" : 0,
		"reason" : "windDir",
		"timestamp" :1555779600
		},
	"2019-04-20T22:00:00+01:00" : {
		"windSpeed" : 1.6,
		"windDir" : 74,
		"rain" : 0,
		"cloudbase" : 11899,
		"flyability" : 0,
		"reason" : "windDir",
		"timestamp" :1555790400
		},
	"2019-04-21T01:00:00+01:00" : {
		"windSpeed" : 2,
		"windDir" : 95,
		"rain" : 0,
		"cloudbase" : 11000,
		"flyability" : 0,
		"reason" : "windDir",
		"timestamp" :1555801200
		},
	"2019-04-21T04:00:00+01:00" : {
		"windSpeed" : 1.2,
		"windDir" : 69,
		"rain" : 0,
		"cloudbase" : 9303.4,
		"flyability" : 0,
		"reason" : "windDir",
		"timestamp" :1555812000
		},
	"2019-04-21T07:00:00+01:00" : {
		"windSpeed" : 0.5,
		"windDir" : 88,
		"rain" : 0,
		"cloudbase" : 9000,
		"flyability" : 0,
		"reason" : "windDir",
		"timestamp" :1555822800
		},
	"2019-04-21T10:00:00+01:00" : {
		"windSpeed" : 1.1,
		"windDir" : 159,
		"rain" : 0,
		"cloudbase" : 7300,
		"flyability" : 0,
		"reason" : "windDir",
		"timestamp" :1555833600
		},
	"2019-04-21T13:00:00+01:00" : {
		"windSpeed" : 2.9,
		"windDir" : 212,
		"rain" : 0,
		"cloudbase" : 7300,
		"flyability" : 100,
		"reason" : "",
		"timestamp" :1555844400
		},
	"2019-04-21T16:00:00+01:00" : {
		"windSpeed" : 3.5,
		"windDir" : 226,
		"rain" : 0,
		"cloudbase" : null,
		"flyability" : 100,
		"reason" : "",
		"timestamp" :1555855200
		},
	"2019-04-21T19:00:00+01:00" : {
		"windSpeed" : 0.7,
		"windDir" : 231,
		"rain" : 0,
		"cloudbase" : null,
		"flyability" : 100,
		"reason" : "",
		"timestamp" :1555866000
		},
	"2019-04-21T22:00:00+01:00" : {
		"windSpeed" : 1.5,
		"windDir" : 133,
		"rain" : 0,
		"cloudbase" : null,
		"flyability" : 0,
		"reason" : "windDir",
		"timestamp" :1555876800
		},
	"2019-04-22T01:00:00+01:00" : {
		"windSpeed" : 2,
		"windDir" : 95,
		"rain" : 0,
		"cloudbase" : null,
		"flyability" : 0,
		"reason" : "windDir",
		"timestamp" :1555887600
		},
	"2019-04-22T04:00:00+01:00" : {
		"windSpeed" : 2,
		"windDir" : 80,
		"rain" : 0,
		"cloudbase" : null,
		"flyability" : 0,
		"reason" : "windDir",
		"timestamp" :1555898400
		},
	"2019-04-22T07:00:00+01:00" : {
		"windSpeed" : 3.1,
		"windDir" : 102,
		"rain" : 0,
		"cloudbase" : null,
		"flyability" : 0,
		"reason" : "windDir",
		"timestamp" :1555909200
		},
	"2019-04-22T10:00:00+01:00" : {
		"windSpeed" : 4.9,
		"windDir" : 135,
		"rain" : 0,
		"cloudbase" : null,
		"flyability" : 0,
		"reason" : "windDir",
		"timestamp" :1555920000
		},
	"2019-04-22T13:00:00+01:00" : {
		"windSpeed" : 5.7,
		"windDir" : 142,
		"rain" : 0,
		"cloudbase" : 1900,
		"flyability" : 0,
		"reason" : "windSpeed, windDir",
		"timestamp" :1555930800
		},
	"2019-04-22T16:00:00+01:00" : {
		"windSpeed" : 4.6,
		"windDir" : 131,
		"rain" : 0,
		"cloudbase" : 2100,
		"flyability" : 0,
		"reason" : "windDir",
		"timestamp" :1555941600
		},
	"2019-04-22T19:00:00+01:00" : {
		"windSpeed" : 4,
		"windDir" : 97,
		"rain" : 0,
		"cloudbase" : 10500,
		"flyability" : 0,
		"reason" : "windDir",
		"timestamp" :1555952400
		},
	"2019-04-22T22:00:00+01:00" : {
		"windSpeed" : 4.6,
		"windDir" : 97,
		"rain" : 0,
		"cloudbase" : 7500,
		"flyability" : 0,
		"reason" : "windDir",
		"timestamp" :1555963200
		},
	"2019-04-23T01:00:00+01:00" : {
		"windSpeed" : 3.7,
		"windDir" : 76,
		"rain" : 0,
		"cloudbase" : null,
		"flyability" : 0,
		"reason" : "windDir",
		"timestamp" :1555974000
		},
	"2019-04-23T04:00:00+01:00" : {
		"windSpeed" : 3.2,
		"windDir" : 56,
		"rain" : 0,
		"cloudbase" : null,
		"flyability" : 0,
		"reason" : "windDir",
		"timestamp" :1555984800
		},
	"2019-04-23T07:00:00+01:00" : {
		"windSpeed" : 3.2,
		"windDir" : 54,
		"rain" : 0,
		"cloudbase" : 3550,
		"flyability" : 0,
		"reason" : "windDir",
		"timestamp" :1555995600
		},
	"2019-04-23T10:00:00+01:00" : {
		"windSpeed" : 2.7,
		"windDir" : 101,
		"rain" : 0,
		"cloudbase" : null,
		"flyability" : 0,
		"reason" : "windDir",
		"timestamp" :1556006400
		},
	"2019-04-23T13:00:00+01:00" : {
		"windSpeed" : 5.2,
		"windDir" : 107,
		"rain" : 0,
		"cloudbase" : null,
		"flyability" : 0,
		"reason" : "windSpeed, windDir",
		"timestamp" :1556017200
		},
	"2019-04-23T16:00:00+01:00" : {
		"windSpeed" : 5.4,
		"windDir" : 111,
		"rain" : 0,
		"cloudbase" : null,
		"flyability" : 0,
		"reason" : "windSpeed, windDir",
		"timestamp" :1556028000
		},
	"2019-04-23T19:00:00+01:00" : {
		"windSpeed" : 5.1,
		"windDir" : 90,
		"rain" : 0,
		"cloudbase" : null,
		"flyability" : 0,
		"reason" : "windSpeed, windDir",
		"timestamp" :1556038800
		},
	"2019-04-23T22:00:00+01:00" : {
		"windSpeed" : 5.2,
		"windDir" : 80,
		"rain" : 0,
		"cloudbase" : null,
		"flyability" : 0,
		"reason" : "windSpeed, windDir",
		"timestamp" :1556049600
		},
	"2019-04-24T01:00:00+01:00" : {
		"windSpeed" : 4.9,
		"windDir" : 54,
		"rain" : 0,
		"cloudbase" : null,
		"flyability" : 0,
		"reason" : "windDir",
		"timestamp" :1556060400
		},
	"2019-04-24T04:00:00+01:00" : {
		"windSpeed" : 5.2,
		"windDir" : 62,
		"rain" : 0,
		"cloudbase" : null,
		"flyability" : 0,
		"reason" : "windSpeed, windDir",
		"timestamp" :1556071200
		},
	"2019-04-24T07:00:00+01:00" : {
		"windSpeed" : 6.1,
		"windDir" : 82,
		"rain" : 0,
		"cloudbase" : null,
		"flyability" : 0,
		"reason" : "windSpeed, windDir",
		"timestamp" :1556082000
		},
	"2019-04-24T10:00:00+01:00" : {
		"windSpeed" : 6.5,
		"windDir" : 90,
		"rain" : 0,
		"cloudbase" : 7696.6,
		"flyability" : 0,
		"reason" : "windSpeed, windDir",
		"timestamp" :1556092800
		},
	"2019-04-24T13:00:00+01:00" : {
		"windSpeed" : 7.1,
		"windDir" : 94,
		"rain" : 0,
		"cloudbase" : 5991.8012,
		"flyability" : 0,
		"reason" : "windSpeed, windDir",
		"timestamp" :1556103600
		},
	"2019-04-24T16:00:00+01:00" : {
		"windSpeed" : 7,
		"windDir" : 86,
		"rain" : 0,
		"cloudbase" : null,
		"flyability" : 0,
		"reason" : "windSpeed, windDir",
		"timestamp" :1556114400
		},
	"2019-04-24T19:00:00+01:00" : {
		"windSpeed" : 6,
		"windDir" : 86,
		"rain" : 1,
		"cloudbase" : 2462.5185999999,
		"flyability" : 0,
		"reason" : "windSpeed, windDir, rain",
		"timestamp" :1556125200
		},
	"2019-04-24T22:00:00+01:00" : {
		"windSpeed" : 6.3,
		"windDir" : 162,
		"rain" : 1,
		"cloudbase" : 620,
		"flyability" : 0,
		"reason" : "windSpeed, windDir, rain",
		"timestamp" :1556136000
		},
	"2019-04-25T01:00:00+01:00" : {
		"windSpeed" : 3.2,
		"windDir" : 129,
		"rain" : 1,
		"cloudbase" : null,
		"flyability" : 0,
		"reason" : "windDir, rain",
		"timestamp" :1556146800
		},
	"2019-04-25T04:00:00+01:00" : {
		"windSpeed" : 3.6,
		"windDir" : 106,
		"rain" : 0,
		"cloudbase" : null,
		"flyability" : 0,
		"reason" : "windDir",
		"timestamp" :1556157600
		},
	"2019-04-25T07:00:00+01:00" : {
		"windSpeed" : 5.4,
		"windDir" : 112,
		"rain" : 0,
		"cloudbase" : 8600,
		"flyability" : 0,
		"reason" : "windSpeed, windDir",
		"timestamp" :1556168400
		},
	"2019-04-25T10:00:00+01:00" : {
		"windSpeed" : 5.8,
		"windDir" : 110,
		"rain" : 0,
		"cloudbase" : 6413.3855999999,
		"flyability" : 0,
		"reason" : "windSpeed, windDir",
		"timestamp" :1556179200
		},
	"2019-04-25T13:00:00+01:00" : {
		"windSpeed" : 6.4,
		"windDir" : 141,
		"rain" : 1,
		"cloudbase" : 2466.0976,
		"flyability" : 0,
		"reason" : "windSpeed, windDir, rain",
		"timestamp" :1556190000
		},
	"2019-04-25T16:00:00+01:00" : {
		"windSpeed" : 2.6,
		"windDir" : 145,
		"rain" : 1,
		"cloudbase" : 2184.7861999999,
		"flyability" : 0,
		"reason" : "windDir, rain",
		"timestamp" :1556200800
		},
	"2019-04-25T19:00:00+01:00" : {
		"windSpeed" : 3.5,
		"windDir" : 173,
		"rain" : 1,
		"cloudbase" : 6369.6,
		"flyability" : 0,
		"reason" : "windDir, rain",
		"timestamp" :1556211600
		},
	"2019-04-25T22:00:00+01:00" : {
		"windSpeed" : 0.7,
		"windDir" : 136,
		"rain" : 1,
		"cloudbase" : 2423.1621999998,
		"flyability" : 0,
		"reason" : "windDir, rain",
		"timestamp" :1556222400
		},
	"2019-04-26T01:00:00+01:00" : {
		"windSpeed" : 1.5,
		"windDir" : 137,
		"rain" : 1,
		"cloudbase" : null,
		"flyability" : 0,
		"reason" : "windDir, rain",
		"timestamp" :1556233200
		},
	"2019-04-26T04:00:00+01:00" : {
		"windSpeed" : 1.6,
		"windDir" : 96,
		"rain" : 1,
		"cloudbase" : null,
		"flyability" : 0,
		"reason" : "windDir, rain",
		"timestamp" :1556244000
		},
	"2019-04-26T07:00:00+01:00" : {
		"windSpeed" : 2.2,
		"windDir" : 106,
		"rain" : 0,
		"cloudbase" : null,
		"flyability" : 0,
		"reason" : "windDir",
		"timestamp" :1556254800
		},
	"2019-04-26T10:00:00+01:00" : {
		"windSpeed" : 2.6,
		"windDir" : 144,
		"rain" : 1,
		"cloudbase" : 450,
		"flyability" : 0,
		"reason" : "windDir, rain",
		"timestamp" :1556265600
		},
	"2019-04-26T13:00:00+01:00" : {
		"windSpeed" : 3.6,
		"windDir" : 195,
		"rain" : 0,
		"cloudbase" : 923.16120000001,
		"flyability" : 0,
		"reason" : "windDir",
		"timestamp" :1556276400
		}
	}
}