{
"site" : "Ponzos",
"id" : 10202,
"orientations" : "00000122",
"forecasts" : { 
	"2019-04-05T05:00:00+02:00" : {
		"windSpeed" : 5.7,
		"windDir" : 205,
		"rain" : 1,
		"cloudbase" : null,
		"flyability" : 0,
		"reason" : "windSpeed, rain",
		"timestamp" :1554436800
		},
	"2019-04-05T08:00:00+02:00" : {
		"windSpeed" : 6.8,
		"windDir" : 194,
		"rain" : 1,
		"cloudbase" : null,
		"flyability" : 0,
		"reason" : "windSpeed, windDir, rain",
		"timestamp" :1554447600
		},
	"2019-04-05T11:00:00+02:00" : {
		"windSpeed" : 8.3,
		"windDir" : 197,
		"rain" : 1,
		"cloudbase" : 3926.4411,
		"flyability" : 0,
		"reason" : "windSpeed, windDir, rain",
		"timestamp" :1554458400
		},
	"2019-04-05T14:00:00+02:00" : {
		"windSpeed" : 7.3,
		"windDir" : 232,
		"rain" : 1,
		"cloudbase" : 700,
		"flyability" : 0,
		"reason" : "windSpeed, rain",
		"timestamp" :1554469200
		},
	"2019-04-05T17:00:00+02:00" : {
		"windSpeed" : 7.3,
		"windDir" : 241,
		"rain" : 1,
		"cloudbase" : 2300,
		"flyability" : 0,
		"reason" : "windSpeed, rain",
		"timestamp" :1554480000
		},
	"2019-04-05T20:00:00+02:00" : {
		"windSpeed" : 6.1,
		"windDir" : 243,
		"rain" : 1,
		"cloudbase" : 6900,
		"flyability" : 0,
		"reason" : "windSpeed, rain",
		"timestamp" :1554490800
		},
	"2019-04-05T23:00:00+02:00" : {
		"windSpeed" : 6.9,
		"windDir" : 234,
		"rain" : 1,
		"cloudbase" : 3186.16275,
		"flyability" : 0,
		"reason" : "windSpeed, rain",
		"timestamp" :1554501600
		},
	"2019-04-06T02:00:00+02:00" : {
		"windSpeed" : 8.5,
		"windDir" : 209,
		"rain" : 1,
		"cloudbase" : 2792.4820399999,
		"flyability" : 0,
		"reason" : "windSpeed, rain",
		"timestamp" :1554512400
		},
	"2019-04-06T05:00:00+02:00" : {
		"windSpeed" : 7.8,
		"windDir" : 190,
		"rain" : 1,
		"cloudbase" : 6554.1,
		"flyability" : 0,
		"reason" : "windSpeed, windDir, rain",
		"timestamp" :1554523200
		},
	"2019-04-06T08:00:00+02:00" : {
		"windSpeed" : 5.4,
		"windDir" : 183,
		"rain" : 1,
		"cloudbase" : 6700,
		"flyability" : 0,
		"reason" : "windSpeed, windDir, rain",
		"timestamp" :1554534000
		},
	"2019-04-06T11:00:00+02:00" : {
		"windSpeed" : 4.1,
		"windDir" : 305,
		"rain" : 1,
		"cloudbase" : 6900,
		"flyability" : 0,
		"reason" : "rain",
		"timestamp" :1554544800
		},
	"2019-04-06T14:00:00+02:00" : {
		"windSpeed" : 7.4,
		"windDir" : 319,
		"rain" : 1,
		"cloudbase" : 600,
		"flyability" : 0,
		"reason" : "windSpeed, rain",
		"timestamp" :1554555600
		},
	"2019-04-06T17:00:00+02:00" : {
		"windSpeed" : 6.7,
		"windDir" : 306,
		"rain" : 1,
		"cloudbase" : null,
		"flyability" : 0,
		"reason" : "windSpeed, rain",
		"timestamp" :1554566400
		},
	"2019-04-06T20:00:00+02:00" : {
		"windSpeed" : 4.8,
		"windDir" : 289,
		"rain" : 1,
		"cloudbase" : null,
		"flyability" : 0,
		"reason" : "rain",
		"timestamp" :1554577200
		},
	"2019-04-06T23:00:00+02:00" : {
		"windSpeed" : 3.3,
		"windDir" : 232,
		"rain" : 1,
		"cloudbase" : 1700,
		"flyability" : 0,
		"reason" : "rain",
		"timestamp" :1554588000
		},
	"2019-04-07T02:00:00+02:00" : {
		"windSpeed" : 3.5,
		"windDir" : 217,
		"rain" : 1,
		"cloudbase" : null,
		"flyability" : 0,
		"reason" : "rain",
		"timestamp" :1554598800
		},
	"2019-04-07T05:00:00+02:00" : {
		"windSpeed" : 3.6,
		"windDir" : 216,
		"rain" : 1,
		"cloudbase" : 2987.3481499999,
		"flyability" : 0,
		"reason" : "rain",
		"timestamp" :1554609600
		},
	"2019-04-07T08:00:00+02:00" : {
		"windSpeed" : 4.6,
		"windDir" : 192,
		"rain" : 1,
		"cloudbase" : 2350,
		"flyability" : 0,
		"reason" : "windDir, rain",
		"timestamp" :1554620400
		},
	"2019-04-07T11:00:00+02:00" : {
		"windSpeed" : 5.5,
		"windDir" : 185,
		"rain" : 1,
		"cloudbase" : 6254.1,
		"flyability" : 0,
		"reason" : "windSpeed, windDir, rain",
		"timestamp" :1554631200
		},
	"2019-04-07T14:00:00+02:00" : {
		"windSpeed" : 6.5,
		"windDir" : 195,
		"rain" : 0,
		"cloudbase" : 2084.9598,
		"flyability" : 0,
		"reason" : "windSpeed, windDir",
		"timestamp" :1554642000
		},
	"2019-04-07T17:00:00+02:00" : {
		"windSpeed" : 5.5,
		"windDir" : 168,
		"rain" : 1,
		"cloudbase" : 1554.1,
		"flyability" : 0,
		"reason" : "windSpeed, windDir, rain",
		"timestamp" :1554652800
		},
	"2019-04-07T20:00:00+02:00" : {
		"windSpeed" : 6.7,
		"windDir" : 178,
		"rain" : 1,
		"cloudbase" : 1776.3402,
		"flyability" : 0,
		"reason" : "windSpeed, windDir, rain",
		"timestamp" :1554663600
		},
	"2019-04-07T23:00:00+02:00" : {
		"windSpeed" : 7.3,
		"windDir" : 234,
		"rain" : 1,
		"cloudbase" : 1647.0451,
		"flyability" : 0,
		"reason" : "windSpeed, rain",
		"timestamp" :1554674400
		},
	"2019-04-08T02:00:00+02:00" : {
		"windSpeed" : 8.6,
		"windDir" : 234,
		"rain" : 0,
		"cloudbase" : null,
		"flyability" : 0,
		"reason" : "windSpeed",
		"timestamp" :1554685200
		},
	"2019-04-08T05:00:00+02:00" : {
		"windSpeed" : 7.8,
		"windDir" : 214,
		"rain" : 1,
		"cloudbase" : null,
		"flyability" : 0,
		"reason" : "windSpeed, rain",
		"timestamp" :1554696000
		},
	"2019-04-08T08:00:00+02:00" : {
		"windSpeed" : 7.5,
		"windDir" : 205,
		"rain" : 1,
		"cloudbase" : 880,
		"flyability" : 0,
		"reason" : "windSpeed, rain",
		"timestamp" :1554706800
		},
	"2019-04-08T11:00:00+02:00" : {
		"windSpeed" : 8.3,
		"windDir" : 197,
		"rain" : 1,
		"cloudbase" : null,
		"flyability" : 0,
		"reason" : "windSpeed, windDir, rain",
		"timestamp" :1554717600
		},
	"2019-04-08T14:00:00+02:00" : {
		"windSpeed" : 11.5,
		"windDir" : 211,
		"rain" : 1,
		"cloudbase" : 6709.2098,
		"flyability" : 0,
		"reason" : "windSpeed, rain",
		"timestamp" :1554728400
		},
	"2019-04-08T17:00:00+02:00" : {
		"windSpeed" : 10.6,
		"windDir" : 207,
		"rain" : 1,
		"cloudbase" : 7300,
		"flyability" : 0,
		"reason" : "windSpeed, rain",
		"timestamp" :1554739200
		},
	"2019-04-08T20:00:00+02:00" : {
		"windSpeed" : 9.9,
		"windDir" : 200,
		"rain" : 1,
		"cloudbase" : 7400,
		"flyability" : 0,
		"reason" : "windSpeed, windDir, rain",
		"timestamp" :1554750000
		},
	"2019-04-08T23:00:00+02:00" : {
		"windSpeed" : 8.5,
		"windDir" : 209,
		"rain" : 1,
		"cloudbase" : 4211.09523,
		"flyability" : 0,
		"reason" : "windSpeed, rain",
		"timestamp" :1554760800
		},
	"2019-04-09T02:00:00+02:00" : {
		"windSpeed" : 8.4,
		"windDir" : 201,
		"rain" : 1,
		"cloudbase" : null,
		"flyability" : 0,
		"reason" : "windSpeed, windDir, rain",
		"timestamp" :1554771600
		},
	"2019-04-09T05:00:00+02:00" : {
		"windSpeed" : 8.8,
		"windDir" : 185,
		"rain" : 1,
		"cloudbase" : null,
		"flyability" : 0,
		"reason" : "windSpeed, windDir, rain",
		"timestamp" :1554782400
		},
	"2019-04-09T08:00:00+02:00" : {
		"windSpeed" : 9.8,
		"windDir" : 191,
		"rain" : 0,
		"cloudbase" : 576.72,
		"flyability" : 0,
		"reason" : "windSpeed, windDir",
		"timestamp" :1554793200
		},
	"2019-04-09T11:00:00+02:00" : {
		"windSpeed" : 8.3,
		"windDir" : 268,
		"rain" : 1,
		"cloudbase" : 800,
		"flyability" : 0,
		"reason" : "windSpeed, rain",
		"timestamp" :1554804000
		},
	"2019-04-09T14:00:00+02:00" : {
		"windSpeed" : 9.5,
		"windDir" : 249,
		"rain" : 1,
		"cloudbase" : 760,
		"flyability" : 0,
		"reason" : "windSpeed, rain",
		"timestamp" :1554814800
		},
	"2019-04-09T17:00:00+02:00" : {
		"windSpeed" : 9.2,
		"windDir" : 246,
		"rain" : 1,
		"cloudbase" : 7300,
		"flyability" : 0,
		"reason" : "windSpeed, rain",
		"timestamp" :1554825600
		},
	"2019-04-09T20:00:00+02:00" : {
		"windSpeed" : 9.2,
		"windDir" : 267,
		"rain" : 1,
		"cloudbase" : 460,
		"flyability" : 0,
		"reason" : "windSpeed, rain",
		"timestamp" :1554836400
		},
	"2019-04-09T23:00:00+02:00" : {
		"windSpeed" : 7.3,
		"windDir" : 263,
		"rain" : 1,
		"cloudbase" : 454.17646999999,
		"flyability" : 0,
		"reason" : "windSpeed, rain",
		"timestamp" :1554847200
		},
	"2019-04-10T02:00:00+02:00" : {
		"windSpeed" : 7.3,
		"windDir" : 277,
		"rain" : 1,
		"cloudbase" : 520,
		"flyability" : 0,
		"reason" : "windSpeed, rain",
		"timestamp" :1554858000
		},
	"2019-04-10T05:00:00+02:00" : {
		"windSpeed" : 6.1,
		"windDir" : 273,
		"rain" : 0,
		"cloudbase" : 5444.845,
		"flyability" : 0,
		"reason" : "windSpeed",
		"timestamp" :1554868800
		},
	"2019-04-10T08:00:00+02:00" : {
		"windSpeed" : 5.9,
		"windDir" : 276,
		"rain" : 1,
		"cloudbase" : 1285.36609,
		"flyability" : 0,
		"reason" : "windSpeed, rain",
		"timestamp" :1554879600
		},
	"2019-04-10T11:00:00+02:00" : {
		"windSpeed" : 6,
		"windDir" : 281,
		"rain" : 1,
		"cloudbase" : 1321.32745,
		"flyability" : 0,
		"reason" : "windSpeed, rain",
		"timestamp" :1554890400
		},
	"2019-04-10T14:00:00+02:00" : {
		"windSpeed" : 6.6,
		"windDir" : 265,
		"rain" : 1,
		"cloudbase" : 4481.84228,
		"flyability" : 0,
		"reason" : "windSpeed, rain",
		"timestamp" :1554901200
		},
	"2019-04-10T17:00:00+02:00" : {
		"windSpeed" : 5.3,
		"windDir" : 263,
		"rain" : 0,
		"cloudbase" : 4175.4656999999,
		"flyability" : 0,
		"reason" : "windSpeed",
		"timestamp" :1554912000
		},
	"2019-04-10T20:00:00+02:00" : {
		"windSpeed" : 5.1,
		"windDir" : 243,
		"rain" : 0,
		"cloudbase" : 3800,
		"flyability" : 0,
		"reason" : "windSpeed",
		"timestamp" :1554922800
		},
	"2019-04-10T23:00:00+02:00" : {
		"windSpeed" : 3.6,
		"windDir" : 199,
		"rain" : 0,
		"cloudbase" : 7477.5549,
		"flyability" : 0,
		"reason" : "windDir",
		"timestamp" :1554933600
		},
	"2019-04-11T02:00:00+02:00" : {
		"windSpeed" : 4.9,
		"windDir" : 177,
		"rain" : 0,
		"cloudbase" : 6054.1,
		"flyability" : 0,
		"reason" : "windDir",
		"timestamp" :1554944400
		}
	}
}