{
"site" : "Laderona Piedrafita ",
"id" : 10225,
"orientations" : "00000210",
"forecasts" : { 
	"2019-04-05T05:00:00+02:00" : {
		"windSpeed" : 1.9,
		"windDir" : 195,
		"rain" : 0,
		"cloudbase" : 298.79040000003,
		"flyability" : 0,
		"reason" : "windDir, cloudbase",
		"timestamp" :1554436800
		},
	"2019-04-05T08:00:00+02:00" : {
		"windSpeed" : 2,
		"windDir" : 199,
		"rain" : 0,
		"cloudbase" : 47.570959999999,
		"flyability" : 0,
		"reason" : "windDir, cloudbase",
		"timestamp" :1554447600
		},
	"2019-04-05T11:00:00+02:00" : {
		"windSpeed" : 3.4,
		"windDir" : 216,
		"rain" : 0,
		"cloudbase" : 120,
		"flyability" : 0,
		"reason" : "cloudbase",
		"timestamp" :1554458400
		},
	"2019-04-05T14:00:00+02:00" : {
		"windSpeed" : 4.1,
		"windDir" : 226,
		"rain" : 0,
		"cloudbase" : null,
		"flyability" : 100,
		"reason" : "",
		"timestamp" :1554469200
		},
	"2019-04-05T17:00:00+02:00" : {
		"windSpeed" : 3.5,
		"windDir" : 245,
		"rain" : 0,
		"cloudbase" : null,
		"flyability" : 100,
		"reason" : "",
		"timestamp" :1554480000
		},
	"2019-04-05T20:00:00+02:00" : {
		"windSpeed" : 2.8,
		"windDir" : 244,
		"rain" : 0,
		"cloudbase" : 5181.7048,
		"flyability" : 100,
		"reason" : "",
		"timestamp" :1554490800
		},
	"2019-04-05T23:00:00+02:00" : {
		"windSpeed" : 1.8,
		"windDir" : 221,
		"rain" : 0,
		"cloudbase" : 82.55192,
		"flyability" : 0,
		"reason" : "cloudbase",
		"timestamp" :1554501600
		},
	"2019-04-06T02:00:00+02:00" : {
		"windSpeed" : 2.7,
		"windDir" : 209,
		"rain" : 0,
		"cloudbase" : 30,
		"flyability" : 0,
		"reason" : "cloudbase",
		"timestamp" :1554512400
		},
	"2019-04-06T05:00:00+02:00" : {
		"windSpeed" : 3,
		"windDir" : 196,
		"rain" : 0,
		"cloudbase" : 30,
		"flyability" : 0,
		"reason" : "windDir, cloudbase",
		"timestamp" :1554523200
		},
	"2019-04-06T08:00:00+02:00" : {
		"windSpeed" : 2.4,
		"windDir" : 164,
		"rain" : 0,
		"cloudbase" : 30.18096,
		"flyability" : 0,
		"reason" : "windDir, cloudbase",
		"timestamp" :1554534000
		},
	"2019-04-06T11:00:00+02:00" : {
		"windSpeed" : 3.6,
		"windDir" : 175,
		"rain" : 0,
		"cloudbase" : 130.22720000001,
		"flyability" : 0,
		"reason" : "windDir, cloudbase",
		"timestamp" :1554544800
		},
	"2019-04-06T14:00:00+02:00" : {
		"windSpeed" : 1.4,
		"windDir" : 201,
		"rain" : 0,
		"cloudbase" : 651.03760000005,
		"flyability" : 0,
		"reason" : "windDir, cloudbase",
		"timestamp" :1554555600
		},
	"2019-04-06T17:00:00+02:00" : {
		"windSpeed" : 3.7,
		"windDir" : 300,
		"rain" : 0,
		"cloudbase" : 120,
		"flyability" : 0,
		"reason" : "windDir, cloudbase",
		"timestamp" :1554566400
		},
	"2019-04-06T20:00:00+02:00" : {
		"windSpeed" : 3.9,
		"windDir" : 295,
		"rain" : 0,
		"cloudbase" : 127.17352000001,
		"flyability" : 0,
		"reason" : "windDir, cloudbase",
		"timestamp" :1554577200
		},
	"2019-04-06T23:00:00+02:00" : {
		"windSpeed" : 2.8,
		"windDir" : 266,
		"rain" : 0,
		"cloudbase" : 30,
		"flyability" : 0,
		"reason" : "cloudbase",
		"timestamp" :1554588000
		},
	"2019-04-07T02:00:00+02:00" : {
		"windSpeed" : 1.4,
		"windDir" : 233,
		"rain" : 0,
		"cloudbase" : 30.09048,
		"flyability" : 0,
		"reason" : "cloudbase",
		"timestamp" :1554598800
		},
	"2019-04-07T05:00:00+02:00" : {
		"windSpeed" : 2.3,
		"windDir" : 248,
		"rain" : 0,
		"cloudbase" : 30,
		"flyability" : 0,
		"reason" : "cloudbase",
		"timestamp" :1554609600
		},
	"2019-04-07T08:00:00+02:00" : {
		"windSpeed" : 2.7,
		"windDir" : 255,
		"rain" : 0,
		"cloudbase" : 30,
		"flyability" : 0,
		"reason" : "cloudbase",
		"timestamp" :1554620400
		},
	"2019-04-07T11:00:00+02:00" : {
		"windSpeed" : 3.4,
		"windDir" : 243,
		"rain" : 0,
		"cloudbase" : 2629.8974399999,
		"flyability" : 100,
		"reason" : "",
		"timestamp" :1554631200
		},
	"2019-04-07T14:00:00+02:00" : {
		"windSpeed" : 3.1,
		"windDir" : 192,
		"rain" : 0,
		"cloudbase" : 99.40904,
		"flyability" : 0,
		"reason" : "windDir, cloudbase",
		"timestamp" :1554642000
		},
	"2019-04-07T17:00:00+02:00" : {
		"windSpeed" : 3.2,
		"windDir" : 182,
		"rain" : 0,
		"cloudbase" : 690.12448000001,
		"flyability" : 0,
		"reason" : "windDir, cloudbase",
		"timestamp" :1554652800
		},
	"2019-04-07T20:00:00+02:00" : {
		"windSpeed" : 3.2,
		"windDir" : 177,
		"rain" : 0,
		"cloudbase" : 192.73904000001,
		"flyability" : 0,
		"reason" : "windDir, cloudbase",
		"timestamp" :1554663600
		},
	"2019-04-07T23:00:00+02:00" : {
		"windSpeed" : 3.2,
		"windDir" : 186,
		"rain" : 0,
		"cloudbase" : 148.68192000001,
		"flyability" : 0,
		"reason" : "windDir, cloudbase",
		"timestamp" :1554674400
		},
	"2019-04-08T02:00:00+02:00" : {
		"windSpeed" : 2.5,
		"windDir" : 196,
		"rain" : 1,
		"cloudbase" : 37.050480000001,
		"flyability" : 0,
		"reason" : "windDir, rain, cloudbase",
		"timestamp" :1554685200
		},
	"2019-04-08T05:00:00+02:00" : {
		"windSpeed" : 4.6,
		"windDir" : 232,
		"rain" : 0,
		"cloudbase" : 50,
		"flyability" : 0,
		"reason" : "cloudbase",
		"timestamp" :1554696000
		},
	"2019-04-08T08:00:00+02:00" : {
		"windSpeed" : 5.1,
		"windDir" : 231,
		"rain" : 0,
		"cloudbase" : 30.452400000001,
		"flyability" : 0,
		"reason" : "windSpeed, cloudbase",
		"timestamp" :1554706800
		},
	"2019-04-08T11:00:00+02:00" : {
		"windSpeed" : 5.4,
		"windDir" : 227,
		"rain" : 0,
		"cloudbase" : 112.6152,
		"flyability" : 0,
		"reason" : "windSpeed, cloudbase",
		"timestamp" :1554717600
		},
	"2019-04-08T14:00:00+02:00" : {
		"windSpeed" : 6.6,
		"windDir" : 225,
		"rain" : 0,
		"cloudbase" : 540,
		"flyability" : 0,
		"reason" : "windSpeed, cloudbase",
		"timestamp" :1554728400
		},
	"2019-04-08T17:00:00+02:00" : {
		"windSpeed" : 5.7,
		"windDir" : 220,
		"rain" : 0,
		"cloudbase" : null,
		"flyability" : 0,
		"reason" : "windSpeed",
		"timestamp" :1554739200
		},
	"2019-04-08T20:00:00+02:00" : {
		"windSpeed" : 5.1,
		"windDir" : 211,
		"rain" : 0,
		"cloudbase" : 302.4744,
		"flyability" : 0,
		"reason" : "windSpeed, cloudbase",
		"timestamp" :1554750000
		},
	"2019-04-08T23:00:00+02:00" : {
		"windSpeed" : 5.1,
		"windDir" : 203,
		"rain" : 0,
		"cloudbase" : 111.81384,
		"flyability" : 0,
		"reason" : "windSpeed, cloudbase",
		"timestamp" :1554760800
		},
	"2019-04-09T02:00:00+02:00" : {
		"windSpeed" : 3.8,
		"windDir" : 195,
		"rain" : 0,
		"cloudbase" : 100.00624,
		"flyability" : 0,
		"reason" : "windDir, cloudbase",
		"timestamp" :1554771600
		},
	"2019-04-09T05:00:00+02:00" : {
		"windSpeed" : 4.4,
		"windDir" : 187,
		"rain" : 0,
		"cloudbase" : 30.03952,
		"flyability" : 0,
		"reason" : "windDir, cloudbase",
		"timestamp" :1554782400
		},
	"2019-04-09T08:00:00+02:00" : {
		"windSpeed" : 5.8,
		"windDir" : 190,
		"rain" : 0,
		"cloudbase" : 30.237120000001,
		"flyability" : 0,
		"reason" : "windSpeed, windDir, cloudbase",
		"timestamp" :1554793200
		},
	"2019-04-09T11:00:00+02:00" : {
		"windSpeed" : 6.2,
		"windDir" : 220,
		"rain" : 0,
		"cloudbase" : 201.78096,
		"flyability" : 0,
		"reason" : "windSpeed, cloudbase",
		"timestamp" :1554804000
		},
	"2019-04-09T14:00:00+02:00" : {
		"windSpeed" : 4.7,
		"windDir" : 260,
		"rain" : 0,
		"cloudbase" : 124.09712,
		"flyability" : 0,
		"reason" : "cloudbase",
		"timestamp" :1554814800
		},
	"2019-04-09T17:00:00+02:00" : {
		"windSpeed" : 5,
		"windDir" : 254,
		"rain" : 0,
		"cloudbase" : 638.02640000002,
		"flyability" : 0,
		"reason" : "cloudbase",
		"timestamp" :1554825600
		},
	"2019-04-09T20:00:00+02:00" : {
		"windSpeed" : 4.4,
		"windDir" : 245,
		"rain" : 0,
		"cloudbase" : 147.62384,
		"flyability" : 0,
		"reason" : "cloudbase",
		"timestamp" :1554836400
		},
	"2019-04-09T23:00:00+02:00" : {
		"windSpeed" : 4.1,
		"windDir" : 258,
		"rain" : 0,
		"cloudbase" : 43.920000000001,
		"flyability" : 0,
		"reason" : "cloudbase",
		"timestamp" :1554847200
		},
	"2019-04-10T02:00:00+02:00" : {
		"windSpeed" : 4.3,
		"windDir" : 265,
		"rain" : 0,
		"cloudbase" : 30,
		"flyability" : 0,
		"reason" : "cloudbase",
		"timestamp" :1554858000
		},
	"2019-04-10T05:00:00+02:00" : {
		"windSpeed" : 3.9,
		"windDir" : 274,
		"rain" : 0,
		"cloudbase" : 30,
		"flyability" : 0,
		"reason" : "cloudbase",
		"timestamp" :1554868800
		},
	"2019-04-10T08:00:00+02:00" : {
		"windSpeed" : 4.9,
		"windDir" : 279,
		"rain" : 0,
		"cloudbase" : 30,
		"flyability" : 0,
		"reason" : "cloudbase",
		"timestamp" :1554879600
		},
	"2019-04-10T11:00:00+02:00" : {
		"windSpeed" : 5.4,
		"windDir" : 291,
		"rain" : 0,
		"cloudbase" : null,
		"flyability" : 0,
		"reason" : "windSpeed",
		"timestamp" :1554890400
		},
	"2019-04-10T14:00:00+02:00" : {
		"windSpeed" : 4.7,
		"windDir" : 299,
		"rain" : 1,
		"cloudbase" : 2101.0571200002,
		"flyability" : 0,
		"reason" : "windDir, rain",
		"timestamp" :1554901200
		},
	"2019-04-10T17:00:00+02:00" : {
		"windSpeed" : 3.7,
		"windDir" : 288,
		"rain" : 1,
		"cloudbase" : 80.443839999996,
		"flyability" : 0,
		"reason" : "rain, cloudbase",
		"timestamp" :1554912000
		},
	"2019-04-10T20:00:00+02:00" : {
		"windSpeed" : 3.1,
		"windDir" : 299,
		"rain" : 0,
		"cloudbase" : 79.902879999996,
		"flyability" : 0,
		"reason" : "windDir, cloudbase",
		"timestamp" :1554922800
		},
	"2019-04-10T23:00:00+02:00" : {
		"windSpeed" : 2.5,
		"windDir" : 293,
		"rain" : 1,
		"cloudbase" : 30.1976,
		"flyability" : 0,
		"reason" : "windDir, rain, cloudbase",
		"timestamp" :1554933600
		},
	"2019-04-11T02:00:00+02:00" : {
		"windSpeed" : 1.2,
		"windDir" : 252,
		"rain" : 0,
		"cloudbase" : 30.271440000001,
		"flyability" : 0,
		"reason" : "cloudbase",
		"timestamp" :1554944400
		}
	}
}