{
"site" : "Grand coude",
"id" : 10569,
"orientations" : "00002000",
"forecasts" : { 
	"2019-04-03T07:00:00+04:00" : {
		"windSpeed" : 0.8,
		"windDir" : 67,
		"rain" : 1,
		"cloudbase" : null,
		"flyability" : 0,
		"reason" : "windDir, rain",
		"timestamp" :1554256800
		},
	"2019-04-03T10:00:00+04:00" : {
		"windSpeed" : 2.2,
		"windDir" : 141,
		"rain" : 1,
		"cloudbase" : null,
		"flyability" : 0,
		"reason" : "windDir, rain",
		"timestamp" :1554267600
		},
	"2019-04-03T13:00:00+04:00" : {
		"windSpeed" : 2.4,
		"windDir" : 148,
		"rain" : 1,
		"cloudbase" : null,
		"flyability" : 0,
		"reason" : "windDir, rain",
		"timestamp" :1554278400
		},
	"2019-04-03T16:00:00+04:00" : {
		"windSpeed" : 2.2,
		"windDir" : 153,
		"rain" : 1,
		"cloudbase" : null,
		"flyability" : 0,
		"reason" : "windDir, rain",
		"timestamp" :1554289200
		},
	"2019-04-03T19:00:00+04:00" : {
		"windSpeed" : 1.1,
		"windDir" : 137,
		"rain" : 1,
		"cloudbase" : null,
		"flyability" : 0,
		"reason" : "windDir, rain",
		"timestamp" :1554300000
		},
	"2019-04-03T22:00:00+04:00" : {
		"windSpeed" : 0.3,
		"windDir" : 98,
		"rain" : 0,
		"cloudbase" : null,
		"flyability" : 0,
		"reason" : "windDir",
		"timestamp" :1554310800
		},
	"2019-04-04T01:00:00+04:00" : {
		"windSpeed" : 0.7,
		"windDir" : 54,
		"rain" : 0,
		"cloudbase" : null,
		"flyability" : 0,
		"reason" : "windDir",
		"timestamp" :1554321600
		},
	"2019-04-04T04:00:00+04:00" : {
		"windSpeed" : 1.1,
		"windDir" : 69,
		"rain" : 0,
		"cloudbase" : null,
		"flyability" : 0,
		"reason" : "windDir",
		"timestamp" :1554332400
		},
	"2019-04-04T07:00:00+04:00" : {
		"windSpeed" : 1.4,
		"windDir" : 69,
		"rain" : 0,
		"cloudbase" : null,
		"flyability" : 0,
		"reason" : "windDir",
		"timestamp" :1554343200
		},
	"2019-04-04T10:00:00+04:00" : {
		"windSpeed" : 2.4,
		"windDir" : 108,
		"rain" : 1,
		"cloudbase" : null,
		"flyability" : 0,
		"reason" : "windDir, rain",
		"timestamp" :1554354000
		},
	"2019-04-04T13:00:00+04:00" : {
		"windSpeed" : 2.2,
		"windDir" : 123,
		"rain" : 1,
		"cloudbase" : null,
		"flyability" : 0,
		"reason" : "windDir, rain",
		"timestamp" :1554364800
		},
	"2019-04-04T16:00:00+04:00" : {
		"windSpeed" : 1.5,
		"windDir" : 133,
		"rain" : 1,
		"cloudbase" : null,
		"flyability" : 0,
		"reason" : "windDir, rain",
		"timestamp" :1554375600
		},
	"2019-04-04T19:00:00+04:00" : {
		"windSpeed" : 0.9,
		"windDir" : 102,
		"rain" : 1,
		"cloudbase" : null,
		"flyability" : 0,
		"reason" : "windDir, rain",
		"timestamp" :1554386400
		},
	"2019-04-04T22:00:00+04:00" : {
		"windSpeed" : 0.8,
		"windDir" : 84,
		"rain" : 0,
		"cloudbase" : null,
		"flyability" : 0,
		"reason" : "windDir",
		"timestamp" :1554397200
		},
	"2019-04-05T01:00:00+04:00" : {
		"windSpeed" : 1.2,
		"windDir" : 65,
		"rain" : 0,
		"cloudbase" : null,
		"flyability" : 0,
		"reason" : "windDir",
		"timestamp" :1554408000
		},
	"2019-04-05T04:00:00+04:00" : {
		"windSpeed" : 1.1,
		"windDir" : 63,
		"rain" : 0,
		"cloudbase" : null,
		"flyability" : 0,
		"reason" : "windDir",
		"timestamp" :1554418800
		},
	"2019-04-05T07:00:00+04:00" : {
		"windSpeed" : 1.3,
		"windDir" : 54,
		"rain" : 0,
		"cloudbase" : null,
		"flyability" : 0,
		"reason" : "windDir",
		"timestamp" :1554429600
		},
	"2019-04-05T10:00:00+04:00" : {
		"windSpeed" : 2.1,
		"windDir" : 113,
		"rain" : 1,
		"cloudbase" : 10500,
		"flyability" : 0,
		"reason" : "windDir, rain",
		"timestamp" :1554440400
		},
	"2019-04-05T13:00:00+04:00" : {
		"windSpeed" : 2,
		"windDir" : 133,
		"rain" : 1,
		"cloudbase" : null,
		"flyability" : 0,
		"reason" : "windDir, rain",
		"timestamp" :1554451200
		},
	"2019-04-05T16:00:00+04:00" : {
		"windSpeed" : 2.7,
		"windDir" : 126,
		"rain" : 1,
		"cloudbase" : null,
		"flyability" : 0,
		"reason" : "windDir, rain",
		"timestamp" :1554462000
		},
	"2019-04-05T19:00:00+04:00" : {
		"windSpeed" : 2,
		"windDir" : 107,
		"rain" : 1,
		"cloudbase" : 90,
		"flyability" : 0,
		"reason" : "windDir, rain, cloudbase",
		"timestamp" :1554472800
		},
	"2019-04-05T22:00:00+04:00" : {
		"windSpeed" : 1.8,
		"windDir" : 76,
		"rain" : 1,
		"cloudbase" : 5231.3657500008,
		"flyability" : 0,
		"reason" : "windDir, rain",
		"timestamp" :1554483600
		},
	"2019-04-06T01:00:00+04:00" : {
		"windSpeed" : 1.5,
		"windDir" : 84,
		"rain" : 1,
		"cloudbase" : 11500,
		"flyability" : 0,
		"reason" : "windDir, rain",
		"timestamp" :1554494400
		},
	"2019-04-06T04:00:00+04:00" : {
		"windSpeed" : 1.9,
		"windDir" : 89,
		"rain" : 1,
		"cloudbase" : 8302.2095000012,
		"flyability" : 0,
		"reason" : "windDir, rain",
		"timestamp" :1554505200
		},
	"2019-04-06T07:00:00+04:00" : {
		"windSpeed" : 2.7,
		"windDir" : 95,
		"rain" : 1,
		"cloudbase" : 5018.8815000007,
		"flyability" : 0,
		"reason" : "windDir, rain",
		"timestamp" :1554516000
		},
	"2019-04-06T10:00:00+04:00" : {
		"windSpeed" : 3.3,
		"windDir" : 106,
		"rain" : 1,
		"cloudbase" : 140,
		"flyability" : 0,
		"reason" : "windDir, rain, cloudbase",
		"timestamp" :1554526800
		},
	"2019-04-06T13:00:00+04:00" : {
		"windSpeed" : 4.1,
		"windDir" : 122,
		"rain" : 1,
		"cloudbase" : 200.24487500004,
		"flyability" : 0,
		"reason" : "windDir, rain, cloudbase",
		"timestamp" :1554537600
		},
	"2019-04-06T16:00:00+04:00" : {
		"windSpeed" : 3.5,
		"windDir" : 116,
		"rain" : 1,
		"cloudbase" : 3241.560250001,
		"flyability" : 0,
		"reason" : "windDir, rain",
		"timestamp" :1554548400
		},
	"2019-04-06T19:00:00+04:00" : {
		"windSpeed" : 2.3,
		"windDir" : 111,
		"rain" : 1,
		"cloudbase" : 9000.7365000007,
		"flyability" : 0,
		"reason" : "windDir, rain",
		"timestamp" :1554559200
		},
	"2019-04-06T22:00:00+04:00" : {
		"windSpeed" : 2.6,
		"windDir" : 81,
		"rain" : 0,
		"cloudbase" : null,
		"flyability" : 0,
		"reason" : "windDir",
		"timestamp" :1554570000
		},
	"2019-04-07T01:00:00+04:00" : {
		"windSpeed" : 2.8,
		"windDir" : 72,
		"rain" : 0,
		"cloudbase" : 9890.6725,
		"flyability" : 0,
		"reason" : "windDir",
		"timestamp" :1554580800
		},
	"2019-04-07T04:00:00+04:00" : {
		"windSpeed" : 1.9,
		"windDir" : 75,
		"rain" : 0,
		"cloudbase" : null,
		"flyability" : 0,
		"reason" : "windDir",
		"timestamp" :1554591600
		},
	"2019-04-07T07:00:00+04:00" : {
		"windSpeed" : 2.2,
		"windDir" : 77,
		"rain" : 1,
		"cloudbase" : null,
		"flyability" : 0,
		"reason" : "windDir, rain",
		"timestamp" :1554602400
		},
	"2019-04-07T10:00:00+04:00" : {
		"windSpeed" : 3.7,
		"windDir" : 93,
		"rain" : 1,
		"cloudbase" : null,
		"flyability" : 0,
		"reason" : "windDir, rain",
		"timestamp" :1554613200
		},
	"2019-04-07T13:00:00+04:00" : {
		"windSpeed" : 4.5,
		"windDir" : 100,
		"rain" : 1,
		"cloudbase" : null,
		"flyability" : 0,
		"reason" : "windDir, rain",
		"timestamp" :1554624000
		},
	"2019-04-07T16:00:00+04:00" : {
		"windSpeed" : 4.1,
		"windDir" : 97,
		"rain" : 1,
		"cloudbase" : null,
		"flyability" : 0,
		"reason" : "windDir, rain",
		"timestamp" :1554634800
		},
	"2019-04-07T19:00:00+04:00" : {
		"windSpeed" : 3,
		"windDir" : 90,
		"rain" : 1,
		"cloudbase" : null,
		"flyability" : 0,
		"reason" : "windDir, rain",
		"timestamp" :1554645600
		},
	"2019-04-07T22:00:00+04:00" : {
		"windSpeed" : 2.8,
		"windDir" : 90,
		"rain" : 0,
		"cloudbase" : null,
		"flyability" : 0,
		"reason" : "windDir",
		"timestamp" :1554656400
		},
	"2019-04-08T01:00:00+04:00" : {
		"windSpeed" : 2.3,
		"windDir" : 83,
		"rain" : 1,
		"cloudbase" : null,
		"flyability" : 0,
		"reason" : "windDir, rain",
		"timestamp" :1554667200
		},
	"2019-04-08T04:00:00+04:00" : {
		"windSpeed" : 2,
		"windDir" : 63,
		"rain" : 0,
		"cloudbase" : null,
		"flyability" : 0,
		"reason" : "windDir",
		"timestamp" :1554678000
		},
	"2019-04-08T07:00:00+04:00" : {
		"windSpeed" : 2.2,
		"windDir" : 66,
		"rain" : 1,
		"cloudbase" : 100,
		"flyability" : 0,
		"reason" : "windDir, rain, cloudbase",
		"timestamp" :1554688800
		},
	"2019-04-08T10:00:00+04:00" : {
		"windSpeed" : 3.7,
		"windDir" : 99,
		"rain" : 1,
		"cloudbase" : null,
		"flyability" : 0,
		"reason" : "windDir, rain",
		"timestamp" :1554699600
		},
	"2019-04-08T13:00:00+04:00" : {
		"windSpeed" : 3.8,
		"windDir" : 103,
		"rain" : 1,
		"cloudbase" : null,
		"flyability" : 0,
		"reason" : "windDir, rain",
		"timestamp" :1554710400
		},
	"2019-04-08T16:00:00+04:00" : {
		"windSpeed" : 3.3,
		"windDir" : 101,
		"rain" : 0,
		"cloudbase" : null,
		"flyability" : 0,
		"reason" : "windDir",
		"timestamp" :1554721200
		},
	"2019-04-08T19:00:00+04:00" : {
		"windSpeed" : 2.7,
		"windDir" : 90,
		"rain" : 0,
		"cloudbase" : null,
		"flyability" : 0,
		"reason" : "windDir",
		"timestamp" :1554732000
		},
	"2019-04-08T22:00:00+04:00" : {
		"windSpeed" : 2.8,
		"windDir" : 82,
		"rain" : 0,
		"cloudbase" : null,
		"flyability" : 0,
		"reason" : "windDir",
		"timestamp" :1554742800
		},
	"2019-04-09T01:00:00+04:00" : {
		"windSpeed" : 1.6,
		"windDir" : 62,
		"rain" : 1,
		"cloudbase" : null,
		"flyability" : 0,
		"reason" : "windDir, rain",
		"timestamp" :1554753600
		},
	"2019-04-09T04:00:00+04:00" : {
		"windSpeed" : 1.8,
		"windDir" : 82,
		"rain" : 1,
		"cloudbase" : null,
		"flyability" : 0,
		"reason" : "windDir, rain",
		"timestamp" :1554764400
		}
	}
}