{
"site" : "Catlakkaya",
"id" : 10590,
"orientations" : "21000001",
"forecasts" : { 
	"2019-04-04T18:00:00+03:00" : {
		"windSpeed" : 1.8,
		"windDir" : 356,
		"rain" : 0,
		"cloudbase" : 3374.3157000001,
		"flyability" : 100,
		"reason" : "",
		"timestamp" :1554390000
		},
	"2019-04-04T21:00:00+03:00" : {
		"windSpeed" : 0.5,
		"windDir" : 165,
		"rain" : 0,
		"cloudbase" : 7266.2985,
		"flyability" : 0,
		"reason" : "windDir",
		"timestamp" :1554400800
		},
	"2019-04-05T00:00:00+03:00" : {
		"windSpeed" : 0.7,
		"windDir" : 175,
		"rain" : 0,
		"cloudbase" : null,
		"flyability" : 0,
		"reason" : "windDir",
		"timestamp" :1554411600
		},
	"2019-04-05T03:00:00+03:00" : {
		"windSpeed" : 0.6,
		"windDir" : 156,
		"rain" : 0,
		"cloudbase" : null,
		"flyability" : 0,
		"reason" : "windDir",
		"timestamp" :1554422400
		},
	"2019-04-05T06:00:00+03:00" : {
		"windSpeed" : 1.3,
		"windDir" : 217,
		"rain" : 0,
		"cloudbase" : null,
		"flyability" : 0,
		"reason" : "windDir",
		"timestamp" :1554433200
		},
	"2019-04-05T09:00:00+03:00" : {
		"windSpeed" : 0.8,
		"windDir" : 284,
		"rain" : 0,
		"cloudbase" : null,
		"flyability" : 0,
		"reason" : "windDir",
		"timestamp" :1554444000
		},
	"2019-04-05T12:00:00+03:00" : {
		"windSpeed" : 1,
		"windDir" : 288,
		"rain" : 1,
		"cloudbase" : null,
		"flyability" : 0,
		"reason" : "windDir, rain",
		"timestamp" :1554454800
		},
	"2019-04-05T15:00:00+03:00" : {
		"windSpeed" : 1.4,
		"windDir" : 342,
		"rain" : 1,
		"cloudbase" : null,
		"flyability" : 0,
		"reason" : "rain",
		"timestamp" :1554465600
		},
	"2019-04-05T18:00:00+03:00" : {
		"windSpeed" : 1.3,
		"windDir" : 15,
		"rain" : 0,
		"cloudbase" : null,
		"flyability" : 100,
		"reason" : "",
		"timestamp" :1554476400
		},
	"2019-04-05T21:00:00+03:00" : {
		"windSpeed" : 0.9,
		"windDir" : 122,
		"rain" : 0,
		"cloudbase" : null,
		"flyability" : 0,
		"reason" : "windDir",
		"timestamp" :1554487200
		},
	"2019-04-06T00:00:00+03:00" : {
		"windSpeed" : 0.5,
		"windDir" : 201,
		"rain" : 0,
		"cloudbase" : null,
		"flyability" : 0,
		"reason" : "windDir",
		"timestamp" :1554498000
		},
	"2019-04-06T03:00:00+03:00" : {
		"windSpeed" : 0.8,
		"windDir" : 110,
		"rain" : 0,
		"cloudbase" : null,
		"flyability" : 0,
		"reason" : "windDir",
		"timestamp" :1554508800
		},
	"2019-04-06T06:00:00+03:00" : {
		"windSpeed" : 0.3,
		"windDir" : 180,
		"rain" : 0,
		"cloudbase" : 8582,
		"flyability" : 0,
		"reason" : "windDir",
		"timestamp" :1554519600
		},
	"2019-04-06T09:00:00+03:00" : {
		"windSpeed" : 0.1,
		"windDir" : 111,
		"rain" : 0,
		"cloudbase" : 7319.7075,
		"flyability" : 0,
		"reason" : "windDir",
		"timestamp" :1554530400
		},
	"2019-04-06T12:00:00+03:00" : {
		"windSpeed" : 0.7,
		"windDir" : 309,
		"rain" : 1,
		"cloudbase" : 5925.097,
		"flyability" : 0,
		"reason" : "rain",
		"timestamp" :1554541200
		},
	"2019-04-06T15:00:00+03:00" : {
		"windSpeed" : 1.4,
		"windDir" : 300,
		"rain" : 1,
		"cloudbase" : 2550.65825,
		"flyability" : 0,
		"reason" : "rain",
		"timestamp" :1554552000
		},
	"2019-04-06T18:00:00+03:00" : {
		"windSpeed" : 0.7,
		"windDir" : 269,
		"rain" : 1,
		"cloudbase" : 3819.206,
		"flyability" : 0,
		"reason" : "windDir, rain",
		"timestamp" :1554562800
		},
	"2019-04-06T21:00:00+03:00" : {
		"windSpeed" : 0.7,
		"windDir" : 151,
		"rain" : 0,
		"cloudbase" : 3563.44925,
		"flyability" : 0,
		"reason" : "windDir",
		"timestamp" :1554573600
		},
	"2019-04-07T00:00:00+03:00" : {
		"windSpeed" : 1,
		"windDir" : 153,
		"rain" : 0,
		"cloudbase" : 3498.9507500001,
		"flyability" : 0,
		"reason" : "windDir",
		"timestamp" :1554584400
		},
	"2019-04-07T03:00:00+03:00" : {
		"windSpeed" : 0.9,
		"windDir" : 155,
		"rain" : 0,
		"cloudbase" : 1613.047,
		"flyability" : 0,
		"reason" : "windDir",
		"timestamp" :1554595200
		},
	"2019-04-07T06:00:00+03:00" : {
		"windSpeed" : 1.2,
		"windDir" : 150,
		"rain" : 0,
		"cloudbase" : 1507.544,
		"flyability" : 0,
		"reason" : "windDir, cloudbase",
		"timestamp" :1554606000
		},
	"2019-04-07T09:00:00+03:00" : {
		"windSpeed" : 1,
		"windDir" : 163,
		"rain" : 0,
		"cloudbase" : 7432.697,
		"flyability" : 0,
		"reason" : "windDir",
		"timestamp" :1554616800
		},
	"2019-04-07T12:00:00+03:00" : {
		"windSpeed" : 0.9,
		"windDir" : 234,
		"rain" : 0,
		"cloudbase" : 2307.355,
		"flyability" : 0,
		"reason" : "windDir",
		"timestamp" :1554627600
		},
	"2019-04-07T15:00:00+03:00" : {
		"windSpeed" : 1.2,
		"windDir" : 274,
		"rain" : 1,
		"cloudbase" : 1735.34475,
		"flyability" : 0,
		"reason" : "windDir, rain",
		"timestamp" :1554638400
		},
	"2019-04-07T18:00:00+03:00" : {
		"windSpeed" : 0.7,
		"windDir" : 263,
		"rain" : 0,
		"cloudbase" : 1100,
		"flyability" : 0,
		"reason" : "windDir, cloudbase",
		"timestamp" :1554649200
		},
	"2019-04-07T21:00:00+03:00" : {
		"windSpeed" : 0.9,
		"windDir" : 159,
		"rain" : 1,
		"cloudbase" : 1750,
		"flyability" : 0,
		"reason" : "windDir, rain",
		"timestamp" :1554660000
		},
	"2019-04-08T00:00:00+03:00" : {
		"windSpeed" : 1,
		"windDir" : 147,
		"rain" : 1,
		"cloudbase" : 1250,
		"flyability" : 0,
		"reason" : "windDir, rain, cloudbase",
		"timestamp" :1554670800
		},
	"2019-04-08T03:00:00+03:00" : {
		"windSpeed" : 1.4,
		"windDir" : 161,
		"rain" : 1,
		"cloudbase" : null,
		"flyability" : 0,
		"reason" : "windDir, rain",
		"timestamp" :1554681600
		},
	"2019-04-08T06:00:00+03:00" : {
		"windSpeed" : 1.8,
		"windDir" : 167,
		"rain" : 0,
		"cloudbase" : null,
		"flyability" : 0,
		"reason" : "windDir",
		"timestamp" :1554692400
		},
	"2019-04-08T09:00:00+03:00" : {
		"windSpeed" : 1.5,
		"windDir" : 162,
		"rain" : 0,
		"cloudbase" : null,
		"flyability" : 0,
		"reason" : "windDir",
		"timestamp" :1554703200
		},
	"2019-04-08T12:00:00+03:00" : {
		"windSpeed" : 2.5,
		"windDir" : 178,
		"rain" : 1,
		"cloudbase" : null,
		"flyability" : 0,
		"reason" : "windDir, rain",
		"timestamp" :1554714000
		},
	"2019-04-08T15:00:00+03:00" : {
		"windSpeed" : 1.7,
		"windDir" : 192,
		"rain" : 0,
		"cloudbase" : 7373.4429999999,
		"flyability" : 0,
		"reason" : "windDir",
		"timestamp" :1554724800
		},
	"2019-04-08T18:00:00+03:00" : {
		"windSpeed" : 1.2,
		"windDir" : 190,
		"rain" : 0,
		"cloudbase" : 1525.24045,
		"flyability" : 0,
		"reason" : "windDir",
		"timestamp" :1554735600
		},
	"2019-04-08T21:00:00+03:00" : {
		"windSpeed" : 3,
		"windDir" : 172,
		"rain" : 1,
		"cloudbase" : 2743.4925,
		"flyability" : 0,
		"reason" : "windDir, rain",
		"timestamp" :1554746400
		},
	"2019-04-09T00:00:00+03:00" : {
		"windSpeed" : 2,
		"windDir" : 168,
		"rain" : 1,
		"cloudbase" : 4050,
		"flyability" : 0,
		"reason" : "windDir, rain",
		"timestamp" :1554757200
		},
	"2019-04-09T03:00:00+03:00" : {
		"windSpeed" : 2.3,
		"windDir" : 166,
		"rain" : 0,
		"cloudbase" : null,
		"flyability" : 0,
		"reason" : "windDir",
		"timestamp" :1554768000
		},
	"2019-04-09T06:00:00+03:00" : {
		"windSpeed" : 1.9,
		"windDir" : 159,
		"rain" : 1,
		"cloudbase" : null,
		"flyability" : 0,
		"reason" : "windDir, rain",
		"timestamp" :1554778800
		},
	"2019-04-09T09:00:00+03:00" : {
		"windSpeed" : 2.8,
		"windDir" : 172,
		"rain" : 1,
		"cloudbase" : null,
		"flyability" : 0,
		"reason" : "windDir, rain",
		"timestamp" :1554789600
		},
	"2019-04-09T12:00:00+03:00" : {
		"windSpeed" : 3.1,
		"windDir" : 188,
		"rain" : 1,
		"cloudbase" : null,
		"flyability" : 0,
		"reason" : "windDir, rain",
		"timestamp" :1554800400
		},
	"2019-04-09T15:00:00+03:00" : {
		"windSpeed" : 2.7,
		"windDir" : 191,
		"rain" : 1,
		"cloudbase" : 6321.994,
		"flyability" : 0,
		"reason" : "windDir, rain",
		"timestamp" :1554811200
		},
	"2019-04-09T18:00:00+03:00" : {
		"windSpeed" : 1.5,
		"windDir" : 205,
		"rain" : 1,
		"cloudbase" : 3808.153,
		"flyability" : 0,
		"reason" : "windDir, rain",
		"timestamp" :1554822000
		},
	"2019-04-09T21:00:00+03:00" : {
		"windSpeed" : 2.4,
		"windDir" : 176,
		"rain" : 1,
		"cloudbase" : 914.84030000004,
		"flyability" : 0,
		"reason" : "windDir, rain, cloudbase",
		"timestamp" :1554832800
		},
	"2019-04-10T00:00:00+03:00" : {
		"windSpeed" : 2.2,
		"windDir" : 182,
		"rain" : 1,
		"cloudbase" : 581.56330000003,
		"flyability" : 0,
		"reason" : "windDir, rain, cloudbase",
		"timestamp" :1554843600
		},
	"2019-04-10T03:00:00+03:00" : {
		"windSpeed" : 1.9,
		"windDir" : 177,
		"rain" : 1,
		"cloudbase" : 2063.9437000001,
		"flyability" : 0,
		"reason" : "windDir, rain",
		"timestamp" :1554854400
		},
	"2019-04-10T06:00:00+03:00" : {
		"windSpeed" : 1.4,
		"windDir" : 161,
		"rain" : 1,
		"cloudbase" : 944.15550000003,
		"flyability" : 0,
		"reason" : "windDir, rain, cloudbase",
		"timestamp" :1554865200
		},
	"2019-04-10T09:00:00+03:00" : {
		"windSpeed" : 1.3,
		"windDir" : 159,
		"rain" : 1,
		"cloudbase" : 519.47865000002,
		"flyability" : 0,
		"reason" : "windDir, rain, cloudbase",
		"timestamp" :1554876000
		},
	"2019-04-10T12:00:00+03:00" : {
		"windSpeed" : 1.9,
		"windDir" : 238,
		"rain" : 1,
		"cloudbase" : 646.04270000003,
		"flyability" : 0,
		"reason" : "windDir, rain, cloudbase",
		"timestamp" :1554886800
		},
	"2019-04-10T15:00:00+03:00" : {
		"windSpeed" : 2.2,
		"windDir" : 258,
		"rain" : 1,
		"cloudbase" : 2302.3089500001,
		"flyability" : 0,
		"reason" : "windDir, rain",
		"timestamp" :1554897600
		}
	}
}