{
"site" : "salvador NE",
"id" : 10732,
"orientations" : "22000001",
"forecasts" : { 
	"2019-04-05T04:00:00+01:00" : {
		"windSpeed" : 3,
		"windDir" : 238,
		"rain" : 1,
		"cloudbase" : null,
		"flyability" : 0,
		"reason" : "windDir, rain",
		"timestamp" :1554429600
		},
	"2019-04-05T07:00:00+01:00" : {
		"windSpeed" : 2.3,
		"windDir" : 244,
		"rain" : 1,
		"cloudbase" : 4554.008,
		"flyability" : 0,
		"reason" : "windDir, rain",
		"timestamp" :1554440400
		},
	"2019-04-05T10:00:00+01:00" : {
		"windSpeed" : 3.7,
		"windDir" : 253,
		"rain" : 1,
		"cloudbase" : 1874.8383999999,
		"flyability" : 0,
		"reason" : "windDir, rain",
		"timestamp" :1554451200
		},
	"2019-04-05T13:00:00+01:00" : {
		"windSpeed" : 4.5,
		"windDir" : 262,
		"rain" : 1,
		"cloudbase" : null,
		"flyability" : 0,
		"reason" : "windDir, rain",
		"timestamp" :1554462000
		},
	"2019-04-05T16:00:00+01:00" : {
		"windSpeed" : 5.5,
		"windDir" : 264,
		"rain" : 1,
		"cloudbase" : 6200,
		"flyability" : 0,
		"reason" : "windSpeed, windDir, rain",
		"timestamp" :1554472800
		},
	"2019-04-05T19:00:00+01:00" : {
		"windSpeed" : 5.5,
		"windDir" : 275,
		"rain" : 1,
		"cloudbase" : null,
		"flyability" : 0,
		"reason" : "windSpeed, windDir, rain",
		"timestamp" :1554483600
		},
	"2019-04-05T22:00:00+01:00" : {
		"windSpeed" : 4.1,
		"windDir" : 255,
		"rain" : 1,
		"cloudbase" : null,
		"flyability" : 0,
		"reason" : "windDir, rain",
		"timestamp" :1554494400
		},
	"2019-04-06T01:00:00+01:00" : {
		"windSpeed" : 4.1,
		"windDir" : 255,
		"rain" : 0,
		"cloudbase" : 5345.992,
		"flyability" : 0,
		"reason" : "windDir",
		"timestamp" :1554505200
		},
	"2019-04-06T04:00:00+01:00" : {
		"windSpeed" : 3.8,
		"windDir" : 246,
		"rain" : 1,
		"cloudbase" : 5630.52,
		"flyability" : 0,
		"reason" : "windDir, rain",
		"timestamp" :1554516000
		},
	"2019-04-06T07:00:00+01:00" : {
		"windSpeed" : 4.3,
		"windDir" : 234,
		"rain" : 1,
		"cloudbase" : 497.4208,
		"flyability" : 0,
		"reason" : "windDir, rain, cloudbase",
		"timestamp" :1554526800
		},
	"2019-04-06T10:00:00+01:00" : {
		"windSpeed" : 5.1,
		"windDir" : 218,
		"rain" : 1,
		"cloudbase" : 348.5528,
		"flyability" : 0,
		"reason" : "windSpeed, windDir, rain, cloudbase",
		"timestamp" :1554537600
		},
	"2019-04-06T13:00:00+01:00" : {
		"windSpeed" : 7.1,
		"windDir" : 276,
		"rain" : 1,
		"cloudbase" : null,
		"flyability" : 0,
		"reason" : "windSpeed, windDir, rain",
		"timestamp" :1554548400
		},
	"2019-04-06T16:00:00+01:00" : {
		"windSpeed" : 6.9,
		"windDir" : 287,
		"rain" : 1,
		"cloudbase" : null,
		"flyability" : 0,
		"reason" : "windSpeed, windDir, rain",
		"timestamp" :1554559200
		},
	"2019-04-06T19:00:00+01:00" : {
		"windSpeed" : 4.6,
		"windDir" : 270,
		"rain" : 1,
		"cloudbase" : null,
		"flyability" : 0,
		"reason" : "windDir, rain",
		"timestamp" :1554570000
		},
	"2019-04-06T22:00:00+01:00" : {
		"windSpeed" : 3.6,
		"windDir" : 254,
		"rain" : 0,
		"cloudbase" : 2750,
		"flyability" : 0,
		"reason" : "windDir",
		"timestamp" :1554580800
		},
	"2019-04-07T01:00:00+01:00" : {
		"windSpeed" : 3.9,
		"windDir" : 233,
		"rain" : 0,
		"cloudbase" : null,
		"flyability" : 0,
		"reason" : "windDir",
		"timestamp" :1554591600
		},
	"2019-04-07T04:00:00+01:00" : {
		"windSpeed" : 3.3,
		"windDir" : 233,
		"rain" : 1,
		"cloudbase" : 90,
		"flyability" : 0,
		"reason" : "windDir, rain, cloudbase",
		"timestamp" :1554602400
		},
	"2019-04-07T07:00:00+01:00" : {
		"windSpeed" : 2.5,
		"windDir" : 232,
		"rain" : 0,
		"cloudbase" : 83.497199999998,
		"flyability" : 0,
		"reason" : "windDir, cloudbase",
		"timestamp" :1554613200
		},
	"2019-04-07T10:00:00+01:00" : {
		"windSpeed" : 3.8,
		"windDir" : 204,
		"rain" : 1,
		"cloudbase" : 182.188,
		"flyability" : 0,
		"reason" : "windDir, rain, cloudbase",
		"timestamp" :1554624000
		},
	"2019-04-07T13:00:00+01:00" : {
		"windSpeed" : 2.5,
		"windDir" : 169,
		"rain" : 1,
		"cloudbase" : 528.13520000001,
		"flyability" : 0,
		"reason" : "windDir, rain, cloudbase",
		"timestamp" :1554634800
		},
	"2019-04-07T16:00:00+01:00" : {
		"windSpeed" : 2.9,
		"windDir" : 150,
		"rain" : 1,
		"cloudbase" : 419.832,
		"flyability" : 0,
		"reason" : "windDir, rain, cloudbase",
		"timestamp" :1554645600
		},
	"2019-04-07T19:00:00+01:00" : {
		"windSpeed" : 1.9,
		"windDir" : 134,
		"rain" : 1,
		"cloudbase" : 3348.7992,
		"flyability" : 0,
		"reason" : "windDir, rain",
		"timestamp" :1554656400
		},
	"2019-04-07T22:00:00+01:00" : {
		"windSpeed" : 2.5,
		"windDir" : 194,
		"rain" : 1,
		"cloudbase" : 1638.5248,
		"flyability" : 0,
		"reason" : "windDir, rain",
		"timestamp" :1554667200
		},
	"2019-04-08T01:00:00+01:00" : {
		"windSpeed" : 5.4,
		"windDir" : 236,
		"rain" : 1,
		"cloudbase" : 331.9016,
		"flyability" : 0,
		"reason" : "windSpeed, windDir, rain, cloudbase",
		"timestamp" :1554678000
		},
	"2019-04-08T04:00:00+01:00" : {
		"windSpeed" : 2.6,
		"windDir" : 249,
		"rain" : 0,
		"cloudbase" : null,
		"flyability" : 0,
		"reason" : "windDir",
		"timestamp" :1554688800
		},
	"2019-04-08T07:00:00+01:00" : {
		"windSpeed" : 1.9,
		"windDir" : 236,
		"rain" : 0,
		"cloudbase" : null,
		"flyability" : 0,
		"reason" : "windDir",
		"timestamp" :1554699600
		},
	"2019-04-08T10:00:00+01:00" : {
		"windSpeed" : 4.6,
		"windDir" : 257,
		"rain" : 0,
		"cloudbase" : null,
		"flyability" : 0,
		"reason" : "windDir",
		"timestamp" :1554710400
		},
	"2019-04-08T13:00:00+01:00" : {
		"windSpeed" : 6,
		"windDir" : 246,
		"rain" : 1,
		"cloudbase" : null,
		"flyability" : 0,
		"reason" : "windSpeed, windDir, rain",
		"timestamp" :1554721200
		},
	"2019-04-08T16:00:00+01:00" : {
		"windSpeed" : 5,
		"windDir" : 248,
		"rain" : 1,
		"cloudbase" : null,
		"flyability" : 0,
		"reason" : "windDir, rain",
		"timestamp" :1554732000
		},
	"2019-04-08T19:00:00+01:00" : {
		"windSpeed" : 3.7,
		"windDir" : 236,
		"rain" : 1,
		"cloudbase" : null,
		"flyability" : 0,
		"reason" : "windDir, rain",
		"timestamp" :1554742800
		},
	"2019-04-08T22:00:00+01:00" : {
		"windSpeed" : 3.3,
		"windDir" : 231,
		"rain" : 1,
		"cloudbase" : 540,
		"flyability" : 0,
		"reason" : "windDir, rain, cloudbase",
		"timestamp" :1554753600
		},
	"2019-04-09T01:00:00+01:00" : {
		"windSpeed" : 4.1,
		"windDir" : 212,
		"rain" : 1,
		"cloudbase" : 150,
		"flyability" : 0,
		"reason" : "windDir, rain, cloudbase",
		"timestamp" :1554764400
		},
	"2019-04-09T04:00:00+01:00" : {
		"windSpeed" : 4.4,
		"windDir" : 217,
		"rain" : 1,
		"cloudbase" : 46.6244,
		"flyability" : 0,
		"reason" : "windDir, rain, cloudbase",
		"timestamp" :1554775200
		},
	"2019-04-09T07:00:00+01:00" : {
		"windSpeed" : 3.6,
		"windDir" : 226,
		"rain" : 1,
		"cloudbase" : 320,
		"flyability" : 0,
		"reason" : "windDir, rain, cloudbase",
		"timestamp" :1554786000
		},
	"2019-04-09T10:00:00+01:00" : {
		"windSpeed" : 4.8,
		"windDir" : 223,
		"rain" : 1,
		"cloudbase" : 660,
		"flyability" : 0,
		"reason" : "windDir, rain, cloudbase",
		"timestamp" :1554796800
		},
	"2019-04-09T13:00:00+01:00" : {
		"windSpeed" : 6.4,
		"windDir" : 273,
		"rain" : 1,
		"cloudbase" : null,
		"flyability" : 0,
		"reason" : "windSpeed, windDir, rain",
		"timestamp" :1554807600
		},
	"2019-04-09T16:00:00+01:00" : {
		"windSpeed" : 6.5,
		"windDir" : 279,
		"rain" : 1,
		"cloudbase" : null,
		"flyability" : 0,
		"reason" : "windSpeed, windDir, rain",
		"timestamp" :1554818400
		},
	"2019-04-09T19:00:00+01:00" : {
		"windSpeed" : 5,
		"windDir" : 269,
		"rain" : 1,
		"cloudbase" : null,
		"flyability" : 0,
		"reason" : "windDir, rain",
		"timestamp" :1554829200
		},
	"2019-04-09T22:00:00+01:00" : {
		"windSpeed" : 3.4,
		"windDir" : 260,
		"rain" : 1,
		"cloudbase" : null,
		"flyability" : 0,
		"reason" : "windDir, rain",
		"timestamp" :1554840000
		},
	"2019-04-10T01:00:00+01:00" : {
		"windSpeed" : 2.9,
		"windDir" : 259,
		"rain" : 0,
		"cloudbase" : null,
		"flyability" : 0,
		"reason" : "windDir",
		"timestamp" :1554850800
		},
	"2019-04-10T04:00:00+01:00" : {
		"windSpeed" : 1.6,
		"windDir" : 284,
		"rain" : 0,
		"cloudbase" : null,
		"flyability" : 0,
		"reason" : "windDir",
		"timestamp" :1554861600
		},
	"2019-04-10T07:00:00+01:00" : {
		"windSpeed" : 1.5,
		"windDir" : 285,
		"rain" : 0,
		"cloudbase" : null,
		"flyability" : 0,
		"reason" : "windDir",
		"timestamp" :1554872400
		},
	"2019-04-10T10:00:00+01:00" : {
		"windSpeed" : 4,
		"windDir" : 298,
		"rain" : 0,
		"cloudbase" : null,
		"flyability" : 100,
		"reason" : "",
		"timestamp" :1554883200
		},
	"2019-04-10T13:00:00+01:00" : {
		"windSpeed" : 4.9,
		"windDir" : 294,
		"rain" : 0,
		"cloudbase" : null,
		"flyability" : 100,
		"reason" : "",
		"timestamp" :1554894000
		},
	"2019-04-10T16:00:00+01:00" : {
		"windSpeed" : 5,
		"windDir" : 294,
		"rain" : 0,
		"cloudbase" : null,
		"flyability" : 100,
		"reason" : "",
		"timestamp" :1554904800
		},
	"2019-04-10T19:00:00+01:00" : {
		"windSpeed" : 4,
		"windDir" : 277,
		"rain" : 0,
		"cloudbase" : null,
		"flyability" : 0,
		"reason" : "windDir",
		"timestamp" :1554915600
		},
	"2019-04-10T22:00:00+01:00" : {
		"windSpeed" : 2.9,
		"windDir" : 301,
		"rain" : 0,
		"cloudbase" : null,
		"flyability" : 100,
		"reason" : "",
		"timestamp" :1554926400
		},
	"2019-04-11T01:00:00+01:00" : {
		"windSpeed" : 1.7,
		"windDir" : 304,
		"rain" : 0,
		"cloudbase" : 8640.4,
		"flyability" : 100,
		"reason" : "",
		"timestamp" :1554937200
		}
	}
}