{
"site" : "Ens",
"id" : 10757,
"orientations" : "11000002",
"forecasts" : { 
	"2019-04-22T05:00:00+02:00" : {
		"windSpeed" : 0.4,
		"windDir" : 283,
		"rain" : 0,
		"cloudbase" : null,
		"flyability" : 0,
		"reason" : "windDir",
		"timestamp" :1555905600
		},
	"2019-04-22T08:00:00+02:00" : {
		"windSpeed" : 0.3,
		"windDir" : 264,
		"rain" : 0,
		"cloudbase" : 4736.630655,
		"flyability" : 0,
		"reason" : "windDir",
		"timestamp" :1555916400
		},
	"2019-04-22T11:00:00+02:00" : {
		"windSpeed" : 0.6,
		"windDir" : 239,
		"rain" : 1,
		"cloudbase" : 1910.0183550001,
		"flyability" : 0,
		"reason" : "windDir, rain",
		"timestamp" :1555927200
		},
	"2019-04-22T14:00:00+02:00" : {
		"windSpeed" : 1,
		"windDir" : 45,
		"rain" : 1,
		"cloudbase" : 831.852154,
		"flyability" : 0,
		"reason" : "rain, cloudbase",
		"timestamp" :1555938000
		},
	"2019-04-22T17:00:00+02:00" : {
		"windSpeed" : 1.2,
		"windDir" : 27,
		"rain" : 1,
		"cloudbase" : 740,
		"flyability" : 0,
		"reason" : "rain, cloudbase",
		"timestamp" :1555948800
		},
	"2019-04-22T20:00:00+02:00" : {
		"windSpeed" : 0.8,
		"windDir" : 70,
		"rain" : 1,
		"cloudbase" : 1986.77236,
		"flyability" : 0,
		"reason" : "windDir, rain",
		"timestamp" :1555959600
		},
	"2019-04-22T23:00:00+02:00" : {
		"windSpeed" : 1.1,
		"windDir" : 208,
		"rain" : 1,
		"cloudbase" : 1250,
		"flyability" : 0,
		"reason" : "windDir, rain, cloudbase",
		"timestamp" :1555970400
		},
	"2019-04-23T02:00:00+02:00" : {
		"windSpeed" : 1.7,
		"windDir" : 209,
		"rain" : 1,
		"cloudbase" : 383.7029650001,
		"flyability" : 0,
		"reason" : "windDir, rain, cloudbase",
		"timestamp" :1555981200
		},
	"2019-04-23T05:00:00+02:00" : {
		"windSpeed" : 1.7,
		"windDir" : 209,
		"rain" : 0,
		"cloudbase" : 1735.3942220004,
		"flyability" : 0,
		"reason" : "windDir",
		"timestamp" :1555992000
		},
	"2019-04-23T08:00:00+02:00" : {
		"windSpeed" : 1.4,
		"windDir" : 202,
		"rain" : 0,
		"cloudbase" : 2826.7726900002,
		"flyability" : 0,
		"reason" : "windDir",
		"timestamp" :1556002800
		},
	"2019-04-23T11:00:00+02:00" : {
		"windSpeed" : 2.5,
		"windDir" : 203,
		"rain" : 0,
		"cloudbase" : 1757.2278180004,
		"flyability" : 0,
		"reason" : "windDir",
		"timestamp" :1556013600
		},
	"2019-04-23T14:00:00+02:00" : {
		"windSpeed" : 3.3,
		"windDir" : 211,
		"rain" : 1,
		"cloudbase" : 6372.27269,
		"flyability" : 0,
		"reason" : "windDir, rain",
		"timestamp" :1556024400
		},
	"2019-04-23T17:00:00+02:00" : {
		"windSpeed" : 2.7,
		"windDir" : 201,
		"rain" : 1,
		"cloudbase" : 540,
		"flyability" : 0,
		"reason" : "windDir, rain, cloudbase",
		"timestamp" :1556035200
		},
	"2019-04-23T20:00:00+02:00" : {
		"windSpeed" : 2.1,
		"windDir" : 193,
		"rain" : 1,
		"cloudbase" : 885.83642500008,
		"flyability" : 0,
		"reason" : "windDir, rain, cloudbase",
		"timestamp" :1556046000
		},
	"2019-04-23T23:00:00+02:00" : {
		"windSpeed" : 1.6,
		"windDir" : 216,
		"rain" : 0,
		"cloudbase" : 287.37943600004,
		"flyability" : 0,
		"reason" : "windDir, cloudbase",
		"timestamp" :1556056800
		},
	"2019-04-24T02:00:00+02:00" : {
		"windSpeed" : 2.7,
		"windDir" : 200,
		"rain" : 0,
		"cloudbase" : 1830.663845,
		"flyability" : 0,
		"reason" : "windDir",
		"timestamp" :1556067600
		},
	"2019-04-24T05:00:00+02:00" : {
		"windSpeed" : 3.3,
		"windDir" : 203,
		"rain" : 0,
		"cloudbase" : 60,
		"flyability" : 0,
		"reason" : "windDir, cloudbase",
		"timestamp" :1556078400
		},
	"2019-04-24T08:00:00+02:00" : {
		"windSpeed" : 3.2,
		"windDir" : 199,
		"rain" : 0,
		"cloudbase" : 75,
		"flyability" : 0,
		"reason" : "windDir, cloudbase",
		"timestamp" :1556089200
		},
	"2019-04-24T11:00:00+02:00" : {
		"windSpeed" : 4.9,
		"windDir" : 198,
		"rain" : 0,
		"cloudbase" : 140,
		"flyability" : 0,
		"reason" : "windDir, cloudbase",
		"timestamp" :1556100000
		},
	"2019-04-24T14:00:00+02:00" : {
		"windSpeed" : 6.3,
		"windDir" : 196,
		"rain" : 0,
		"cloudbase" : null,
		"flyability" : 0,
		"reason" : "windSpeed, windDir",
		"timestamp" :1556110800
		},
	"2019-04-24T17:00:00+02:00" : {
		"windSpeed" : 6.8,
		"windDir" : 196,
		"rain" : 0,
		"cloudbase" : 632.78066900013,
		"flyability" : 0,
		"reason" : "windSpeed, windDir, cloudbase",
		"timestamp" :1556121600
		},
	"2019-04-24T20:00:00+02:00" : {
		"windSpeed" : 5.4,
		"windDir" : 199,
		"rain" : 0,
		"cloudbase" : 658.82523700032,
		"flyability" : 0,
		"reason" : "windSpeed, windDir, cloudbase",
		"timestamp" :1556132400
		},
	"2019-04-24T23:00:00+02:00" : {
		"windSpeed" : 5.3,
		"windDir" : 197,
		"rain" : 0,
		"cloudbase" : 55,
		"flyability" : 0,
		"reason" : "windSpeed, windDir, cloudbase",
		"timestamp" :1556143200
		},
	"2019-04-25T02:00:00+02:00" : {
		"windSpeed" : 6.5,
		"windDir" : 203,
		"rain" : 0,
		"cloudbase" : 56.55295300001,
		"flyability" : 0,
		"reason" : "windSpeed, windDir, cloudbase",
		"timestamp" :1556154000
		},
	"2019-04-25T05:00:00+02:00" : {
		"windSpeed" : 4.8,
		"windDir" : 195,
		"rain" : 0,
		"cloudbase" : 209.88038400006,
		"flyability" : 0,
		"reason" : "windDir, cloudbase",
		"timestamp" :1556164800
		},
	"2019-04-25T08:00:00+02:00" : {
		"windSpeed" : 2.2,
		"windDir" : 175,
		"rain" : 0,
		"cloudbase" : 471.32432800006,
		"flyability" : 0,
		"reason" : "windDir, cloudbase",
		"timestamp" :1556175600
		},
	"2019-04-25T11:00:00+02:00" : {
		"windSpeed" : 3.2,
		"windDir" : 202,
		"rain" : 0,
		"cloudbase" : 300,
		"flyability" : 0,
		"reason" : "windDir, cloudbase",
		"timestamp" :1556186400
		},
	"2019-04-25T14:00:00+02:00" : {
		"windSpeed" : 4.3,
		"windDir" : 203,
		"rain" : 0,
		"cloudbase" : null,
		"flyability" : 0,
		"reason" : "windDir",
		"timestamp" :1556197200
		},
	"2019-04-25T17:00:00+02:00" : {
		"windSpeed" : 3.7,
		"windDir" : 210,
		"rain" : 0,
		"cloudbase" : null,
		"flyability" : 0,
		"reason" : "windDir",
		"timestamp" :1556208000
		},
	"2019-04-25T20:00:00+02:00" : {
		"windSpeed" : 1.6,
		"windDir" : 199,
		"rain" : 0,
		"cloudbase" : 733.28065400009,
		"flyability" : 0,
		"reason" : "windDir, cloudbase",
		"timestamp" :1556218800
		},
	"2019-04-25T23:00:00+02:00" : {
		"windSpeed" : 2.1,
		"windDir" : 202,
		"rain" : 0,
		"cloudbase" : 35,
		"flyability" : 0,
		"reason" : "windDir, cloudbase",
		"timestamp" :1556229600
		},
	"2019-04-26T02:00:00+02:00" : {
		"windSpeed" : 1.3,
		"windDir" : 220,
		"rain" : 0,
		"cloudbase" : 90,
		"flyability" : 0,
		"reason" : "windDir, cloudbase",
		"timestamp" :1556240400
		},
	"2019-04-26T05:00:00+02:00" : {
		"windSpeed" : 0.8,
		"windDir" : 207,
		"rain" : 0,
		"cloudbase" : 35,
		"flyability" : 0,
		"reason" : "windDir, cloudbase",
		"timestamp" :1556251200
		},
	"2019-04-26T08:00:00+02:00" : {
		"windSpeed" : 0.2,
		"windDir" : 196,
		"rain" : 0,
		"cloudbase" : 3860.7807450002,
		"flyability" : 0,
		"reason" : "windDir",
		"timestamp" :1556262000
		},
	"2019-04-26T11:00:00+02:00" : {
		"windSpeed" : 1,
		"windDir" : 7,
		"rain" : 0,
		"cloudbase" : 530.32965300001,
		"flyability" : 0,
		"reason" : "cloudbase",
		"timestamp" :1556272800
		},
	"2019-04-26T14:00:00+02:00" : {
		"windSpeed" : 1.5,
		"windDir" : 299,
		"rain" : 1,
		"cloudbase" : 1105.71146,
		"flyability" : 0,
		"reason" : "rain, cloudbase",
		"timestamp" :1556283600
		},
	"2019-04-26T17:00:00+02:00" : {
		"windSpeed" : 1.3,
		"windDir" : 344,
		"rain" : 0,
		"cloudbase" : 1015.949146,
		"flyability" : 0,
		"reason" : "cloudbase",
		"timestamp" :1556294400
		},
	"2019-04-26T20:00:00+02:00" : {
		"windSpeed" : 0.7,
		"windDir" : 39,
		"rain" : 0,
		"cloudbase" : 383.92362599999,
		"flyability" : 0,
		"reason" : "cloudbase",
		"timestamp" :1556305200
		},
	"2019-04-26T23:00:00+02:00" : {
		"windSpeed" : 0.7,
		"windDir" : 63,
		"rain" : 0,
		"cloudbase" : 44.803075000011,
		"flyability" : 0,
		"reason" : "cloudbase",
		"timestamp" :1556316000
		},
	"2019-04-27T02:00:00+02:00" : {
		"windSpeed" : 0.4,
		"windDir" : 155,
		"rain" : 0,
		"cloudbase" : 43.36836900001,
		"flyability" : 0,
		"reason" : "windDir, cloudbase",
		"timestamp" :1556326800
		},
	"2019-04-27T05:00:00+02:00" : {
		"windSpeed" : 0.4,
		"windDir" : 239,
		"rain" : 0,
		"cloudbase" : 110,
		"flyability" : 0,
		"reason" : "windDir, cloudbase",
		"timestamp" :1556337600
		},
	"2019-04-27T08:00:00+02:00" : {
		"windSpeed" : 0.7,
		"windDir" : 208,
		"rain" : 0,
		"cloudbase" : null,
		"flyability" : 0,
		"reason" : "windDir",
		"timestamp" :1556348400
		},
	"2019-04-27T11:00:00+02:00" : {
		"windSpeed" : 1,
		"windDir" : 358,
		"rain" : 1,
		"cloudbase" : 603.588892,
		"flyability" : 0,
		"reason" : "rain, cloudbase",
		"timestamp" :1556359200
		},
	"2019-04-27T14:00:00+02:00" : {
		"windSpeed" : 0.8,
		"windDir" : 9,
		"rain" : 0,
		"cloudbase" : 960,
		"flyability" : 0,
		"reason" : "cloudbase",
		"timestamp" :1556370000
		},
	"2019-04-27T17:00:00+02:00" : {
		"windSpeed" : 1.8,
		"windDir" : 18,
		"rain" : 0,
		"cloudbase" : 600,
		"flyability" : 0,
		"reason" : "cloudbase",
		"timestamp" :1556380800
		},
	"2019-04-27T20:00:00+02:00" : {
		"windSpeed" : 1.2,
		"windDir" : 30,
		"rain" : 1,
		"cloudbase" : 200,
		"flyability" : 0,
		"reason" : "rain, cloudbase",
		"timestamp" :1556391600
		},
	"2019-04-27T23:00:00+02:00" : {
		"windSpeed" : 0.2,
		"windDir" : 142,
		"rain" : 0,
		"cloudbase" : 55,
		"flyability" : 0,
		"reason" : "windDir, cloudbase",
		"timestamp" :1556402400
		},
	"2019-04-28T02:00:00+02:00" : {
		"windSpeed" : 0.6,
		"windDir" : 182,
		"rain" : 0,
		"cloudbase" : null,
		"flyability" : 0,
		"reason" : "windDir",
		"timestamp" :1556413200
		}
	}
}