{
"site" : "Clennell Hill",
"id" : 10817,
"orientations" : "00011000",
"forecasts" : { 
	"2019-04-08T04:00:00+01:00" : {
		"windSpeed" : 4.3,
		"windDir" : 36,
		"rain" : 0,
		"cloudbase" : 46.324540000001,
		"flyability" : 0,
		"reason" : "windDir, cloudbase",
		"timestamp" :1554688800
		},
	"2019-04-08T07:00:00+01:00" : {
		"windSpeed" : 4.9,
		"windDir" : 27,
		"rain" : 0,
		"cloudbase" : 43.519999999999,
		"flyability" : 0,
		"reason" : "windDir, cloudbase",
		"timestamp" :1554699600
		},
	"2019-04-08T10:00:00+01:00" : {
		"windSpeed" : 4.7,
		"windDir" : 43,
		"rain" : 0,
		"cloudbase" : 185.70999999999,
		"flyability" : 0,
		"reason" : "windDir, cloudbase",
		"timestamp" :1554710400
		},
	"2019-04-08T13:00:00+01:00" : {
		"windSpeed" : 4.7,
		"windDir" : 52,
		"rain" : 1,
		"cloudbase" : 480,
		"flyability" : 0,
		"reason" : "windDir, rain",
		"timestamp" :1554721200
		},
	"2019-04-08T16:00:00+01:00" : {
		"windSpeed" : 4.9,
		"windDir" : 58,
		"rain" : 0,
		"cloudbase" : null,
		"flyability" : 0,
		"reason" : "windDir",
		"timestamp" :1554732000
		},
	"2019-04-08T19:00:00+01:00" : {
		"windSpeed" : 4,
		"windDir" : 81,
		"rain" : 0,
		"cloudbase" : 293.52,
		"flyability" : 0,
		"reason" : "windDir",
		"timestamp" :1554742800
		},
	"2019-04-08T22:00:00+01:00" : {
		"windSpeed" : 3.9,
		"windDir" : 91,
		"rain" : 0,
		"cloudbase" : null,
		"flyability" : 0,
		"reason" : "windDir",
		"timestamp" :1554753600
		},
	"2019-04-09T01:00:00+01:00" : {
		"windSpeed" : 3.9,
		"windDir" : 93,
		"rain" : 0,
		"cloudbase" : null,
		"flyability" : 0,
		"reason" : "windDir",
		"timestamp" :1554764400
		},
	"2019-04-09T04:00:00+01:00" : {
		"windSpeed" : 3.9,
		"windDir" : 85,
		"rain" : 0,
		"cloudbase" : 39.465689999998,
		"flyability" : 0,
		"reason" : "windDir, cloudbase",
		"timestamp" :1554775200
		},
	"2019-04-09T07:00:00+01:00" : {
		"windSpeed" : 4.1,
		"windDir" : 81,
		"rain" : 0,
		"cloudbase" : 76.227530000006,
		"flyability" : 0,
		"reason" : "windDir, cloudbase",
		"timestamp" :1554786000
		},
	"2019-04-09T10:00:00+01:00" : {
		"windSpeed" : 5.2,
		"windDir" : 83,
		"rain" : 0,
		"cloudbase" : 796.75815999999,
		"flyability" : 0,
		"reason" : "windSpeed, windDir",
		"timestamp" :1554796800
		},
	"2019-04-09T13:00:00+01:00" : {
		"windSpeed" : 5.2,
		"windDir" : 88,
		"rain" : 0,
		"cloudbase" : 940,
		"flyability" : 0,
		"reason" : "windSpeed, windDir",
		"timestamp" :1554807600
		},
	"2019-04-09T16:00:00+01:00" : {
		"windSpeed" : 5.1,
		"windDir" : 79,
		"rain" : 0,
		"cloudbase" : null,
		"flyability" : 0,
		"reason" : "windSpeed, windDir",
		"timestamp" :1554818400
		},
	"2019-04-09T19:00:00+01:00" : {
		"windSpeed" : 4.3,
		"windDir" : 81,
		"rain" : 0,
		"cloudbase" : 714.67999999999,
		"flyability" : 0,
		"reason" : "windDir",
		"timestamp" :1554829200
		},
	"2019-04-09T22:00:00+01:00" : {
		"windSpeed" : 2.7,
		"windDir" : 69,
		"rain" : 0,
		"cloudbase" : null,
		"flyability" : 0,
		"reason" : "windDir",
		"timestamp" :1554840000
		},
	"2019-04-10T01:00:00+01:00" : {
		"windSpeed" : 2.2,
		"windDir" : 72,
		"rain" : 0,
		"cloudbase" : null,
		"flyability" : 0,
		"reason" : "windDir",
		"timestamp" :1554850800
		},
	"2019-04-10T04:00:00+01:00" : {
		"windSpeed" : 1.8,
		"windDir" : 51,
		"rain" : 0,
		"cloudbase" : null,
		"flyability" : 0,
		"reason" : "windDir",
		"timestamp" :1554861600
		},
	"2019-04-10T07:00:00+01:00" : {
		"windSpeed" : 1.8,
		"windDir" : 51,
		"rain" : 0,
		"cloudbase" : null,
		"flyability" : 0,
		"reason" : "windDir",
		"timestamp" :1554872400
		},
	"2019-04-10T10:00:00+01:00" : {
		"windSpeed" : 3.1,
		"windDir" : 100,
		"rain" : 0,
		"cloudbase" : 720,
		"flyability" : 0,
		"reason" : "windDir",
		"timestamp" :1554883200
		},
	"2019-04-10T13:00:00+01:00" : {
		"windSpeed" : 3,
		"windDir" : 117,
		"rain" : 0,
		"cloudbase" : 794.66184,
		"flyability" : 100,
		"reason" : "",
		"timestamp" :1554894000
		},
	"2019-04-10T16:00:00+01:00" : {
		"windSpeed" : 2.7,
		"windDir" : 132,
		"rain" : 0,
		"cloudbase" : 885.27907999999,
		"flyability" : 100,
		"reason" : "",
		"timestamp" :1554904800
		},
	"2019-04-10T19:00:00+01:00" : {
		"windSpeed" : 2.5,
		"windDir" : 138,
		"rain" : 0,
		"cloudbase" : null,
		"flyability" : 100,
		"reason" : "",
		"timestamp" :1554915600
		},
	"2019-04-10T22:00:00+01:00" : {
		"windSpeed" : 1.9,
		"windDir" : 141,
		"rain" : 0,
		"cloudbase" : null,
		"flyability" : 100,
		"reason" : "",
		"timestamp" :1554926400
		},
	"2019-04-11T01:00:00+01:00" : {
		"windSpeed" : 2.1,
		"windDir" : 172,
		"rain" : 0,
		"cloudbase" : null,
		"flyability" : 100,
		"reason" : "",
		"timestamp" :1554937200
		},
	"2019-04-11T04:00:00+01:00" : {
		"windSpeed" : 1.5,
		"windDir" : 208,
		"rain" : 0,
		"cloudbase" : null,
		"flyability" : 0,
		"reason" : "windDir",
		"timestamp" :1554948000
		},
	"2019-04-11T07:00:00+01:00" : {
		"windSpeed" : 1,
		"windDir" : 280,
		"rain" : 0,
		"cloudbase" : 1083.1,
		"flyability" : 0,
		"reason" : "windDir",
		"timestamp" :1554958800
		},
	"2019-04-11T10:00:00+01:00" : {
		"windSpeed" : 0.2,
		"windDir" : 270,
		"rain" : 0,
		"cloudbase" : 1050,
		"flyability" : 0,
		"reason" : "windDir",
		"timestamp" :1554969600
		},
	"2019-04-11T13:00:00+01:00" : {
		"windSpeed" : 0.5,
		"windDir" : 161,
		"rain" : 0,
		"cloudbase" : 1014.79046,
		"flyability" : 100,
		"reason" : "",
		"timestamp" :1554980400
		},
	"2019-04-11T16:00:00+01:00" : {
		"windSpeed" : 0.8,
		"windDir" : 215,
		"rain" : 0,
		"cloudbase" : 1069.0546,
		"flyability" : 0,
		"reason" : "windDir",
		"timestamp" :1554991200
		},
	"2019-04-11T19:00:00+01:00" : {
		"windSpeed" : 2.3,
		"windDir" : 85,
		"rain" : 0,
		"cloudbase" : 1319.8931,
		"flyability" : 0,
		"reason" : "windDir",
		"timestamp" :1555002000
		},
	"2019-04-11T22:00:00+01:00" : {
		"windSpeed" : 2.2,
		"windDir" : 112,
		"rain" : 0,
		"cloudbase" : 1332.9977,
		"flyability" : 0,
		"reason" : "windDir",
		"timestamp" :1555012800
		},
	"2019-04-12T01:00:00+01:00" : {
		"windSpeed" : 2.1,
		"windDir" : 96,
		"rain" : 0,
		"cloudbase" : 1217.6,
		"flyability" : 0,
		"reason" : "windDir",
		"timestamp" :1555023600
		},
	"2019-04-12T04:00:00+01:00" : {
		"windSpeed" : 2.6,
		"windDir" : 105,
		"rain" : 0,
		"cloudbase" : 1219.1477,
		"flyability" : 0,
		"reason" : "windDir",
		"timestamp" :1555034400
		},
	"2019-04-12T07:00:00+01:00" : {
		"windSpeed" : 3,
		"windDir" : 123,
		"rain" : 0,
		"cloudbase" : 1136.7477,
		"flyability" : 100,
		"reason" : "",
		"timestamp" :1555045200
		},
	"2019-04-12T10:00:00+01:00" : {
		"windSpeed" : 4.2,
		"windDir" : 133,
		"rain" : 1,
		"cloudbase" : 765.28183999999,
		"flyability" : 0,
		"reason" : "rain",
		"timestamp" :1555056000
		},
	"2019-04-12T13:00:00+01:00" : {
		"windSpeed" : 4.5,
		"windDir" : 138,
		"rain" : 0,
		"cloudbase" : 732.59815999997,
		"flyability" : 100,
		"reason" : "",
		"timestamp" :1555066800
		},
	"2019-04-12T16:00:00+01:00" : {
		"windSpeed" : 5.2,
		"windDir" : 119,
		"rain" : 0,
		"cloudbase" : 880,
		"flyability" : 0,
		"reason" : "windSpeed",
		"timestamp" :1555077600
		},
	"2019-04-12T19:00:00+01:00" : {
		"windSpeed" : 4.6,
		"windDir" : 116,
		"rain" : 0,
		"cloudbase" : null,
		"flyability" : 100,
		"reason" : "",
		"timestamp" :1555088400
		},
	"2019-04-12T22:00:00+01:00" : {
		"windSpeed" : 3,
		"windDir" : 121,
		"rain" : 0,
		"cloudbase" : null,
		"flyability" : 100,
		"reason" : "",
		"timestamp" :1555099200
		},
	"2019-04-13T01:00:00+01:00" : {
		"windSpeed" : 3.5,
		"windDir" : 121,
		"rain" : 0,
		"cloudbase" : null,
		"flyability" : 100,
		"reason" : "",
		"timestamp" :1555110000
		},
	"2019-04-13T04:00:00+01:00" : {
		"windSpeed" : 3.2,
		"windDir" : 122,
		"rain" : 0,
		"cloudbase" : 880,
		"flyability" : 100,
		"reason" : "",
		"timestamp" :1555120800
		},
	"2019-04-13T07:00:00+01:00" : {
		"windSpeed" : 2.9,
		"windDir" : 118,
		"rain" : 0,
		"cloudbase" : null,
		"flyability" : 100,
		"reason" : "",
		"timestamp" :1555131600
		},
	"2019-04-13T10:00:00+01:00" : {
		"windSpeed" : 4.9,
		"windDir" : 112,
		"rain" : 0,
		"cloudbase" : 1110.25,
		"flyability" : 0,
		"reason" : "windDir",
		"timestamp" :1555142400
		},
	"2019-04-13T13:00:00+01:00" : {
		"windSpeed" : 5.2,
		"windDir" : 105,
		"rain" : 0,
		"cloudbase" : 1114.0454,
		"flyability" : 0,
		"reason" : "windSpeed, windDir",
		"timestamp" :1555153200
		},
	"2019-04-13T16:00:00+01:00" : {
		"windSpeed" : 4.7,
		"windDir" : 97,
		"rain" : 0,
		"cloudbase" : 1112.4977,
		"flyability" : 0,
		"reason" : "windDir",
		"timestamp" :1555164000
		},
	"2019-04-13T19:00:00+01:00" : {
		"windSpeed" : 3.5,
		"windDir" : 88,
		"rain" : 0,
		"cloudbase" : 1150,
		"flyability" : 0,
		"reason" : "windDir",
		"timestamp" :1555174800
		},
	"2019-04-13T22:00:00+01:00" : {
		"windSpeed" : 3.3,
		"windDir" : 99,
		"rain" : 0,
		"cloudbase" : null,
		"flyability" : 0,
		"reason" : "windDir",
		"timestamp" :1555185600
		},
	"2019-04-14T01:00:00+01:00" : {
		"windSpeed" : 3.6,
		"windDir" : 103,
		"rain" : 0,
		"cloudbase" : null,
		"flyability" : 0,
		"reason" : "windDir",
		"timestamp" :1555196400
		}
	}
}