{
"site" : "The Vee",
"id" : 10901,
"orientations" : "21000001",
"forecasts" : { 
	"2019-04-20T04:00:00+01:00" : {
		"windSpeed" : 0.7,
		"windDir" : 132,
		"rain" : 0,
		"cloudbase" : 8989.6469999999,
		"flyability" : 0,
		"reason" : "windDir",
		"timestamp" :1555725600
		},
	"2019-04-20T07:00:00+01:00" : {
		"windSpeed" : 1,
		"windDir" : 360,
		"rain" : 0,
		"cloudbase" : 8230.153,
		"flyability" : 100,
		"reason" : "",
		"timestamp" :1555736400
		},
	"2019-04-20T10:00:00+01:00" : {
		"windSpeed" : 0.7,
		"windDir" : 45,
		"rain" : 0,
		"cloudbase" : 7683.847,
		"flyability" : 100,
		"reason" : "",
		"timestamp" :1555747200
		},
	"2019-04-20T13:00:00+01:00" : {
		"windSpeed" : 1.3,
		"windDir" : 180,
		"rain" : 0,
		"cloudbase" : 7295.5410000001,
		"flyability" : 0,
		"reason" : "windDir",
		"timestamp" :1555758000
		},
	"2019-04-20T16:00:00+01:00" : {
		"windSpeed" : 2.5,
		"windDir" : 174,
		"rain" : 0,
		"cloudbase" : 8200,
		"flyability" : 0,
		"reason" : "windDir",
		"timestamp" :1555768800
		},
	"2019-04-20T19:00:00+01:00" : {
		"windSpeed" : 1.8,
		"windDir" : 196,
		"rain" : 0,
		"cloudbase" : 6213.9999999999,
		"flyability" : 0,
		"reason" : "windDir",
		"timestamp" :1555779600
		},
	"2019-04-20T22:00:00+01:00" : {
		"windSpeed" : 1.3,
		"windDir" : 191,
		"rain" : 0,
		"cloudbase" : 5722.4820000001,
		"flyability" : 0,
		"reason" : "windDir",
		"timestamp" :1555790400
		},
	"2019-04-21T01:00:00+01:00" : {
		"windSpeed" : 1.5,
		"windDir" : 179,
		"rain" : 0,
		"cloudbase" : 9900,
		"flyability" : 0,
		"reason" : "windDir",
		"timestamp" :1555801200
		},
	"2019-04-21T04:00:00+01:00" : {
		"windSpeed" : 1.3,
		"windDir" : 190,
		"rain" : 0,
		"cloudbase" : 9630.153,
		"flyability" : 0,
		"reason" : "windDir",
		"timestamp" :1555812000
		},
	"2019-04-21T07:00:00+01:00" : {
		"windSpeed" : 1.3,
		"windDir" : 196,
		"rain" : 0,
		"cloudbase" : 9555.0359999997,
		"flyability" : 0,
		"reason" : "windDir",
		"timestamp" :1555822800
		},
	"2019-04-21T10:00:00+01:00" : {
		"windSpeed" : 2.2,
		"windDir" : 203,
		"rain" : 0,
		"cloudbase" : 8977.3299999997,
		"flyability" : 0,
		"reason" : "windDir",
		"timestamp" :1555833600
		},
	"2019-04-21T13:00:00+01:00" : {
		"windSpeed" : 3.7,
		"windDir" : 206,
		"rain" : 0,
		"cloudbase" : null,
		"flyability" : 0,
		"reason" : "windDir",
		"timestamp" :1555844400
		},
	"2019-04-21T16:00:00+01:00" : {
		"windSpeed" : 4.6,
		"windDir" : 189,
		"rain" : 0,
		"cloudbase" : null,
		"flyability" : 0,
		"reason" : "windDir",
		"timestamp" :1555855200
		},
	"2019-04-21T19:00:00+01:00" : {
		"windSpeed" : 3.8,
		"windDir" : 179,
		"rain" : 0,
		"cloudbase" : null,
		"flyability" : 0,
		"reason" : "windDir",
		"timestamp" :1555866000
		},
	"2019-04-21T22:00:00+01:00" : {
		"windSpeed" : 3.2,
		"windDir" : 173,
		"rain" : 0,
		"cloudbase" : 4585.5114000004,
		"flyability" : 0,
		"reason" : "windDir",
		"timestamp" :1555876800
		},
	"2019-04-22T01:00:00+01:00" : {
		"windSpeed" : 3.3,
		"windDir" : 168,
		"rain" : 0,
		"cloudbase" : 40,
		"flyability" : 0,
		"reason" : "windDir, cloudbase",
		"timestamp" :1555887600
		},
	"2019-04-22T04:00:00+01:00" : {
		"windSpeed" : 3,
		"windDir" : 152,
		"rain" : 0,
		"cloudbase" : 45,
		"flyability" : 0,
		"reason" : "windDir, cloudbase",
		"timestamp" :1555898400
		},
	"2019-04-22T07:00:00+01:00" : {
		"windSpeed" : 3.8,
		"windDir" : 154,
		"rain" : 0,
		"cloudbase" : null,
		"flyability" : 0,
		"reason" : "windDir",
		"timestamp" :1555909200
		},
	"2019-04-22T10:00:00+01:00" : {
		"windSpeed" : 4.9,
		"windDir" : 148,
		"rain" : 0,
		"cloudbase" : null,
		"flyability" : 0,
		"reason" : "windDir",
		"timestamp" :1555920000
		},
	"2019-04-22T13:00:00+01:00" : {
		"windSpeed" : 5.6,
		"windDir" : 149,
		"rain" : 0,
		"cloudbase" : null,
		"flyability" : 0,
		"reason" : "windSpeed, windDir",
		"timestamp" :1555930800
		},
	"2019-04-22T16:00:00+01:00" : {
		"windSpeed" : 5,
		"windDir" : 151,
		"rain" : 0,
		"cloudbase" : null,
		"flyability" : 0,
		"reason" : "windDir",
		"timestamp" :1555941600
		},
	"2019-04-22T19:00:00+01:00" : {
		"windSpeed" : 3.9,
		"windDir" : 140,
		"rain" : 0,
		"cloudbase" : 2935.7265,
		"flyability" : 0,
		"reason" : "windDir",
		"timestamp" :1555952400
		},
	"2019-04-22T22:00:00+01:00" : {
		"windSpeed" : 2.5,
		"windDir" : 147,
		"rain" : 1,
		"cloudbase" : 1936.3970000001,
		"flyability" : 0,
		"reason" : "windDir, rain",
		"timestamp" :1555963200
		},
	"2019-04-23T01:00:00+01:00" : {
		"windSpeed" : 1.9,
		"windDir" : 121,
		"rain" : 1,
		"cloudbase" : 3650,
		"flyability" : 0,
		"reason" : "windDir, rain",
		"timestamp" :1555974000
		},
	"2019-04-23T04:00:00+01:00" : {
		"windSpeed" : 1.6,
		"windDir" : 141,
		"rain" : 1,
		"cloudbase" : 3428.8119999999,
		"flyability" : 0,
		"reason" : "windDir, rain",
		"timestamp" :1555984800
		},
	"2019-04-23T07:00:00+01:00" : {
		"windSpeed" : 0.7,
		"windDir" : 110,
		"rain" : 0,
		"cloudbase" : 1966.1364999999,
		"flyability" : 0,
		"reason" : "windDir",
		"timestamp" :1555995600
		},
	"2019-04-23T10:00:00+01:00" : {
		"windSpeed" : 1.7,
		"windDir" : 117,
		"rain" : 1,
		"cloudbase" : 303.55,
		"flyability" : 0,
		"reason" : "windDir, rain, cloudbase",
		"timestamp" :1556006400
		},
	"2019-04-23T13:00:00+01:00" : {
		"windSpeed" : 1.7,
		"windDir" : 60,
		"rain" : 1,
		"cloudbase" : 1726.5306999999,
		"flyability" : 0,
		"reason" : "rain",
		"timestamp" :1556017200
		},
	"2019-04-23T16:00:00+01:00" : {
		"windSpeed" : 3.8,
		"windDir" : 134,
		"rain" : 0,
		"cloudbase" : 6104.2159999994,
		"flyability" : 0,
		"reason" : "windDir",
		"timestamp" :1556028000
		},
	"2019-04-23T19:00:00+01:00" : {
		"windSpeed" : 2.8,
		"windDir" : 126,
		"rain" : 1,
		"cloudbase" : 2535.7265,
		"flyability" : 0,
		"reason" : "windDir, rain",
		"timestamp" :1556038800
		},
	"2019-04-23T22:00:00+01:00" : {
		"windSpeed" : 1.5,
		"windDir" : 131,
		"rain" : 1,
		"cloudbase" : 3563.9215000003,
		"flyability" : 0,
		"reason" : "windDir, rain",
		"timestamp" :1556049600
		},
	"2019-04-24T01:00:00+01:00" : {
		"windSpeed" : 1.4,
		"windDir" : 146,
		"rain" : 1,
		"cloudbase" : null,
		"flyability" : 0,
		"reason" : "windDir, rain",
		"timestamp" :1556060400
		},
	"2019-04-24T04:00:00+01:00" : {
		"windSpeed" : 1.9,
		"windDir" : 148,
		"rain" : 1,
		"cloudbase" : 2050,
		"flyability" : 0,
		"reason" : "windDir, rain",
		"timestamp" :1556071200
		},
	"2019-04-24T07:00:00+01:00" : {
		"windSpeed" : 2.7,
		"windDir" : 142,
		"rain" : 1,
		"cloudbase" : 183.57894999998,
		"flyability" : 0,
		"reason" : "windDir, rain, cloudbase",
		"timestamp" :1556082000
		},
	"2019-04-24T10:00:00+01:00" : {
		"windSpeed" : 3.6,
		"windDir" : 146,
		"rain" : 1,
		"cloudbase" : 144.47585,
		"flyability" : 0,
		"reason" : "windDir, rain, cloudbase",
		"timestamp" :1556092800
		},
	"2019-04-24T13:00:00+01:00" : {
		"windSpeed" : 4.5,
		"windDir" : 140,
		"rain" : 1,
		"cloudbase" : 356.13640000002,
		"flyability" : 0,
		"reason" : "windDir, rain, cloudbase",
		"timestamp" :1556103600
		},
	"2019-04-24T16:00:00+01:00" : {
		"windSpeed" : 4.6,
		"windDir" : 139,
		"rain" : 1,
		"cloudbase" : 3226.8586000002,
		"flyability" : 0,
		"reason" : "windDir, rain",
		"timestamp" :1556114400
		},
	"2019-04-24T19:00:00+01:00" : {
		"windSpeed" : 5.2,
		"windDir" : 123,
		"rain" : 1,
		"cloudbase" : 267.49470000003,
		"flyability" : 0,
		"reason" : "windSpeed, windDir, rain, cloudbase",
		"timestamp" :1556125200
		},
	"2019-04-24T22:00:00+01:00" : {
		"windSpeed" : 5.9,
		"windDir" : 126,
		"rain" : 1,
		"cloudbase" : 155.8247,
		"flyability" : 0,
		"reason" : "windSpeed, windDir, rain, cloudbase",
		"timestamp" :1556136000
		},
	"2019-04-25T01:00:00+01:00" : {
		"windSpeed" : 7.2,
		"windDir" : 141,
		"rain" : 1,
		"cloudbase" : 903.23959999976,
		"flyability" : 0,
		"reason" : "windSpeed, windDir, rain",
		"timestamp" :1556146800
		},
	"2019-04-25T04:00:00+01:00" : {
		"windSpeed" : 5.3,
		"windDir" : 127,
		"rain" : 1,
		"cloudbase" : 300.4988,
		"flyability" : 0,
		"reason" : "windSpeed, windDir, rain, cloudbase",
		"timestamp" :1556157600
		},
	"2019-04-25T07:00:00+01:00" : {
		"windSpeed" : 4.1,
		"windDir" : 194,
		"rain" : 1,
		"cloudbase" : 619.83529999995,
		"flyability" : 0,
		"reason" : "windDir, rain, cloudbase",
		"timestamp" :1556168400
		},
	"2019-04-25T10:00:00+01:00" : {
		"windSpeed" : 6.5,
		"windDir" : 180,
		"rain" : 1,
		"cloudbase" : null,
		"flyability" : 0,
		"reason" : "windSpeed, windDir, rain",
		"timestamp" :1556179200
		},
	"2019-04-25T13:00:00+01:00" : {
		"windSpeed" : 7.4,
		"windDir" : 187,
		"rain" : 1,
		"cloudbase" : null,
		"flyability" : 0,
		"reason" : "windSpeed, windDir, rain",
		"timestamp" :1556190000
		},
	"2019-04-25T16:00:00+01:00" : {
		"windSpeed" : 5.8,
		"windDir" : 195,
		"rain" : 1,
		"cloudbase" : null,
		"flyability" : 0,
		"reason" : "windSpeed, windDir, rain",
		"timestamp" :1556200800
		},
	"2019-04-25T19:00:00+01:00" : {
		"windSpeed" : 2.9,
		"windDir" : 223,
		"rain" : 1,
		"cloudbase" : null,
		"flyability" : 0,
		"reason" : "windDir, rain",
		"timestamp" :1556211600
		},
	"2019-04-25T22:00:00+01:00" : {
		"windSpeed" : 1.2,
		"windDir" : 234,
		"rain" : 1,
		"cloudbase" : null,
		"flyability" : 0,
		"reason" : "windDir, rain",
		"timestamp" :1556222400
		},
	"2019-04-26T01:00:00+01:00" : {
		"windSpeed" : 1.8,
		"windDir" : 228,
		"rain" : 0,
		"cloudbase" : null,
		"flyability" : 0,
		"reason" : "windDir",
		"timestamp" :1556233200
		}
	}
}