{
"site" : "Teresopolis -Granja Mafra",
"id" : 10950,
"orientations" : "22202002",
"forecasts" : { 
	"2019-04-06T12:00:00-03:00" : {
		"windSpeed" : 2,
		"windDir" : 346,
		"rain" : 1,
		"cloudbase" : 12000,
		"flyability" : 0,
		"reason" : "rain",
		"timestamp" :1554562800
		},
	"2019-04-06T15:00:00-03:00" : {
		"windSpeed" : 1.5,
		"windDir" : 158,
		"rain" : 0,
		"cloudbase" : 980,
		"flyability" : 0,
		"reason" : "cloudbase",
		"timestamp" :1554573600
		},
	"2019-04-06T18:00:00-03:00" : {
		"windSpeed" : 0.8,
		"windDir" : 136,
		"rain" : 0,
		"cloudbase" : null,
		"flyability" : 0,
		"reason" : "windDir",
		"timestamp" :1554584400
		},
	"2019-04-06T21:00:00-03:00" : {
		"windSpeed" : 1,
		"windDir" : 96,
		"rain" : 1,
		"cloudbase" : 410,
		"flyability" : 0,
		"reason" : "rain, cloudbase",
		"timestamp" :1554595200
		},
	"2019-04-07T00:00:00-03:00" : {
		"windSpeed" : 1,
		"windDir" : 22,
		"rain" : 1,
		"cloudbase" : null,
		"flyability" : 0,
		"reason" : "rain",
		"timestamp" :1554606000
		},
	"2019-04-07T03:00:00-03:00" : {
		"windSpeed" : 1.9,
		"windDir" : 358,
		"rain" : 1,
		"cloudbase" : null,
		"flyability" : 0,
		"reason" : "rain",
		"timestamp" :1554616800
		},
	"2019-04-07T06:00:00-03:00" : {
		"windSpeed" : 2.4,
		"windDir" : 11,
		"rain" : 1,
		"cloudbase" : null,
		"flyability" : 0,
		"reason" : "rain",
		"timestamp" :1554627600
		},
	"2019-04-07T09:00:00-03:00" : {
		"windSpeed" : 3.9,
		"windDir" : 359,
		"rain" : 1,
		"cloudbase" : null,
		"flyability" : 0,
		"reason" : "rain",
		"timestamp" :1554638400
		},
	"2019-04-07T12:00:00-03:00" : {
		"windSpeed" : 4.2,
		"windDir" : 339,
		"rain" : 1,
		"cloudbase" : null,
		"flyability" : 0,
		"reason" : "rain",
		"timestamp" :1554649200
		},
	"2019-04-07T15:00:00-03:00" : {
		"windSpeed" : 3,
		"windDir" : 360,
		"rain" : 1,
		"cloudbase" : null,
		"flyability" : 0,
		"reason" : "rain",
		"timestamp" :1554660000
		},
	"2019-04-07T18:00:00-03:00" : {
		"windSpeed" : 1,
		"windDir" : 6,
		"rain" : 1,
		"cloudbase" : null,
		"flyability" : 0,
		"reason" : "rain",
		"timestamp" :1554670800
		},
	"2019-04-07T21:00:00-03:00" : {
		"windSpeed" : 1.8,
		"windDir" : 35,
		"rain" : 0,
		"cloudbase" : null,
		"flyability" : 100,
		"reason" : "",
		"timestamp" :1554681600
		},
	"2019-04-08T00:00:00-03:00" : {
		"windSpeed" : 2,
		"windDir" : 359,
		"rain" : 0,
		"cloudbase" : null,
		"flyability" : 100,
		"reason" : "",
		"timestamp" :1554692400
		},
	"2019-04-08T03:00:00-03:00" : {
		"windSpeed" : 2.9,
		"windDir" : 9,
		"rain" : 0,
		"cloudbase" : null,
		"flyability" : 100,
		"reason" : "",
		"timestamp" :1554703200
		},
	"2019-04-08T06:00:00-03:00" : {
		"windSpeed" : 3.9,
		"windDir" : 346,
		"rain" : 0,
		"cloudbase" : null,
		"flyability" : 100,
		"reason" : "",
		"timestamp" :1554714000
		},
	"2019-04-08T09:00:00-03:00" : {
		"windSpeed" : 5.1,
		"windDir" : 343,
		"rain" : 0,
		"cloudbase" : null,
		"flyability" : 0,
		"reason" : "windSpeed",
		"timestamp" :1554724800
		},
	"2019-04-08T12:00:00-03:00" : {
		"windSpeed" : 4.4,
		"windDir" : 334,
		"rain" : 0,
		"cloudbase" : null,
		"flyability" : 100,
		"reason" : "",
		"timestamp" :1554735600
		},
	"2019-04-08T15:00:00-03:00" : {
		"windSpeed" : 2,
		"windDir" : 342,
		"rain" : 1,
		"cloudbase" : null,
		"flyability" : 0,
		"reason" : "rain",
		"timestamp" :1554746400
		},
	"2019-04-08T18:00:00-03:00" : {
		"windSpeed" : 0.9,
		"windDir" : 94,
		"rain" : 0,
		"cloudbase" : 11064.565,
		"flyability" : 100,
		"reason" : "",
		"timestamp" :1554757200
		},
	"2019-04-08T21:00:00-03:00" : {
		"windSpeed" : 1.6,
		"windDir" : 60,
		"rain" : 1,
		"cloudbase" : 11273.4625,
		"flyability" : 0,
		"reason" : "rain",
		"timestamp" :1554768000
		},
	"2019-04-09T00:00:00-03:00" : {
		"windSpeed" : 2.3,
		"windDir" : 359,
		"rain" : 1,
		"cloudbase" : 9736.5,
		"flyability" : 0,
		"reason" : "rain",
		"timestamp" :1554778800
		},
	"2019-04-09T03:00:00-03:00" : {
		"windSpeed" : 1.9,
		"windDir" : 345,
		"rain" : 0,
		"cloudbase" : 8695.36125,
		"flyability" : 100,
		"reason" : "",
		"timestamp" :1554789600
		},
	"2019-04-09T06:00:00-03:00" : {
		"windSpeed" : 0.6,
		"windDir" : 300,
		"rain" : 1,
		"cloudbase" : null,
		"flyability" : 0,
		"reason" : "rain",
		"timestamp" :1554800400
		},
	"2019-04-09T09:00:00-03:00" : {
		"windSpeed" : 1,
		"windDir" : 269,
		"rain" : 1,
		"cloudbase" : 5802.1112500001,
		"flyability" : 0,
		"reason" : "windDir, rain",
		"timestamp" :1554811200
		},
	"2019-04-09T12:00:00-03:00" : {
		"windSpeed" : 1.4,
		"windDir" : 315,
		"rain" : 1,
		"cloudbase" : 2955.8687500001,
		"flyability" : 0,
		"reason" : "rain",
		"timestamp" :1554822000
		},
	"2019-04-09T15:00:00-03:00" : {
		"windSpeed" : 2.1,
		"windDir" : 152,
		"rain" : 1,
		"cloudbase" : 755.84475000008,
		"flyability" : 0,
		"reason" : "windDir, rain, cloudbase",
		"timestamp" :1554832800
		},
	"2019-04-09T18:00:00-03:00" : {
		"windSpeed" : 2.2,
		"windDir" : 153,
		"rain" : 1,
		"cloudbase" : 347.44699999979,
		"flyability" : 0,
		"reason" : "windDir, rain, cloudbase",
		"timestamp" :1554843600
		},
	"2019-04-09T21:00:00-03:00" : {
		"windSpeed" : 2.2,
		"windDir" : 155,
		"rain" : 1,
		"cloudbase" : 1629.6991249998,
		"flyability" : 0,
		"reason" : "windDir, rain",
		"timestamp" :1554854400
		},
	"2019-04-10T00:00:00-03:00" : {
		"windSpeed" : 2.2,
		"windDir" : 153,
		"rain" : 1,
		"cloudbase" : 39.341624999982,
		"flyability" : 0,
		"reason" : "windDir, rain, cloudbase",
		"timestamp" :1554865200
		},
	"2019-04-10T03:00:00-03:00" : {
		"windSpeed" : 3.2,
		"windDir" : 153,
		"rain" : 1,
		"cloudbase" : 30.043875,
		"flyability" : 0,
		"reason" : "windDir, rain, cloudbase",
		"timestamp" :1554876000
		},
	"2019-04-10T06:00:00-03:00" : {
		"windSpeed" : 3.6,
		"windDir" : 157,
		"rain" : 1,
		"cloudbase" : 32.001374999989,
		"flyability" : 0,
		"reason" : "rain, cloudbase",
		"timestamp" :1554886800
		},
	"2019-04-10T09:00:00-03:00" : {
		"windSpeed" : 3.6,
		"windDir" : 158,
		"rain" : 1,
		"cloudbase" : 160,
		"flyability" : 0,
		"reason" : "rain, cloudbase",
		"timestamp" :1554897600
		},
	"2019-04-10T12:00:00-03:00" : {
		"windSpeed" : 3.4,
		"windDir" : 172,
		"rain" : 1,
		"cloudbase" : 30,
		"flyability" : 0,
		"reason" : "rain, cloudbase",
		"timestamp" :1554908400
		},
	"2019-04-10T15:00:00-03:00" : {
		"windSpeed" : 4.7,
		"windDir" : 161,
		"rain" : 1,
		"cloudbase" : 800,
		"flyability" : 0,
		"reason" : "rain, cloudbase",
		"timestamp" :1554919200
		},
	"2019-04-10T18:00:00-03:00" : {
		"windSpeed" : 4.9,
		"windDir" : 156,
		"rain" : 1,
		"cloudbase" : 520,
		"flyability" : 0,
		"reason" : "rain, cloudbase",
		"timestamp" :1554930000
		},
	"2019-04-10T21:00:00-03:00" : {
		"windSpeed" : 4.3,
		"windDir" : 154,
		"rain" : 1,
		"cloudbase" : 54.55937499999,
		"flyability" : 0,
		"reason" : "windDir, rain, cloudbase",
		"timestamp" :1554940800
		},
	"2019-04-11T00:00:00-03:00" : {
		"windSpeed" : 2.2,
		"windDir" : 153,
		"rain" : 1,
		"cloudbase" : 40.063874999984,
		"flyability" : 0,
		"reason" : "windDir, rain, cloudbase",
		"timestamp" :1554951600
		},
	"2019-04-11T03:00:00-03:00" : {
		"windSpeed" : 1.8,
		"windDir" : 147,
		"rain" : 1,
		"cloudbase" : 31.76599999999,
		"flyability" : 0,
		"reason" : "windDir, rain, cloudbase",
		"timestamp" :1554962400
		},
	"2019-04-11T06:00:00-03:00" : {
		"windSpeed" : 1.8,
		"windDir" : 147,
		"rain" : 0,
		"cloudbase" : 30,
		"flyability" : 0,
		"reason" : "windDir, cloudbase",
		"timestamp" :1554973200
		},
	"2019-04-11T09:00:00-03:00" : {
		"windSpeed" : 1.5,
		"windDir" : 163,
		"rain" : 1,
		"cloudbase" : 560,
		"flyability" : 0,
		"reason" : "rain, cloudbase",
		"timestamp" :1554984000
		},
	"2019-04-11T12:00:00-03:00" : {
		"windSpeed" : 1.1,
		"windDir" : 250,
		"rain" : 1,
		"cloudbase" : null,
		"flyability" : 0,
		"reason" : "windDir, rain",
		"timestamp" :1554994800
		},
	"2019-04-11T15:00:00-03:00" : {
		"windSpeed" : 2.4,
		"windDir" : 170,
		"rain" : 1,
		"cloudbase" : 840,
		"flyability" : 0,
		"reason" : "rain, cloudbase",
		"timestamp" :1555005600
		},
	"2019-04-11T18:00:00-03:00" : {
		"windSpeed" : 2.7,
		"windDir" : 157,
		"rain" : 1,
		"cloudbase" : 83.276,
		"flyability" : 0,
		"reason" : "rain, cloudbase",
		"timestamp" :1555016400
		},
	"2019-04-11T21:00:00-03:00" : {
		"windSpeed" : 1.7,
		"windDir" : 159,
		"rain" : 1,
		"cloudbase" : 38.352749999985,
		"flyability" : 0,
		"reason" : "rain, cloudbase",
		"timestamp" :1555027200
		},
	"2019-04-12T00:00:00-03:00" : {
		"windSpeed" : 0,
		"windDir" : 180,
		"rain" : 1,
		"cloudbase" : 70,
		"flyability" : 0,
		"reason" : "rain, cloudbase",
		"timestamp" :1555038000
		},
	"2019-04-12T03:00:00-03:00" : {
		"windSpeed" : 0.7,
		"windDir" : 312,
		"rain" : 1,
		"cloudbase" : 65,
		"flyability" : 0,
		"reason" : "rain, cloudbase",
		"timestamp" :1555048800
		},
	"2019-04-12T06:00:00-03:00" : {
		"windSpeed" : 1,
		"windDir" : 359,
		"rain" : 1,
		"cloudbase" : 50,
		"flyability" : 0,
		"reason" : "rain, cloudbase",
		"timestamp" :1555059600
		},
	"2019-04-12T09:00:00-03:00" : {
		"windSpeed" : 2.7,
		"windDir" : 337,
		"rain" : 1,
		"cloudbase" : null,
		"flyability" : 0,
		"reason" : "rain",
		"timestamp" :1555070400
		}
	}
}