{
"site" : "Agave Hill",
"id" : 10960,
"orientations" : "00000221",
"forecasts" : { 
	"2019-04-04T21:00:00-06:00" : {
		"windSpeed" : 1.4,
		"windDir" : 132,
		"rain" : 0,
		"cloudbase" : 7000,
		"flyability" : 0,
		"reason" : "windDir",
		"timestamp" :1554433200
		},
	"2019-04-05T00:00:00-06:00" : {
		"windSpeed" : 1.7,
		"windDir" : 167,
		"rain" : 0,
		"cloudbase" : null,
		"flyability" : 0,
		"reason" : "windDir",
		"timestamp" :1554444000
		},
	"2019-04-05T03:00:00-06:00" : {
		"windSpeed" : 1.9,
		"windDir" : 234,
		"rain" : 0,
		"cloudbase" : null,
		"flyability" : 100,
		"reason" : "",
		"timestamp" :1554454800
		},
	"2019-04-05T06:00:00-06:00" : {
		"windSpeed" : 1.8,
		"windDir" : 322,
		"rain" : 0,
		"cloudbase" : 4253.5,
		"flyability" : 100,
		"reason" : "",
		"timestamp" :1554465600
		},
	"2019-04-05T09:00:00-06:00" : {
		"windSpeed" : 0.6,
		"windDir" : 190,
		"rain" : 0,
		"cloudbase" : 4854.8650000001,
		"flyability" : 0,
		"reason" : "windDir",
		"timestamp" :1554476400
		},
	"2019-04-05T12:00:00-06:00" : {
		"windSpeed" : 3.4,
		"windDir" : 243,
		"rain" : 0,
		"cloudbase" : null,
		"flyability" : 100,
		"reason" : "",
		"timestamp" :1554487200
		},
	"2019-04-05T15:00:00-06:00" : {
		"windSpeed" : 5,
		"windDir" : 245,
		"rain" : 0,
		"cloudbase" : 6019,
		"flyability" : 100,
		"reason" : "",
		"timestamp" :1554498000
		},
	"2019-04-05T18:00:00-06:00" : {
		"windSpeed" : 5.7,
		"windDir" : 241,
		"rain" : 0,
		"cloudbase" : 5161.82,
		"flyability" : 0,
		"reason" : "windSpeed",
		"timestamp" :1554508800
		},
	"2019-04-05T21:00:00-06:00" : {
		"windSpeed" : 2.2,
		"windDir" : 298,
		"rain" : 0,
		"cloudbase" : null,
		"flyability" : 100,
		"reason" : "",
		"timestamp" :1554519600
		},
	"2019-04-06T00:00:00-06:00" : {
		"windSpeed" : 1.9,
		"windDir" : 216,
		"rain" : 0,
		"cloudbase" : null,
		"flyability" : 100,
		"reason" : "",
		"timestamp" :1554530400
		},
	"2019-04-06T03:00:00-06:00" : {
		"windSpeed" : 2.6,
		"windDir" : 269,
		"rain" : 0,
		"cloudbase" : null,
		"flyability" : 100,
		"reason" : "",
		"timestamp" :1554541200
		},
	"2019-04-06T06:00:00-06:00" : {
		"windSpeed" : 1.7,
		"windDir" : 286,
		"rain" : 0,
		"cloudbase" : null,
		"flyability" : 100,
		"reason" : "",
		"timestamp" :1554552000
		},
	"2019-04-06T09:00:00-06:00" : {
		"windSpeed" : 3,
		"windDir" : 237,
		"rain" : 0,
		"cloudbase" : 8174,
		"flyability" : 100,
		"reason" : "",
		"timestamp" :1554562800
		},
	"2019-04-06T12:00:00-06:00" : {
		"windSpeed" : 5.2,
		"windDir" : 252,
		"rain" : 0,
		"cloudbase" : 6300,
		"flyability" : 0,
		"reason" : "windSpeed",
		"timestamp" :1554573600
		},
	"2019-04-06T15:00:00-06:00" : {
		"windSpeed" : 5,
		"windDir" : 264,
		"rain" : 0,
		"cloudbase" : 6293.54,
		"flyability" : 100,
		"reason" : "",
		"timestamp" :1554584400
		},
	"2019-04-06T18:00:00-06:00" : {
		"windSpeed" : 5.6,
		"windDir" : 280,
		"rain" : 0,
		"cloudbase" : 7153.09,
		"flyability" : 0,
		"reason" : "windSpeed",
		"timestamp" :1554595200
		},
	"2019-04-06T21:00:00-06:00" : {
		"windSpeed" : 4.1,
		"windDir" : 276,
		"rain" : 0,
		"cloudbase" : null,
		"flyability" : 100,
		"reason" : "",
		"timestamp" :1554606000
		},
	"2019-04-07T00:00:00-06:00" : {
		"windSpeed" : 3.2,
		"windDir" : 279,
		"rain" : 0,
		"cloudbase" : null,
		"flyability" : 100,
		"reason" : "",
		"timestamp" :1554616800
		},
	"2019-04-07T03:00:00-06:00" : {
		"windSpeed" : 2.3,
		"windDir" : 292,
		"rain" : 0,
		"cloudbase" : null,
		"flyability" : 100,
		"reason" : "",
		"timestamp" :1554627600
		},
	"2019-04-07T06:00:00-06:00" : {
		"windSpeed" : 2.2,
		"windDir" : 293,
		"rain" : 0,
		"cloudbase" : null,
		"flyability" : 100,
		"reason" : "",
		"timestamp" :1554638400
		},
	"2019-04-07T09:00:00-06:00" : {
		"windSpeed" : 3.6,
		"windDir" : 314,
		"rain" : 0,
		"cloudbase" : null,
		"flyability" : 100,
		"reason" : "",
		"timestamp" :1554649200
		},
	"2019-04-07T12:00:00-06:00" : {
		"windSpeed" : 3.4,
		"windDir" : 333,
		"rain" : 0,
		"cloudbase" : null,
		"flyability" : 100,
		"reason" : "",
		"timestamp" :1554660000
		},
	"2019-04-07T15:00:00-06:00" : {
		"windSpeed" : 4.8,
		"windDir" : 329,
		"rain" : 0,
		"cloudbase" : null,
		"flyability" : 100,
		"reason" : "",
		"timestamp" :1554670800
		},
	"2019-04-07T18:00:00-06:00" : {
		"windSpeed" : 3.6,
		"windDir" : 328,
		"rain" : 0,
		"cloudbase" : null,
		"flyability" : 100,
		"reason" : "",
		"timestamp" :1554681600
		},
	"2019-04-07T21:00:00-06:00" : {
		"windSpeed" : 0.9,
		"windDir" : 44,
		"rain" : 0,
		"cloudbase" : null,
		"flyability" : 0,
		"reason" : "windDir",
		"timestamp" :1554692400
		},
	"2019-04-08T00:00:00-06:00" : {
		"windSpeed" : 1.3,
		"windDir" : 209,
		"rain" : 0,
		"cloudbase" : null,
		"flyability" : 100,
		"reason" : "",
		"timestamp" :1554703200
		},
	"2019-04-08T03:00:00-06:00" : {
		"windSpeed" : 0.6,
		"windDir" : 308,
		"rain" : 0,
		"cloudbase" : null,
		"flyability" : 100,
		"reason" : "",
		"timestamp" :1554714000
		},
	"2019-04-08T06:00:00-06:00" : {
		"windSpeed" : 1,
		"windDir" : 337,
		"rain" : 0,
		"cloudbase" : null,
		"flyability" : 100,
		"reason" : "",
		"timestamp" :1554724800
		},
	"2019-04-08T09:00:00-06:00" : {
		"windSpeed" : 1.9,
		"windDir" : 57,
		"rain" : 0,
		"cloudbase" : null,
		"flyability" : 0,
		"reason" : "windDir",
		"timestamp" :1554735600
		},
	"2019-04-08T12:00:00-06:00" : {
		"windSpeed" : 2.1,
		"windDir" : 44,
		"rain" : 0,
		"cloudbase" : null,
		"flyability" : 0,
		"reason" : "windDir",
		"timestamp" :1554746400
		},
	"2019-04-08T15:00:00-06:00" : {
		"windSpeed" : 3.5,
		"windDir" : 270,
		"rain" : 0,
		"cloudbase" : null,
		"flyability" : 100,
		"reason" : "",
		"timestamp" :1554757200
		},
	"2019-04-08T18:00:00-06:00" : {
		"windSpeed" : 3.2,
		"windDir" : 288,
		"rain" : 0,
		"cloudbase" : null,
		"flyability" : 100,
		"reason" : "",
		"timestamp" :1554768000
		},
	"2019-04-08T21:00:00-06:00" : {
		"windSpeed" : 2.1,
		"windDir" : 267,
		"rain" : 0,
		"cloudbase" : null,
		"flyability" : 100,
		"reason" : "",
		"timestamp" :1554778800
		},
	"2019-04-09T00:00:00-06:00" : {
		"windSpeed" : 1.9,
		"windDir" : 217,
		"rain" : 0,
		"cloudbase" : 8400,
		"flyability" : 100,
		"reason" : "",
		"timestamp" :1554789600
		},
	"2019-04-09T03:00:00-06:00" : {
		"windSpeed" : 2,
		"windDir" : 233,
		"rain" : 0,
		"cloudbase" : null,
		"flyability" : 100,
		"reason" : "",
		"timestamp" :1554800400
		},
	"2019-04-09T06:00:00-06:00" : {
		"windSpeed" : 2.3,
		"windDir" : 222,
		"rain" : 0,
		"cloudbase" : null,
		"flyability" : 100,
		"reason" : "",
		"timestamp" :1554811200
		},
	"2019-04-09T09:00:00-06:00" : {
		"windSpeed" : 1.8,
		"windDir" : 236,
		"rain" : 0,
		"cloudbase" : null,
		"flyability" : 100,
		"reason" : "",
		"timestamp" :1554822000
		},
	"2019-04-09T12:00:00-06:00" : {
		"windSpeed" : 4.7,
		"windDir" : 251,
		"rain" : 0,
		"cloudbase" : null,
		"flyability" : 100,
		"reason" : "",
		"timestamp" :1554832800
		},
	"2019-04-09T15:00:00-06:00" : {
		"windSpeed" : 6.6,
		"windDir" : 247,
		"rain" : 0,
		"cloudbase" : null,
		"flyability" : 0,
		"reason" : "windSpeed",
		"timestamp" :1554843600
		},
	"2019-04-09T18:00:00-06:00" : {
		"windSpeed" : 7.8,
		"windDir" : 259,
		"rain" : 0,
		"cloudbase" : 10504.55,
		"flyability" : 0,
		"reason" : "windSpeed",
		"timestamp" :1554854400
		},
	"2019-04-09T21:00:00-06:00" : {
		"windSpeed" : 6.4,
		"windDir" : 236,
		"rain" : 0,
		"cloudbase" : null,
		"flyability" : 0,
		"reason" : "windSpeed",
		"timestamp" :1554865200
		},
	"2019-04-10T00:00:00-06:00" : {
		"windSpeed" : 7,
		"windDir" : 240,
		"rain" : 0,
		"cloudbase" : null,
		"flyability" : 0,
		"reason" : "windSpeed",
		"timestamp" :1554876000
		},
	"2019-04-10T03:00:00-06:00" : {
		"windSpeed" : 7.3,
		"windDir" : 245,
		"rain" : 0,
		"cloudbase" : null,
		"flyability" : 0,
		"reason" : "windSpeed",
		"timestamp" :1554886800
		},
	"2019-04-10T06:00:00-06:00" : {
		"windSpeed" : 7,
		"windDir" : 253,
		"rain" : 0,
		"cloudbase" : null,
		"flyability" : 0,
		"reason" : "windSpeed",
		"timestamp" :1554897600
		},
	"2019-04-10T09:00:00-06:00" : {
		"windSpeed" : 8.2,
		"windDir" : 266,
		"rain" : 0,
		"cloudbase" : null,
		"flyability" : 0,
		"reason" : "windSpeed",
		"timestamp" :1554908400
		},
	"2019-04-10T12:00:00-06:00" : {
		"windSpeed" : 9.2,
		"windDir" : 273,
		"rain" : 0,
		"cloudbase" : null,
		"flyability" : 0,
		"reason" : "windSpeed",
		"timestamp" :1554919200
		},
	"2019-04-10T15:00:00-06:00" : {
		"windSpeed" : 10.2,
		"windDir" : 273,
		"rain" : 0,
		"cloudbase" : null,
		"flyability" : 0,
		"reason" : "windSpeed",
		"timestamp" :1554930000
		},
	"2019-04-10T18:00:00-06:00" : {
		"windSpeed" : 9.8,
		"windDir" : 271,
		"rain" : 0,
		"cloudbase" : null,
		"flyability" : 0,
		"reason" : "windSpeed",
		"timestamp" :1554940800
		}
	}
}