{
"site" : "Psiloritis-Nida",
"id" : 10991,
"orientations" : "20121001",
"forecasts" : { 
	"2019-04-10T18:00:00+03:00" : {
		"windSpeed" : 2.3,
		"windDir" : 238,
		"rain" : 1,
		"cloudbase" : null,
		"flyability" : 0,
		"reason" : "windDir, rain",
		"timestamp" :1554908400
		},
	"2019-04-10T21:00:00+03:00" : {
		"windSpeed" : 0.9,
		"windDir" : 283,
		"rain" : 0,
		"cloudbase" : 30,
		"flyability" : 0,
		"reason" : "windDir, cloudbase",
		"timestamp" :1554919200
		},
	"2019-04-11T00:00:00+03:00" : {
		"windSpeed" : 1.2,
		"windDir" : 306,
		"rain" : 0,
		"cloudbase" : null,
		"flyability" : 100,
		"reason" : "",
		"timestamp" :1554930000
		},
	"2019-04-11T03:00:00+03:00" : {
		"windSpeed" : 1.1,
		"windDir" : 331,
		"rain" : 0,
		"cloudbase" : null,
		"flyability" : 100,
		"reason" : "",
		"timestamp" :1554940800
		},
	"2019-04-11T06:00:00+03:00" : {
		"windSpeed" : 0.5,
		"windDir" : 292,
		"rain" : 0,
		"cloudbase" : null,
		"flyability" : 0,
		"reason" : "windDir",
		"timestamp" :1554951600
		},
	"2019-04-11T09:00:00+03:00" : {
		"windSpeed" : 1.5,
		"windDir" : 251,
		"rain" : 0,
		"cloudbase" : null,
		"flyability" : 0,
		"reason" : "windDir",
		"timestamp" :1554962400
		},
	"2019-04-11T12:00:00+03:00" : {
		"windSpeed" : 2.6,
		"windDir" : 237,
		"rain" : 0,
		"cloudbase" : null,
		"flyability" : 0,
		"reason" : "windDir",
		"timestamp" :1554973200
		},
	"2019-04-11T15:00:00+03:00" : {
		"windSpeed" : 2.4,
		"windDir" : 225,
		"rain" : 0,
		"cloudbase" : null,
		"flyability" : 0,
		"reason" : "windDir",
		"timestamp" :1554984000
		},
	"2019-04-11T18:00:00+03:00" : {
		"windSpeed" : 1.5,
		"windDir" : 220,
		"rain" : 0,
		"cloudbase" : null,
		"flyability" : 0,
		"reason" : "windDir",
		"timestamp" :1554994800
		},
	"2019-04-11T21:00:00+03:00" : {
		"windSpeed" : 0.7,
		"windDir" : 266,
		"rain" : 0,
		"cloudbase" : null,
		"flyability" : 0,
		"reason" : "windDir",
		"timestamp" :1555005600
		},
	"2019-04-12T00:00:00+03:00" : {
		"windSpeed" : 0.4,
		"windDir" : 263,
		"rain" : 0,
		"cloudbase" : 6648,
		"flyability" : 0,
		"reason" : "windDir",
		"timestamp" :1555016400
		},
	"2019-04-12T03:00:00+03:00" : {
		"windSpeed" : 1.5,
		"windDir" : 229,
		"rain" : 1,
		"cloudbase" : 5609.7599999997,
		"flyability" : 0,
		"reason" : "windDir, rain",
		"timestamp" :1555027200
		},
	"2019-04-12T06:00:00+03:00" : {
		"windSpeed" : 0.6,
		"windDir" : 95,
		"rain" : 1,
		"cloudbase" : 3618.5599999997,
		"flyability" : 0,
		"reason" : "rain",
		"timestamp" :1555038000
		},
	"2019-04-12T09:00:00+03:00" : {
		"windSpeed" : 3,
		"windDir" : 180,
		"rain" : 0,
		"cloudbase" : null,
		"flyability" : 100,
		"reason" : "",
		"timestamp" :1555048800
		},
	"2019-04-12T12:00:00+03:00" : {
		"windSpeed" : 4.4,
		"windDir" : 186,
		"rain" : 0,
		"cloudbase" : null,
		"flyability" : 100,
		"reason" : "",
		"timestamp" :1555059600
		},
	"2019-04-12T15:00:00+03:00" : {
		"windSpeed" : 4.7,
		"windDir" : 188,
		"rain" : 0,
		"cloudbase" : 5804,
		"flyability" : 100,
		"reason" : "",
		"timestamp" :1555070400
		},
	"2019-04-12T18:00:00+03:00" : {
		"windSpeed" : 2.7,
		"windDir" : 179,
		"rain" : 1,
		"cloudbase" : null,
		"flyability" : 0,
		"reason" : "rain",
		"timestamp" :1555081200
		},
	"2019-04-12T21:00:00+03:00" : {
		"windSpeed" : 2.2,
		"windDir" : 154,
		"rain" : 0,
		"cloudbase" : null,
		"flyability" : 100,
		"reason" : "",
		"timestamp" :1555092000
		},
	"2019-04-13T00:00:00+03:00" : {
		"windSpeed" : 1.4,
		"windDir" : 130,
		"rain" : 0,
		"cloudbase" : null,
		"flyability" : 100,
		"reason" : "",
		"timestamp" :1555102800
		},
	"2019-04-13T03:00:00+03:00" : {
		"windSpeed" : 1.1,
		"windDir" : 89,
		"rain" : 0,
		"cloudbase" : null,
		"flyability" : 100,
		"reason" : "",
		"timestamp" :1555113600
		},
	"2019-04-13T06:00:00+03:00" : {
		"windSpeed" : 1.6,
		"windDir" : 146,
		"rain" : 0,
		"cloudbase" : null,
		"flyability" : 100,
		"reason" : "",
		"timestamp" :1555124400
		},
	"2019-04-13T09:00:00+03:00" : {
		"windSpeed" : 3.9,
		"windDir" : 176,
		"rain" : 0,
		"cloudbase" : 370,
		"flyability" : 0,
		"reason" : "cloudbase",
		"timestamp" :1555135200
		},
	"2019-04-13T12:00:00+03:00" : {
		"windSpeed" : 2.2,
		"windDir" : 191,
		"rain" : 0,
		"cloudbase" : 740,
		"flyability" : 0,
		"reason" : "cloudbase",
		"timestamp" :1555146000
		},
	"2019-04-13T15:00:00+03:00" : {
		"windSpeed" : 1,
		"windDir" : 214,
		"rain" : 1,
		"cloudbase" : null,
		"flyability" : 0,
		"reason" : "windDir, rain",
		"timestamp" :1555156800
		},
	"2019-04-13T18:00:00+03:00" : {
		"windSpeed" : 0.6,
		"windDir" : 282,
		"rain" : 1,
		"cloudbase" : null,
		"flyability" : 0,
		"reason" : "windDir, rain",
		"timestamp" :1555167600
		},
	"2019-04-13T21:00:00+03:00" : {
		"windSpeed" : 0.2,
		"windDir" : 272,
		"rain" : 1,
		"cloudbase" : 110,
		"flyability" : 0,
		"reason" : "windDir, rain, cloudbase",
		"timestamp" :1555178400
		},
	"2019-04-14T00:00:00+03:00" : {
		"windSpeed" : 0.5,
		"windDir" : 267,
		"rain" : 1,
		"cloudbase" : 30,
		"flyability" : 0,
		"reason" : "windDir, rain, cloudbase",
		"timestamp" :1555189200
		},
	"2019-04-14T03:00:00+03:00" : {
		"windSpeed" : 1.3,
		"windDir" : 232,
		"rain" : 0,
		"cloudbase" : 30,
		"flyability" : 0,
		"reason" : "windDir, cloudbase",
		"timestamp" :1555200000
		},
	"2019-04-14T06:00:00+03:00" : {
		"windSpeed" : 0.7,
		"windDir" : 314,
		"rain" : 1,
		"cloudbase" : 30,
		"flyability" : 0,
		"reason" : "rain, cloudbase",
		"timestamp" :1555210800
		},
	"2019-04-14T09:00:00+03:00" : {
		"windSpeed" : 1.8,
		"windDir" : 214,
		"rain" : 1,
		"cloudbase" : 470,
		"flyability" : 0,
		"reason" : "windDir, rain, cloudbase",
		"timestamp" :1555221600
		},
	"2019-04-14T12:00:00+03:00" : {
		"windSpeed" : 2,
		"windDir" : 249,
		"rain" : 0,
		"cloudbase" : 600,
		"flyability" : 0,
		"reason" : "windDir, cloudbase",
		"timestamp" :1555232400
		},
	"2019-04-14T15:00:00+03:00" : {
		"windSpeed" : 2.4,
		"windDir" : 226,
		"rain" : 1,
		"cloudbase" : 820,
		"flyability" : 0,
		"reason" : "windDir, rain, cloudbase",
		"timestamp" :1555243200
		},
	"2019-04-14T18:00:00+03:00" : {
		"windSpeed" : 2.1,
		"windDir" : 235,
		"rain" : 0,
		"cloudbase" : 3102.7199999987,
		"flyability" : 0,
		"reason" : "windDir",
		"timestamp" :1555254000
		},
	"2019-04-14T21:00:00+03:00" : {
		"windSpeed" : 1.3,
		"windDir" : 246,
		"rain" : 0,
		"cloudbase" : 4141.4399999999,
		"flyability" : 0,
		"reason" : "windDir",
		"timestamp" :1555264800
		},
	"2019-04-15T00:00:00+03:00" : {
		"windSpeed" : 1.6,
		"windDir" : 242,
		"rain" : 1,
		"cloudbase" : 2528.6879999984,
		"flyability" : 0,
		"reason" : "windDir, rain",
		"timestamp" :1555275600
		},
	"2019-04-15T03:00:00+03:00" : {
		"windSpeed" : 1.8,
		"windDir" : 246,
		"rain" : 1,
		"cloudbase" : 1062.2719999997,
		"flyability" : 0,
		"reason" : "windDir, rain, cloudbase",
		"timestamp" :1555286400
		},
	"2019-04-15T06:00:00+03:00" : {
		"windSpeed" : 1.2,
		"windDir" : 258,
		"rain" : 1,
		"cloudbase" : 2746.2399999987,
		"flyability" : 0,
		"reason" : "windDir, rain",
		"timestamp" :1555297200
		},
	"2019-04-15T09:00:00+03:00" : {
		"windSpeed" : 1.8,
		"windDir" : 246,
		"rain" : 0,
		"cloudbase" : 270,
		"flyability" : 0,
		"reason" : "windDir, cloudbase",
		"timestamp" :1555308000
		},
	"2019-04-15T12:00:00+03:00" : {
		"windSpeed" : 2.5,
		"windDir" : 241,
		"rain" : 0,
		"cloudbase" : null,
		"flyability" : 0,
		"reason" : "windDir",
		"timestamp" :1555318800
		},
	"2019-04-15T15:00:00+03:00" : {
		"windSpeed" : 2.8,
		"windDir" : 232,
		"rain" : 0,
		"cloudbase" : null,
		"flyability" : 0,
		"reason" : "windDir",
		"timestamp" :1555329600
		},
	"2019-04-15T18:00:00+03:00" : {
		"windSpeed" : 2.3,
		"windDir" : 238,
		"rain" : 0,
		"cloudbase" : 1901.4879999989,
		"flyability" : 0,
		"reason" : "windDir",
		"timestamp" :1555340400
		},
	"2019-04-15T21:00:00+03:00" : {
		"windSpeed" : 1.5,
		"windDir" : 229,
		"rain" : 0,
		"cloudbase" : 3254.72,
		"flyability" : 0,
		"reason" : "windDir",
		"timestamp" :1555351200
		},
	"2019-04-16T00:00:00+03:00" : {
		"windSpeed" : 1.1,
		"windDir" : 204,
		"rain" : 1,
		"cloudbase" : 4648.7200000005,
		"flyability" : 0,
		"reason" : "windDir, rain",
		"timestamp" :1555362000
		},
	"2019-04-16T03:00:00+03:00" : {
		"windSpeed" : 0.5,
		"windDir" : 247,
		"rain" : 1,
		"cloudbase" : null,
		"flyability" : 0,
		"reason" : "windDir, rain",
		"timestamp" :1555372800
		},
	"2019-04-16T06:00:00+03:00" : {
		"windSpeed" : 1.4,
		"windDir" : 11,
		"rain" : 1,
		"cloudbase" : 30,
		"flyability" : 0,
		"reason" : "rain, cloudbase",
		"timestamp" :1555383600
		},
	"2019-04-16T09:00:00+03:00" : {
		"windSpeed" : 2.5,
		"windDir" : 348,
		"rain" : 0,
		"cloudbase" : 540,
		"flyability" : 0,
		"reason" : "cloudbase",
		"timestamp" :1555394400
		},
	"2019-04-16T12:00:00+03:00" : {
		"windSpeed" : 2.6,
		"windDir" : 343,
		"rain" : 1,
		"cloudbase" : null,
		"flyability" : 0,
		"reason" : "rain",
		"timestamp" :1555405200
		},
	"2019-04-16T15:00:00+03:00" : {
		"windSpeed" : 2.8,
		"windDir" : 350,
		"rain" : 1,
		"cloudbase" : null,
		"flyability" : 0,
		"reason" : "rain",
		"timestamp" :1555416000
		}
	}
}