{
"site" : "Sollie Smith",
"id" : 11059,
"orientations" : "00000120",
"forecasts" : { 
	"2019-04-08T20:00:00-07:00" : {
		"windSpeed" : 4.1,
		"windDir" : 226,
		"rain" : 1,
		"cloudbase" : 200,
		"flyability" : 0,
		"reason" : "rain, cloudbase",
		"timestamp" :1554782400
		},
	"2019-04-08T23:00:00-07:00" : {
		"windSpeed" : 4.4,
		"windDir" : 258,
		"rain" : 1,
		"cloudbase" : 177.37760000001,
		"flyability" : 0,
		"reason" : "rain, cloudbase",
		"timestamp" :1554793200
		},
	"2019-04-09T02:00:00-07:00" : {
		"windSpeed" : 5.8,
		"windDir" : 302,
		"rain" : 1,
		"cloudbase" : 700.77120000004,
		"flyability" : 0,
		"reason" : "windSpeed, windDir, rain",
		"timestamp" :1554804000
		},
	"2019-04-09T05:00:00-07:00" : {
		"windSpeed" : 6.1,
		"windDir" : 306,
		"rain" : 1,
		"cloudbase" : 220,
		"flyability" : 0,
		"reason" : "windSpeed, windDir, rain, cloudbase",
		"timestamp" :1554814800
		},
	"2019-04-09T08:00:00-07:00" : {
		"windSpeed" : 4.7,
		"windDir" : 303,
		"rain" : 1,
		"cloudbase" : 30,
		"flyability" : 0,
		"reason" : "windDir, rain, cloudbase",
		"timestamp" :1554825600
		},
	"2019-04-09T11:00:00-07:00" : {
		"windSpeed" : 5.2,
		"windDir" : 294,
		"rain" : 1,
		"cloudbase" : 359.4048,
		"flyability" : 0,
		"reason" : "windSpeed, windDir, rain, cloudbase",
		"timestamp" :1554836400
		},
	"2019-04-09T14:00:00-07:00" : {
		"windSpeed" : 6.1,
		"windDir" : 297,
		"rain" : 1,
		"cloudbase" : 540,
		"flyability" : 0,
		"reason" : "windSpeed, windDir, rain",
		"timestamp" :1554847200
		},
	"2019-04-09T17:00:00-07:00" : {
		"windSpeed" : 5.8,
		"windDir" : 302,
		"rain" : 1,
		"cloudbase" : 7300,
		"flyability" : 0,
		"reason" : "windSpeed, windDir, rain",
		"timestamp" :1554858000
		},
	"2019-04-09T20:00:00-07:00" : {
		"windSpeed" : 3.1,
		"windDir" : 305,
		"rain" : 1,
		"cloudbase" : 2313.6095999999,
		"flyability" : 0,
		"reason" : "windDir, rain",
		"timestamp" :1554868800
		},
	"2019-04-09T23:00:00-07:00" : {
		"windSpeed" : 2.8,
		"windDir" : 297,
		"rain" : 1,
		"cloudbase" : 540,
		"flyability" : 0,
		"reason" : "windDir, rain",
		"timestamp" :1554879600
		},
	"2019-04-10T02:00:00-07:00" : {
		"windSpeed" : 2,
		"windDir" : 277,
		"rain" : 1,
		"cloudbase" : 1618.1968000001,
		"flyability" : 0,
		"reason" : "rain",
		"timestamp" :1554890400
		},
	"2019-04-10T05:00:00-07:00" : {
		"windSpeed" : 1.6,
		"windDir" : 250,
		"rain" : 1,
		"cloudbase" : 603.00480000002,
		"flyability" : 0,
		"reason" : "rain",
		"timestamp" :1554901200
		},
	"2019-04-10T08:00:00-07:00" : {
		"windSpeed" : 2.1,
		"windDir" : 193,
		"rain" : 1,
		"cloudbase" : 229.43680000001,
		"flyability" : 0,
		"reason" : "windDir, rain, cloudbase",
		"timestamp" :1554912000
		},
	"2019-04-10T11:00:00-07:00" : {
		"windSpeed" : 4.1,
		"windDir" : 246,
		"rain" : 1,
		"cloudbase" : 186.59680000001,
		"flyability" : 0,
		"reason" : "rain, cloudbase",
		"timestamp" :1554922800
		},
	"2019-04-10T14:00:00-07:00" : {
		"windSpeed" : 4.5,
		"windDir" : 250,
		"rain" : 1,
		"cloudbase" : 367.35680000001,
		"flyability" : 0,
		"reason" : "rain, cloudbase",
		"timestamp" :1554933600
		},
	"2019-04-10T17:00:00-07:00" : {
		"windSpeed" : 5.8,
		"windDir" : 275,
		"rain" : 1,
		"cloudbase" : 215.79840000001,
		"flyability" : 0,
		"reason" : "windSpeed, rain, cloudbase",
		"timestamp" :1554944400
		},
	"2019-04-10T20:00:00-07:00" : {
		"windSpeed" : 3.5,
		"windDir" : 300,
		"rain" : 1,
		"cloudbase" : 464.18400000002,
		"flyability" : 0,
		"reason" : "windDir, rain, cloudbase",
		"timestamp" :1554955200
		},
	"2019-04-10T23:00:00-07:00" : {
		"windSpeed" : 4.2,
		"windDir" : 262,
		"rain" : 1,
		"cloudbase" : 153.49840000001,
		"flyability" : 0,
		"reason" : "rain, cloudbase",
		"timestamp" :1554966000
		},
	"2019-04-11T02:00:00-07:00" : {
		"windSpeed" : 4.8,
		"windDir" : 267,
		"rain" : 1,
		"cloudbase" : 187.83680000001,
		"flyability" : 0,
		"reason" : "rain, cloudbase",
		"timestamp" :1554976800
		},
	"2019-04-11T05:00:00-07:00" : {
		"windSpeed" : 4.3,
		"windDir" : 267,
		"rain" : 1,
		"cloudbase" : 211.92000000001,
		"flyability" : 0,
		"reason" : "rain, cloudbase",
		"timestamp" :1554987600
		},
	"2019-04-11T08:00:00-07:00" : {
		"windSpeed" : 3.6,
		"windDir" : 253,
		"rain" : 1,
		"cloudbase" : 387.20320000003,
		"flyability" : 0,
		"reason" : "rain, cloudbase",
		"timestamp" :1554998400
		},
	"2019-04-11T11:00:00-07:00" : {
		"windSpeed" : 3.2,
		"windDir" : 210,
		"rain" : 1,
		"cloudbase" : 840.8736,
		"flyability" : 0,
		"reason" : "rain",
		"timestamp" :1555009200
		},
	"2019-04-11T14:00:00-07:00" : {
		"windSpeed" : 4.3,
		"windDir" : 229,
		"rain" : 1,
		"cloudbase" : 137.4704,
		"flyability" : 0,
		"reason" : "rain, cloudbase",
		"timestamp" :1555020000
		},
	"2019-04-11T17:00:00-07:00" : {
		"windSpeed" : 3.8,
		"windDir" : 232,
		"rain" : 1,
		"cloudbase" : 255.08639999999,
		"flyability" : 0,
		"reason" : "rain, cloudbase",
		"timestamp" :1555030800
		},
	"2019-04-11T20:00:00-07:00" : {
		"windSpeed" : 3,
		"windDir" : 291,
		"rain" : 1,
		"cloudbase" : 201.77440000002,
		"flyability" : 0,
		"reason" : "rain, cloudbase",
		"timestamp" :1555041600
		},
	"2019-04-11T23:00:00-07:00" : {
		"windSpeed" : 2.3,
		"windDir" : 303,
		"rain" : 1,
		"cloudbase" : 85,
		"flyability" : 0,
		"reason" : "windDir, rain, cloudbase",
		"timestamp" :1555052400
		},
	"2019-04-12T02:00:00-07:00" : {
		"windSpeed" : 1,
		"windDir" : 285,
		"rain" : 1,
		"cloudbase" : 201.08320000001,
		"flyability" : 0,
		"reason" : "rain, cloudbase",
		"timestamp" :1555063200
		},
	"2019-04-12T05:00:00-07:00" : {
		"windSpeed" : 0.8,
		"windDir" : 91,
		"rain" : 0,
		"cloudbase" : 349.09280000002,
		"flyability" : 0,
		"reason" : "windDir, cloudbase",
		"timestamp" :1555074000
		},
	"2019-04-12T08:00:00-07:00" : {
		"windSpeed" : 1,
		"windDir" : 110,
		"rain" : 1,
		"cloudbase" : 70,
		"flyability" : 0,
		"reason" : "windDir, rain, cloudbase",
		"timestamp" :1555084800
		},
	"2019-04-12T11:00:00-07:00" : {
		"windSpeed" : 1.1,
		"windDir" : 296,
		"rain" : 1,
		"cloudbase" : 820,
		"flyability" : 0,
		"reason" : "windDir, rain",
		"timestamp" :1555095600
		},
	"2019-04-12T14:00:00-07:00" : {
		"windSpeed" : 2.9,
		"windDir" : 287,
		"rain" : 1,
		"cloudbase" : null,
		"flyability" : 0,
		"reason" : "rain",
		"timestamp" :1555106400
		},
	"2019-04-12T17:00:00-07:00" : {
		"windSpeed" : 2.1,
		"windDir" : 293,
		"rain" : 1,
		"cloudbase" : 960,
		"flyability" : 0,
		"reason" : "windDir, rain",
		"timestamp" :1555117200
		},
	"2019-04-12T20:00:00-07:00" : {
		"windSpeed" : 1,
		"windDir" : 287,
		"rain" : 0,
		"cloudbase" : null,
		"flyability" : 100,
		"reason" : "",
		"timestamp" :1555128000
		},
	"2019-04-12T23:00:00-07:00" : {
		"windSpeed" : 0.5,
		"windDir" : 94,
		"rain" : 1,
		"cloudbase" : 30,
		"flyability" : 0,
		"reason" : "windDir, rain, cloudbase",
		"timestamp" :1555138800
		},
	"2019-04-13T02:00:00-07:00" : {
		"windSpeed" : 1.6,
		"windDir" : 110,
		"rain" : 0,
		"cloudbase" : 1168.2687999998,
		"flyability" : 0,
		"reason" : "windDir",
		"timestamp" :1555149600
		},
	"2019-04-13T05:00:00-07:00" : {
		"windSpeed" : 1.9,
		"windDir" : 107,
		"rain" : 1,
		"cloudbase" : 2747.2079999999,
		"flyability" : 0,
		"reason" : "windDir, rain",
		"timestamp" :1555160400
		},
	"2019-04-13T08:00:00-07:00" : {
		"windSpeed" : 2.3,
		"windDir" : 192,
		"rain" : 1,
		"cloudbase" : 503.52000000002,
		"flyability" : 0,
		"reason" : "windDir, rain",
		"timestamp" :1555171200
		},
	"2019-04-13T11:00:00-07:00" : {
		"windSpeed" : 3.5,
		"windDir" : 199,
		"rain" : 0,
		"cloudbase" : 1581.112,
		"flyability" : 0,
		"reason" : "windDir",
		"timestamp" :1555182000
		},
	"2019-04-13T14:00:00-07:00" : {
		"windSpeed" : 4.3,
		"windDir" : 212,
		"rain" : 1,
		"cloudbase" : 401.9056,
		"flyability" : 0,
		"reason" : "rain, cloudbase",
		"timestamp" :1555192800
		},
	"2019-04-13T17:00:00-07:00" : {
		"windSpeed" : 2.9,
		"windDir" : 316,
		"rain" : 1,
		"cloudbase" : 240,
		"flyability" : 0,
		"reason" : "windDir, rain, cloudbase",
		"timestamp" :1555203600
		},
	"2019-04-13T20:00:00-07:00" : {
		"windSpeed" : 2.8,
		"windDir" : 305,
		"rain" : 1,
		"cloudbase" : null,
		"flyability" : 0,
		"reason" : "windDir, rain",
		"timestamp" :1555214400
		},
	"2019-04-13T23:00:00-07:00" : {
		"windSpeed" : 1.8,
		"windDir" : 278,
		"rain" : 0,
		"cloudbase" : 5488.4240000001,
		"flyability" : 100,
		"reason" : "",
		"timestamp" :1555225200
		},
	"2019-04-14T02:00:00-07:00" : {
		"windSpeed" : 2.4,
		"windDir" : 232,
		"rain" : 1,
		"cloudbase" : 1935.1072000001,
		"flyability" : 0,
		"reason" : "rain",
		"timestamp" :1555236000
		},
	"2019-04-14T05:00:00-07:00" : {
		"windSpeed" : 2.7,
		"windDir" : 221,
		"rain" : 1,
		"cloudbase" : 179.47360000001,
		"flyability" : 0,
		"reason" : "rain, cloudbase",
		"timestamp" :1555246800
		},
	"2019-04-14T08:00:00-07:00" : {
		"windSpeed" : 3.5,
		"windDir" : 234,
		"rain" : 1,
		"cloudbase" : 430,
		"flyability" : 0,
		"reason" : "rain, cloudbase",
		"timestamp" :1555257600
		},
	"2019-04-14T11:00:00-07:00" : {
		"windSpeed" : 3.3,
		"windDir" : 237,
		"rain" : 1,
		"cloudbase" : 836.14079999994,
		"flyability" : 0,
		"reason" : "rain",
		"timestamp" :1555268400
		},
	"2019-04-14T14:00:00-07:00" : {
		"windSpeed" : 3.6,
		"windDir" : 237,
		"rain" : 1,
		"cloudbase" : 213.8208,
		"flyability" : 0,
		"reason" : "rain, cloudbase",
		"timestamp" :1555279200
		},
	"2019-04-14T17:00:00-07:00" : {
		"windSpeed" : 3.5,
		"windDir" : 253,
		"rain" : 1,
		"cloudbase" : 419.96160000002,
		"flyability" : 0,
		"reason" : "rain, cloudbase",
		"timestamp" :1555290000
		}
	}
}