{
"site" : "Hecho - Borda Serrano",
"id" : 11066,
"orientations" : "10001222",
"forecasts" : { 
	"2019-04-22T05:00:00+02:00" : {
		"windSpeed" : 1.3,
		"windDir" : 44,
		"rain" : 0,
		"cloudbase" : null,
		"flyability" : 0,
		"reason" : "windDir",
		"timestamp" :1555905600
		},
	"2019-04-22T08:00:00+02:00" : {
		"windSpeed" : 2.4,
		"windDir" : 32,
		"rain" : 0,
		"cloudbase" : 8800,
		"flyability" : 0,
		"reason" : "windDir",
		"timestamp" :1555916400
		},
	"2019-04-22T11:00:00+02:00" : {
		"windSpeed" : 0.6,
		"windDir" : 212,
		"rain" : 0,
		"cloudbase" : 2527.5336000004,
		"flyability" : 100,
		"reason" : "",
		"timestamp" :1555927200
		},
	"2019-04-22T14:00:00+02:00" : {
		"windSpeed" : 1.9,
		"windDir" : 164,
		"rain" : 1,
		"cloudbase" : 2207.0240000003,
		"flyability" : 0,
		"reason" : "rain",
		"timestamp" :1555938000
		},
	"2019-04-22T17:00:00+02:00" : {
		"windSpeed" : 1.5,
		"windDir" : 214,
		"rain" : 1,
		"cloudbase" : 1627.4472,
		"flyability" : 0,
		"reason" : "rain",
		"timestamp" :1555948800
		},
	"2019-04-22T20:00:00+02:00" : {
		"windSpeed" : 0.7,
		"windDir" : 90,
		"rain" : 1,
		"cloudbase" : 2450,
		"flyability" : 0,
		"reason" : "windDir, rain",
		"timestamp" :1555959600
		},
	"2019-04-22T23:00:00+02:00" : {
		"windSpeed" : 1.4,
		"windDir" : 113,
		"rain" : 1,
		"cloudbase" : 1114.3616,
		"flyability" : 0,
		"reason" : "windDir, rain, cloudbase",
		"timestamp" :1555970400
		},
	"2019-04-23T02:00:00+02:00" : {
		"windSpeed" : 1.4,
		"windDir" : 89,
		"rain" : 1,
		"cloudbase" : 969.21520000001,
		"flyability" : 0,
		"reason" : "windDir, rain, cloudbase",
		"timestamp" :1555981200
		},
	"2019-04-23T05:00:00+02:00" : {
		"windSpeed" : 1.5,
		"windDir" : 110,
		"rain" : 1,
		"cloudbase" : 1634.9368000001,
		"flyability" : 0,
		"reason" : "windDir, rain",
		"timestamp" :1555992000
		},
	"2019-04-23T08:00:00+02:00" : {
		"windSpeed" : 1.9,
		"windDir" : 113,
		"rain" : 0,
		"cloudbase" : 4872.8959999989,
		"flyability" : 0,
		"reason" : "windDir",
		"timestamp" :1556002800
		},
	"2019-04-23T11:00:00+02:00" : {
		"windSpeed" : 3.5,
		"windDir" : 165,
		"rain" : 1,
		"cloudbase" : 7163.792,
		"flyability" : 0,
		"reason" : "rain",
		"timestamp" :1556013600
		},
	"2019-04-23T14:00:00+02:00" : {
		"windSpeed" : 3.8,
		"windDir" : 162,
		"rain" : 0,
		"cloudbase" : 3726.7376000003,
		"flyability" : 100,
		"reason" : "",
		"timestamp" :1556024400
		},
	"2019-04-23T17:00:00+02:00" : {
		"windSpeed" : 3,
		"windDir" : 163,
		"rain" : 0,
		"cloudbase" : 2824.7807999996,
		"flyability" : 100,
		"reason" : "",
		"timestamp" :1556035200
		},
	"2019-04-23T20:00:00+02:00" : {
		"windSpeed" : 3.4,
		"windDir" : 204,
		"rain" : 1,
		"cloudbase" : 351.1256000001,
		"flyability" : 0,
		"reason" : "rain, cloudbase",
		"timestamp" :1556046000
		},
	"2019-04-23T23:00:00+02:00" : {
		"windSpeed" : 1.9,
		"windDir" : 104,
		"rain" : 1,
		"cloudbase" : 3974.6000000001,
		"flyability" : 0,
		"reason" : "windDir, rain",
		"timestamp" :1556056800
		},
	"2019-04-24T02:00:00+02:00" : {
		"windSpeed" : 2.2,
		"windDir" : 133,
		"rain" : 1,
		"cloudbase" : null,
		"flyability" : 0,
		"reason" : "windDir, rain",
		"timestamp" :1556067600
		},
	"2019-04-24T05:00:00+02:00" : {
		"windSpeed" : 2.1,
		"windDir" : 126,
		"rain" : 1,
		"cloudbase" : null,
		"flyability" : 0,
		"reason" : "windDir, rain",
		"timestamp" :1556078400
		},
	"2019-04-24T08:00:00+02:00" : {
		"windSpeed" : 2.3,
		"windDir" : 134,
		"rain" : 0,
		"cloudbase" : null,
		"flyability" : 0,
		"reason" : "windDir",
		"timestamp" :1556089200
		},
	"2019-04-24T11:00:00+02:00" : {
		"windSpeed" : 4.4,
		"windDir" : 169,
		"rain" : 1,
		"cloudbase" : 50,
		"flyability" : 0,
		"reason" : "rain, cloudbase",
		"timestamp" :1556100000
		},
	"2019-04-24T14:00:00+02:00" : {
		"windSpeed" : 6.2,
		"windDir" : 171,
		"rain" : 1,
		"cloudbase" : 801.68000000005,
		"flyability" : 0,
		"reason" : "windSpeed, rain, cloudbase",
		"timestamp" :1556110800
		},
	"2019-04-24T17:00:00+02:00" : {
		"windSpeed" : 6.8,
		"windDir" : 181,
		"rain" : 1,
		"cloudbase" : 1883.0960000001,
		"flyability" : 0,
		"reason" : "windSpeed, rain",
		"timestamp" :1556121600
		},
	"2019-04-24T20:00:00+02:00" : {
		"windSpeed" : 5.4,
		"windDir" : 117,
		"rain" : 1,
		"cloudbase" : 1061.6192,
		"flyability" : 0,
		"reason" : "windSpeed, windDir, rain, cloudbase",
		"timestamp" :1556132400
		},
	"2019-04-24T23:00:00+02:00" : {
		"windSpeed" : 7.2,
		"windDir" : 127,
		"rain" : 1,
		"cloudbase" : 849.06560000006,
		"flyability" : 0,
		"reason" : "windSpeed, windDir, rain, cloudbase",
		"timestamp" :1556143200
		},
	"2019-04-25T02:00:00+02:00" : {
		"windSpeed" : 6.6,
		"windDir" : 134,
		"rain" : 1,
		"cloudbase" : 529.22000000005,
		"flyability" : 0,
		"reason" : "windSpeed, windDir, rain, cloudbase",
		"timestamp" :1556154000
		},
	"2019-04-25T05:00:00+02:00" : {
		"windSpeed" : 4.5,
		"windDir" : 175,
		"rain" : 1,
		"cloudbase" : 170.08960000001,
		"flyability" : 0,
		"reason" : "rain, cloudbase",
		"timestamp" :1556164800
		},
	"2019-04-25T08:00:00+02:00" : {
		"windSpeed" : 3.8,
		"windDir" : 171,
		"rain" : 1,
		"cloudbase" : 714.25840000022,
		"flyability" : 0,
		"reason" : "rain, cloudbase",
		"timestamp" :1556175600
		},
	"2019-04-25T11:00:00+02:00" : {
		"windSpeed" : 3.8,
		"windDir" : 200,
		"rain" : 1,
		"cloudbase" : 50,
		"flyability" : 0,
		"reason" : "rain, cloudbase",
		"timestamp" :1556186400
		},
	"2019-04-25T14:00:00+02:00" : {
		"windSpeed" : 3,
		"windDir" : 215,
		"rain" : 0,
		"cloudbase" : null,
		"flyability" : 100,
		"reason" : "",
		"timestamp" :1556197200
		},
	"2019-04-25T17:00:00+02:00" : {
		"windSpeed" : 3.4,
		"windDir" : 217,
		"rain" : 0,
		"cloudbase" : 6300,
		"flyability" : 100,
		"reason" : "",
		"timestamp" :1556208000
		},
	"2019-04-25T20:00:00+02:00" : {
		"windSpeed" : 1.5,
		"windDir" : 126,
		"rain" : 0,
		"cloudbase" : 4501.472,
		"flyability" : 0,
		"reason" : "windDir",
		"timestamp" :1556218800
		},
	"2019-04-25T23:00:00+02:00" : {
		"windSpeed" : 1.3,
		"windDir" : 111,
		"rain" : 1,
		"cloudbase" : 2234.0976000004,
		"flyability" : 0,
		"reason" : "windDir, rain",
		"timestamp" :1556229600
		},
	"2019-04-26T02:00:00+02:00" : {
		"windSpeed" : 0.2,
		"windDir" : 359,
		"rain" : 1,
		"cloudbase" : null,
		"flyability" : 0,
		"reason" : "rain",
		"timestamp" :1556240400
		},
	"2019-04-26T05:00:00+02:00" : {
		"windSpeed" : 0.3,
		"windDir" : 271,
		"rain" : 0,
		"cloudbase" : null,
		"flyability" : 100,
		"reason" : "",
		"timestamp" :1556251200
		},
	"2019-04-26T08:00:00+02:00" : {
		"windSpeed" : 2.3,
		"windDir" : 12,
		"rain" : 0,
		"cloudbase" : 2371.8760000008,
		"flyability" : 100,
		"reason" : "",
		"timestamp" :1556262000
		},
	"2019-04-26T11:00:00+02:00" : {
		"windSpeed" : 3.8,
		"windDir" : 309,
		"rain" : 0,
		"cloudbase" : 1200,
		"flyability" : 100,
		"reason" : "",
		"timestamp" :1556272800
		},
	"2019-04-26T14:00:00+02:00" : {
		"windSpeed" : 3.9,
		"windDir" : 298,
		"rain" : 1,
		"cloudbase" : 1035.596,
		"flyability" : 0,
		"reason" : "rain, cloudbase",
		"timestamp" :1556283600
		},
	"2019-04-26T17:00:00+02:00" : {
		"windSpeed" : 3.5,
		"windDir" : 302,
		"rain" : 0,
		"cloudbase" : 831.94240000003,
		"flyability" : 0,
		"reason" : "cloudbase",
		"timestamp" :1556294400
		},
	"2019-04-26T20:00:00+02:00" : {
		"windSpeed" : 1.8,
		"windDir" : 325,
		"rain" : 0,
		"cloudbase" : 740,
		"flyability" : 0,
		"reason" : "cloudbase",
		"timestamp" :1556305200
		},
	"2019-04-26T23:00:00+02:00" : {
		"windSpeed" : 2.5,
		"windDir" : 11,
		"rain" : 1,
		"cloudbase" : 777.51240000002,
		"flyability" : 0,
		"reason" : "rain, cloudbase",
		"timestamp" :1556316000
		},
	"2019-04-27T02:00:00+02:00" : {
		"windSpeed" : 2.1,
		"windDir" : 17,
		"rain" : 0,
		"cloudbase" : null,
		"flyability" : 100,
		"reason" : "",
		"timestamp" :1556326800
		},
	"2019-04-27T05:00:00+02:00" : {
		"windSpeed" : 2,
		"windDir" : 3,
		"rain" : 1,
		"cloudbase" : 100,
		"flyability" : 0,
		"reason" : "rain, cloudbase",
		"timestamp" :1556337600
		},
	"2019-04-27T08:00:00+02:00" : {
		"windSpeed" : 2.2,
		"windDir" : 346,
		"rain" : 0,
		"cloudbase" : 5046.3343999998,
		"flyability" : 100,
		"reason" : "",
		"timestamp" :1556348400
		},
	"2019-04-27T11:00:00+02:00" : {
		"windSpeed" : 3.6,
		"windDir" : 335,
		"rain" : 1,
		"cloudbase" : 601.29200000003,
		"flyability" : 0,
		"reason" : "rain, cloudbase",
		"timestamp" :1556359200
		},
	"2019-04-27T14:00:00+02:00" : {
		"windSpeed" : 3.1,
		"windDir" : 337,
		"rain" : 0,
		"cloudbase" : null,
		"flyability" : 100,
		"reason" : "",
		"timestamp" :1556370000
		},
	"2019-04-27T17:00:00+02:00" : {
		"windSpeed" : 3.9,
		"windDir" : 348,
		"rain" : 0,
		"cloudbase" : null,
		"flyability" : 100,
		"reason" : "",
		"timestamp" :1556380800
		},
	"2019-04-27T20:00:00+02:00" : {
		"windSpeed" : 3.9,
		"windDir" : 357,
		"rain" : 0,
		"cloudbase" : 310,
		"flyability" : 0,
		"reason" : "cloudbase",
		"timestamp" :1556391600
		},
	"2019-04-27T23:00:00+02:00" : {
		"windSpeed" : 3.3,
		"windDir" : 10,
		"rain" : 0,
		"cloudbase" : null,
		"flyability" : 100,
		"reason" : "",
		"timestamp" :1556402400
		},
	"2019-04-28T02:00:00+02:00" : {
		"windSpeed" : 3,
		"windDir" : 22,
		"rain" : 0,
		"cloudbase" : null,
		"flyability" : 100,
		"reason" : "",
		"timestamp" :1556413200
		}
	}
}