{
"site" : "Spinoasa E",
"id" : 11123,
"orientations" : "01200000",
"forecasts" : { 
	"2019-04-17T06:00:00+03:00" : {
		"windSpeed" : 4.5,
		"windDir" : 333,
		"rain" : 1,
		"cloudbase" : 350.95650000001,
		"flyability" : 0,
		"reason" : "windDir, rain",
		"timestamp" :1555470000
		},
	"2019-04-17T09:00:00+03:00" : {
		"windSpeed" : 3.3,
		"windDir" : 349,
		"rain" : 1,
		"cloudbase" : 595.91950000002,
		"flyability" : 0,
		"reason" : "windDir, rain",
		"timestamp" :1555480800
		},
	"2019-04-17T12:00:00+03:00" : {
		"windSpeed" : 3.2,
		"windDir" : 35,
		"rain" : 1,
		"cloudbase" : 817.323,
		"flyability" : 0,
		"reason" : "rain",
		"timestamp" :1555491600
		},
	"2019-04-17T15:00:00+03:00" : {
		"windSpeed" : 1.8,
		"windDir" : 36,
		"rain" : 1,
		"cloudbase" : 899.227,
		"flyability" : 0,
		"reason" : "rain",
		"timestamp" :1555502400
		},
	"2019-04-17T18:00:00+03:00" : {
		"windSpeed" : 0.6,
		"windDir" : 96,
		"rain" : 1,
		"cloudbase" : 1711.8775,
		"flyability" : 0,
		"reason" : "rain",
		"timestamp" :1555513200
		},
	"2019-04-17T21:00:00+03:00" : {
		"windSpeed" : 1.7,
		"windDir" : 300,
		"rain" : 1,
		"cloudbase" : 1278.5775,
		"flyability" : 0,
		"reason" : "windDir, rain",
		"timestamp" :1555524000
		},
	"2019-04-18T00:00:00+03:00" : {
		"windSpeed" : 2.6,
		"windDir" : 356,
		"rain" : 1,
		"cloudbase" : 1161.1424999999,
		"flyability" : 0,
		"reason" : "windDir, rain",
		"timestamp" :1555534800
		},
	"2019-04-18T03:00:00+03:00" : {
		"windSpeed" : 2.7,
		"windDir" : 26,
		"rain" : 1,
		"cloudbase" : 503.9285,
		"flyability" : 0,
		"reason" : "rain",
		"timestamp" :1555545600
		},
	"2019-04-18T06:00:00+03:00" : {
		"windSpeed" : 3.4,
		"windDir" : 27,
		"rain" : 1,
		"cloudbase" : 796.8625,
		"flyability" : 0,
		"reason" : "rain",
		"timestamp" :1555556400
		},
	"2019-04-18T09:00:00+03:00" : {
		"windSpeed" : 3.2,
		"windDir" : 28,
		"rain" : 1,
		"cloudbase" : 1638.8810000001,
		"flyability" : 0,
		"reason" : "rain",
		"timestamp" :1555567200
		},
	"2019-04-18T12:00:00+03:00" : {
		"windSpeed" : 2.6,
		"windDir" : 45,
		"rain" : 1,
		"cloudbase" : 3801.1074999996,
		"flyability" : 0,
		"reason" : "rain",
		"timestamp" :1555578000
		},
	"2019-04-18T15:00:00+03:00" : {
		"windSpeed" : 4.2,
		"windDir" : 16,
		"rain" : 1,
		"cloudbase" : 1729.7725,
		"flyability" : 0,
		"reason" : "windDir, rain",
		"timestamp" :1555588800
		},
	"2019-04-18T18:00:00+03:00" : {
		"windSpeed" : 3.4,
		"windDir" : 336,
		"rain" : 0,
		"cloudbase" : 2118.355,
		"flyability" : 0,
		"reason" : "windDir",
		"timestamp" :1555599600
		},
	"2019-04-18T21:00:00+03:00" : {
		"windSpeed" : 3.4,
		"windDir" : 321,
		"rain" : 0,
		"cloudbase" : 8388.4,
		"flyability" : 0,
		"reason" : "windDir",
		"timestamp" :1555610400
		},
	"2019-04-19T00:00:00+03:00" : {
		"windSpeed" : 2.3,
		"windDir" : 340,
		"rain" : 0,
		"cloudbase" : 5400,
		"flyability" : 0,
		"reason" : "windDir",
		"timestamp" :1555621200
		},
	"2019-04-19T03:00:00+03:00" : {
		"windSpeed" : 2.5,
		"windDir" : 304,
		"rain" : 0,
		"cloudbase" : null,
		"flyability" : 0,
		"reason" : "windDir",
		"timestamp" :1555632000
		},
	"2019-04-19T06:00:00+03:00" : {
		"windSpeed" : 3.7,
		"windDir" : 319,
		"rain" : 1,
		"cloudbase" : 3200,
		"flyability" : 0,
		"reason" : "windDir, rain",
		"timestamp" :1555642800
		},
	"2019-04-19T09:00:00+03:00" : {
		"windSpeed" : 4.3,
		"windDir" : 340,
		"rain" : 1,
		"cloudbase" : 1850,
		"flyability" : 0,
		"reason" : "windDir, rain",
		"timestamp" :1555653600
		},
	"2019-04-19T12:00:00+03:00" : {
		"windSpeed" : 4.1,
		"windDir" : 7,
		"rain" : 1,
		"cloudbase" : null,
		"flyability" : 0,
		"reason" : "windDir, rain",
		"timestamp" :1555664400
		},
	"2019-04-19T15:00:00+03:00" : {
		"windSpeed" : 5.4,
		"windDir" : 17,
		"rain" : 1,
		"cloudbase" : null,
		"flyability" : 0,
		"reason" : "windSpeed, windDir, rain",
		"timestamp" :1555675200
		},
	"2019-04-19T18:00:00+03:00" : {
		"windSpeed" : 2.5,
		"windDir" : 31,
		"rain" : 1,
		"cloudbase" : null,
		"flyability" : 0,
		"reason" : "rain",
		"timestamp" :1555686000
		},
	"2019-04-19T21:00:00+03:00" : {
		"windSpeed" : 2.5,
		"windDir" : 349,
		"rain" : 1,
		"cloudbase" : null,
		"flyability" : 0,
		"reason" : "windDir, rain",
		"timestamp" :1555696800
		},
	"2019-04-20T00:00:00+03:00" : {
		"windSpeed" : 2.8,
		"windDir" : 348,
		"rain" : 0,
		"cloudbase" : null,
		"flyability" : 0,
		"reason" : "windDir",
		"timestamp" :1555707600
		},
	"2019-04-20T03:00:00+03:00" : {
		"windSpeed" : 2,
		"windDir" : 352,
		"rain" : 0,
		"cloudbase" : null,
		"flyability" : 0,
		"reason" : "windDir",
		"timestamp" :1555718400
		},
	"2019-04-20T06:00:00+03:00" : {
		"windSpeed" : 1.9,
		"windDir" : 336,
		"rain" : 0,
		"cloudbase" : 2350,
		"flyability" : 0,
		"reason" : "windDir",
		"timestamp" :1555729200
		},
	"2019-04-20T09:00:00+03:00" : {
		"windSpeed" : 1.8,
		"windDir" : 4,
		"rain" : 0,
		"cloudbase" : null,
		"flyability" : 0,
		"reason" : "windDir",
		"timestamp" :1555740000
		},
	"2019-04-20T12:00:00+03:00" : {
		"windSpeed" : 4.3,
		"windDir" : 26,
		"rain" : 0,
		"cloudbase" : 1736.25,
		"flyability" : 100,
		"reason" : "",
		"timestamp" :1555750800
		},
	"2019-04-20T15:00:00+03:00" : {
		"windSpeed" : 3.8,
		"windDir" : 8,
		"rain" : 0,
		"cloudbase" : 2027.9,
		"flyability" : 0,
		"reason" : "windDir",
		"timestamp" :1555761600
		},
	"2019-04-20T18:00:00+03:00" : {
		"windSpeed" : 3.1,
		"windDir" : 360,
		"rain" : 0,
		"cloudbase" : 1977.6225,
		"flyability" : 0,
		"reason" : "windDir",
		"timestamp" :1555772400
		},
	"2019-04-20T21:00:00+03:00" : {
		"windSpeed" : 1.7,
		"windDir" : 9,
		"rain" : 0,
		"cloudbase" : 1695.1775,
		"flyability" : 0,
		"reason" : "windDir",
		"timestamp" :1555783200
		},
	"2019-04-21T00:00:00+03:00" : {
		"windSpeed" : 1.5,
		"windDir" : 281,
		"rain" : 0,
		"cloudbase" : 2333.585,
		"flyability" : 0,
		"reason" : "windDir",
		"timestamp" :1555794000
		},
	"2019-04-21T03:00:00+03:00" : {
		"windSpeed" : 2.2,
		"windDir" : 264,
		"rain" : 0,
		"cloudbase" : 3437.7825,
		"flyability" : 0,
		"reason" : "windDir",
		"timestamp" :1555804800
		},
	"2019-04-21T06:00:00+03:00" : {
		"windSpeed" : 0.7,
		"windDir" : 285,
		"rain" : 0,
		"cloudbase" : 2020.2275,
		"flyability" : 0,
		"reason" : "windDir",
		"timestamp" :1555815600
		},
	"2019-04-21T09:00:00+03:00" : {
		"windSpeed" : 0.2,
		"windDir" : 270,
		"rain" : 1,
		"cloudbase" : 1984.655,
		"flyability" : 0,
		"reason" : "windDir, rain",
		"timestamp" :1555826400
		},
	"2019-04-21T12:00:00+03:00" : {
		"windSpeed" : 0.6,
		"windDir" : 22,
		"rain" : 0,
		"cloudbase" : 1698.0675,
		"flyability" : 0,
		"reason" : "windDir",
		"timestamp" :1555837200
		},
	"2019-04-21T15:00:00+03:00" : {
		"windSpeed" : 0.6,
		"windDir" : 61,
		"rain" : 1,
		"cloudbase" : 1792.3275,
		"flyability" : 0,
		"reason" : "rain",
		"timestamp" :1555848000
		},
	"2019-04-21T18:00:00+03:00" : {
		"windSpeed" : 1.6,
		"windDir" : 139,
		"rain" : 0,
		"cloudbase" : 1912.2775,
		"flyability" : 0,
		"reason" : "windDir",
		"timestamp" :1555858800
		},
	"2019-04-21T21:00:00+03:00" : {
		"windSpeed" : 2,
		"windDir" : 174,
		"rain" : 1,
		"cloudbase" : 7012.155,
		"flyability" : 0,
		"reason" : "windDir, rain",
		"timestamp" :1555869600
		},
	"2019-04-22T00:00:00+03:00" : {
		"windSpeed" : 2.1,
		"windDir" : 166,
		"rain" : 0,
		"cloudbase" : 6911.6,
		"flyability" : 0,
		"reason" : "windDir",
		"timestamp" :1555880400
		},
	"2019-04-22T03:00:00+03:00" : {
		"windSpeed" : 1,
		"windDir" : 133,
		"rain" : 0,
		"cloudbase" : 2164.8275,
		"flyability" : 0,
		"reason" : "windDir",
		"timestamp" :1555891200
		},
	"2019-04-22T06:00:00+03:00" : {
		"windSpeed" : 1.2,
		"windDir" : 70,
		"rain" : 0,
		"cloudbase" : 2284.3775,
		"flyability" : 100,
		"reason" : "",
		"timestamp" :1555902000
		},
	"2019-04-22T09:00:00+03:00" : {
		"windSpeed" : 1.3,
		"windDir" : 99,
		"rain" : 0,
		"cloudbase" : null,
		"flyability" : 100,
		"reason" : "",
		"timestamp" :1555912800
		},
	"2019-04-22T12:00:00+03:00" : {
		"windSpeed" : 3.3,
		"windDir" : 128,
		"rain" : 0,
		"cloudbase" : 2189.2,
		"flyability" : 0,
		"reason" : "windDir",
		"timestamp" :1555923600
		},
	"2019-04-22T15:00:00+03:00" : {
		"windSpeed" : 3.5,
		"windDir" : 131,
		"rain" : 0,
		"cloudbase" : 2034.655,
		"flyability" : 0,
		"reason" : "windDir",
		"timestamp" :1555934400
		},
	"2019-04-22T18:00:00+03:00" : {
		"windSpeed" : 3.3,
		"windDir" : 118,
		"rain" : 0,
		"cloudbase" : 2110.6825,
		"flyability" : 0,
		"reason" : "windDir",
		"timestamp" :1555945200
		},
	"2019-04-22T21:00:00+03:00" : {
		"windSpeed" : 2.7,
		"windDir" : 111,
		"rain" : 0,
		"cloudbase" : 2347.945,
		"flyability" : 100,
		"reason" : "",
		"timestamp" :1555956000
		},
	"2019-04-23T00:00:00+03:00" : {
		"windSpeed" : 1.8,
		"windDir" : 166,
		"rain" : 0,
		"cloudbase" : 2772.1,
		"flyability" : 0,
		"reason" : "windDir",
		"timestamp" :1555966800
		},
	"2019-04-23T03:00:00+03:00" : {
		"windSpeed" : 1.1,
		"windDir" : 141,
		"rain" : 0,
		"cloudbase" : 2800,
		"flyability" : 0,
		"reason" : "windDir",
		"timestamp" :1555977600
		}
	}
}