{
"site" : "Bombala St",
"id" : 11516,
"orientations" : "02220000",
"forecasts" : { 
	"2019-04-18T01:00:00+10:00" : {
		"windSpeed" : 1.4,
		"windDir" : 320,
		"rain" : 0,
		"cloudbase" : null,
		"flyability" : 0,
		"reason" : "windDir",
		"timestamp" :1555509600
		},
	"2019-04-18T04:00:00+10:00" : {
		"windSpeed" : 1.6,
		"windDir" : 260,
		"rain" : 0,
		"cloudbase" : null,
		"flyability" : 0,
		"reason" : "windDir",
		"timestamp" :1555520400
		},
	"2019-04-18T07:00:00+10:00" : {
		"windSpeed" : 1.8,
		"windDir" : 242,
		"rain" : 0,
		"cloudbase" : null,
		"flyability" : 0,
		"reason" : "windDir",
		"timestamp" :1555531200
		},
	"2019-04-18T10:00:00+10:00" : {
		"windSpeed" : 1.1,
		"windDir" : 186,
		"rain" : 0,
		"cloudbase" : null,
		"flyability" : 0,
		"reason" : "windDir",
		"timestamp" :1555542000
		},
	"2019-04-18T13:00:00+10:00" : {
		"windSpeed" : 3.4,
		"windDir" : 127,
		"rain" : 0,
		"cloudbase" : null,
		"flyability" : 100,
		"reason" : "",
		"timestamp" :1555552800
		},
	"2019-04-18T16:00:00+10:00" : {
		"windSpeed" : 4.4,
		"windDir" : 126,
		"rain" : 0,
		"cloudbase" : null,
		"flyability" : 100,
		"reason" : "",
		"timestamp" :1555563600
		},
	"2019-04-18T19:00:00+10:00" : {
		"windSpeed" : 3.2,
		"windDir" : 98,
		"rain" : 0,
		"cloudbase" : null,
		"flyability" : 100,
		"reason" : "",
		"timestamp" :1555574400
		},
	"2019-04-18T22:00:00+10:00" : {
		"windSpeed" : 1.8,
		"windDir" : 59,
		"rain" : 0,
		"cloudbase" : null,
		"flyability" : 100,
		"reason" : "",
		"timestamp" :1555585200
		},
	"2019-04-19T01:00:00+10:00" : {
		"windSpeed" : 2,
		"windDir" : 213,
		"rain" : 1,
		"cloudbase" : 2550,
		"flyability" : 0,
		"reason" : "windDir, rain",
		"timestamp" :1555596000
		},
	"2019-04-19T04:00:00+10:00" : {
		"windSpeed" : 2.3,
		"windDir" : 208,
		"rain" : 1,
		"cloudbase" : 654.88419999995,
		"flyability" : 0,
		"reason" : "windDir, rain",
		"timestamp" :1555606800
		},
	"2019-04-19T07:00:00+10:00" : {
		"windSpeed" : 3.1,
		"windDir" : 213,
		"rain" : 1,
		"cloudbase" : null,
		"flyability" : 0,
		"reason" : "windDir, rain",
		"timestamp" :1555617600
		},
	"2019-04-19T10:00:00+10:00" : {
		"windSpeed" : 3.3,
		"windDir" : 188,
		"rain" : 1,
		"cloudbase" : 441.60939999994,
		"flyability" : 0,
		"reason" : "windDir, rain",
		"timestamp" :1555628400
		},
	"2019-04-19T13:00:00+10:00" : {
		"windSpeed" : 3.2,
		"windDir" : 141,
		"rain" : 1,
		"cloudbase" : 7147.193,
		"flyability" : 0,
		"reason" : "rain",
		"timestamp" :1555639200
		},
	"2019-04-19T16:00:00+10:00" : {
		"windSpeed" : 3.4,
		"windDir" : 116,
		"rain" : 0,
		"cloudbase" : null,
		"flyability" : 100,
		"reason" : "",
		"timestamp" :1555650000
		},
	"2019-04-19T19:00:00+10:00" : {
		"windSpeed" : 2.6,
		"windDir" : 91,
		"rain" : 1,
		"cloudbase" : null,
		"flyability" : 0,
		"reason" : "rain",
		"timestamp" :1555660800
		},
	"2019-04-19T22:00:00+10:00" : {
		"windSpeed" : 2.6,
		"windDir" : 55,
		"rain" : 1,
		"cloudbase" : null,
		"flyability" : 0,
		"reason" : "rain",
		"timestamp" :1555671600
		},
	"2019-04-20T01:00:00+10:00" : {
		"windSpeed" : 1.8,
		"windDir" : 62,
		"rain" : 1,
		"cloudbase" : null,
		"flyability" : 0,
		"reason" : "rain",
		"timestamp" :1555682400
		},
	"2019-04-20T04:00:00+10:00" : {
		"windSpeed" : 2.6,
		"windDir" : 90,
		"rain" : 1,
		"cloudbase" : null,
		"flyability" : 0,
		"reason" : "rain",
		"timestamp" :1555693200
		},
	"2019-04-20T07:00:00+10:00" : {
		"windSpeed" : 1.7,
		"windDir" : 117,
		"rain" : 1,
		"cloudbase" : 580,
		"flyability" : 0,
		"reason" : "rain",
		"timestamp" :1555704000
		},
	"2019-04-20T10:00:00+10:00" : {
		"windSpeed" : 2.8,
		"windDir" : 127,
		"rain" : 1,
		"cloudbase" : null,
		"flyability" : 0,
		"reason" : "rain",
		"timestamp" :1555714800
		},
	"2019-04-20T13:00:00+10:00" : {
		"windSpeed" : 4,
		"windDir" : 88,
		"rain" : 1,
		"cloudbase" : null,
		"flyability" : 0,
		"reason" : "rain",
		"timestamp" :1555725600
		},
	"2019-04-20T16:00:00+10:00" : {
		"windSpeed" : 5,
		"windDir" : 83,
		"rain" : 0,
		"cloudbase" : null,
		"flyability" : 100,
		"reason" : "",
		"timestamp" :1555736400
		},
	"2019-04-20T19:00:00+10:00" : {
		"windSpeed" : 4.3,
		"windDir" : 56,
		"rain" : 1,
		"cloudbase" : null,
		"flyability" : 0,
		"reason" : "rain",
		"timestamp" :1555747200
		},
	"2019-04-20T22:00:00+10:00" : {
		"windSpeed" : 3.7,
		"windDir" : 45,
		"rain" : 0,
		"cloudbase" : null,
		"flyability" : 100,
		"reason" : "",
		"timestamp" :1555758000
		},
	"2019-04-21T01:00:00+10:00" : {
		"windSpeed" : 3.2,
		"windDir" : 15,
		"rain" : 0,
		"cloudbase" : null,
		"flyability" : 0,
		"reason" : "windDir",
		"timestamp" :1555768800
		},
	"2019-04-21T04:00:00+10:00" : {
		"windSpeed" : 2,
		"windDir" : 1,
		"rain" : 0,
		"cloudbase" : null,
		"flyability" : 0,
		"reason" : "windDir",
		"timestamp" :1555779600
		},
	"2019-04-21T07:00:00+10:00" : {
		"windSpeed" : 1.3,
		"windDir" : 30,
		"rain" : 0,
		"cloudbase" : null,
		"flyability" : 100,
		"reason" : "",
		"timestamp" :1555790400
		},
	"2019-04-21T10:00:00+10:00" : {
		"windSpeed" : 4,
		"windDir" : 74,
		"rain" : 0,
		"cloudbase" : null,
		"flyability" : 100,
		"reason" : "",
		"timestamp" :1555801200
		},
	"2019-04-21T13:00:00+10:00" : {
		"windSpeed" : 5.5,
		"windDir" : 81,
		"rain" : 1,
		"cloudbase" : null,
		"flyability" : 0,
		"reason" : "windSpeed, rain",
		"timestamp" :1555812000
		},
	"2019-04-21T16:00:00+10:00" : {
		"windSpeed" : 5.8,
		"windDir" : 62,
		"rain" : 1,
		"cloudbase" : null,
		"flyability" : 0,
		"reason" : "windSpeed, rain",
		"timestamp" :1555822800
		},
	"2019-04-21T19:00:00+10:00" : {
		"windSpeed" : 4.6,
		"windDir" : 41,
		"rain" : 0,
		"cloudbase" : null,
		"flyability" : 100,
		"reason" : "",
		"timestamp" :1555833600
		},
	"2019-04-21T22:00:00+10:00" : {
		"windSpeed" : 4.5,
		"windDir" : 26,
		"rain" : 0,
		"cloudbase" : null,
		"flyability" : 100,
		"reason" : "",
		"timestamp" :1555844400
		},
	"2019-04-22T01:00:00+10:00" : {
		"windSpeed" : 3.1,
		"windDir" : 20,
		"rain" : 0,
		"cloudbase" : 9600,
		"flyability" : 0,
		"reason" : "windDir",
		"timestamp" :1555855200
		},
	"2019-04-22T04:00:00+10:00" : {
		"windSpeed" : 2.7,
		"windDir" : 38,
		"rain" : 0,
		"cloudbase" : 9538.607,
		"flyability" : 100,
		"reason" : "",
		"timestamp" :1555866000
		},
	"2019-04-22T07:00:00+10:00" : {
		"windSpeed" : 3,
		"windDir" : 34,
		"rain" : 0,
		"cloudbase" : 9300,
		"flyability" : 100,
		"reason" : "",
		"timestamp" :1555876800
		},
	"2019-04-22T10:00:00+10:00" : {
		"windSpeed" : 3.3,
		"windDir" : 38,
		"rain" : 0,
		"cloudbase" : 9300,
		"flyability" : 100,
		"reason" : "",
		"timestamp" :1555887600
		},
	"2019-04-22T13:00:00+10:00" : {
		"windSpeed" : 4.7,
		"windDir" : 74,
		"rain" : 1,
		"cloudbase" : 8988.393,
		"flyability" : 0,
		"reason" : "rain",
		"timestamp" :1555898400
		},
	"2019-04-22T16:00:00+10:00" : {
		"windSpeed" : 6.1,
		"windDir" : 64,
		"rain" : 0,
		"cloudbase" : 9455.8280000001,
		"flyability" : 0,
		"reason" : "windSpeed",
		"timestamp" :1555909200
		},
	"2019-04-22T19:00:00+10:00" : {
		"windSpeed" : 4.7,
		"windDir" : 41,
		"rain" : 0,
		"cloudbase" : null,
		"flyability" : 100,
		"reason" : "",
		"timestamp" :1555920000
		},
	"2019-04-22T22:00:00+10:00" : {
		"windSpeed" : 3.1,
		"windDir" : 34,
		"rain" : 0,
		"cloudbase" : null,
		"flyability" : 100,
		"reason" : "",
		"timestamp" :1555930800
		},
	"2019-04-23T01:00:00+10:00" : {
		"windSpeed" : 2.3,
		"windDir" : 46,
		"rain" : 0,
		"cloudbase" : null,
		"flyability" : 100,
		"reason" : "",
		"timestamp" :1555941600
		},
	"2019-04-23T04:00:00+10:00" : {
		"windSpeed" : 2.7,
		"windDir" : 50,
		"rain" : 0,
		"cloudbase" : null,
		"flyability" : 100,
		"reason" : "",
		"timestamp" :1555952400
		},
	"2019-04-23T07:00:00+10:00" : {
		"windSpeed" : 1.3,
		"windDir" : 246,
		"rain" : 0,
		"cloudbase" : null,
		"flyability" : 0,
		"reason" : "windDir",
		"timestamp" :1555963200
		},
	"2019-04-23T10:00:00+10:00" : {
		"windSpeed" : 2.4,
		"windDir" : 169,
		"rain" : 1,
		"cloudbase" : 580,
		"flyability" : 0,
		"reason" : "windDir, rain",
		"timestamp" :1555974000
		},
	"2019-04-23T13:00:00+10:00" : {
		"windSpeed" : 3,
		"windDir" : 123,
		"rain" : 1,
		"cloudbase" : null,
		"flyability" : 0,
		"reason" : "rain",
		"timestamp" :1555984800
		},
	"2019-04-23T16:00:00+10:00" : {
		"windSpeed" : 3.6,
		"windDir" : 99,
		"rain" : 0,
		"cloudbase" : 660,
		"flyability" : 100,
		"reason" : "",
		"timestamp" :1555995600
		},
	"2019-04-23T19:00:00+10:00" : {
		"windSpeed" : 2.8,
		"windDir" : 70,
		"rain" : 1,
		"cloudbase" : null,
		"flyability" : 0,
		"reason" : "rain",
		"timestamp" :1556006400
		},
	"2019-04-23T22:00:00+10:00" : {
		"windSpeed" : 2.3,
		"windDir" : 27,
		"rain" : 0,
		"cloudbase" : null,
		"flyability" : 100,
		"reason" : "",
		"timestamp" :1556017200
		}
	}
}