{
"site" : "Little Wyvis",
"id" : 11520,
"orientations" : "00000211",
"forecasts" : { 
	"2019-04-20T04:00:00+01:00" : {
		"windSpeed" : 2.3,
		"windDir" : 252,
		"rain" : 0,
		"cloudbase" : 6573.2148,
		"flyability" : 100,
		"reason" : "",
		"timestamp" :1555725600
		},
	"2019-04-20T07:00:00+01:00" : {
		"windSpeed" : 3.4,
		"windDir" : 268,
		"rain" : 0,
		"cloudbase" : 5659.5461199996,
		"flyability" : 100,
		"reason" : "",
		"timestamp" :1555736400
		},
	"2019-04-20T10:00:00+01:00" : {
		"windSpeed" : 4.1,
		"windDir" : 253,
		"rain" : 0,
		"cloudbase" : 937.38851999999,
		"flyability" : 100,
		"reason" : "",
		"timestamp" :1555747200
		},
	"2019-04-20T13:00:00+01:00" : {
		"windSpeed" : 3.6,
		"windDir" : 267,
		"rain" : 0,
		"cloudbase" : 1199.5114399998,
		"flyability" : 100,
		"reason" : "",
		"timestamp" :1555758000
		},
	"2019-04-20T16:00:00+01:00" : {
		"windSpeed" : 3,
		"windDir" : 266,
		"rain" : 0,
		"cloudbase" : 3497.4112,
		"flyability" : 100,
		"reason" : "",
		"timestamp" :1555768800
		},
	"2019-04-20T19:00:00+01:00" : {
		"windSpeed" : 2.2,
		"windDir" : 297,
		"rain" : 1,
		"cloudbase" : 4295.6574,
		"flyability" : 0,
		"reason" : "rain",
		"timestamp" :1555779600
		},
	"2019-04-20T22:00:00+01:00" : {
		"windSpeed" : 0.7,
		"windDir" : 133,
		"rain" : 1,
		"cloudbase" : 1259.76596,
		"flyability" : 0,
		"reason" : "windDir, rain",
		"timestamp" :1555790400
		},
	"2019-04-21T01:00:00+01:00" : {
		"windSpeed" : 1.3,
		"windDir" : 107,
		"rain" : 1,
		"cloudbase" : 488.04071999998,
		"flyability" : 0,
		"reason" : "windDir, rain, cloudbase",
		"timestamp" :1555801200
		},
	"2019-04-21T04:00:00+01:00" : {
		"windSpeed" : 1.2,
		"windDir" : 136,
		"rain" : 1,
		"cloudbase" : 103.59408000001,
		"flyability" : 0,
		"reason" : "windDir, rain, cloudbase",
		"timestamp" :1555812000
		},
	"2019-04-21T07:00:00+01:00" : {
		"windSpeed" : 0.5,
		"windDir" : 130,
		"rain" : 1,
		"cloudbase" : 74.667219999998,
		"flyability" : 0,
		"reason" : "windDir, rain, cloudbase",
		"timestamp" :1555822800
		},
	"2019-04-21T10:00:00+01:00" : {
		"windSpeed" : 2.3,
		"windDir" : 173,
		"rain" : 0,
		"cloudbase" : 181.09224,
		"flyability" : 0,
		"reason" : "windDir, cloudbase",
		"timestamp" :1555833600
		},
	"2019-04-21T13:00:00+01:00" : {
		"windSpeed" : 5.1,
		"windDir" : 203,
		"rain" : 1,
		"cloudbase" : 829.95999999999,
		"flyability" : 0,
		"reason" : "windSpeed, rain",
		"timestamp" :1555844400
		},
	"2019-04-21T16:00:00+01:00" : {
		"windSpeed" : 5.7,
		"windDir" : 201,
		"rain" : 1,
		"cloudbase" : 1692.5863999998,
		"flyability" : 0,
		"reason" : "windSpeed, windDir, rain",
		"timestamp" :1555855200
		},
	"2019-04-21T19:00:00+01:00" : {
		"windSpeed" : 3.9,
		"windDir" : 203,
		"rain" : 0,
		"cloudbase" : null,
		"flyability" : 100,
		"reason" : "",
		"timestamp" :1555866000
		},
	"2019-04-21T22:00:00+01:00" : {
		"windSpeed" : 2.4,
		"windDir" : 180,
		"rain" : 1,
		"cloudbase" : null,
		"flyability" : 0,
		"reason" : "windDir, rain",
		"timestamp" :1555876800
		},
	"2019-04-22T01:00:00+01:00" : {
		"windSpeed" : 2,
		"windDir" : 150,
		"rain" : 0,
		"cloudbase" : 9153.5556000001,
		"flyability" : 0,
		"reason" : "windDir",
		"timestamp" :1555887600
		},
	"2019-04-22T04:00:00+01:00" : {
		"windSpeed" : 1.6,
		"windDir" : 114,
		"rain" : 0,
		"cloudbase" : 8708.7443999999,
		"flyability" : 0,
		"reason" : "windDir",
		"timestamp" :1555898400
		},
	"2019-04-22T07:00:00+01:00" : {
		"windSpeed" : 2.2,
		"windDir" : 121,
		"rain" : 1,
		"cloudbase" : 9344.2148,
		"flyability" : 0,
		"reason" : "windDir, rain",
		"timestamp" :1555909200
		},
	"2019-04-22T10:00:00+01:00" : {
		"windSpeed" : 3.6,
		"windDir" : 162,
		"rain" : 0,
		"cloudbase" : null,
		"flyability" : 0,
		"reason" : "windDir",
		"timestamp" :1555920000
		},
	"2019-04-22T13:00:00+01:00" : {
		"windSpeed" : 5.4,
		"windDir" : 165,
		"rain" : 0,
		"cloudbase" : null,
		"flyability" : 0,
		"reason" : "windSpeed, windDir",
		"timestamp" :1555930800
		},
	"2019-04-22T16:00:00+01:00" : {
		"windSpeed" : 4.7,
		"windDir" : 160,
		"rain" : 0,
		"cloudbase" : null,
		"flyability" : 0,
		"reason" : "windDir",
		"timestamp" :1555941600
		},
	"2019-04-22T19:00:00+01:00" : {
		"windSpeed" : 2.7,
		"windDir" : 132,
		"rain" : 0,
		"cloudbase" : null,
		"flyability" : 0,
		"reason" : "windDir",
		"timestamp" :1555952400
		},
	"2019-04-22T22:00:00+01:00" : {
		"windSpeed" : 2.2,
		"windDir" : 134,
		"rain" : 0,
		"cloudbase" : 6580.8,
		"flyability" : 0,
		"reason" : "windDir",
		"timestamp" :1555963200
		},
	"2019-04-23T01:00:00+01:00" : {
		"windSpeed" : 1.7,
		"windDir" : 109,
		"rain" : 0,
		"cloudbase" : 5325.9,
		"flyability" : 0,
		"reason" : "windDir",
		"timestamp" :1555974000
		},
	"2019-04-23T04:00:00+01:00" : {
		"windSpeed" : 1.7,
		"windDir" : 87,
		"rain" : 0,
		"cloudbase" : null,
		"flyability" : 0,
		"reason" : "windDir",
		"timestamp" :1555984800
		},
	"2019-04-23T07:00:00+01:00" : {
		"windSpeed" : 2,
		"windDir" : 87,
		"rain" : 0,
		"cloudbase" : null,
		"flyability" : 0,
		"reason" : "windDir",
		"timestamp" :1555995600
		},
	"2019-04-23T10:00:00+01:00" : {
		"windSpeed" : 2.9,
		"windDir" : 110,
		"rain" : 0,
		"cloudbase" : 4219.7574,
		"flyability" : 0,
		"reason" : "windDir",
		"timestamp" :1556006400
		},
	"2019-04-23T13:00:00+01:00" : {
		"windSpeed" : 4,
		"windDir" : 92,
		"rain" : 0,
		"cloudbase" : null,
		"flyability" : 0,
		"reason" : "windDir",
		"timestamp" :1556017200
		},
	"2019-04-23T16:00:00+01:00" : {
		"windSpeed" : 5.3,
		"windDir" : 152,
		"rain" : 0,
		"cloudbase" : null,
		"flyability" : 0,
		"reason" : "windSpeed, windDir",
		"timestamp" :1556028000
		},
	"2019-04-23T19:00:00+01:00" : {
		"windSpeed" : 3.2,
		"windDir" : 143,
		"rain" : 0,
		"cloudbase" : null,
		"flyability" : 0,
		"reason" : "windDir",
		"timestamp" :1556038800
		},
	"2019-04-23T22:00:00+01:00" : {
		"windSpeed" : 2.8,
		"windDir" : 93,
		"rain" : 0,
		"cloudbase" : null,
		"flyability" : 0,
		"reason" : "windDir",
		"timestamp" :1556049600
		},
	"2019-04-24T01:00:00+01:00" : {
		"windSpeed" : 2.4,
		"windDir" : 68,
		"rain" : 0,
		"cloudbase" : 9131.4852,
		"flyability" : 0,
		"reason" : "windDir",
		"timestamp" :1556060400
		},
	"2019-04-24T04:00:00+01:00" : {
		"windSpeed" : 2.6,
		"windDir" : 60,
		"rain" : 0,
		"cloudbase" : null,
		"flyability" : 0,
		"reason" : "windDir",
		"timestamp" :1556071200
		},
	"2019-04-24T07:00:00+01:00" : {
		"windSpeed" : 3.7,
		"windDir" : 85,
		"rain" : 0,
		"cloudbase" : null,
		"flyability" : 0,
		"reason" : "windDir",
		"timestamp" :1556082000
		},
	"2019-04-24T10:00:00+01:00" : {
		"windSpeed" : 6,
		"windDir" : 94,
		"rain" : 0,
		"cloudbase" : null,
		"flyability" : 0,
		"reason" : "windSpeed, windDir",
		"timestamp" :1556092800
		},
	"2019-04-24T13:00:00+01:00" : {
		"windSpeed" : 7.2,
		"windDir" : 108,
		"rain" : 0,
		"cloudbase" : 1192.1926,
		"flyability" : 0,
		"reason" : "windSpeed, windDir",
		"timestamp" :1556103600
		},
	"2019-04-24T16:00:00+01:00" : {
		"windSpeed" : 7.1,
		"windDir" : 109,
		"rain" : 0,
		"cloudbase" : 1300,
		"flyability" : 0,
		"reason" : "windSpeed, windDir",
		"timestamp" :1556114400
		},
	"2019-04-24T19:00:00+01:00" : {
		"windSpeed" : 6.2,
		"windDir" : 89,
		"rain" : 0,
		"cloudbase" : null,
		"flyability" : 0,
		"reason" : "windSpeed, windDir",
		"timestamp" :1556125200
		},
	"2019-04-24T22:00:00+01:00" : {
		"windSpeed" : 5.8,
		"windDir" : 81,
		"rain" : 1,
		"cloudbase" : 365.69887999999,
		"flyability" : 0,
		"reason" : "windSpeed, windDir, rain, cloudbase",
		"timestamp" :1556136000
		},
	"2019-04-25T01:00:00+01:00" : {
		"windSpeed" : 5,
		"windDir" : 74,
		"rain" : 1,
		"cloudbase" : 203.86739999999,
		"flyability" : 0,
		"reason" : "windDir, rain, cloudbase",
		"timestamp" :1556146800
		},
	"2019-04-25T04:00:00+01:00" : {
		"windSpeed" : 4.2,
		"windDir" : 78,
		"rain" : 1,
		"cloudbase" : 182.28553999999,
		"flyability" : 0,
		"reason" : "windDir, rain, cloudbase",
		"timestamp" :1556157600
		},
	"2019-04-25T07:00:00+01:00" : {
		"windSpeed" : 3.2,
		"windDir" : 89,
		"rain" : 1,
		"cloudbase" : 245.47809999996,
		"flyability" : 0,
		"reason" : "windDir, rain, cloudbase",
		"timestamp" :1556168400
		},
	"2019-04-25T10:00:00+01:00" : {
		"windSpeed" : 2.9,
		"windDir" : 102,
		"rain" : 1,
		"cloudbase" : null,
		"flyability" : 0,
		"reason" : "windDir, rain",
		"timestamp" :1556179200
		},
	"2019-04-25T13:00:00+01:00" : {
		"windSpeed" : 6.3,
		"windDir" : 153,
		"rain" : 1,
		"cloudbase" : 1800,
		"flyability" : 0,
		"reason" : "windSpeed, windDir, rain",
		"timestamp" :1556190000
		},
	"2019-04-25T16:00:00+01:00" : {
		"windSpeed" : 5.9,
		"windDir" : 135,
		"rain" : 0,
		"cloudbase" : 1843.1926,
		"flyability" : 0,
		"reason" : "windSpeed, windDir",
		"timestamp" :1556200800
		},
	"2019-04-25T19:00:00+01:00" : {
		"windSpeed" : 4.7,
		"windDir" : 125,
		"rain" : 0,
		"cloudbase" : null,
		"flyability" : 0,
		"reason" : "windDir",
		"timestamp" :1556211600
		},
	"2019-04-25T22:00:00+01:00" : {
		"windSpeed" : 4.1,
		"windDir" : 115,
		"rain" : 1,
		"cloudbase" : 1439.8426,
		"flyability" : 0,
		"reason" : "windDir, rain",
		"timestamp" :1556222400
		},
	"2019-04-26T01:00:00+01:00" : {
		"windSpeed" : 2.1,
		"windDir" : 134,
		"rain" : 1,
		"cloudbase" : null,
		"flyability" : 0,
		"reason" : "windDir, rain",
		"timestamp" :1556233200
		}
	}
}