{
"site" : "Alaric",
"id" : 11699,
"orientations" : "00000000",
"forecasts" : { 
	"2019-04-20T05:00:00+02:00" : {
		"windSpeed" : 2,
		"windDir" : 140,
		"rain" : 0,
		"cloudbase" : null,
		"flyability" : -50,
		"reason" : "orientationsUnknown",
		"timestamp" :1555732800
		},
	"2019-04-20T08:00:00+02:00" : {
		"windSpeed" : 1.9,
		"windDir" : 123,
		"rain" : 0,
		"cloudbase" : null,
		"flyability" : -50,
		"reason" : "orientationsUnknown",
		"timestamp" :1555743600
		},
	"2019-04-20T11:00:00+02:00" : {
		"windSpeed" : 4.2,
		"windDir" : 105,
		"rain" : 0,
		"cloudbase" : null,
		"flyability" : -50,
		"reason" : "orientationsUnknown",
		"timestamp" :1555754400
		},
	"2019-04-20T14:00:00+02:00" : {
		"windSpeed" : 6.4,
		"windDir" : 115,
		"rain" : 0,
		"cloudbase" : null,
		"flyability" : -0,
		"reason" : "windSpeed, orientationsUnknown",
		"timestamp" :1555765200
		},
	"2019-04-20T17:00:00+02:00" : {
		"windSpeed" : 6.4,
		"windDir" : 119,
		"rain" : 0,
		"cloudbase" : 9211.57425,
		"flyability" : -0,
		"reason" : "windSpeed, orientationsUnknown",
		"timestamp" :1555776000
		},
	"2019-04-20T20:00:00+02:00" : {
		"windSpeed" : 3.1,
		"windDir" : 95,
		"rain" : 0,
		"cloudbase" : 7695,
		"flyability" : -50,
		"reason" : "orientationsUnknown",
		"timestamp" :1555786800
		},
	"2019-04-20T23:00:00+02:00" : {
		"windSpeed" : 1.5,
		"windDir" : 108,
		"rain" : 0,
		"cloudbase" : 6259.07425,
		"flyability" : -50,
		"reason" : "orientationsUnknown",
		"timestamp" :1555797600
		},
	"2019-04-21T02:00:00+02:00" : {
		"windSpeed" : 2,
		"windDir" : 119,
		"rain" : 1,
		"cloudbase" : 4379.535,
		"flyability" : -0,
		"reason" : "orientationsUnknown, rain",
		"timestamp" :1555808400
		},
	"2019-04-21T05:00:00+02:00" : {
		"windSpeed" : 0.9,
		"windDir" : 23,
		"rain" : 1,
		"cloudbase" : 3193.611375,
		"flyability" : -0,
		"reason" : "orientationsUnknown, rain",
		"timestamp" :1555819200
		},
	"2019-04-21T08:00:00+02:00" : {
		"windSpeed" : 2.5,
		"windDir" : 132,
		"rain" : 1,
		"cloudbase" : 3448.287125,
		"flyability" : -0,
		"reason" : "orientationsUnknown, rain",
		"timestamp" :1555830000
		},
	"2019-04-21T11:00:00+02:00" : {
		"windSpeed" : 5.4,
		"windDir" : 91,
		"rain" : 1,
		"cloudbase" : 2959.396375,
		"flyability" : -0,
		"reason" : "windSpeed, orientationsUnknown, rain",
		"timestamp" :1555840800
		},
	"2019-04-21T14:00:00+02:00" : {
		"windSpeed" : 6.8,
		"windDir" : 99,
		"rain" : 1,
		"cloudbase" : 2890.966375,
		"flyability" : -0,
		"reason" : "windSpeed, orientationsUnknown, rain",
		"timestamp" :1555851600
		},
	"2019-04-21T17:00:00+02:00" : {
		"windSpeed" : 6.2,
		"windDir" : 101,
		"rain" : 1,
		"cloudbase" : 8022.534,
		"flyability" : -0,
		"reason" : "windSpeed, orientationsUnknown, rain",
		"timestamp" :1555862400
		},
	"2019-04-21T20:00:00+02:00" : {
		"windSpeed" : 3.2,
		"windDir" : 103,
		"rain" : 0,
		"cloudbase" : 6592.22275,
		"flyability" : -50,
		"reason" : "orientationsUnknown",
		"timestamp" :1555873200
		},
	"2019-04-21T23:00:00+02:00" : {
		"windSpeed" : 2.7,
		"windDir" : 134,
		"rain" : 1,
		"cloudbase" : 9100,
		"flyability" : -0,
		"reason" : "orientationsUnknown, rain",
		"timestamp" :1555884000
		},
	"2019-04-22T02:00:00+02:00" : {
		"windSpeed" : 1.7,
		"windDir" : 144,
		"rain" : 1,
		"cloudbase" : 7812.5085,
		"flyability" : -0,
		"reason" : "orientationsUnknown, rain",
		"timestamp" :1555894800
		},
	"2019-04-22T05:00:00+02:00" : {
		"windSpeed" : 2,
		"windDir" : 163,
		"rain" : 0,
		"cloudbase" : 9659.07425,
		"flyability" : -50,
		"reason" : "orientationsUnknown",
		"timestamp" :1555905600
		},
	"2019-04-22T08:00:00+02:00" : {
		"windSpeed" : 1.4,
		"windDir" : 145,
		"rain" : 0,
		"cloudbase" : 6700,
		"flyability" : -50,
		"reason" : "orientationsUnknown",
		"timestamp" :1555916400
		},
	"2019-04-22T11:00:00+02:00" : {
		"windSpeed" : 4.5,
		"windDir" : 110,
		"rain" : 0,
		"cloudbase" : 2343.611375,
		"flyability" : -50,
		"reason" : "orientationsUnknown",
		"timestamp" :1555927200
		},
	"2019-04-22T14:00:00+02:00" : {
		"windSpeed" : 7.5,
		"windDir" : 119,
		"rain" : 0,
		"cloudbase" : 2200,
		"flyability" : -0,
		"reason" : "windSpeed, orientationsUnknown",
		"timestamp" :1555938000
		},
	"2019-04-22T17:00:00+02:00" : {
		"windSpeed" : 7.1,
		"windDir" : 127,
		"rain" : 0,
		"cloudbase" : 9000,
		"flyability" : -0,
		"reason" : "windSpeed, orientationsUnknown",
		"timestamp" :1555948800
		},
	"2019-04-22T20:00:00+02:00" : {
		"windSpeed" : 6,
		"windDir" : 132,
		"rain" : 0,
		"cloudbase" : 3273.5596249998,
		"flyability" : -0,
		"reason" : "windSpeed, orientationsUnknown",
		"timestamp" :1555959600
		},
	"2019-04-22T23:00:00+02:00" : {
		"windSpeed" : 4.5,
		"windDir" : 114,
		"rain" : 1,
		"cloudbase" : 1210.785,
		"flyability" : -0,
		"reason" : "orientationsUnknown, rain",
		"timestamp" :1555970400
		},
	"2019-04-23T02:00:00+02:00" : {
		"windSpeed" : 3.5,
		"windDir" : 75,
		"rain" : 1,
		"cloudbase" : 639.29742500004,
		"flyability" : -0,
		"reason" : "orientationsUnknown, rain",
		"timestamp" :1555981200
		},
	"2019-04-23T05:00:00+02:00" : {
		"windSpeed" : 2.9,
		"windDir" : 85,
		"rain" : 1,
		"cloudbase" : 579.10027500001,
		"flyability" : -0,
		"reason" : "orientationsUnknown, rain",
		"timestamp" :1555992000
		},
	"2019-04-23T08:00:00+02:00" : {
		"windSpeed" : 5.2,
		"windDir" : 79,
		"rain" : 1,
		"cloudbase" : 245.98871250001,
		"flyability" : -0,
		"reason" : "windSpeed, orientationsUnknown, rain, cloudbase",
		"timestamp" :1556002800
		},
	"2019-04-23T11:00:00+02:00" : {
		"windSpeed" : 5.7,
		"windDir" : 83,
		"rain" : 1,
		"cloudbase" : 205.59900000001,
		"flyability" : -0,
		"reason" : "windSpeed, orientationsUnknown, rain, cloudbase",
		"timestamp" :1556013600
		},
	"2019-04-23T14:00:00+02:00" : {
		"windSpeed" : 5.2,
		"windDir" : 68,
		"rain" : 1,
		"cloudbase" : 380.56400000001,
		"flyability" : -0,
		"reason" : "windSpeed, orientationsUnknown, rain, cloudbase",
		"timestamp" :1556024400
		},
	"2019-04-23T17:00:00+02:00" : {
		"windSpeed" : 4.9,
		"windDir" : 99,
		"rain" : 1,
		"cloudbase" : 1497.4352500003,
		"flyability" : -0,
		"reason" : "orientationsUnknown, rain",
		"timestamp" :1556035200
		},
	"2019-04-23T20:00:00+02:00" : {
		"windSpeed" : 4.2,
		"windDir" : 81,
		"rain" : 1,
		"cloudbase" : 417.46770000005,
		"flyability" : -0,
		"reason" : "orientationsUnknown, rain, cloudbase",
		"timestamp" :1556046000
		},
	"2019-04-23T23:00:00+02:00" : {
		"windSpeed" : 3.1,
		"windDir" : 62,
		"rain" : 1,
		"cloudbase" : 30,
		"flyability" : -0,
		"reason" : "orientationsUnknown, rain, cloudbase",
		"timestamp" :1556056800
		},
	"2019-04-24T02:00:00+02:00" : {
		"windSpeed" : 1.8,
		"windDir" : 92,
		"rain" : 0,
		"cloudbase" : 5639.2736250004,
		"flyability" : -50,
		"reason" : "orientationsUnknown",
		"timestamp" :1556067600
		},
	"2019-04-24T05:00:00+02:00" : {
		"windSpeed" : 3.7,
		"windDir" : 113,
		"rain" : 0,
		"cloudbase" : 5444.08275,
		"flyability" : -50,
		"reason" : "orientationsUnknown",
		"timestamp" :1556078400
		},
	"2019-04-24T08:00:00+02:00" : {
		"windSpeed" : 5.2,
		"windDir" : 131,
		"rain" : 1,
		"cloudbase" : 6084.36,
		"flyability" : -0,
		"reason" : "windSpeed, orientationsUnknown, rain",
		"timestamp" :1556089200
		},
	"2019-04-24T11:00:00+02:00" : {
		"windSpeed" : 6.6,
		"windDir" : 128,
		"rain" : 0,
		"cloudbase" : 6588.45125,
		"flyability" : -0,
		"reason" : "windSpeed, orientationsUnknown",
		"timestamp" :1556100000
		},
	"2019-04-24T14:00:00+02:00" : {
		"windSpeed" : 7.7,
		"windDir" : 133,
		"rain" : 0,
		"cloudbase" : 5511.205375,
		"flyability" : -0,
		"reason" : "windSpeed, orientationsUnknown",
		"timestamp" :1556110800
		},
	"2019-04-24T17:00:00+02:00" : {
		"windSpeed" : 7,
		"windDir" : 132,
		"rain" : 1,
		"cloudbase" : 5095.834125,
		"flyability" : -0,
		"reason" : "windSpeed, orientationsUnknown, rain",
		"timestamp" :1556121600
		},
	"2019-04-24T20:00:00+02:00" : {
		"windSpeed" : 5.5,
		"windDir" : 135,
		"rain" : 1,
		"cloudbase" : null,
		"flyability" : -0,
		"reason" : "windSpeed, orientationsUnknown, rain",
		"timestamp" :1556132400
		},
	"2019-04-24T23:00:00+02:00" : {
		"windSpeed" : 1.6,
		"windDir" : 84,
		"rain" : 0,
		"cloudbase" : null,
		"flyability" : -50,
		"reason" : "orientationsUnknown",
		"timestamp" :1556143200
		},
	"2019-04-25T02:00:00+02:00" : {
		"windSpeed" : 2.7,
		"windDir" : 77,
		"rain" : 0,
		"cloudbase" : null,
		"flyability" : -50,
		"reason" : "orientationsUnknown",
		"timestamp" :1556154000
		},
	"2019-04-25T05:00:00+02:00" : {
		"windSpeed" : 1.1,
		"windDir" : 84,
		"rain" : 1,
		"cloudbase" : null,
		"flyability" : -0,
		"reason" : "orientationsUnknown, rain",
		"timestamp" :1556164800
		},
	"2019-04-25T08:00:00+02:00" : {
		"windSpeed" : 1.2,
		"windDir" : 95,
		"rain" : 0,
		"cloudbase" : 5300,
		"flyability" : -50,
		"reason" : "orientationsUnknown",
		"timestamp" :1556175600
		},
	"2019-04-25T11:00:00+02:00" : {
		"windSpeed" : 1.8,
		"windDir" : 69,
		"rain" : 1,
		"cloudbase" : 4442.399875,
		"flyability" : -0,
		"reason" : "orientationsUnknown, rain",
		"timestamp" :1556186400
		},
	"2019-04-25T14:00:00+02:00" : {
		"windSpeed" : 5.1,
		"windDir" : 306,
		"rain" : 1,
		"cloudbase" : null,
		"flyability" : -0,
		"reason" : "windSpeed, orientationsUnknown, rain",
		"timestamp" :1556197200
		},
	"2019-04-25T17:00:00+02:00" : {
		"windSpeed" : 4.8,
		"windDir" : 280,
		"rain" : 1,
		"cloudbase" : null,
		"flyability" : -0,
		"reason" : "orientationsUnknown, rain",
		"timestamp" :1556208000
		},
	"2019-04-25T20:00:00+02:00" : {
		"windSpeed" : 3.9,
		"windDir" : 258,
		"rain" : 1,
		"cloudbase" : null,
		"flyability" : -0,
		"reason" : "orientationsUnknown, rain",
		"timestamp" :1556218800
		},
	"2019-04-25T23:00:00+02:00" : {
		"windSpeed" : 3.3,
		"windDir" : 266,
		"rain" : 0,
		"cloudbase" : 5900,
		"flyability" : -50,
		"reason" : "orientationsUnknown",
		"timestamp" :1556229600
		},
	"2019-04-26T02:00:00+02:00" : {
		"windSpeed" : 6,
		"windDir" : 275,
		"rain" : 0,
		"cloudbase" : 5300,
		"flyability" : -0,
		"reason" : "windSpeed, orientationsUnknown",
		"timestamp" :1556240400
		}
	}
}