{
"site" : "Airfield Weimar Umpferstedt",
"id" : 11863,
"orientations" : "00000000",
"forecasts" : { 
	"2019-04-21T05:00:00+02:00" : {
		"windSpeed" : 2.3,
		"windDir" : 153,
		"rain" : 0,
		"cloudbase" : null,
		"flyability" : -50,
		"reason" : "orientationsUnknown",
		"timestamp" :1555819200
		},
	"2019-04-21T08:00:00+02:00" : {
		"windSpeed" : 0.7,
		"windDir" : 90,
		"rain" : 0,
		"cloudbase" : null,
		"flyability" : -50,
		"reason" : "orientationsUnknown",
		"timestamp" :1555830000
		},
	"2019-04-21T11:00:00+02:00" : {
		"windSpeed" : 2.8,
		"windDir" : 73,
		"rain" : 0,
		"cloudbase" : null,
		"flyability" : -50,
		"reason" : "orientationsUnknown",
		"timestamp" :1555840800
		},
	"2019-04-21T14:00:00+02:00" : {
		"windSpeed" : 2.9,
		"windDir" : 74,
		"rain" : 0,
		"cloudbase" : null,
		"flyability" : -50,
		"reason" : "orientationsUnknown",
		"timestamp" :1555851600
		},
	"2019-04-21T17:00:00+02:00" : {
		"windSpeed" : 2.9,
		"windDir" : 74,
		"rain" : 0,
		"cloudbase" : null,
		"flyability" : -50,
		"reason" : "orientationsUnknown",
		"timestamp" :1555862400
		},
	"2019-04-21T20:00:00+02:00" : {
		"windSpeed" : 2.8,
		"windDir" : 57,
		"rain" : 0,
		"cloudbase" : null,
		"flyability" : -50,
		"reason" : "orientationsUnknown",
		"timestamp" :1555873200
		},
	"2019-04-21T23:00:00+02:00" : {
		"windSpeed" : 2.8,
		"windDir" : 96,
		"rain" : 0,
		"cloudbase" : null,
		"flyability" : -50,
		"reason" : "orientationsUnknown",
		"timestamp" :1555884000
		},
	"2019-04-22T02:00:00+02:00" : {
		"windSpeed" : 2.1,
		"windDir" : 104,
		"rain" : 0,
		"cloudbase" : null,
		"flyability" : -50,
		"reason" : "orientationsUnknown",
		"timestamp" :1555894800
		},
	"2019-04-22T05:00:00+02:00" : {
		"windSpeed" : 2,
		"windDir" : 99,
		"rain" : 0,
		"cloudbase" : null,
		"flyability" : -50,
		"reason" : "orientationsUnknown",
		"timestamp" :1555905600
		},
	"2019-04-22T08:00:00+02:00" : {
		"windSpeed" : 2,
		"windDir" : 90,
		"rain" : 0,
		"cloudbase" : null,
		"flyability" : -50,
		"reason" : "orientationsUnknown",
		"timestamp" :1555916400
		},
	"2019-04-22T11:00:00+02:00" : {
		"windSpeed" : 4.2,
		"windDir" : 72,
		"rain" : 0,
		"cloudbase" : null,
		"flyability" : -50,
		"reason" : "orientationsUnknown",
		"timestamp" :1555927200
		},
	"2019-04-22T14:00:00+02:00" : {
		"windSpeed" : 6.4,
		"windDir" : 83,
		"rain" : 0,
		"cloudbase" : null,
		"flyability" : -0,
		"reason" : "windSpeed, orientationsUnknown",
		"timestamp" :1555938000
		},
	"2019-04-22T17:00:00+02:00" : {
		"windSpeed" : 6.9,
		"windDir" : 82,
		"rain" : 0,
		"cloudbase" : null,
		"flyability" : -0,
		"reason" : "windSpeed, orientationsUnknown",
		"timestamp" :1555948800
		},
	"2019-04-22T20:00:00+02:00" : {
		"windSpeed" : 6.4,
		"windDir" : 81,
		"rain" : 0,
		"cloudbase" : null,
		"flyability" : -0,
		"reason" : "windSpeed, orientationsUnknown",
		"timestamp" :1555959600
		},
	"2019-04-22T23:00:00+02:00" : {
		"windSpeed" : 5.9,
		"windDir" : 98,
		"rain" : 0,
		"cloudbase" : null,
		"flyability" : -0,
		"reason" : "windSpeed, orientationsUnknown",
		"timestamp" :1555970400
		},
	"2019-04-23T02:00:00+02:00" : {
		"windSpeed" : 5,
		"windDir" : 96,
		"rain" : 0,
		"cloudbase" : null,
		"flyability" : -50,
		"reason" : "orientationsUnknown",
		"timestamp" :1555981200
		},
	"2019-04-23T05:00:00+02:00" : {
		"windSpeed" : 5.3,
		"windDir" : 93,
		"rain" : 0,
		"cloudbase" : null,
		"flyability" : -0,
		"reason" : "windSpeed, orientationsUnknown",
		"timestamp" :1555992000
		},
	"2019-04-23T08:00:00+02:00" : {
		"windSpeed" : 5.8,
		"windDir" : 92,
		"rain" : 0,
		"cloudbase" : null,
		"flyability" : -0,
		"reason" : "windSpeed, orientationsUnknown",
		"timestamp" :1556002800
		},
	"2019-04-23T11:00:00+02:00" : {
		"windSpeed" : 7.4,
		"windDir" : 98,
		"rain" : 0,
		"cloudbase" : null,
		"flyability" : -0,
		"reason" : "windSpeed, orientationsUnknown",
		"timestamp" :1556013600
		},
	"2019-04-23T14:00:00+02:00" : {
		"windSpeed" : 8.7,
		"windDir" : 114,
		"rain" : 0,
		"cloudbase" : 2278.4,
		"flyability" : -0,
		"reason" : "windSpeed, orientationsUnknown",
		"timestamp" :1556024400
		},
	"2019-04-23T17:00:00+02:00" : {
		"windSpeed" : 7.4,
		"windDir" : 112,
		"rain" : 0,
		"cloudbase" : 2050,
		"flyability" : -0,
		"reason" : "windSpeed, orientationsUnknown",
		"timestamp" :1556035200
		},
	"2019-04-23T20:00:00+02:00" : {
		"windSpeed" : 5.6,
		"windDir" : 109,
		"rain" : 0,
		"cloudbase" : 2400,
		"flyability" : -0,
		"reason" : "windSpeed, orientationsUnknown",
		"timestamp" :1556046000
		},
	"2019-04-23T23:00:00+02:00" : {
		"windSpeed" : 5,
		"windDir" : 107,
		"rain" : 0,
		"cloudbase" : null,
		"flyability" : -50,
		"reason" : "orientationsUnknown",
		"timestamp" :1556056800
		},
	"2019-04-24T02:00:00+02:00" : {
		"windSpeed" : 3.6,
		"windDir" : 106,
		"rain" : 0,
		"cloudbase" : null,
		"flyability" : -50,
		"reason" : "orientationsUnknown",
		"timestamp" :1556067600
		},
	"2019-04-24T05:00:00+02:00" : {
		"windSpeed" : 2.9,
		"windDir" : 107,
		"rain" : 0,
		"cloudbase" : null,
		"flyability" : -50,
		"reason" : "orientationsUnknown",
		"timestamp" :1556078400
		},
	"2019-04-24T08:00:00+02:00" : {
		"windSpeed" : 3.9,
		"windDir" : 134,
		"rain" : 0,
		"cloudbase" : null,
		"flyability" : -50,
		"reason" : "orientationsUnknown",
		"timestamp" :1556089200
		},
	"2019-04-24T11:00:00+02:00" : {
		"windSpeed" : 4.2,
		"windDir" : 162,
		"rain" : 0,
		"cloudbase" : null,
		"flyability" : -50,
		"reason" : "orientationsUnknown",
		"timestamp" :1556100000
		},
	"2019-04-24T14:00:00+02:00" : {
		"windSpeed" : 4.1,
		"windDir" : 194,
		"rain" : 0,
		"cloudbase" : 9300,
		"flyability" : -50,
		"reason" : "orientationsUnknown",
		"timestamp" :1556110800
		},
	"2019-04-24T17:00:00+02:00" : {
		"windSpeed" : 2.6,
		"windDir" : 214,
		"rain" : 0,
		"cloudbase" : 7803.5332,
		"flyability" : -50,
		"reason" : "orientationsUnknown",
		"timestamp" :1556121600
		},
	"2019-04-24T20:00:00+02:00" : {
		"windSpeed" : 2,
		"windDir" : 121,
		"rain" : 0,
		"cloudbase" : 8800,
		"flyability" : -50,
		"reason" : "orientationsUnknown",
		"timestamp" :1556132400
		},
	"2019-04-24T23:00:00+02:00" : {
		"windSpeed" : 3.4,
		"windDir" : 147,
		"rain" : 0,
		"cloudbase" : 8870.1558,
		"flyability" : -50,
		"reason" : "orientationsUnknown",
		"timestamp" :1556143200
		},
	"2019-04-25T02:00:00+02:00" : {
		"windSpeed" : 4,
		"windDir" : 161,
		"rain" : 0,
		"cloudbase" : 8742.8778,
		"flyability" : -50,
		"reason" : "orientationsUnknown",
		"timestamp" :1556154000
		},
	"2019-04-25T05:00:00+02:00" : {
		"windSpeed" : 4.9,
		"windDir" : 250,
		"rain" : 0,
		"cloudbase" : 5100.5778,
		"flyability" : -50,
		"reason" : "orientationsUnknown",
		"timestamp" :1556164800
		},
	"2019-04-25T08:00:00+02:00" : {
		"windSpeed" : 2.6,
		"windDir" : 224,
		"rain" : 1,
		"cloudbase" : null,
		"flyability" : -0,
		"reason" : "orientationsUnknown, rain",
		"timestamp" :1556175600
		},
	"2019-04-25T11:00:00+02:00" : {
		"windSpeed" : 2.2,
		"windDir" : 202,
		"rain" : 0,
		"cloudbase" : null,
		"flyability" : -50,
		"reason" : "orientationsUnknown",
		"timestamp" :1556186400
		},
	"2019-04-25T14:00:00+02:00" : {
		"windSpeed" : 2.9,
		"windDir" : 149,
		"rain" : 0,
		"cloudbase" : null,
		"flyability" : -50,
		"reason" : "orientationsUnknown",
		"timestamp" :1556197200
		},
	"2019-04-25T17:00:00+02:00" : {
		"windSpeed" : 4.7,
		"windDir" : 125,
		"rain" : 0,
		"cloudbase" : null,
		"flyability" : -50,
		"reason" : "orientationsUnknown",
		"timestamp" :1556208000
		},
	"2019-04-25T20:00:00+02:00" : {
		"windSpeed" : 2.3,
		"windDir" : 120,
		"rain" : 0,
		"cloudbase" : null,
		"flyability" : -50,
		"reason" : "orientationsUnknown",
		"timestamp" :1556218800
		},
	"2019-04-25T23:00:00+02:00" : {
		"windSpeed" : 2.1,
		"windDir" : 119,
		"rain" : 0,
		"cloudbase" : null,
		"flyability" : -50,
		"reason" : "orientationsUnknown",
		"timestamp" :1556229600
		},
	"2019-04-26T02:00:00+02:00" : {
		"windSpeed" : 4.3,
		"windDir" : 203,
		"rain" : 0,
		"cloudbase" : null,
		"flyability" : -50,
		"reason" : "orientationsUnknown",
		"timestamp" :1556240400
		},
	"2019-04-26T05:00:00+02:00" : {
		"windSpeed" : 5.4,
		"windDir" : 232,
		"rain" : 0,
		"cloudbase" : null,
		"flyability" : -0,
		"reason" : "windSpeed, orientationsUnknown",
		"timestamp" :1556251200
		},
	"2019-04-26T08:00:00+02:00" : {
		"windSpeed" : 5.1,
		"windDir" : 268,
		"rain" : 0,
		"cloudbase" : null,
		"flyability" : -0,
		"reason" : "windSpeed, orientationsUnknown",
		"timestamp" :1556262000
		},
	"2019-04-26T11:00:00+02:00" : {
		"windSpeed" : 5,
		"windDir" : 255,
		"rain" : 0,
		"cloudbase" : 1264.4889,
		"flyability" : -50,
		"reason" : "orientationsUnknown",
		"timestamp" :1556272800
		},
	"2019-04-26T14:00:00+02:00" : {
		"windSpeed" : 4.1,
		"windDir" : 267,
		"rain" : 0,
		"cloudbase" : 1635.2222,
		"flyability" : -50,
		"reason" : "orientationsUnknown",
		"timestamp" :1556283600
		},
	"2019-04-26T17:00:00+02:00" : {
		"windSpeed" : 4.6,
		"windDir" : 259,
		"rain" : 0,
		"cloudbase" : 1785.9278,
		"flyability" : -50,
		"reason" : "orientationsUnknown",
		"timestamp" :1556294400
		},
	"2019-04-26T20:00:00+02:00" : {
		"windSpeed" : 3.2,
		"windDir" : 242,
		"rain" : 0,
		"cloudbase" : 5927.1446,
		"flyability" : -50,
		"reason" : "orientationsUnknown",
		"timestamp" :1556305200
		},
	"2019-04-26T23:00:00+02:00" : {
		"windSpeed" : 4.7,
		"windDir" : 238,
		"rain" : 0,
		"cloudbase" : null,
		"flyability" : -50,
		"reason" : "orientationsUnknown",
		"timestamp" :1556316000
		},
	"2019-04-27T02:00:00+02:00" : {
		"windSpeed" : 3.6,
		"windDir" : 202,
		"rain" : 0,
		"cloudbase" : 8162.4,
		"flyability" : -50,
		"reason" : "orientationsUnknown",
		"timestamp" :1556326800
		}
	}
}