{
"site" : "Cat Bells",
"id" : 11982,
"orientations" : "00000000",
"forecasts" : { 
	"2019-04-19T16:00:00+01:00" : {
		"windSpeed" : 3.1,
		"windDir" : 168,
		"rain" : 0,
		"cloudbase" : null,
		"flyability" : -50,
		"reason" : "orientationsUnknown",
		"timestamp" :1555682400
		},
	"2019-04-19T19:00:00+01:00" : {
		"windSpeed" : 1.6,
		"windDir" : 162,
		"rain" : 0,
		"cloudbase" : 9213.21985,
		"flyability" : -50,
		"reason" : "orientationsUnknown",
		"timestamp" :1555693200
		},
	"2019-04-19T22:00:00+01:00" : {
		"windSpeed" : 2.1,
		"windDir" : 139,
		"rain" : 0,
		"cloudbase" : 8270.0103,
		"flyability" : -50,
		"reason" : "orientationsUnknown",
		"timestamp" :1555704000
		},
	"2019-04-20T01:00:00+01:00" : {
		"windSpeed" : 2.1,
		"windDir" : 145,
		"rain" : 0,
		"cloudbase" : 3441.976125,
		"flyability" : -50,
		"reason" : "orientationsUnknown",
		"timestamp" :1555714800
		},
	"2019-04-20T04:00:00+01:00" : {
		"windSpeed" : 1.9,
		"windDir" : 166,
		"rain" : 0,
		"cloudbase" : 6902.804775,
		"flyability" : -50,
		"reason" : "orientationsUnknown",
		"timestamp" :1555725600
		},
	"2019-04-20T07:00:00+01:00" : {
		"windSpeed" : 1.5,
		"windDir" : 158,
		"rain" : 0,
		"cloudbase" : 8600,
		"flyability" : -50,
		"reason" : "orientationsUnknown",
		"timestamp" :1555736400
		},
	"2019-04-20T10:00:00+01:00" : {
		"windSpeed" : 1.2,
		"windDir" : 198,
		"rain" : 0,
		"cloudbase" : 8706.88015,
		"flyability" : -50,
		"reason" : "orientationsUnknown",
		"timestamp" :1555747200
		},
	"2019-04-20T13:00:00+01:00" : {
		"windSpeed" : 2.1,
		"windDir" : 184,
		"rain" : 0,
		"cloudbase" : 8706.88015,
		"flyability" : -50,
		"reason" : "orientationsUnknown",
		"timestamp" :1555758000
		},
	"2019-04-20T16:00:00+01:00" : {
		"windSpeed" : 1.8,
		"windDir" : 213,
		"rain" : 0,
		"cloudbase" : 8300,
		"flyability" : -50,
		"reason" : "orientationsUnknown",
		"timestamp" :1555768800
		},
	"2019-04-20T19:00:00+01:00" : {
		"windSpeed" : 1.2,
		"windDir" : 220,
		"rain" : 0,
		"cloudbase" : 8336.86985,
		"flyability" : -50,
		"reason" : "orientationsUnknown",
		"timestamp" :1555779600
		},
	"2019-04-20T22:00:00+01:00" : {
		"windSpeed" : 1.7,
		"windDir" : 161,
		"rain" : 0,
		"cloudbase" : 8300,
		"flyability" : -50,
		"reason" : "orientationsUnknown",
		"timestamp" :1555790400
		},
	"2019-04-21T01:00:00+01:00" : {
		"windSpeed" : 1.9,
		"windDir" : 153,
		"rain" : 0,
		"cloudbase" : 7678.0603,
		"flyability" : -50,
		"reason" : "orientationsUnknown",
		"timestamp" :1555801200
		},
	"2019-04-21T04:00:00+01:00" : {
		"windSpeed" : 2.1,
		"windDir" : 156,
		"rain" : 0,
		"cloudbase" : 6919.10955,
		"flyability" : -50,
		"reason" : "orientationsUnknown",
		"timestamp" :1555812000
		},
	"2019-04-21T07:00:00+01:00" : {
		"windSpeed" : 3,
		"windDir" : 161,
		"rain" : 0,
		"cloudbase" : 6560.05,
		"flyability" : -50,
		"reason" : "orientationsUnknown",
		"timestamp" :1555822800
		},
	"2019-04-21T10:00:00+01:00" : {
		"windSpeed" : 3.4,
		"windDir" : 173,
		"rain" : 0,
		"cloudbase" : 6285.7897,
		"flyability" : -50,
		"reason" : "orientationsUnknown",
		"timestamp" :1555833600
		},
	"2019-04-21T13:00:00+01:00" : {
		"windSpeed" : 4,
		"windDir" : 194,
		"rain" : 0,
		"cloudbase" : 6560.05,
		"flyability" : -50,
		"reason" : "orientationsUnknown",
		"timestamp" :1555844400
		},
	"2019-04-21T16:00:00+01:00" : {
		"windSpeed" : 3.8,
		"windDir" : 203,
		"rain" : 0,
		"cloudbase" : 6769.01985,
		"flyability" : -50,
		"reason" : "orientationsUnknown",
		"timestamp" :1555855200
		},
	"2019-04-21T19:00:00+01:00" : {
		"windSpeed" : 3.2,
		"windDir" : 185,
		"rain" : 0,
		"cloudbase" : null,
		"flyability" : -50,
		"reason" : "orientationsUnknown",
		"timestamp" :1555866000
		},
	"2019-04-21T22:00:00+01:00" : {
		"windSpeed" : 2.8,
		"windDir" : 173,
		"rain" : 0,
		"cloudbase" : null,
		"flyability" : -50,
		"reason" : "orientationsUnknown",
		"timestamp" :1555876800
		},
	"2019-04-22T01:00:00+01:00" : {
		"windSpeed" : 2.6,
		"windDir" : 161,
		"rain" : 0,
		"cloudbase" : null,
		"flyability" : -50,
		"reason" : "orientationsUnknown",
		"timestamp" :1555887600
		},
	"2019-04-22T04:00:00+01:00" : {
		"windSpeed" : 2.4,
		"windDir" : 142,
		"rain" : 0,
		"cloudbase" : null,
		"flyability" : -50,
		"reason" : "orientationsUnknown",
		"timestamp" :1555898400
		},
	"2019-04-22T07:00:00+01:00" : {
		"windSpeed" : 3.1,
		"windDir" : 131,
		"rain" : 0,
		"cloudbase" : null,
		"flyability" : -50,
		"reason" : "orientationsUnknown",
		"timestamp" :1555909200
		},
	"2019-04-22T10:00:00+01:00" : {
		"windSpeed" : 4,
		"windDir" : 139,
		"rain" : 0,
		"cloudbase" : null,
		"flyability" : -50,
		"reason" : "orientationsUnknown",
		"timestamp" :1555920000
		},
	"2019-04-22T13:00:00+01:00" : {
		"windSpeed" : 4.6,
		"windDir" : 145,
		"rain" : 0,
		"cloudbase" : 6700,
		"flyability" : -50,
		"reason" : "orientationsUnknown",
		"timestamp" :1555930800
		},
	"2019-04-22T16:00:00+01:00" : {
		"windSpeed" : 4.9,
		"windDir" : 142,
		"rain" : 0,
		"cloudbase" : 5816.3,
		"flyability" : -50,
		"reason" : "orientationsUnknown",
		"timestamp" :1555941600
		},
	"2019-04-22T19:00:00+01:00" : {
		"windSpeed" : 3.1,
		"windDir" : 125,
		"rain" : 0,
		"cloudbase" : 4495.515075,
		"flyability" : -50,
		"reason" : "orientationsUnknown",
		"timestamp" :1555952400
		},
	"2019-04-22T22:00:00+01:00" : {
		"windSpeed" : 3.4,
		"windDir" : 113,
		"rain" : 0,
		"cloudbase" : 3995.28015,
		"flyability" : -50,
		"reason" : "orientationsUnknown",
		"timestamp" :1555963200
		},
	"2019-04-23T01:00:00+01:00" : {
		"windSpeed" : 2.9,
		"windDir" : 103,
		"rain" : 1,
		"cloudbase" : 9735.7,
		"flyability" : -0,
		"reason" : "orientationsUnknown, rain",
		"timestamp" :1555974000
		},
	"2019-04-23T04:00:00+01:00" : {
		"windSpeed" : 3,
		"windDir" : 111,
		"rain" : 0,
		"cloudbase" : null,
		"flyability" : -50,
		"reason" : "orientationsUnknown",
		"timestamp" :1555984800
		},
	"2019-04-23T07:00:00+01:00" : {
		"windSpeed" : 3,
		"windDir" : 108,
		"rain" : 0,
		"cloudbase" : 9800,
		"flyability" : -50,
		"reason" : "orientationsUnknown",
		"timestamp" :1555995600
		},
	"2019-04-23T10:00:00+01:00" : {
		"windSpeed" : 4,
		"windDir" : 105,
		"rain" : 0,
		"cloudbase" : 7735.23015,
		"flyability" : -50,
		"reason" : "orientationsUnknown",
		"timestamp" :1556006400
		},
	"2019-04-23T13:00:00+01:00" : {
		"windSpeed" : 4.8,
		"windDir" : 106,
		"rain" : 0,
		"cloudbase" : 6200,
		"flyability" : -50,
		"reason" : "orientationsUnknown",
		"timestamp" :1556017200
		},
	"2019-04-23T16:00:00+01:00" : {
		"windSpeed" : 4.6,
		"windDir" : 101,
		"rain" : 0,
		"cloudbase" : 5329.90075,
		"flyability" : -50,
		"reason" : "orientationsUnknown",
		"timestamp" :1556028000
		},
	"2019-04-23T19:00:00+01:00" : {
		"windSpeed" : 4.5,
		"windDir" : 93,
		"rain" : 0,
		"cloudbase" : 6772.1,
		"flyability" : -50,
		"reason" : "orientationsUnknown",
		"timestamp" :1556038800
		},
	"2019-04-23T22:00:00+01:00" : {
		"windSpeed" : 4.2,
		"windDir" : 98,
		"rain" : 0,
		"cloudbase" : null,
		"flyability" : -50,
		"reason" : "orientationsUnknown",
		"timestamp" :1556049600
		},
	"2019-04-24T01:00:00+01:00" : {
		"windSpeed" : 3.6,
		"windDir" : 103,
		"rain" : 0,
		"cloudbase" : 4450,
		"flyability" : -50,
		"reason" : "orientationsUnknown",
		"timestamp" :1556060400
		},
	"2019-04-24T04:00:00+01:00" : {
		"windSpeed" : 3.7,
		"windDir" : 100,
		"rain" : 0,
		"cloudbase" : null,
		"flyability" : -50,
		"reason" : "orientationsUnknown",
		"timestamp" :1556071200
		},
	"2019-04-24T07:00:00+01:00" : {
		"windSpeed" : 3.4,
		"windDir" : 113,
		"rain" : 0,
		"cloudbase" : null,
		"flyability" : -50,
		"reason" : "orientationsUnknown",
		"timestamp" :1556082000
		},
	"2019-04-24T10:00:00+01:00" : {
		"windSpeed" : 4,
		"windDir" : 139,
		"rain" : 0,
		"cloudbase" : 5300,
		"flyability" : -50,
		"reason" : "orientationsUnknown",
		"timestamp" :1556092800
		},
	"2019-04-24T13:00:00+01:00" : {
		"windSpeed" : 5.1,
		"windDir" : 142,
		"rain" : 1,
		"cloudbase" : 6037.976875,
		"flyability" : -0,
		"reason" : "windSpeed, orientationsUnknown, rain",
		"timestamp" :1556103600
		},
	"2019-04-24T16:00:00+01:00" : {
		"windSpeed" : 4.5,
		"windDir" : 146,
		"rain" : 1,
		"cloudbase" : 1125.2791,
		"flyability" : -0,
		"reason" : "orientationsUnknown, rain",
		"timestamp" :1556114400
		},
	"2019-04-24T19:00:00+01:00" : {
		"windSpeed" : 6.4,
		"windDir" : 163,
		"rain" : 1,
		"cloudbase" : 4150,
		"flyability" : -0,
		"reason" : "windSpeed, orientationsUnknown, rain",
		"timestamp" :1556125200
		},
	"2019-04-24T22:00:00+01:00" : {
		"windSpeed" : 6,
		"windDir" : 152,
		"rain" : 0,
		"cloudbase" : 3720.245225,
		"flyability" : -0,
		"reason" : "windSpeed, orientationsUnknown",
		"timestamp" :1556136000
		},
	"2019-04-25T01:00:00+01:00" : {
		"windSpeed" : 7.9,
		"windDir" : 153,
		"rain" : 1,
		"cloudbase" : 634.42,
		"flyability" : -0,
		"reason" : "windSpeed, orientationsUnknown, rain",
		"timestamp" :1556146800
		},
	"2019-04-25T04:00:00+01:00" : {
		"windSpeed" : 5.4,
		"windDir" : 153,
		"rain" : 0,
		"cloudbase" : null,
		"flyability" : -0,
		"reason" : "windSpeed, orientationsUnknown",
		"timestamp" :1556157600
		},
	"2019-04-25T07:00:00+01:00" : {
		"windSpeed" : 4.9,
		"windDir" : 135,
		"rain" : 0,
		"cloudbase" : 466.45176,
		"flyability" : -50,
		"reason" : "orientationsUnknown",
		"timestamp" :1556168400
		},
	"2019-04-25T10:00:00+01:00" : {
		"windSpeed" : 6.3,
		"windDir" : 128,
		"rain" : 0,
		"cloudbase" : null,
		"flyability" : -0,
		"reason" : "windSpeed, orientationsUnknown",
		"timestamp" :1556179200
		},
	"2019-04-25T13:00:00+01:00" : {
		"windSpeed" : 7.5,
		"windDir" : 142,
		"rain" : 1,
		"cloudbase" : null,
		"flyability" : -0,
		"reason" : "windSpeed, orientationsUnknown, rain",
		"timestamp" :1556190000
		}
	}
}