{
"site" : "Guzet",
"id" : 12130,
"orientations" : "21000000",
"forecasts" : { 
	"2019-04-22T05:00:00+02:00" : {
		"windSpeed" : 0.9,
		"windDir" : 162,
		"rain" : 0,
		"cloudbase" : 3841.6272000001,
		"flyability" : 0,
		"reason" : "windDir",
		"timestamp" :1555905600
		},
	"2019-04-22T08:00:00+02:00" : {
		"windSpeed" : 0.7,
		"windDir" : 180,
		"rain" : 0,
		"cloudbase" : 2836.6712,
		"flyability" : 0,
		"reason" : "windDir",
		"timestamp" :1555916400
		},
	"2019-04-22T11:00:00+02:00" : {
		"windSpeed" : 0.7,
		"windDir" : 45,
		"rain" : 1,
		"cloudbase" : null,
		"flyability" : 0,
		"reason" : "rain",
		"timestamp" :1555927200
		},
	"2019-04-22T14:00:00+02:00" : {
		"windSpeed" : 0.9,
		"windDir" : 18,
		"rain" : 1,
		"cloudbase" : 3858.4824000002,
		"flyability" : 0,
		"reason" : "rain",
		"timestamp" :1555938000
		},
	"2019-04-22T17:00:00+02:00" : {
		"windSpeed" : 1.4,
		"windDir" : 20,
		"rain" : 1,
		"cloudbase" : 802.1424,
		"flyability" : 0,
		"reason" : "rain, cloudbase",
		"timestamp" :1555948800
		},
	"2019-04-22T20:00:00+02:00" : {
		"windSpeed" : 0.9,
		"windDir" : 289,
		"rain" : 1,
		"cloudbase" : 547.76864,
		"flyability" : 0,
		"reason" : "windDir, rain, cloudbase",
		"timestamp" :1555959600
		},
	"2019-04-22T23:00:00+02:00" : {
		"windSpeed" : 1.4,
		"windDir" : 174,
		"rain" : 0,
		"cloudbase" : 580,
		"flyability" : 0,
		"reason" : "windDir, cloudbase",
		"timestamp" :1555970400
		},
	"2019-04-23T02:00:00+02:00" : {
		"windSpeed" : 1.4,
		"windDir" : 174,
		"rain" : 0,
		"cloudbase" : 4734.90568,
		"flyability" : 0,
		"reason" : "windDir",
		"timestamp" :1555981200
		},
	"2019-04-23T05:00:00+02:00" : {
		"windSpeed" : 1.9,
		"windDir" : 171,
		"rain" : 0,
		"cloudbase" : 5400,
		"flyability" : 0,
		"reason" : "windDir",
		"timestamp" :1555992000
		},
	"2019-04-23T08:00:00+02:00" : {
		"windSpeed" : 2.1,
		"windDir" : 176,
		"rain" : 0,
		"cloudbase" : 6500,
		"flyability" : 0,
		"reason" : "windDir",
		"timestamp" :1556002800
		},
	"2019-04-23T11:00:00+02:00" : {
		"windSpeed" : 1.7,
		"windDir" : 197,
		"rain" : 0,
		"cloudbase" : null,
		"flyability" : 0,
		"reason" : "windDir",
		"timestamp" :1556013600
		},
	"2019-04-23T14:00:00+02:00" : {
		"windSpeed" : 2.4,
		"windDir" : 201,
		"rain" : 1,
		"cloudbase" : 5461.51328,
		"flyability" : 0,
		"reason" : "windDir, rain",
		"timestamp" :1556024400
		},
	"2019-04-23T17:00:00+02:00" : {
		"windSpeed" : 2.7,
		"windDir" : 191,
		"rain" : 1,
		"cloudbase" : 5000,
		"flyability" : 0,
		"reason" : "windDir, rain",
		"timestamp" :1556035200
		},
	"2019-04-23T20:00:00+02:00" : {
		"windSpeed" : 3.5,
		"windDir" : 182,
		"rain" : 1,
		"cloudbase" : 4391.4376,
		"flyability" : 0,
		"reason" : "windDir, rain",
		"timestamp" :1556046000
		},
	"2019-04-23T23:00:00+02:00" : {
		"windSpeed" : 1.3,
		"windDir" : 186,
		"rain" : 1,
		"cloudbase" : 935.0615200001,
		"flyability" : 0,
		"reason" : "windDir, rain, cloudbase",
		"timestamp" :1556056800
		},
	"2019-04-24T02:00:00+02:00" : {
		"windSpeed" : 0.9,
		"windDir" : 189,
		"rain" : 1,
		"cloudbase" : 420.00399999999,
		"flyability" : 0,
		"reason" : "windDir, rain, cloudbase",
		"timestamp" :1556067600
		},
	"2019-04-24T05:00:00+02:00" : {
		"windSpeed" : 1.6,
		"windDir" : 180,
		"rain" : 0,
		"cloudbase" : 220,
		"flyability" : 0,
		"reason" : "windDir, cloudbase",
		"timestamp" :1556078400
		},
	"2019-04-24T08:00:00+02:00" : {
		"windSpeed" : 2.4,
		"windDir" : 172,
		"rain" : 0,
		"cloudbase" : 75,
		"flyability" : 0,
		"reason" : "windDir, cloudbase",
		"timestamp" :1556089200
		},
	"2019-04-24T11:00:00+02:00" : {
		"windSpeed" : 4.6,
		"windDir" : 186,
		"rain" : 0,
		"cloudbase" : 2101.30176,
		"flyability" : 0,
		"reason" : "windDir",
		"timestamp" :1556100000
		},
	"2019-04-24T14:00:00+02:00" : {
		"windSpeed" : 5.8,
		"windDir" : 189,
		"rain" : 0,
		"cloudbase" : null,
		"flyability" : 0,
		"reason" : "windSpeed, windDir",
		"timestamp" :1556110800
		},
	"2019-04-24T17:00:00+02:00" : {
		"windSpeed" : 8,
		"windDir" : 190,
		"rain" : 1,
		"cloudbase" : 3693.2696,
		"flyability" : 0,
		"reason" : "windSpeed, windDir, rain",
		"timestamp" :1556121600
		},
	"2019-04-24T20:00:00+02:00" : {
		"windSpeed" : 6.4,
		"windDir" : 185,
		"rain" : 0,
		"cloudbase" : 4095.4288,
		"flyability" : 0,
		"reason" : "windSpeed, windDir",
		"timestamp" :1556132400
		},
	"2019-04-24T23:00:00+02:00" : {
		"windSpeed" : 6.4,
		"windDir" : 184,
		"rain" : 0,
		"cloudbase" : 370,
		"flyability" : 0,
		"reason" : "windSpeed, windDir, cloudbase",
		"timestamp" :1556143200
		},
	"2019-04-25T02:00:00+02:00" : {
		"windSpeed" : 6.4,
		"windDir" : 183,
		"rain" : 1,
		"cloudbase" : 79.91152,
		"flyability" : 0,
		"reason" : "windSpeed, windDir, rain, cloudbase",
		"timestamp" :1556154000
		},
	"2019-04-25T05:00:00+02:00" : {
		"windSpeed" : 6.6,
		"windDir" : 187,
		"rain" : 1,
		"cloudbase" : 33.62712,
		"flyability" : 0,
		"reason" : "windSpeed, windDir, rain, cloudbase",
		"timestamp" :1556164800
		},
	"2019-04-25T08:00:00+02:00" : {
		"windSpeed" : 3.8,
		"windDir" : 203,
		"rain" : 1,
		"cloudbase" : 757.7088,
		"flyability" : 0,
		"reason" : "windDir, rain, cloudbase",
		"timestamp" :1556175600
		},
	"2019-04-25T11:00:00+02:00" : {
		"windSpeed" : 2.3,
		"windDir" : 183,
		"rain" : 1,
		"cloudbase" : 1210.59936,
		"flyability" : 0,
		"reason" : "windDir, rain, cloudbase",
		"timestamp" :1556186400
		},
	"2019-04-25T14:00:00+02:00" : {
		"windSpeed" : 3.3,
		"windDir" : 218,
		"rain" : 1,
		"cloudbase" : null,
		"flyability" : 0,
		"reason" : "windDir, rain",
		"timestamp" :1556197200
		},
	"2019-04-25T17:00:00+02:00" : {
		"windSpeed" : 2.8,
		"windDir" : 198,
		"rain" : 1,
		"cloudbase" : null,
		"flyability" : 0,
		"reason" : "windDir, rain",
		"timestamp" :1556208000
		},
	"2019-04-25T20:00:00+02:00" : {
		"windSpeed" : 2,
		"windDir" : 180,
		"rain" : 0,
		"cloudbase" : null,
		"flyability" : 0,
		"reason" : "windDir",
		"timestamp" :1556218800
		},
	"2019-04-25T23:00:00+02:00" : {
		"windSpeed" : 1.6,
		"windDir" : 180,
		"rain" : 0,
		"cloudbase" : null,
		"flyability" : 0,
		"reason" : "windDir",
		"timestamp" :1556229600
		},
	"2019-04-26T02:00:00+02:00" : {
		"windSpeed" : 1.5,
		"windDir" : 193,
		"rain" : 0,
		"cloudbase" : null,
		"flyability" : 0,
		"reason" : "windDir",
		"timestamp" :1556240400
		},
	"2019-04-26T05:00:00+02:00" : {
		"windSpeed" : 0.4,
		"windDir" : 192,
		"rain" : 0,
		"cloudbase" : null,
		"flyability" : 0,
		"reason" : "windDir",
		"timestamp" :1556251200
		},
	"2019-04-26T08:00:00+02:00" : {
		"windSpeed" : 0.8,
		"windDir" : 56,
		"rain" : 0,
		"cloudbase" : 1473.68712,
		"flyability" : 0,
		"reason" : "cloudbase",
		"timestamp" :1556262000
		},
	"2019-04-26T11:00:00+02:00" : {
		"windSpeed" : 2,
		"windDir" : 323,
		"rain" : 0,
		"cloudbase" : 642.56544,
		"flyability" : 0,
		"reason" : "windDir, cloudbase",
		"timestamp" :1556272800
		},
	"2019-04-26T14:00:00+02:00" : {
		"windSpeed" : 2.4,
		"windDir" : 309,
		"rain" : 0,
		"cloudbase" : 1100,
		"flyability" : 0,
		"reason" : "windDir, cloudbase",
		"timestamp" :1556283600
		},
	"2019-04-26T17:00:00+02:00" : {
		"windSpeed" : 2.6,
		"windDir" : 328,
		"rain" : 1,
		"cloudbase" : 1091.61664,
		"flyability" : 0,
		"reason" : "windDir, rain, cloudbase",
		"timestamp" :1556294400
		},
	"2019-04-26T20:00:00+02:00" : {
		"windSpeed" : 0.8,
		"windDir" : 311,
		"rain" : 0,
		"cloudbase" : 145.92272,
		"flyability" : 0,
		"reason" : "windDir, cloudbase",
		"timestamp" :1556305200
		},
	"2019-04-26T23:00:00+02:00" : {
		"windSpeed" : 0.1,
		"windDir" : 90,
		"rain" : 0,
		"cloudbase" : 165.43152,
		"flyability" : 0,
		"reason" : "windDir, cloudbase",
		"timestamp" :1556316000
		},
	"2019-04-27T02:00:00+02:00" : {
		"windSpeed" : 0.5,
		"windDir" : 166,
		"rain" : 0,
		"cloudbase" : 186.62304,
		"flyability" : 0,
		"reason" : "windDir, cloudbase",
		"timestamp" :1556326800
		},
	"2019-04-27T05:00:00+02:00" : {
		"windSpeed" : 0.4,
		"windDir" : 160,
		"rain" : 0,
		"cloudbase" : 69.232720000003,
		"flyability" : 0,
		"reason" : "windDir, cloudbase",
		"timestamp" :1556337600
		},
	"2019-04-27T08:00:00+02:00" : {
		"windSpeed" : 0.6,
		"windDir" : 127,
		"rain" : 0,
		"cloudbase" : 431.59600000002,
		"flyability" : 0,
		"reason" : "windDir, cloudbase",
		"timestamp" :1556348400
		},
	"2019-04-27T11:00:00+02:00" : {
		"windSpeed" : 1.2,
		"windDir" : 342,
		"rain" : 0,
		"cloudbase" : 353.27392,
		"flyability" : 0,
		"reason" : "cloudbase",
		"timestamp" :1556359200
		},
	"2019-04-27T14:00:00+02:00" : {
		"windSpeed" : 1.6,
		"windDir" : 320,
		"rain" : 0,
		"cloudbase" : 528.55392,
		"flyability" : 0,
		"reason" : "windDir, cloudbase",
		"timestamp" :1556370000
		},
	"2019-04-27T17:00:00+02:00" : {
		"windSpeed" : 1.9,
		"windDir" : 349,
		"rain" : 1,
		"cloudbase" : 169.26576,
		"flyability" : 0,
		"reason" : "rain, cloudbase",
		"timestamp" :1556380800
		},
	"2019-04-27T20:00:00+02:00" : {
		"windSpeed" : 0.7,
		"windDir" : 341,
		"rain" : 1,
		"cloudbase" : 96.202080000009,
		"flyability" : 0,
		"reason" : "rain, cloudbase",
		"timestamp" :1556391600
		},
	"2019-04-27T23:00:00+02:00" : {
		"windSpeed" : 0.1,
		"windDir" : 91,
		"rain" : 0,
		"cloudbase" : 38.455759999999,
		"flyability" : 0,
		"reason" : "windDir, cloudbase",
		"timestamp" :1556402400
		},
	"2019-04-28T02:00:00+02:00" : {
		"windSpeed" : 0.6,
		"windDir" : 29,
		"rain" : 0,
		"cloudbase" : 51.077279999998,
		"flyability" : 0,
		"reason" : "cloudbase",
		"timestamp" :1556413200
		}
	}
}