{
"site" : "Borovec - Sitniakovo",
"id" : 12346,
"orientations" : "22000001",
"forecasts" : { 
	"2019-04-17T06:00:00+03:00" : {
		"windSpeed" : 2.7,
		"windDir" : 252,
		"rain" : 0,
		"cloudbase" : null,
		"flyability" : 0,
		"reason" : "windDir",
		"timestamp" :1555470000
		},
	"2019-04-17T09:00:00+03:00" : {
		"windSpeed" : 3,
		"windDir" : 287,
		"rain" : 0,
		"cloudbase" : null,
		"flyability" : 0,
		"reason" : "windDir",
		"timestamp" :1555480800
		},
	"2019-04-17T12:00:00+03:00" : {
		"windSpeed" : 2.6,
		"windDir" : 337,
		"rain" : 0,
		"cloudbase" : null,
		"flyability" : 100,
		"reason" : "",
		"timestamp" :1555491600
		},
	"2019-04-17T15:00:00+03:00" : {
		"windSpeed" : 3.2,
		"windDir" : 341,
		"rain" : 0,
		"cloudbase" : 1933.56,
		"flyability" : 100,
		"reason" : "",
		"timestamp" :1555502400
		},
	"2019-04-17T18:00:00+03:00" : {
		"windSpeed" : 2.9,
		"windDir" : 339,
		"rain" : 0,
		"cloudbase" : 1574.5,
		"flyability" : 100,
		"reason" : "",
		"timestamp" :1555513200
		},
	"2019-04-17T21:00:00+03:00" : {
		"windSpeed" : 1.2,
		"windDir" : 318,
		"rain" : 1,
		"cloudbase" : 1700,
		"flyability" : 0,
		"reason" : "rain",
		"timestamp" :1555524000
		},
	"2019-04-18T00:00:00+03:00" : {
		"windSpeed" : 0.6,
		"windDir" : 144,
		"rain" : 0,
		"cloudbase" : 2724.22,
		"flyability" : 0,
		"reason" : "windDir",
		"timestamp" :1555534800
		},
	"2019-04-18T03:00:00+03:00" : {
		"windSpeed" : 0.3,
		"windDir" : 212,
		"rain" : 0,
		"cloudbase" : 2150,
		"flyability" : 0,
		"reason" : "windDir",
		"timestamp" :1555545600
		},
	"2019-04-18T06:00:00+03:00" : {
		"windSpeed" : 1,
		"windDir" : 254,
		"rain" : 0,
		"cloudbase" : 917.31999999999,
		"flyability" : 0,
		"reason" : "windDir, cloudbase",
		"timestamp" :1555556400
		},
	"2019-04-18T09:00:00+03:00" : {
		"windSpeed" : 0.9,
		"windDir" : 10,
		"rain" : 0,
		"cloudbase" : 370,
		"flyability" : 0,
		"reason" : "cloudbase",
		"timestamp" :1555567200
		},
	"2019-04-18T12:00:00+03:00" : {
		"windSpeed" : 2,
		"windDir" : 30,
		"rain" : 0,
		"cloudbase" : null,
		"flyability" : 100,
		"reason" : "",
		"timestamp" :1555578000
		},
	"2019-04-18T15:00:00+03:00" : {
		"windSpeed" : 3,
		"windDir" : 25,
		"rain" : 1,
		"cloudbase" : 75,
		"flyability" : 0,
		"reason" : "rain, cloudbase",
		"timestamp" :1555588800
		},
	"2019-04-18T18:00:00+03:00" : {
		"windSpeed" : 2.6,
		"windDir" : 24,
		"rain" : 1,
		"cloudbase" : 378.90200000002,
		"flyability" : 0,
		"reason" : "rain, cloudbase",
		"timestamp" :1555599600
		},
	"2019-04-18T21:00:00+03:00" : {
		"windSpeed" : 1.4,
		"windDir" : 33,
		"rain" : 1,
		"cloudbase" : 355.57600000002,
		"flyability" : 0,
		"reason" : "rain, cloudbase",
		"timestamp" :1555610400
		},
	"2019-04-19T00:00:00+03:00" : {
		"windSpeed" : 0.9,
		"windDir" : 338,
		"rain" : 1,
		"cloudbase" : 129.29600000001,
		"flyability" : 0,
		"reason" : "rain, cloudbase",
		"timestamp" :1555621200
		},
	"2019-04-19T03:00:00+03:00" : {
		"windSpeed" : 0.6,
		"windDir" : 302,
		"rain" : 1,
		"cloudbase" : 63.814000000001,
		"flyability" : 0,
		"reason" : "rain, cloudbase",
		"timestamp" :1555632000
		},
	"2019-04-19T06:00:00+03:00" : {
		"windSpeed" : 1.4,
		"windDir" : 229,
		"rain" : 0,
		"cloudbase" : 81.314000000001,
		"flyability" : 0,
		"reason" : "windDir, cloudbase",
		"timestamp" :1555642800
		},
	"2019-04-19T09:00:00+03:00" : {
		"windSpeed" : 1.1,
		"windDir" : 285,
		"rain" : 0,
		"cloudbase" : null,
		"flyability" : 0,
		"reason" : "windDir",
		"timestamp" :1555653600
		},
	"2019-04-19T12:00:00+03:00" : {
		"windSpeed" : 3.2,
		"windDir" : 337,
		"rain" : 0,
		"cloudbase" : 1200,
		"flyability" : 0,
		"reason" : "cloudbase",
		"timestamp" :1555664400
		},
	"2019-04-19T15:00:00+03:00" : {
		"windSpeed" : 4.3,
		"windDir" : 328,
		"rain" : 0,
		"cloudbase" : 1260.26,
		"flyability" : 0,
		"reason" : "cloudbase",
		"timestamp" :1555675200
		},
	"2019-04-19T18:00:00+03:00" : {
		"windSpeed" : 4.8,
		"windDir" : 325,
		"rain" : 1,
		"cloudbase" : 1390.82,
		"flyability" : 0,
		"reason" : "rain, cloudbase",
		"timestamp" :1555686000
		},
	"2019-04-19T21:00:00+03:00" : {
		"windSpeed" : 2.7,
		"windDir" : 318,
		"rain" : 1,
		"cloudbase" : 688.47200000001,
		"flyability" : 0,
		"reason" : "rain, cloudbase",
		"timestamp" :1555696800
		},
	"2019-04-20T00:00:00+03:00" : {
		"windSpeed" : 1.1,
		"windDir" : 328,
		"rain" : 1,
		"cloudbase" : 230,
		"flyability" : 0,
		"reason" : "rain, cloudbase",
		"timestamp" :1555707600
		},
	"2019-04-20T03:00:00+03:00" : {
		"windSpeed" : 0.1,
		"windDir" : 253,
		"rain" : 0,
		"cloudbase" : null,
		"flyability" : 0,
		"reason" : "windDir",
		"timestamp" :1555718400
		},
	"2019-04-20T06:00:00+03:00" : {
		"windSpeed" : 1.2,
		"windDir" : 220,
		"rain" : 0,
		"cloudbase" : null,
		"flyability" : 0,
		"reason" : "windDir",
		"timestamp" :1555729200
		},
	"2019-04-20T09:00:00+03:00" : {
		"windSpeed" : 0.8,
		"windDir" : 12,
		"rain" : 0,
		"cloudbase" : null,
		"flyability" : 100,
		"reason" : "",
		"timestamp" :1555740000
		},
	"2019-04-20T12:00:00+03:00" : {
		"windSpeed" : 2.9,
		"windDir" : 355,
		"rain" : 0,
		"cloudbase" : null,
		"flyability" : 100,
		"reason" : "",
		"timestamp" :1555750800
		},
	"2019-04-20T15:00:00+03:00" : {
		"windSpeed" : 3,
		"windDir" : 15,
		"rain" : 1,
		"cloudbase" : 760,
		"flyability" : 0,
		"reason" : "rain, cloudbase",
		"timestamp" :1555761600
		},
	"2019-04-20T18:00:00+03:00" : {
		"windSpeed" : 2.9,
		"windDir" : 5,
		"rain" : 0,
		"cloudbase" : 760,
		"flyability" : 0,
		"reason" : "cloudbase",
		"timestamp" :1555772400
		},
	"2019-04-20T21:00:00+03:00" : {
		"windSpeed" : 0.9,
		"windDir" : 61,
		"rain" : 0,
		"cloudbase" : null,
		"flyability" : 100,
		"reason" : "",
		"timestamp" :1555783200
		},
	"2019-04-21T00:00:00+03:00" : {
		"windSpeed" : 0.9,
		"windDir" : 195,
		"rain" : 0,
		"cloudbase" : null,
		"flyability" : 0,
		"reason" : "windDir",
		"timestamp" :1555794000
		},
	"2019-04-21T03:00:00+03:00" : {
		"windSpeed" : 0.6,
		"windDir" : 183,
		"rain" : 0,
		"cloudbase" : null,
		"flyability" : 0,
		"reason" : "windDir",
		"timestamp" :1555804800
		},
	"2019-04-21T06:00:00+03:00" : {
		"windSpeed" : 0.8,
		"windDir" : 220,
		"rain" : 0,
		"cloudbase" : null,
		"flyability" : 0,
		"reason" : "windDir",
		"timestamp" :1555815600
		},
	"2019-04-21T09:00:00+03:00" : {
		"windSpeed" : 1,
		"windDir" : 310,
		"rain" : 0,
		"cloudbase" : null,
		"flyability" : 100,
		"reason" : "",
		"timestamp" :1555826400
		},
	"2019-04-21T12:00:00+03:00" : {
		"windSpeed" : 2.2,
		"windDir" : 324,
		"rain" : 1,
		"cloudbase" : 1186.592,
		"flyability" : 0,
		"reason" : "rain, cloudbase",
		"timestamp" :1555837200
		},
	"2019-04-21T15:00:00+03:00" : {
		"windSpeed" : 2.5,
		"windDir" : 305,
		"rain" : 0,
		"cloudbase" : 1174.096,
		"flyability" : 0,
		"reason" : "cloudbase",
		"timestamp" :1555848000
		},
	"2019-04-21T18:00:00+03:00" : {
		"windSpeed" : 1.6,
		"windDir" : 335,
		"rain" : 1,
		"cloudbase" : 1252.632,
		"flyability" : 0,
		"reason" : "rain, cloudbase",
		"timestamp" :1555858800
		},
	"2019-04-21T21:00:00+03:00" : {
		"windSpeed" : 0.7,
		"windDir" : 222,
		"rain" : 0,
		"cloudbase" : 2000,
		"flyability" : 0,
		"reason" : "windDir",
		"timestamp" :1555869600
		},
	"2019-04-22T00:00:00+03:00" : {
		"windSpeed" : 2.1,
		"windDir" : 216,
		"rain" : 0,
		"cloudbase" : null,
		"flyability" : 0,
		"reason" : "windDir",
		"timestamp" :1555880400
		},
	"2019-04-22T03:00:00+03:00" : {
		"windSpeed" : 2,
		"windDir" : 226,
		"rain" : 1,
		"cloudbase" : null,
		"flyability" : 0,
		"reason" : "windDir, rain",
		"timestamp" :1555891200
		},
	"2019-04-22T06:00:00+03:00" : {
		"windSpeed" : 1,
		"windDir" : 237,
		"rain" : 0,
		"cloudbase" : 1238,
		"flyability" : 0,
		"reason" : "windDir, cloudbase",
		"timestamp" :1555902000
		},
	"2019-04-22T09:00:00+03:00" : {
		"windSpeed" : 0.9,
		"windDir" : 320,
		"rain" : 0,
		"cloudbase" : 1442.52,
		"flyability" : 0,
		"reason" : "cloudbase",
		"timestamp" :1555912800
		},
	"2019-04-22T12:00:00+03:00" : {
		"windSpeed" : 1.5,
		"windDir" : 356,
		"rain" : 0,
		"cloudbase" : 1422.256,
		"flyability" : 0,
		"reason" : "cloudbase",
		"timestamp" :1555923600
		},
	"2019-04-22T15:00:00+03:00" : {
		"windSpeed" : 1.1,
		"windDir" : 57,
		"rain" : 0,
		"cloudbase" : 1552.1480000001,
		"flyability" : 0,
		"reason" : "cloudbase",
		"timestamp" :1555934400
		},
	"2019-04-22T18:00:00+03:00" : {
		"windSpeed" : 1.5,
		"windDir" : 69,
		"rain" : 1,
		"cloudbase" : 1528.732,
		"flyability" : 0,
		"reason" : "windDir, rain, cloudbase",
		"timestamp" :1555945200
		},
	"2019-04-22T21:00:00+03:00" : {
		"windSpeed" : 1,
		"windDir" : 115,
		"rain" : 1,
		"cloudbase" : 1090.22,
		"flyability" : 0,
		"reason" : "windDir, rain, cloudbase",
		"timestamp" :1555956000
		},
	"2019-04-23T00:00:00+03:00" : {
		"windSpeed" : 1.3,
		"windDir" : 110,
		"rain" : 1,
		"cloudbase" : 1112.6920000001,
		"flyability" : 0,
		"reason" : "windDir, rain, cloudbase",
		"timestamp" :1555966800
		},
	"2019-04-23T03:00:00+03:00" : {
		"windSpeed" : 1.5,
		"windDir" : 96,
		"rain" : 1,
		"cloudbase" : 121.22799999999,
		"flyability" : 0,
		"reason" : "windDir, rain, cloudbase",
		"timestamp" :1555977600
		}
	}
}