{
"site" : "\u00c3\u0152kat\u00c3\u00a8q",
"id" : 13025,
"orientations" : "00000000",
"forecasts" : { 
	"2019-04-08T01:00:00-02:00" : {
		"windSpeed" : 4,
		"windDir" : 50,
		"rain" : 1,
		"cloudbase" : 2150,
		"flyability" : -0,
		"reason" : "orientationsUnknown, rain",
		"timestamp" :1554688800
		},
	"2019-04-08T04:00:00-02:00" : {
		"windSpeed" : 4.8,
		"windDir" : 43,
		"rain" : 0,
		"cloudbase" : 2150,
		"flyability" : -50,
		"reason" : "orientationsUnknown",
		"timestamp" :1554699600
		},
	"2019-04-08T07:00:00-02:00" : {
		"windSpeed" : 3.6,
		"windDir" : 58,
		"rain" : 0,
		"cloudbase" : 2380.8,
		"flyability" : -50,
		"reason" : "orientationsUnknown",
		"timestamp" :1554710400
		},
	"2019-04-08T10:00:00-02:00" : {
		"windSpeed" : 5.7,
		"windDir" : 64,
		"rain" : 0,
		"cloudbase" : 5224.4552,
		"flyability" : -0,
		"reason" : "windSpeed, orientationsUnknown",
		"timestamp" :1554721200
		},
	"2019-04-08T13:00:00-02:00" : {
		"windSpeed" : 7.4,
		"windDir" : 63,
		"rain" : 0,
		"cloudbase" : 3728.1,
		"flyability" : -0,
		"reason" : "windSpeed, orientationsUnknown",
		"timestamp" :1554732000
		},
	"2019-04-08T16:00:00-02:00" : {
		"windSpeed" : 6.2,
		"windDir" : 37,
		"rain" : 0,
		"cloudbase" : 1551.9276,
		"flyability" : -0,
		"reason" : "windSpeed, orientationsUnknown",
		"timestamp" :1554742800
		},
	"2019-04-08T19:00:00-02:00" : {
		"windSpeed" : 5.9,
		"windDir" : 30,
		"rain" : 0,
		"cloudbase" : 1366.24656,
		"flyability" : -0,
		"reason" : "windSpeed, orientationsUnknown",
		"timestamp" :1554753600
		},
	"2019-04-08T22:00:00-02:00" : {
		"windSpeed" : 5.9,
		"windDir" : 33,
		"rain" : 0,
		"cloudbase" : 1296.0448,
		"flyability" : -0,
		"reason" : "windSpeed, orientationsUnknown",
		"timestamp" :1554764400
		},
	"2019-04-09T01:00:00-02:00" : {
		"windSpeed" : 5.5,
		"windDir" : 30,
		"rain" : 0,
		"cloudbase" : 1051.2776,
		"flyability" : -0,
		"reason" : "windSpeed, orientationsUnknown",
		"timestamp" :1554775200
		},
	"2019-04-09T04:00:00-02:00" : {
		"windSpeed" : 4.3,
		"windDir" : 39,
		"rain" : 0,
		"cloudbase" : 858.92896000001,
		"flyability" : -50,
		"reason" : "orientationsUnknown",
		"timestamp" :1554786000
		},
	"2019-04-09T07:00:00-02:00" : {
		"windSpeed" : 4.2,
		"windDir" : 39,
		"rain" : 0,
		"cloudbase" : 1899.0532000001,
		"flyability" : -50,
		"reason" : "orientationsUnknown",
		"timestamp" :1554796800
		},
	"2019-04-09T10:00:00-02:00" : {
		"windSpeed" : 3.4,
		"windDir" : 31,
		"rain" : 0,
		"cloudbase" : 3028.1,
		"flyability" : -50,
		"reason" : "orientationsUnknown",
		"timestamp" :1554807600
		},
	"2019-04-09T13:00:00-02:00" : {
		"windSpeed" : 2.9,
		"windDir" : 20,
		"rain" : 0,
		"cloudbase" : 1797.9052,
		"flyability" : -50,
		"reason" : "orientationsUnknown",
		"timestamp" :1554818400
		},
	"2019-04-09T16:00:00-02:00" : {
		"windSpeed" : 2.5,
		"windDir" : 19,
		"rain" : 0,
		"cloudbase" : 1839.6776,
		"flyability" : -50,
		"reason" : "orientationsUnknown",
		"timestamp" :1554829200
		},
	"2019-04-09T19:00:00-02:00" : {
		"windSpeed" : 3.1,
		"windDir" : 19,
		"rain" : 0,
		"cloudbase" : 1396.6724,
		"flyability" : -50,
		"reason" : "orientationsUnknown",
		"timestamp" :1554840000
		},
	"2019-04-09T22:00:00-02:00" : {
		"windSpeed" : 3,
		"windDir" : 32,
		"rain" : 0,
		"cloudbase" : 4916.4484000001,
		"flyability" : -50,
		"reason" : "orientationsUnknown",
		"timestamp" :1554850800
		},
	"2019-04-10T01:00:00-02:00" : {
		"windSpeed" : 4.2,
		"windDir" : 15,
		"rain" : 0,
		"cloudbase" : 3120.5,
		"flyability" : -50,
		"reason" : "orientationsUnknown",
		"timestamp" :1554861600
		},
	"2019-04-10T04:00:00-02:00" : {
		"windSpeed" : 4.5,
		"windDir" : 17,
		"rain" : 0,
		"cloudbase" : 1558.5672,
		"flyability" : -50,
		"reason" : "orientationsUnknown",
		"timestamp" :1554872400
		},
	"2019-04-10T07:00:00-02:00" : {
		"windSpeed" : 4.4,
		"windDir" : 22,
		"rain" : 0,
		"cloudbase" : 1320.212,
		"flyability" : -50,
		"reason" : "orientationsUnknown",
		"timestamp" :1554883200
		},
	"2019-04-10T10:00:00-02:00" : {
		"windSpeed" : 4.5,
		"windDir" : 22,
		"rain" : 0,
		"cloudbase" : 2750,
		"flyability" : -50,
		"reason" : "orientationsUnknown",
		"timestamp" :1554894000
		},
	"2019-04-10T13:00:00-02:00" : {
		"windSpeed" : 5,
		"windDir" : 14,
		"rain" : 0,
		"cloudbase" : 2426.8,
		"flyability" : -50,
		"reason" : "orientationsUnknown",
		"timestamp" :1554904800
		},
	"2019-04-10T16:00:00-02:00" : {
		"windSpeed" : 4.8,
		"windDir" : 25,
		"rain" : 0,
		"cloudbase" : 2466.4552,
		"flyability" : -50,
		"reason" : "orientationsUnknown",
		"timestamp" :1554915600
		},
	"2019-04-10T19:00:00-02:00" : {
		"windSpeed" : 5.5,
		"windDir" : 27,
		"rain" : 0,
		"cloudbase" : 2357.0724000001,
		"flyability" : -0,
		"reason" : "windSpeed, orientationsUnknown",
		"timestamp" :1554926400
		},
	"2019-04-10T22:00:00-02:00" : {
		"windSpeed" : 5.4,
		"windDir" : 35,
		"rain" : 0,
		"cloudbase" : 1839.6776,
		"flyability" : -0,
		"reason" : "windSpeed, orientationsUnknown",
		"timestamp" :1554937200
		},
	"2019-04-11T01:00:00-02:00" : {
		"windSpeed" : 5.8,
		"windDir" : 33,
		"rain" : 0,
		"cloudbase" : 1469.85,
		"flyability" : -0,
		"reason" : "windSpeed, orientationsUnknown",
		"timestamp" :1554948000
		},
	"2019-04-11T04:00:00-02:00" : {
		"windSpeed" : 5.8,
		"windDir" : 29,
		"rain" : 0,
		"cloudbase" : 1250.65,
		"flyability" : -0,
		"reason" : "windSpeed, orientationsUnknown",
		"timestamp" :1554958800
		},
	"2019-04-11T07:00:00-02:00" : {
		"windSpeed" : 4.9,
		"windDir" : 34,
		"rain" : 0,
		"cloudbase" : 1207.6448,
		"flyability" : -50,
		"reason" : "orientationsUnknown",
		"timestamp" :1554969600
		},
	"2019-04-11T10:00:00-02:00" : {
		"windSpeed" : 4,
		"windDir" : 50,
		"rain" : 0,
		"cloudbase" : 1277.4724,
		"flyability" : -50,
		"reason" : "orientationsUnknown",
		"timestamp" :1554980400
		},
	"2019-04-11T13:00:00-02:00" : {
		"windSpeed" : 3.7,
		"windDir" : 41,
		"rain" : 0,
		"cloudbase" : 1207.6224,
		"flyability" : -50,
		"reason" : "orientationsUnknown",
		"timestamp" :1554991200
		},
	"2019-04-11T16:00:00-02:00" : {
		"windSpeed" : 4.3,
		"windDir" : 41,
		"rain" : 0,
		"cloudbase" : 1039.7,
		"flyability" : -50,
		"reason" : "orientationsUnknown",
		"timestamp" :1555002000
		},
	"2019-04-11T19:00:00-02:00" : {
		"windSpeed" : 4.8,
		"windDir" : 40,
		"rain" : 0,
		"cloudbase" : 881.02208000001,
		"flyability" : -50,
		"reason" : "orientationsUnknown",
		"timestamp" :1555012800
		},
	"2019-04-11T22:00:00-02:00" : {
		"windSpeed" : 2.3,
		"windDir" : 42,
		"rain" : 0,
		"cloudbase" : 3150,
		"flyability" : -50,
		"reason" : "orientationsUnknown",
		"timestamp" :1555023600
		},
	"2019-04-12T01:00:00-02:00" : {
		"windSpeed" : 2,
		"windDir" : 46,
		"rain" : 0,
		"cloudbase" : 1369.2224,
		"flyability" : -50,
		"reason" : "orientationsUnknown",
		"timestamp" :1555034400
		},
	"2019-04-12T04:00:00-02:00" : {
		"windSpeed" : 5.8,
		"windDir" : 35,
		"rain" : 1,
		"cloudbase" : 1265.2448,
		"flyability" : -0,
		"reason" : "windSpeed, orientationsUnknown, rain",
		"timestamp" :1555045200
		},
	"2019-04-12T07:00:00-02:00" : {
		"windSpeed" : 9.4,
		"windDir" : 44,
		"rain" : 1,
		"cloudbase" : 871.24000000001,
		"flyability" : -0,
		"reason" : "windSpeed, orientationsUnknown, rain",
		"timestamp" :1555056000
		},
	"2019-04-12T10:00:00-02:00" : {
		"windSpeed" : 8.6,
		"windDir" : 43,
		"rain" : 1,
		"cloudbase" : 1243.0052,
		"flyability" : -0,
		"reason" : "windSpeed, orientationsUnknown, rain",
		"timestamp" :1555066800
		},
	"2019-04-12T13:00:00-02:00" : {
		"windSpeed" : 7.4,
		"windDir" : 47,
		"rain" : 1,
		"cloudbase" : 932.84,
		"flyability" : -0,
		"reason" : "windSpeed, orientationsUnknown, rain",
		"timestamp" :1555077600
		},
	"2019-04-12T16:00:00-02:00" : {
		"windSpeed" : 5.8,
		"windDir" : 24,
		"rain" : 1,
		"cloudbase" : 908.20000000001,
		"flyability" : -0,
		"reason" : "windSpeed, orientationsUnknown, rain",
		"timestamp" :1555088400
		},
	"2019-04-12T19:00:00-02:00" : {
		"windSpeed" : 6.5,
		"windDir" : 30,
		"rain" : 1,
		"cloudbase" : 1003.98656,
		"flyability" : -0,
		"reason" : "windSpeed, orientationsUnknown, rain",
		"timestamp" :1555099200
		},
	"2019-04-12T22:00:00-02:00" : {
		"windSpeed" : 7.6,
		"windDir" : 28,
		"rain" : 1,
		"cloudbase" : 1219.85,
		"flyability" : -0,
		"reason" : "windSpeed, orientationsUnknown, rain",
		"timestamp" :1555110000
		},
	"2019-04-13T01:00:00-02:00" : {
		"windSpeed" : 11.1,
		"windDir" : 42,
		"rain" : 1,
		"cloudbase" : 1435.0724,
		"flyability" : -0,
		"reason" : "windSpeed, orientationsUnknown, rain",
		"timestamp" :1555120800
		},
	"2019-04-13T04:00:00-02:00" : {
		"windSpeed" : 13.9,
		"windDir" : 57,
		"rain" : 1,
		"cloudbase" : 902.98512000002,
		"flyability" : -0,
		"reason" : "windSpeed, orientationsUnknown, rain",
		"timestamp" :1555131600
		},
	"2019-04-13T07:00:00-02:00" : {
		"windSpeed" : 13.3,
		"windDir" : 66,
		"rain" : 1,
		"cloudbase" : 472.03792000001,
		"flyability" : -0,
		"reason" : "windSpeed, orientationsUnknown, rain",
		"timestamp" :1555142400
		},
	"2019-04-13T10:00:00-02:00" : {
		"windSpeed" : 12.8,
		"windDir" : 74,
		"rain" : 1,
		"cloudbase" : 1237.6371999999,
		"flyability" : -0,
		"reason" : "windSpeed, orientationsUnknown, rain",
		"timestamp" :1555153200
		},
	"2019-04-13T13:00:00-02:00" : {
		"windSpeed" : 10.3,
		"windDir" : 63,
		"rain" : 1,
		"cloudbase" : 1141.6403199999,
		"flyability" : -0,
		"reason" : "windSpeed, orientationsUnknown, rain",
		"timestamp" :1555164000
		},
	"2019-04-13T16:00:00-02:00" : {
		"windSpeed" : 9.6,
		"windDir" : 65,
		"rain" : 1,
		"cloudbase" : 170.07376000001,
		"flyability" : -0,
		"reason" : "windSpeed, orientationsUnknown, rain, cloudbase",
		"timestamp" :1555174800
		},
	"2019-04-13T19:00:00-02:00" : {
		"windSpeed" : 10.1,
		"windDir" : 75,
		"rain" : 1,
		"cloudbase" : 256.82032000001,
		"flyability" : -0,
		"reason" : "windSpeed, orientationsUnknown, rain",
		"timestamp" :1555185600
		},
	"2019-04-13T22:00:00-02:00" : {
		"windSpeed" : 9.3,
		"windDir" : 71,
		"rain" : 1,
		"cloudbase" : 37.971040000001,
		"flyability" : -0,
		"reason" : "windSpeed, orientationsUnknown, rain, cloudbase",
		"timestamp" :1555196400
		}
	}
}