{
"site" : "Honeysuckle",
"id" : 13239,
"orientations" : "00000210",
"forecasts" : { 
	"2019-04-04T14:00:00+11:00" : {
		"windSpeed" : 1.7,
		"windDir" : 82,
		"rain" : 0,
		"cloudbase" : 4485.5800000003,
		"flyability" : 0,
		"reason" : "windDir",
		"timestamp" :1554350400
		},
	"2019-04-04T17:00:00+11:00" : {
		"windSpeed" : 2.6,
		"windDir" : 71,
		"rain" : 1,
		"cloudbase" : 3200,
		"flyability" : 0,
		"reason" : "windDir, rain",
		"timestamp" :1554361200
		},
	"2019-04-04T20:00:00+11:00" : {
		"windSpeed" : 4.2,
		"windDir" : 86,
		"rain" : 0,
		"cloudbase" : 3266.78,
		"flyability" : 0,
		"reason" : "windDir",
		"timestamp" :1554372000
		},
	"2019-04-04T23:00:00+11:00" : {
		"windSpeed" : 4.9,
		"windDir" : 81,
		"rain" : 0,
		"cloudbase" : null,
		"flyability" : 0,
		"reason" : "windDir",
		"timestamp" :1554382800
		},
	"2019-04-05T02:00:00+11:00" : {
		"windSpeed" : 4.9,
		"windDir" : 87,
		"rain" : 0,
		"cloudbase" : null,
		"flyability" : 0,
		"reason" : "windDir",
		"timestamp" :1554393600
		},
	"2019-04-05T05:00:00+11:00" : {
		"windSpeed" : 4.4,
		"windDir" : 88,
		"rain" : 0,
		"cloudbase" : 1500,
		"flyability" : 0,
		"reason" : "windDir",
		"timestamp" :1554404400
		},
	"2019-04-05T08:00:00+11:00" : {
		"windSpeed" : 4.8,
		"windDir" : 88,
		"rain" : 0,
		"cloudbase" : 3400,
		"flyability" : 0,
		"reason" : "windDir",
		"timestamp" :1554415200
		},
	"2019-04-05T11:00:00+11:00" : {
		"windSpeed" : 4.6,
		"windDir" : 68,
		"rain" : 0,
		"cloudbase" : null,
		"flyability" : 0,
		"reason" : "windDir",
		"timestamp" :1554426000
		},
	"2019-04-05T14:00:00+11:00" : {
		"windSpeed" : 3.2,
		"windDir" : 41,
		"rain" : 0,
		"cloudbase" : null,
		"flyability" : 0,
		"reason" : "windDir",
		"timestamp" :1554436800
		},
	"2019-04-05T17:00:00+11:00" : {
		"windSpeed" : 3,
		"windDir" : 2,
		"rain" : 0,
		"cloudbase" : 5338.3000000007,
		"flyability" : 0,
		"reason" : "windDir",
		"timestamp" :1554447600
		},
	"2019-04-05T20:00:00+11:00" : {
		"windSpeed" : 2.9,
		"windDir" : 78,
		"rain" : 0,
		"cloudbase" : 9992.52,
		"flyability" : 0,
		"reason" : "windDir",
		"timestamp" :1554458400
		},
	"2019-04-05T23:00:00+11:00" : {
		"windSpeed" : 3.1,
		"windDir" : 83,
		"rain" : 0,
		"cloudbase" : 9141.0400000001,
		"flyability" : 0,
		"reason" : "windDir",
		"timestamp" :1554469200
		},
	"2019-04-06T02:00:00+11:00" : {
		"windSpeed" : 3,
		"windDir" : 72,
		"rain" : 0,
		"cloudbase" : 8578,
		"flyability" : 0,
		"reason" : "windDir",
		"timestamp" :1554480000
		},
	"2019-04-06T05:00:00+11:00" : {
		"windSpeed" : 3.2,
		"windDir" : 45,
		"rain" : 0,
		"cloudbase" : null,
		"flyability" : 0,
		"reason" : "windDir",
		"timestamp" :1554490800
		},
	"2019-04-06T08:00:00+11:00" : {
		"windSpeed" : 1.6,
		"windDir" : 52,
		"rain" : 0,
		"cloudbase" : 2450,
		"flyability" : 0,
		"reason" : "windDir",
		"timestamp" :1554501600
		},
	"2019-04-06T11:00:00+11:00" : {
		"windSpeed" : 2.9,
		"windDir" : 9,
		"rain" : 1,
		"cloudbase" : null,
		"flyability" : 0,
		"reason" : "windDir, rain",
		"timestamp" :1554512400
		},
	"2019-04-06T14:00:00+11:00" : {
		"windSpeed" : 3.6,
		"windDir" : 299,
		"rain" : 1,
		"cloudbase" : 1500,
		"flyability" : 0,
		"reason" : "windDir, rain",
		"timestamp" :1554523200
		},
	"2019-04-06T17:00:00+11:00" : {
		"windSpeed" : 2.4,
		"windDir" : 270,
		"rain" : 0,
		"cloudbase" : null,
		"flyability" : 100,
		"reason" : "",
		"timestamp" :1554534000
		},
	"2019-04-06T20:00:00+11:00" : {
		"windSpeed" : 1.3,
		"windDir" : 107,
		"rain" : 0,
		"cloudbase" : null,
		"flyability" : 0,
		"reason" : "windDir",
		"timestamp" :1554544800
		},
	"2019-04-06T23:00:00+11:00" : {
		"windSpeed" : 0.7,
		"windDir" : 58,
		"rain" : 0,
		"cloudbase" : null,
		"flyability" : 0,
		"reason" : "windDir",
		"timestamp" :1554555600
		},
	"2019-04-07T02:00:00+11:00" : {
		"windSpeed" : 1.3,
		"windDir" : 71,
		"rain" : 0,
		"cloudbase" : null,
		"flyability" : 0,
		"reason" : "windDir",
		"timestamp" :1554566400
		},
	"2019-04-07T05:00:00+11:00" : {
		"windSpeed" : 2,
		"windDir" : 81,
		"rain" : 0,
		"cloudbase" : null,
		"flyability" : 0,
		"reason" : "windDir",
		"timestamp" :1554577200
		},
	"2019-04-07T08:00:00+11:00" : {
		"windSpeed" : 2.2,
		"windDir" : 79,
		"rain" : 0,
		"cloudbase" : null,
		"flyability" : 0,
		"reason" : "windDir",
		"timestamp" :1554588000
		},
	"2019-04-07T11:00:00+11:00" : {
		"windSpeed" : 2.4,
		"windDir" : 334,
		"rain" : 0,
		"cloudbase" : null,
		"flyability" : 0,
		"reason" : "windDir",
		"timestamp" :1554598800
		},
	"2019-04-07T14:00:00+11:00" : {
		"windSpeed" : 3,
		"windDir" : 280,
		"rain" : 0,
		"cloudbase" : null,
		"flyability" : 100,
		"reason" : "",
		"timestamp" :1554609600
		},
	"2019-04-07T17:00:00+11:00" : {
		"windSpeed" : 3.1,
		"windDir" : 289,
		"rain" : 0,
		"cloudbase" : null,
		"flyability" : 100,
		"reason" : "",
		"timestamp" :1554620400
		},
	"2019-04-07T20:00:00+11:00" : {
		"windSpeed" : 1.3,
		"windDir" : 295,
		"rain" : 0,
		"cloudbase" : null,
		"flyability" : 0,
		"reason" : "windDir",
		"timestamp" :1554631200
		},
	"2019-04-07T23:00:00+11:00" : {
		"windSpeed" : 1.4,
		"windDir" : 138,
		"rain" : 0,
		"cloudbase" : null,
		"flyability" : 0,
		"reason" : "windDir",
		"timestamp" :1554642000
		},
	"2019-04-08T02:00:00+11:00" : {
		"windSpeed" : 2,
		"windDir" : 54,
		"rain" : 0,
		"cloudbase" : null,
		"flyability" : 0,
		"reason" : "windDir",
		"timestamp" :1554652800
		},
	"2019-04-08T05:00:00+11:00" : {
		"windSpeed" : 2,
		"windDir" : 13,
		"rain" : 0,
		"cloudbase" : null,
		"flyability" : 0,
		"reason" : "windDir",
		"timestamp" :1554663600
		},
	"2019-04-08T08:00:00+11:00" : {
		"windSpeed" : 1.3,
		"windDir" : 297,
		"rain" : 0,
		"cloudbase" : null,
		"flyability" : 0,
		"reason" : "windDir",
		"timestamp" :1554674400
		},
	"2019-04-08T11:00:00+11:00" : {
		"windSpeed" : 2.7,
		"windDir" : 266,
		"rain" : 0,
		"cloudbase" : null,
		"flyability" : 100,
		"reason" : "",
		"timestamp" :1554685200
		},
	"2019-04-08T14:00:00+11:00" : {
		"windSpeed" : 4.4,
		"windDir" : 273,
		"rain" : 0,
		"cloudbase" : null,
		"flyability" : 100,
		"reason" : "",
		"timestamp" :1554696000
		},
	"2019-04-08T17:00:00+11:00" : {
		"windSpeed" : 4.2,
		"windDir" : 257,
		"rain" : 0,
		"cloudbase" : null,
		"flyability" : 100,
		"reason" : "",
		"timestamp" :1554706800
		},
	"2019-04-08T20:00:00+11:00" : {
		"windSpeed" : 2.3,
		"windDir" : 315,
		"rain" : 0,
		"cloudbase" : null,
		"flyability" : 0,
		"reason" : "windDir",
		"timestamp" :1554717600
		},
	"2019-04-08T23:00:00+11:00" : {
		"windSpeed" : 2.3,
		"windDir" : 289,
		"rain" : 0,
		"cloudbase" : null,
		"flyability" : 100,
		"reason" : "",
		"timestamp" :1554728400
		},
	"2019-04-09T02:00:00+11:00" : {
		"windSpeed" : 2.3,
		"windDir" : 232,
		"rain" : 0,
		"cloudbase" : null,
		"flyability" : 100,
		"reason" : "",
		"timestamp" :1554739200
		},
	"2019-04-09T05:00:00+11:00" : {
		"windSpeed" : 2.1,
		"windDir" : 190,
		"rain" : 0,
		"cloudbase" : null,
		"flyability" : 0,
		"reason" : "windDir",
		"timestamp" :1554750000
		},
	"2019-04-09T08:00:00+11:00" : {
		"windSpeed" : 1.5,
		"windDir" : 187,
		"rain" : 0,
		"cloudbase" : null,
		"flyability" : 0,
		"reason" : "windDir",
		"timestamp" :1554760800
		},
	"2019-04-09T11:00:00+11:00" : {
		"windSpeed" : 3.5,
		"windDir" : 264,
		"rain" : 0,
		"cloudbase" : null,
		"flyability" : 100,
		"reason" : "",
		"timestamp" :1554771600
		},
	"2019-04-09T14:00:00+11:00" : {
		"windSpeed" : 4.6,
		"windDir" : 253,
		"rain" : 0,
		"cloudbase" : 1650,
		"flyability" : 100,
		"reason" : "",
		"timestamp" :1554782400
		},
	"2019-04-09T17:00:00+11:00" : {
		"windSpeed" : 5,
		"windDir" : 230,
		"rain" : 0,
		"cloudbase" : null,
		"flyability" : 100,
		"reason" : "",
		"timestamp" :1554793200
		},
	"2019-04-09T20:00:00+11:00" : {
		"windSpeed" : 2.2,
		"windDir" : 205,
		"rain" : 0,
		"cloudbase" : null,
		"flyability" : 100,
		"reason" : "",
		"timestamp" :1554804000
		},
	"2019-04-09T23:00:00+11:00" : {
		"windSpeed" : 1.5,
		"windDir" : 208,
		"rain" : 0,
		"cloudbase" : null,
		"flyability" : 100,
		"reason" : "",
		"timestamp" :1554814800
		},
	"2019-04-10T02:00:00+11:00" : {
		"windSpeed" : 1.4,
		"windDir" : 230,
		"rain" : 0,
		"cloudbase" : null,
		"flyability" : 100,
		"reason" : "",
		"timestamp" :1554825600
		},
	"2019-04-10T05:00:00+11:00" : {
		"windSpeed" : 1.1,
		"windDir" : 153,
		"rain" : 0,
		"cloudbase" : null,
		"flyability" : 0,
		"reason" : "windDir",
		"timestamp" :1554836400
		},
	"2019-04-10T08:00:00+11:00" : {
		"windSpeed" : 1.7,
		"windDir" : 71,
		"rain" : 0,
		"cloudbase" : null,
		"flyability" : 0,
		"reason" : "windDir",
		"timestamp" :1554847200
		},
	"2019-04-10T11:00:00+11:00" : {
		"windSpeed" : 0.4,
		"windDir" : 323,
		"rain" : 0,
		"cloudbase" : 1425.26,
		"flyability" : 0,
		"reason" : "windDir",
		"timestamp" :1554858000
		}
	}
}