{
"site" : "Plumbum",
"id" : 13271,
"orientations" : "00000000",
"forecasts" : { 
	"2019-04-06T12:00:00-03:00" : {
		"windSpeed" : 2.3,
		"windDir" : 79,
		"rain" : 1,
		"cloudbase" : 670.48231999997,
		"flyability" : -0,
		"reason" : "orientationsUnknown, rain",
		"timestamp" :1554562800
		},
	"2019-04-06T15:00:00-03:00" : {
		"windSpeed" : 2.7,
		"windDir" : 91,
		"rain" : 1,
		"cloudbase" : 6029.0015200009,
		"flyability" : -0,
		"reason" : "orientationsUnknown, rain",
		"timestamp" :1554573600
		},
	"2019-04-06T18:00:00-03:00" : {
		"windSpeed" : 2.5,
		"windDir" : 114,
		"rain" : 1,
		"cloudbase" : 668.21719999996,
		"flyability" : -0,
		"reason" : "orientationsUnknown, rain",
		"timestamp" :1554584400
		},
	"2019-04-06T21:00:00-03:00" : {
		"windSpeed" : 1.8,
		"windDir" : 106,
		"rain" : 1,
		"cloudbase" : 618.43463999995,
		"flyability" : -0,
		"reason" : "orientationsUnknown, rain, cloudbase",
		"timestamp" :1554595200
		},
	"2019-04-07T00:00:00-03:00" : {
		"windSpeed" : 0.7,
		"windDir" : 133,
		"rain" : 1,
		"cloudbase" : 676.12240000031,
		"flyability" : -0,
		"reason" : "orientationsUnknown, rain",
		"timestamp" :1554606000
		},
	"2019-04-07T03:00:00-03:00" : {
		"windSpeed" : 0,
		"windDir" : 180,
		"rain" : 1,
		"cloudbase" : 517.36304000015,
		"flyability" : -0,
		"reason" : "orientationsUnknown, rain, cloudbase",
		"timestamp" :1554616800
		},
	"2019-04-07T06:00:00-03:00" : {
		"windSpeed" : 0.5,
		"windDir" : 153,
		"rain" : 1,
		"cloudbase" : 303.43791999997,
		"flyability" : -0,
		"reason" : "orientationsUnknown, rain, cloudbase",
		"timestamp" :1554627600
		},
	"2019-04-07T09:00:00-03:00" : {
		"windSpeed" : 1.1,
		"windDir" : 154,
		"rain" : 1,
		"cloudbase" : 183.95511999998,
		"flyability" : -0,
		"reason" : "orientationsUnknown, rain, cloudbase",
		"timestamp" :1554638400
		},
	"2019-04-07T12:00:00-03:00" : {
		"windSpeed" : 0.6,
		"windDir" : 128,
		"rain" : 1,
		"cloudbase" : 2622.2318000004,
		"flyability" : -0,
		"reason" : "orientationsUnknown, rain",
		"timestamp" :1554649200
		},
	"2019-04-07T15:00:00-03:00" : {
		"windSpeed" : 0.6,
		"windDir" : 207,
		"rain" : 0,
		"cloudbase" : 6645.4420000007,
		"flyability" : -50,
		"reason" : "orientationsUnknown",
		"timestamp" :1554660000
		},
	"2019-04-07T18:00:00-03:00" : {
		"windSpeed" : 0.7,
		"windDir" : 112,
		"rain" : 1,
		"cloudbase" : 6319.9256,
		"flyability" : -0,
		"reason" : "orientationsUnknown, rain",
		"timestamp" :1554670800
		},
	"2019-04-07T21:00:00-03:00" : {
		"windSpeed" : 0.9,
		"windDir" : 242,
		"rain" : 0,
		"cloudbase" : 922.25836000027,
		"flyability" : -50,
		"reason" : "orientationsUnknown",
		"timestamp" :1554681600
		},
	"2019-04-08T00:00:00-03:00" : {
		"windSpeed" : 0.5,
		"windDir" : 304,
		"rain" : 1,
		"cloudbase" : 1217.1591199999,
		"flyability" : -0,
		"reason" : "orientationsUnknown, rain",
		"timestamp" :1554692400
		},
	"2019-04-08T03:00:00-03:00" : {
		"windSpeed" : 0.7,
		"windDir" : 52,
		"rain" : 0,
		"cloudbase" : 831.27327999991,
		"flyability" : -50,
		"reason" : "orientationsUnknown",
		"timestamp" :1554703200
		},
	"2019-04-08T06:00:00-03:00" : {
		"windSpeed" : 0.9,
		"windDir" : 59,
		"rain" : 1,
		"cloudbase" : 950.12743999998,
		"flyability" : -0,
		"reason" : "orientationsUnknown, rain",
		"timestamp" :1554714000
		},
	"2019-04-08T09:00:00-03:00" : {
		"windSpeed" : 1.2,
		"windDir" : 43,
		"rain" : 1,
		"cloudbase" : 953.51719999998,
		"flyability" : -0,
		"reason" : "orientationsUnknown, rain",
		"timestamp" :1554724800
		},
	"2019-04-08T12:00:00-03:00" : {
		"windSpeed" : 1,
		"windDir" : 70,
		"rain" : 1,
		"cloudbase" : 1150,
		"flyability" : -0,
		"reason" : "orientationsUnknown, rain",
		"timestamp" :1554735600
		},
	"2019-04-08T15:00:00-03:00" : {
		"windSpeed" : 2.1,
		"windDir" : 95,
		"rain" : 1,
		"cloudbase" : 1204.68952,
		"flyability" : -0,
		"reason" : "orientationsUnknown, rain",
		"timestamp" :1554746400
		},
	"2019-04-08T18:00:00-03:00" : {
		"windSpeed" : 1.4,
		"windDir" : 345,
		"rain" : 1,
		"cloudbase" : 1414.6173999999,
		"flyability" : -0,
		"reason" : "orientationsUnknown, rain",
		"timestamp" :1554757200
		},
	"2019-04-08T21:00:00-03:00" : {
		"windSpeed" : 0.7,
		"windDir" : 12,
		"rain" : 1,
		"cloudbase" : 1762.5673999999,
		"flyability" : -0,
		"reason" : "orientationsUnknown, rain",
		"timestamp" :1554768000
		},
	"2019-04-09T00:00:00-03:00" : {
		"windSpeed" : 0.2,
		"windDir" : 162,
		"rain" : 1,
		"cloudbase" : 4085.9243999996,
		"flyability" : -0,
		"reason" : "orientationsUnknown, rain",
		"timestamp" :1554778800
		},
	"2019-04-09T03:00:00-03:00" : {
		"windSpeed" : 0.5,
		"windDir" : 31,
		"rain" : 0,
		"cloudbase" : 3551.5802,
		"flyability" : -50,
		"reason" : "orientationsUnknown",
		"timestamp" :1554789600
		},
	"2019-04-09T06:00:00-03:00" : {
		"windSpeed" : 0.6,
		"windDir" : 314,
		"rain" : 1,
		"cloudbase" : 1629.9546000002,
		"flyability" : -0,
		"reason" : "orientationsUnknown, rain",
		"timestamp" :1554800400
		},
	"2019-04-09T09:00:00-03:00" : {
		"windSpeed" : 1,
		"windDir" : 314,
		"rain" : 1,
		"cloudbase" : 685.03544000017,
		"flyability" : -0,
		"reason" : "orientationsUnknown, rain",
		"timestamp" :1554811200
		},
	"2019-04-09T12:00:00-03:00" : {
		"windSpeed" : 0.4,
		"windDir" : 149,
		"rain" : 1,
		"cloudbase" : 1076.7501600002,
		"flyability" : -0,
		"reason" : "orientationsUnknown, rain",
		"timestamp" :1554822000
		},
	"2019-04-09T15:00:00-03:00" : {
		"windSpeed" : 0.8,
		"windDir" : 75,
		"rain" : 1,
		"cloudbase" : 176.56356000004,
		"flyability" : -0,
		"reason" : "orientationsUnknown, rain, cloudbase",
		"timestamp" :1554832800
		},
	"2019-04-09T18:00:00-03:00" : {
		"windSpeed" : 1.5,
		"windDir" : 76,
		"rain" : 1,
		"cloudbase" : 1750,
		"flyability" : -0,
		"reason" : "orientationsUnknown, rain",
		"timestamp" :1554843600
		},
	"2019-04-09T21:00:00-03:00" : {
		"windSpeed" : 1.8,
		"windDir" : 78,
		"rain" : 1,
		"cloudbase" : 2709.4715999996,
		"flyability" : -0,
		"reason" : "orientationsUnknown, rain",
		"timestamp" :1554854400
		},
	"2019-04-10T00:00:00-03:00" : {
		"windSpeed" : 0.9,
		"windDir" : 38,
		"rain" : 1,
		"cloudbase" : null,
		"flyability" : -0,
		"reason" : "orientationsUnknown, rain",
		"timestamp" :1554865200
		},
	"2019-04-10T03:00:00-03:00" : {
		"windSpeed" : 0.7,
		"windDir" : 8,
		"rain" : 0,
		"cloudbase" : null,
		"flyability" : -50,
		"reason" : "orientationsUnknown",
		"timestamp" :1554876000
		},
	"2019-04-10T06:00:00-03:00" : {
		"windSpeed" : 0.5,
		"windDir" : 240,
		"rain" : 1,
		"cloudbase" : null,
		"flyability" : -0,
		"reason" : "orientationsUnknown, rain",
		"timestamp" :1554886800
		},
	"2019-04-10T09:00:00-03:00" : {
		"windSpeed" : 0.2,
		"windDir" : 23,
		"rain" : 0,
		"cloudbase" : 2561.1615999999,
		"flyability" : -50,
		"reason" : "orientationsUnknown",
		"timestamp" :1554897600
		},
	"2019-04-10T12:00:00-03:00" : {
		"windSpeed" : 1.9,
		"windDir" : 44,
		"rain" : 1,
		"cloudbase" : 1055.83396,
		"flyability" : -0,
		"reason" : "orientationsUnknown, rain",
		"timestamp" :1554908400
		},
	"2019-04-10T15:00:00-03:00" : {
		"windSpeed" : 2,
		"windDir" : 85,
		"rain" : 1,
		"cloudbase" : 1327.3686,
		"flyability" : -0,
		"reason" : "orientationsUnknown, rain",
		"timestamp" :1554919200
		},
	"2019-04-10T18:00:00-03:00" : {
		"windSpeed" : 2,
		"windDir" : 84,
		"rain" : 0,
		"cloudbase" : 1450,
		"flyability" : -50,
		"reason" : "orientationsUnknown",
		"timestamp" :1554930000
		},
	"2019-04-10T21:00:00-03:00" : {
		"windSpeed" : 1.4,
		"windDir" : 118,
		"rain" : 1,
		"cloudbase" : null,
		"flyability" : -0,
		"reason" : "orientationsUnknown, rain",
		"timestamp" :1554940800
		},
	"2019-04-11T00:00:00-03:00" : {
		"windSpeed" : 1.1,
		"windDir" : 149,
		"rain" : 1,
		"cloudbase" : null,
		"flyability" : -0,
		"reason" : "orientationsUnknown, rain",
		"timestamp" :1554951600
		},
	"2019-04-11T03:00:00-03:00" : {
		"windSpeed" : 0.9,
		"windDir" : 227,
		"rain" : 1,
		"cloudbase" : null,
		"flyability" : -0,
		"reason" : "orientationsUnknown, rain",
		"timestamp" :1554962400
		},
	"2019-04-11T06:00:00-03:00" : {
		"windSpeed" : 0.9,
		"windDir" : 240,
		"rain" : 0,
		"cloudbase" : 418.83555999991,
		"flyability" : -0,
		"reason" : "orientationsUnknown, cloudbase",
		"timestamp" :1554973200
		},
	"2019-04-11T09:00:00-03:00" : {
		"windSpeed" : 0.8,
		"windDir" : 285,
		"rain" : 1,
		"cloudbase" : 620,
		"flyability" : -0,
		"reason" : "orientationsUnknown, rain, cloudbase",
		"timestamp" :1554984000
		},
	"2019-04-11T12:00:00-03:00" : {
		"windSpeed" : 0.7,
		"windDir" : 360,
		"rain" : 1,
		"cloudbase" : null,
		"flyability" : -0,
		"reason" : "orientationsUnknown, rain",
		"timestamp" :1554994800
		},
	"2019-04-11T15:00:00-03:00" : {
		"windSpeed" : 1,
		"windDir" : 33,
		"rain" : 1,
		"cloudbase" : null,
		"flyability" : -0,
		"reason" : "orientationsUnknown, rain",
		"timestamp" :1555005600
		},
	"2019-04-11T18:00:00-03:00" : {
		"windSpeed" : 1.6,
		"windDir" : 73,
		"rain" : 0,
		"cloudbase" : null,
		"flyability" : -50,
		"reason" : "orientationsUnknown",
		"timestamp" :1555016400
		},
	"2019-04-11T21:00:00-03:00" : {
		"windSpeed" : 0.9,
		"windDir" : 115,
		"rain" : 0,
		"cloudbase" : null,
		"flyability" : -50,
		"reason" : "orientationsUnknown",
		"timestamp" :1555027200
		},
	"2019-04-12T00:00:00-03:00" : {
		"windSpeed" : 0.4,
		"windDir" : 207,
		"rain" : 1,
		"cloudbase" : null,
		"flyability" : -0,
		"reason" : "orientationsUnknown, rain",
		"timestamp" :1555038000
		},
	"2019-04-12T03:00:00-03:00" : {
		"windSpeed" : 0.5,
		"windDir" : 249,
		"rain" : 1,
		"cloudbase" : null,
		"flyability" : -0,
		"reason" : "orientationsUnknown, rain",
		"timestamp" :1555048800
		},
	"2019-04-12T06:00:00-03:00" : {
		"windSpeed" : 1,
		"windDir" : 248,
		"rain" : 1,
		"cloudbase" : 35,
		"flyability" : -0,
		"reason" : "orientationsUnknown, rain, cloudbase",
		"timestamp" :1555059600
		},
	"2019-04-12T09:00:00-03:00" : {
		"windSpeed" : 1.3,
		"windDir" : 289,
		"rain" : 0,
		"cloudbase" : 370,
		"flyability" : -0,
		"reason" : "orientationsUnknown, cloudbase",
		"timestamp" :1555070400
		}
	}
}