{
"site" : "Scales",
"id" : 13391,
"orientations" : "00000000",
"forecasts" : { 
	"2019-04-19T16:00:00+01:00" : {
		"windSpeed" : 3,
		"windDir" : 171,
		"rain" : 0,
		"cloudbase" : null,
		"flyability" : -50,
		"reason" : "orientationsUnknown",
		"timestamp" :1555682400
		},
	"2019-04-19T19:00:00+01:00" : {
		"windSpeed" : 1.5,
		"windDir" : 167,
		"rain" : 0,
		"cloudbase" : 9407.6,
		"flyability" : -50,
		"reason" : "orientationsUnknown",
		"timestamp" :1555693200
		},
	"2019-04-19T22:00:00+01:00" : {
		"windSpeed" : 2.3,
		"windDir" : 171,
		"rain" : 0,
		"cloudbase" : 8324.5763,
		"flyability" : -50,
		"reason" : "orientationsUnknown",
		"timestamp" :1555704000
		},
	"2019-04-20T01:00:00+01:00" : {
		"windSpeed" : 2.3,
		"windDir" : 179,
		"rain" : 0,
		"cloudbase" : 3592.13035,
		"flyability" : -50,
		"reason" : "orientationsUnknown",
		"timestamp" :1555714800
		},
	"2019-04-20T04:00:00+01:00" : {
		"windSpeed" : 2.1,
		"windDir" : 187,
		"rain" : 0,
		"cloudbase" : 3690.5525999998,
		"flyability" : -50,
		"reason" : "orientationsUnknown",
		"timestamp" :1555725600
		},
	"2019-04-20T07:00:00+01:00" : {
		"windSpeed" : 1.6,
		"windDir" : 189,
		"rain" : 0,
		"cloudbase" : 8714.9526,
		"flyability" : -50,
		"reason" : "orientationsUnknown",
		"timestamp" :1555736400
		},
	"2019-04-20T10:00:00+01:00" : {
		"windSpeed" : 0.7,
		"windDir" : 225,
		"rain" : 0,
		"cloudbase" : 8824.8237,
		"flyability" : -50,
		"reason" : "orientationsUnknown",
		"timestamp" :1555747200
		},
	"2019-04-20T13:00:00+01:00" : {
		"windSpeed" : 1.7,
		"windDir" : 180,
		"rain" : 0,
		"cloudbase" : 8824.8237,
		"flyability" : -50,
		"reason" : "orientationsUnknown",
		"timestamp" :1555758000
		},
	"2019-04-20T16:00:00+01:00" : {
		"windSpeed" : 1.4,
		"windDir" : 236,
		"rain" : 0,
		"cloudbase" : 8332.9,
		"flyability" : -50,
		"reason" : "orientationsUnknown",
		"timestamp" :1555768800
		},
	"2019-04-20T19:00:00+01:00" : {
		"windSpeed" : 0.6,
		"windDir" : 252,
		"rain" : 0,
		"cloudbase" : 8398.7,
		"flyability" : -50,
		"reason" : "orientationsUnknown",
		"timestamp" :1555779600
		},
	"2019-04-20T22:00:00+01:00" : {
		"windSpeed" : 1.1,
		"windDir" : 161,
		"rain" : 0,
		"cloudbase" : 8332.9,
		"flyability" : -50,
		"reason" : "orientationsUnknown",
		"timestamp" :1555790400
		},
	"2019-04-21T01:00:00+01:00" : {
		"windSpeed" : 2.2,
		"windDir" : 185,
		"rain" : 0,
		"cloudbase" : 8024.6763,
		"flyability" : -50,
		"reason" : "orientationsUnknown",
		"timestamp" :1555801200
		},
	"2019-04-21T04:00:00+01:00" : {
		"windSpeed" : 2,
		"windDir" : 186,
		"rain" : 0,
		"cloudbase" : 7091.9237,
		"flyability" : -50,
		"reason" : "orientationsUnknown",
		"timestamp" :1555812000
		},
	"2019-04-21T07:00:00+01:00" : {
		"windSpeed" : 2.4,
		"windDir" : 183,
		"rain" : 0,
		"cloudbase" : 6691.9237,
		"flyability" : -50,
		"reason" : "orientationsUnknown",
		"timestamp" :1555822800
		},
	"2019-04-21T10:00:00+01:00" : {
		"windSpeed" : 3.1,
		"windDir" : 188,
		"rain" : 0,
		"cloudbase" : 6283.0237,
		"flyability" : -50,
		"reason" : "orientationsUnknown",
		"timestamp" :1555833600
		},
	"2019-04-21T13:00:00+01:00" : {
		"windSpeed" : 3.6,
		"windDir" : 196,
		"rain" : 0,
		"cloudbase" : 6700.2474,
		"flyability" : -50,
		"reason" : "orientationsUnknown",
		"timestamp" :1555844400
		},
	"2019-04-21T16:00:00+01:00" : {
		"windSpeed" : 3.9,
		"windDir" : 205,
		"rain" : 0,
		"cloudbase" : 6816.2526,
		"flyability" : -50,
		"reason" : "orientationsUnknown",
		"timestamp" :1555855200
		},
	"2019-04-21T19:00:00+01:00" : {
		"windSpeed" : 2.5,
		"windDir" : 191,
		"rain" : 0,
		"cloudbase" : null,
		"flyability" : -50,
		"reason" : "orientationsUnknown",
		"timestamp" :1555866000
		},
	"2019-04-21T22:00:00+01:00" : {
		"windSpeed" : 2.1,
		"windDir" : 175,
		"rain" : 0,
		"cloudbase" : null,
		"flyability" : -50,
		"reason" : "orientationsUnknown",
		"timestamp" :1555876800
		},
	"2019-04-22T01:00:00+01:00" : {
		"windSpeed" : 2.1,
		"windDir" : 173,
		"rain" : 0,
		"cloudbase" : null,
		"flyability" : -50,
		"reason" : "orientationsUnknown",
		"timestamp" :1555887600
		},
	"2019-04-22T04:00:00+01:00" : {
		"windSpeed" : 2.1,
		"windDir" : 163,
		"rain" : 0,
		"cloudbase" : null,
		"flyability" : -50,
		"reason" : "orientationsUnknown",
		"timestamp" :1555898400
		},
	"2019-04-22T07:00:00+01:00" : {
		"windSpeed" : 2.1,
		"windDir" : 148,
		"rain" : 0,
		"cloudbase" : null,
		"flyability" : -50,
		"reason" : "orientationsUnknown",
		"timestamp" :1555909200
		},
	"2019-04-22T10:00:00+01:00" : {
		"windSpeed" : 3.8,
		"windDir" : 139,
		"rain" : 0,
		"cloudbase" : null,
		"flyability" : -50,
		"reason" : "orientationsUnknown",
		"timestamp" :1555920000
		},
	"2019-04-22T13:00:00+01:00" : {
		"windSpeed" : 4.6,
		"windDir" : 147,
		"rain" : 0,
		"cloudbase" : null,
		"flyability" : -50,
		"reason" : "orientationsUnknown",
		"timestamp" :1555930800
		},
	"2019-04-22T16:00:00+01:00" : {
		"windSpeed" : 4.9,
		"windDir" : 145,
		"rain" : 0,
		"cloudbase" : 5777.1185,
		"flyability" : -50,
		"reason" : "orientationsUnknown",
		"timestamp" :1555941600
		},
	"2019-04-22T19:00:00+01:00" : {
		"windSpeed" : 3.1,
		"windDir" : 126,
		"rain" : 0,
		"cloudbase" : 4565.8,
		"flyability" : -50,
		"reason" : "orientationsUnknown",
		"timestamp" :1555952400
		},
	"2019-04-22T22:00:00+01:00" : {
		"windSpeed" : 3.2,
		"windDir" : 119,
		"rain" : 0,
		"cloudbase" : 4273.88555,
		"flyability" : -50,
		"reason" : "orientationsUnknown",
		"timestamp" :1555963200
		},
	"2019-04-23T01:00:00+01:00" : {
		"windSpeed" : 2.6,
		"windDir" : 126,
		"rain" : 1,
		"cloudbase" : 9558.2,
		"flyability" : -0,
		"reason" : "orientationsUnknown, rain",
		"timestamp" :1555974000
		},
	"2019-04-23T04:00:00+01:00" : {
		"windSpeed" : 2.5,
		"windDir" : 136,
		"rain" : 0,
		"cloudbase" : null,
		"flyability" : -50,
		"reason" : "orientationsUnknown",
		"timestamp" :1555984800
		},
	"2019-04-23T07:00:00+01:00" : {
		"windSpeed" : 2.4,
		"windDir" : 127,
		"rain" : 0,
		"cloudbase" : null,
		"flyability" : -50,
		"reason" : "orientationsUnknown",
		"timestamp" :1555995600
		},
	"2019-04-23T10:00:00+01:00" : {
		"windSpeed" : 3.6,
		"windDir" : 111,
		"rain" : 0,
		"cloudbase" : 7800,
		"flyability" : -50,
		"reason" : "orientationsUnknown",
		"timestamp" :1556006400
		},
	"2019-04-23T13:00:00+01:00" : {
		"windSpeed" : 5,
		"windDir" : 110,
		"rain" : 0,
		"cloudbase" : 6200,
		"flyability" : -50,
		"reason" : "orientationsUnknown",
		"timestamp" :1556017200
		},
	"2019-04-23T16:00:00+01:00" : {
		"windSpeed" : 4.4,
		"windDir" : 100,
		"rain" : 0,
		"cloudbase" : 5148.8237,
		"flyability" : -50,
		"reason" : "orientationsUnknown",
		"timestamp" :1556028000
		},
	"2019-04-23T19:00:00+01:00" : {
		"windSpeed" : 4,
		"windDir" : 95,
		"rain" : 0,
		"cloudbase" : 6898.7,
		"flyability" : -50,
		"reason" : "orientationsUnknown",
		"timestamp" :1556038800
		},
	"2019-04-23T22:00:00+01:00" : {
		"windSpeed" : 3.3,
		"windDir" : 106,
		"rain" : 0,
		"cloudbase" : null,
		"flyability" : -50,
		"reason" : "orientationsUnknown",
		"timestamp" :1556049600
		},
	"2019-04-24T01:00:00+01:00" : {
		"windSpeed" : 2.4,
		"windDir" : 120,
		"rain" : 0,
		"cloudbase" : 4450,
		"flyability" : -50,
		"reason" : "orientationsUnknown",
		"timestamp" :1556060400
		},
	"2019-04-24T04:00:00+01:00" : {
		"windSpeed" : 2.6,
		"windDir" : 121,
		"rain" : 0,
		"cloudbase" : null,
		"flyability" : -50,
		"reason" : "orientationsUnknown",
		"timestamp" :1556071200
		},
	"2019-04-24T07:00:00+01:00" : {
		"windSpeed" : 3.2,
		"windDir" : 127,
		"rain" : 0,
		"cloudbase" : 3250,
		"flyability" : -50,
		"reason" : "orientationsUnknown",
		"timestamp" :1556082000
		},
	"2019-04-24T10:00:00+01:00" : {
		"windSpeed" : 3.9,
		"windDir" : 133,
		"rain" : 0,
		"cloudbase" : 5058.2,
		"flyability" : -50,
		"reason" : "orientationsUnknown",
		"timestamp" :1556092800
		},
	"2019-04-24T13:00:00+01:00" : {
		"windSpeed" : 4.9,
		"windDir" : 140,
		"rain" : 1,
		"cloudbase" : 3886.3115499999,
		"flyability" : -0,
		"reason" : "orientationsUnknown, rain",
		"timestamp" :1556103600
		},
	"2019-04-24T16:00:00+01:00" : {
		"windSpeed" : 4.6,
		"windDir" : 141,
		"rain" : 1,
		"cloudbase" : 660.63792,
		"flyability" : -0,
		"reason" : "orientationsUnknown, rain",
		"timestamp" :1556114400
		},
	"2019-04-24T19:00:00+01:00" : {
		"windSpeed" : 5.9,
		"windDir" : 165,
		"rain" : 1,
		"cloudbase" : 4057.71445,
		"flyability" : -0,
		"reason" : "windSpeed, orientationsUnknown, rain",
		"timestamp" :1556125200
		},
	"2019-04-24T22:00:00+01:00" : {
		"windSpeed" : 5.5,
		"windDir" : 156,
		"rain" : 1,
		"cloudbase" : 3798.33815,
		"flyability" : -0,
		"reason" : "windSpeed, orientationsUnknown, rain",
		"timestamp" :1556136000
		},
	"2019-04-25T01:00:00+01:00" : {
		"windSpeed" : 7.5,
		"windDir" : 151,
		"rain" : 0,
		"cloudbase" : 704.13526,
		"flyability" : -0,
		"reason" : "windSpeed, orientationsUnknown",
		"timestamp" :1556146800
		},
	"2019-04-25T04:00:00+01:00" : {
		"windSpeed" : 4,
		"windDir" : 154,
		"rain" : 0,
		"cloudbase" : null,
		"flyability" : -50,
		"reason" : "orientationsUnknown",
		"timestamp" :1556157600
		},
	"2019-04-25T07:00:00+01:00" : {
		"windSpeed" : 4.5,
		"windDir" : 141,
		"rain" : 0,
		"cloudbase" : null,
		"flyability" : -50,
		"reason" : "orientationsUnknown",
		"timestamp" :1556168400
		},
	"2019-04-25T10:00:00+01:00" : {
		"windSpeed" : 5.9,
		"windDir" : 130,
		"rain" : 0,
		"cloudbase" : null,
		"flyability" : -0,
		"reason" : "windSpeed, orientationsUnknown",
		"timestamp" :1556179200
		},
	"2019-04-25T13:00:00+01:00" : {
		"windSpeed" : 7.7,
		"windDir" : 141,
		"rain" : 1,
		"cloudbase" : null,
		"flyability" : -0,
		"reason" : "windSpeed, orientationsUnknown, rain",
		"timestamp" :1556190000
		}
	}
}