{
"site" : "Soida, Aldeia Vi\u00e7osa",
"id" : 13487,
"orientations" : "00000000",
"forecasts" : { 
	"2019-04-10T04:00:00+01:00" : {
		"windSpeed" : 4.2,
		"windDir" : 283,
		"rain" : 1,
		"cloudbase" : null,
		"flyability" : -0,
		"reason" : "orientationsUnknown, rain",
		"timestamp" :1554861600
		},
	"2019-04-10T07:00:00+01:00" : {
		"windSpeed" : 4.6,
		"windDir" : 280,
		"rain" : 0,
		"cloudbase" : 266.63376,
		"flyability" : -0,
		"reason" : "orientationsUnknown, cloudbase",
		"timestamp" :1554872400
		},
	"2019-04-10T10:00:00+01:00" : {
		"windSpeed" : 5.3,
		"windDir" : 291,
		"rain" : 1,
		"cloudbase" : 540,
		"flyability" : -0,
		"reason" : "windSpeed, orientationsUnknown, rain, cloudbase",
		"timestamp" :1554883200
		},
	"2019-04-10T13:00:00+01:00" : {
		"windSpeed" : 5.8,
		"windDir" : 315,
		"rain" : 1,
		"cloudbase" : 1313.2043,
		"flyability" : -0,
		"reason" : "windSpeed, orientationsUnknown, rain",
		"timestamp" :1554894000
		},
	"2019-04-10T16:00:00+01:00" : {
		"windSpeed" : 5,
		"windDir" : 315,
		"rain" : 1,
		"cloudbase" : 1427.9543,
		"flyability" : -0,
		"reason" : "orientationsUnknown, rain",
		"timestamp" :1554904800
		},
	"2019-04-10T19:00:00+01:00" : {
		"windSpeed" : 5.2,
		"windDir" : 310,
		"rain" : 0,
		"cloudbase" : null,
		"flyability" : -0,
		"reason" : "windSpeed, orientationsUnknown",
		"timestamp" :1554915600
		},
	"2019-04-10T22:00:00+01:00" : {
		"windSpeed" : 2.6,
		"windDir" : 299,
		"rain" : 0,
		"cloudbase" : null,
		"flyability" : -50,
		"reason" : "orientationsUnknown",
		"timestamp" :1554926400
		},
	"2019-04-11T01:00:00+01:00" : {
		"windSpeed" : 1.4,
		"windDir" : 276,
		"rain" : 0,
		"cloudbase" : null,
		"flyability" : -50,
		"reason" : "orientationsUnknown",
		"timestamp" :1554937200
		},
	"2019-04-11T04:00:00+01:00" : {
		"windSpeed" : 1.2,
		"windDir" : 277,
		"rain" : 0,
		"cloudbase" : 30,
		"flyability" : -0,
		"reason" : "orientationsUnknown, cloudbase",
		"timestamp" :1554948000
		},
	"2019-04-11T07:00:00+01:00" : {
		"windSpeed" : 0.2,
		"windDir" : 101,
		"rain" : 0,
		"cloudbase" : 30,
		"flyability" : -0,
		"reason" : "orientationsUnknown, cloudbase",
		"timestamp" :1554958800
		},
	"2019-04-11T10:00:00+01:00" : {
		"windSpeed" : 1.5,
		"windDir" : 18,
		"rain" : 0,
		"cloudbase" : null,
		"flyability" : -50,
		"reason" : "orientationsUnknown",
		"timestamp" :1554969600
		},
	"2019-04-11T13:00:00+01:00" : {
		"windSpeed" : 2.6,
		"windDir" : 349,
		"rain" : 0,
		"cloudbase" : null,
		"flyability" : -50,
		"reason" : "orientationsUnknown",
		"timestamp" :1554980400
		},
	"2019-04-11T16:00:00+01:00" : {
		"windSpeed" : 4.4,
		"windDir" : 335,
		"rain" : 0,
		"cloudbase" : 1950.9786,
		"flyability" : -50,
		"reason" : "orientationsUnknown",
		"timestamp" :1554991200
		},
	"2019-04-11T19:00:00+01:00" : {
		"windSpeed" : 2.2,
		"windDir" : 350,
		"rain" : 0,
		"cloudbase" : 2590.1330499999,
		"flyability" : -50,
		"reason" : "orientationsUnknown",
		"timestamp" :1555002000
		},
	"2019-04-11T22:00:00+01:00" : {
		"windSpeed" : 1.6,
		"windDir" : 280,
		"rain" : 0,
		"cloudbase" : 8019.8771,
		"flyability" : -50,
		"reason" : "orientationsUnknown",
		"timestamp" :1555012800
		},
	"2019-04-12T01:00:00+01:00" : {
		"windSpeed" : 1.3,
		"windDir" : 291,
		"rain" : 0,
		"cloudbase" : null,
		"flyability" : -50,
		"reason" : "orientationsUnknown",
		"timestamp" :1555023600
		},
	"2019-04-12T04:00:00+01:00" : {
		"windSpeed" : 1.3,
		"windDir" : 64,
		"rain" : 0,
		"cloudbase" : null,
		"flyability" : -50,
		"reason" : "orientationsUnknown",
		"timestamp" :1555034400
		},
	"2019-04-12T07:00:00+01:00" : {
		"windSpeed" : 1.8,
		"windDir" : 72,
		"rain" : 0,
		"cloudbase" : null,
		"flyability" : -50,
		"reason" : "orientationsUnknown",
		"timestamp" :1555045200
		},
	"2019-04-12T10:00:00+01:00" : {
		"windSpeed" : 1.9,
		"windDir" : 59,
		"rain" : 0,
		"cloudbase" : null,
		"flyability" : -50,
		"reason" : "orientationsUnknown",
		"timestamp" :1555056000
		},
	"2019-04-12T13:00:00+01:00" : {
		"windSpeed" : 1.3,
		"windDir" : 38,
		"rain" : 0,
		"cloudbase" : null,
		"flyability" : -50,
		"reason" : "orientationsUnknown",
		"timestamp" :1555066800
		},
	"2019-04-12T16:00:00+01:00" : {
		"windSpeed" : 1.8,
		"windDir" : 331,
		"rain" : 0,
		"cloudbase" : null,
		"flyability" : -50,
		"reason" : "orientationsUnknown",
		"timestamp" :1555077600
		},
	"2019-04-12T19:00:00+01:00" : {
		"windSpeed" : 2.1,
		"windDir" : 289,
		"rain" : 0,
		"cloudbase" : null,
		"flyability" : -50,
		"reason" : "orientationsUnknown",
		"timestamp" :1555088400
		},
	"2019-04-12T22:00:00+01:00" : {
		"windSpeed" : 1.8,
		"windDir" : 263,
		"rain" : 0,
		"cloudbase" : 9443.88,
		"flyability" : -50,
		"reason" : "orientationsUnknown",
		"timestamp" :1555099200
		},
	"2019-04-13T01:00:00+01:00" : {
		"windSpeed" : 1.1,
		"windDir" : 258,
		"rain" : 0,
		"cloudbase" : 8268.8343,
		"flyability" : -50,
		"reason" : "orientationsUnknown",
		"timestamp" :1555110000
		},
	"2019-04-13T04:00:00+01:00" : {
		"windSpeed" : 0.3,
		"windDir" : 247,
		"rain" : 0,
		"cloudbase" : 6900,
		"flyability" : -50,
		"reason" : "orientationsUnknown",
		"timestamp" :1555120800
		},
	"2019-04-13T07:00:00+01:00" : {
		"windSpeed" : 1,
		"windDir" : 139,
		"rain" : 0,
		"cloudbase" : null,
		"flyability" : -50,
		"reason" : "orientationsUnknown",
		"timestamp" :1555131600
		},
	"2019-04-13T10:00:00+01:00" : {
		"windSpeed" : 1.3,
		"windDir" : 130,
		"rain" : 0,
		"cloudbase" : null,
		"flyability" : -50,
		"reason" : "orientationsUnknown",
		"timestamp" :1555142400
		},
	"2019-04-13T13:00:00+01:00" : {
		"windSpeed" : 2.7,
		"windDir" : 273,
		"rain" : 0,
		"cloudbase" : null,
		"flyability" : -50,
		"reason" : "orientationsUnknown",
		"timestamp" :1555153200
		},
	"2019-04-13T16:00:00+01:00" : {
		"windSpeed" : 3.8,
		"windDir" : 297,
		"rain" : 0,
		"cloudbase" : null,
		"flyability" : -50,
		"reason" : "orientationsUnknown",
		"timestamp" :1555164000
		},
	"2019-04-13T19:00:00+01:00" : {
		"windSpeed" : 3.9,
		"windDir" : 278,
		"rain" : 0,
		"cloudbase" : 10461.6715,
		"flyability" : -50,
		"reason" : "orientationsUnknown",
		"timestamp" :1555174800
		},
	"2019-04-13T22:00:00+01:00" : {
		"windSpeed" : 2.6,
		"windDir" : 274,
		"rain" : 0,
		"cloudbase" : 4641.6729999997,
		"flyability" : -50,
		"reason" : "orientationsUnknown",
		"timestamp" :1555185600
		},
	"2019-04-14T01:00:00+01:00" : {
		"windSpeed" : 1.6,
		"windDir" : 277,
		"rain" : 0,
		"cloudbase" : 6401.4543,
		"flyability" : -50,
		"reason" : "orientationsUnknown",
		"timestamp" :1555196400
		},
	"2019-04-14T04:00:00+01:00" : {
		"windSpeed" : 1.6,
		"windDir" : 275,
		"rain" : 0,
		"cloudbase" : 9992.3343,
		"flyability" : -50,
		"reason" : "orientationsUnknown",
		"timestamp" :1555207200
		},
	"2019-04-14T07:00:00+01:00" : {
		"windSpeed" : 0.8,
		"windDir" : 257,
		"rain" : 0,
		"cloudbase" : 3331.4703900001,
		"flyability" : -50,
		"reason" : "orientationsUnknown",
		"timestamp" :1555218000
		},
	"2019-04-14T10:00:00+01:00" : {
		"windSpeed" : 1.9,
		"windDir" : 270,
		"rain" : 0,
		"cloudbase" : 1711.1518699999,
		"flyability" : -50,
		"reason" : "orientationsUnknown",
		"timestamp" :1555228800
		},
	"2019-04-14T13:00:00+01:00" : {
		"windSpeed" : 2.4,
		"windDir" : 262,
		"rain" : 0,
		"cloudbase" : 1228.69575,
		"flyability" : -50,
		"reason" : "orientationsUnknown",
		"timestamp" :1555239600
		},
	"2019-04-14T16:00:00+01:00" : {
		"windSpeed" : 2.8,
		"windDir" : 286,
		"rain" : 1,
		"cloudbase" : 1466.28725,
		"flyability" : -0,
		"reason" : "orientationsUnknown, rain",
		"timestamp" :1555250400
		},
	"2019-04-14T19:00:00+01:00" : {
		"windSpeed" : 2.4,
		"windDir" : 252,
		"rain" : 0,
		"cloudbase" : 5009.96715,
		"flyability" : -50,
		"reason" : "orientationsUnknown",
		"timestamp" :1555261200
		},
	"2019-04-14T22:00:00+01:00" : {
		"windSpeed" : 1.2,
		"windDir" : 240,
		"rain" : 0,
		"cloudbase" : 6092.3343,
		"flyability" : -50,
		"reason" : "orientationsUnknown",
		"timestamp" :1555272000
		},
	"2019-04-15T01:00:00+01:00" : {
		"windSpeed" : 1.8,
		"windDir" : 192,
		"rain" : 0,
		"cloudbase" : null,
		"flyability" : -50,
		"reason" : "orientationsUnknown",
		"timestamp" :1555282800
		},
	"2019-04-15T04:00:00+01:00" : {
		"windSpeed" : 2.5,
		"windDir" : 206,
		"rain" : 1,
		"cloudbase" : 263.39485,
		"flyability" : -0,
		"reason" : "orientationsUnknown, rain, cloudbase",
		"timestamp" :1555293600
		},
	"2019-04-15T07:00:00+01:00" : {
		"windSpeed" : 2.8,
		"windDir" : 274,
		"rain" : 1,
		"cloudbase" : 1800,
		"flyability" : -0,
		"reason" : "orientationsUnknown, rain",
		"timestamp" :1555304400
		},
	"2019-04-15T10:00:00+01:00" : {
		"windSpeed" : 4.6,
		"windDir" : 290,
		"rain" : 1,
		"cloudbase" : 740,
		"flyability" : -0,
		"reason" : "orientationsUnknown, rain, cloudbase",
		"timestamp" :1555315200
		},
	"2019-04-15T13:00:00+01:00" : {
		"windSpeed" : 5,
		"windDir" : 285,
		"rain" : 1,
		"cloudbase" : 1150,
		"flyability" : -0,
		"reason" : "orientationsUnknown, rain",
		"timestamp" :1555326000
		},
	"2019-04-15T16:00:00+01:00" : {
		"windSpeed" : 6.1,
		"windDir" : 285,
		"rain" : 1,
		"cloudbase" : null,
		"flyability" : -0,
		"reason" : "windSpeed, orientationsUnknown, rain",
		"timestamp" :1555336800
		},
	"2019-04-15T19:00:00+01:00" : {
		"windSpeed" : 5.7,
		"windDir" : 286,
		"rain" : 0,
		"cloudbase" : null,
		"flyability" : -0,
		"reason" : "windSpeed, orientationsUnknown",
		"timestamp" :1555347600
		},
	"2019-04-15T22:00:00+01:00" : {
		"windSpeed" : 3.4,
		"windDir" : 292,
		"rain" : 0,
		"cloudbase" : null,
		"flyability" : -50,
		"reason" : "orientationsUnknown",
		"timestamp" :1555358400
		},
	"2019-04-16T01:00:00+01:00" : {
		"windSpeed" : 1.6,
		"windDir" : 296,
		"rain" : 0,
		"cloudbase" : 126.74086,
		"flyability" : -0,
		"reason" : "orientationsUnknown, cloudbase",
		"timestamp" :1555369200
		}
	}
}