{
"site" : "Carlton bank",
"id" : 13518,
"orientations" : "00000002",
"forecasts" : { 
	"2019-04-08T04:00:00+01:00" : {
		"windSpeed" : 4.8,
		"windDir" : 24,
		"rain" : 0,
		"cloudbase" : 30.580750000001,
		"flyability" : 0,
		"reason" : "windDir, cloudbase",
		"timestamp" :1554688800
		},
	"2019-04-08T07:00:00+01:00" : {
		"windSpeed" : 4.3,
		"windDir" : 21,
		"rain" : 0,
		"cloudbase" : 34.873625000002,
		"flyability" : 0,
		"reason" : "windDir, cloudbase",
		"timestamp" :1554699600
		},
	"2019-04-08T10:00:00+01:00" : {
		"windSpeed" : 5,
		"windDir" : 37,
		"rain" : 0,
		"cloudbase" : 284.73225,
		"flyability" : 0,
		"reason" : "windDir, cloudbase",
		"timestamp" :1554710400
		},
	"2019-04-08T13:00:00+01:00" : {
		"windSpeed" : 5,
		"windDir" : 37,
		"rain" : 0,
		"cloudbase" : 487.24725,
		"flyability" : 0,
		"reason" : "windDir",
		"timestamp" :1554721200
		},
	"2019-04-08T16:00:00+01:00" : {
		"windSpeed" : 5,
		"windDir" : 45,
		"rain" : 0,
		"cloudbase" : null,
		"flyability" : 0,
		"reason" : "windDir",
		"timestamp" :1554732000
		},
	"2019-04-08T19:00:00+01:00" : {
		"windSpeed" : 3.5,
		"windDir" : 77,
		"rain" : 0,
		"cloudbase" : null,
		"flyability" : 0,
		"reason" : "windDir",
		"timestamp" :1554742800
		},
	"2019-04-08T22:00:00+01:00" : {
		"windSpeed" : 4.1,
		"windDir" : 74,
		"rain" : 0,
		"cloudbase" : null,
		"flyability" : 0,
		"reason" : "windDir",
		"timestamp" :1554753600
		},
	"2019-04-09T01:00:00+01:00" : {
		"windSpeed" : 2.5,
		"windDir" : 76,
		"rain" : 0,
		"cloudbase" : null,
		"flyability" : 0,
		"reason" : "windDir",
		"timestamp" :1554764400
		},
	"2019-04-09T04:00:00+01:00" : {
		"windSpeed" : 3.5,
		"windDir" : 56,
		"rain" : 0,
		"cloudbase" : null,
		"flyability" : 0,
		"reason" : "windDir",
		"timestamp" :1554775200
		},
	"2019-04-09T07:00:00+01:00" : {
		"windSpeed" : 4.4,
		"windDir" : 63,
		"rain" : 0,
		"cloudbase" : null,
		"flyability" : 0,
		"reason" : "windDir",
		"timestamp" :1554786000
		},
	"2019-04-09T10:00:00+01:00" : {
		"windSpeed" : 5.9,
		"windDir" : 70,
		"rain" : 0,
		"cloudbase" : 880,
		"flyability" : 0,
		"reason" : "windSpeed, windDir",
		"timestamp" :1554796800
		},
	"2019-04-09T13:00:00+01:00" : {
		"windSpeed" : 5.9,
		"windDir" : 70,
		"rain" : 0,
		"cloudbase" : 929.73700000001,
		"flyability" : 0,
		"reason" : "windSpeed, windDir",
		"timestamp" :1554807600
		},
	"2019-04-09T16:00:00+01:00" : {
		"windSpeed" : 5.5,
		"windDir" : 67,
		"rain" : 0,
		"cloudbase" : null,
		"flyability" : 0,
		"reason" : "windSpeed, windDir",
		"timestamp" :1554818400
		},
	"2019-04-09T19:00:00+01:00" : {
		"windSpeed" : 4.7,
		"windDir" : 58,
		"rain" : 0,
		"cloudbase" : null,
		"flyability" : 0,
		"reason" : "windDir",
		"timestamp" :1554829200
		},
	"2019-04-09T22:00:00+01:00" : {
		"windSpeed" : 2.7,
		"windDir" : 66,
		"rain" : 0,
		"cloudbase" : null,
		"flyability" : 0,
		"reason" : "windDir",
		"timestamp" :1554840000
		},
	"2019-04-10T01:00:00+01:00" : {
		"windSpeed" : 2.6,
		"windDir" : 67,
		"rain" : 0,
		"cloudbase" : null,
		"flyability" : 0,
		"reason" : "windDir",
		"timestamp" :1554850800
		},
	"2019-04-10T04:00:00+01:00" : {
		"windSpeed" : 2.6,
		"windDir" : 67,
		"rain" : 0,
		"cloudbase" : null,
		"flyability" : 0,
		"reason" : "windDir",
		"timestamp" :1554861600
		},
	"2019-04-10T07:00:00+01:00" : {
		"windSpeed" : 3.2,
		"windDir" : 64,
		"rain" : 0,
		"cloudbase" : null,
		"flyability" : 0,
		"reason" : "windDir",
		"timestamp" :1554872400
		},
	"2019-04-10T10:00:00+01:00" : {
		"windSpeed" : 4.3,
		"windDir" : 68,
		"rain" : 0,
		"cloudbase" : null,
		"flyability" : 0,
		"reason" : "windDir",
		"timestamp" :1554883200
		},
	"2019-04-10T13:00:00+01:00" : {
		"windSpeed" : 3.9,
		"windDir" : 66,
		"rain" : 0,
		"cloudbase" : null,
		"flyability" : 0,
		"reason" : "windDir",
		"timestamp" :1554894000
		},
	"2019-04-10T16:00:00+01:00" : {
		"windSpeed" : 3.1,
		"windDir" : 79,
		"rain" : 0,
		"cloudbase" : null,
		"flyability" : 0,
		"reason" : "windDir",
		"timestamp" :1554904800
		},
	"2019-04-10T19:00:00+01:00" : {
		"windSpeed" : 2.5,
		"windDir" : 86,
		"rain" : 0,
		"cloudbase" : null,
		"flyability" : 0,
		"reason" : "windDir",
		"timestamp" :1554915600
		},
	"2019-04-10T22:00:00+01:00" : {
		"windSpeed" : 2.2,
		"windDir" : 119,
		"rain" : 0,
		"cloudbase" : null,
		"flyability" : 0,
		"reason" : "windDir",
		"timestamp" :1554926400
		},
	"2019-04-11T01:00:00+01:00" : {
		"windSpeed" : 2.1,
		"windDir" : 138,
		"rain" : 0,
		"cloudbase" : null,
		"flyability" : 0,
		"reason" : "windDir",
		"timestamp" :1554937200
		},
	"2019-04-11T04:00:00+01:00" : {
		"windSpeed" : 2.3,
		"windDir" : 159,
		"rain" : 0,
		"cloudbase" : null,
		"flyability" : 0,
		"reason" : "windDir",
		"timestamp" :1554948000
		},
	"2019-04-11T07:00:00+01:00" : {
		"windSpeed" : 2,
		"windDir" : 167,
		"rain" : 0,
		"cloudbase" : null,
		"flyability" : 0,
		"reason" : "windDir",
		"timestamp" :1554958800
		},
	"2019-04-11T10:00:00+01:00" : {
		"windSpeed" : 2.4,
		"windDir" : 182,
		"rain" : 0,
		"cloudbase" : null,
		"flyability" : 0,
		"reason" : "windDir",
		"timestamp" :1554969600
		},
	"2019-04-11T13:00:00+01:00" : {
		"windSpeed" : 2.4,
		"windDir" : 172,
		"rain" : 0,
		"cloudbase" : null,
		"flyability" : 0,
		"reason" : "windDir",
		"timestamp" :1554980400
		},
	"2019-04-11T16:00:00+01:00" : {
		"windSpeed" : 1.9,
		"windDir" : 197,
		"rain" : 0,
		"cloudbase" : 1050,
		"flyability" : 0,
		"reason" : "windDir",
		"timestamp" :1554991200
		},
	"2019-04-11T19:00:00+01:00" : {
		"windSpeed" : 1.3,
		"windDir" : 198,
		"rain" : 0,
		"cloudbase" : null,
		"flyability" : 0,
		"reason" : "windDir",
		"timestamp" :1555002000
		},
	"2019-04-11T22:00:00+01:00" : {
		"windSpeed" : 3.9,
		"windDir" : 143,
		"rain" : 0,
		"cloudbase" : 1129.69625,
		"flyability" : 0,
		"reason" : "windDir",
		"timestamp" :1555012800
		},
	"2019-04-12T01:00:00+01:00" : {
		"windSpeed" : 3.5,
		"windDir" : 159,
		"rain" : 0,
		"cloudbase" : 1415,
		"flyability" : 0,
		"reason" : "windDir",
		"timestamp" :1555023600
		},
	"2019-04-12T04:00:00+01:00" : {
		"windSpeed" : 2.3,
		"windDir" : 142,
		"rain" : 0,
		"cloudbase" : 1352.525,
		"flyability" : 0,
		"reason" : "windDir",
		"timestamp" :1555034400
		},
	"2019-04-12T07:00:00+01:00" : {
		"windSpeed" : 3,
		"windDir" : 140,
		"rain" : 0,
		"cloudbase" : 1255.05,
		"flyability" : 0,
		"reason" : "windDir",
		"timestamp" :1555045200
		},
	"2019-04-12T10:00:00+01:00" : {
		"windSpeed" : 2.8,
		"windDir" : 136,
		"rain" : 0,
		"cloudbase" : 1221.43875,
		"flyability" : 0,
		"reason" : "windDir",
		"timestamp" :1555056000
		},
	"2019-04-12T13:00:00+01:00" : {
		"windSpeed" : 3.1,
		"windDir" : 127,
		"rain" : 0,
		"cloudbase" : 1227.85375,
		"flyability" : 0,
		"reason" : "windDir",
		"timestamp" :1555066800
		},
	"2019-04-12T16:00:00+01:00" : {
		"windSpeed" : 4.6,
		"windDir" : 102,
		"rain" : 0,
		"cloudbase" : 960,
		"flyability" : 0,
		"reason" : "windDir",
		"timestamp" :1555077600
		},
	"2019-04-12T19:00:00+01:00" : {
		"windSpeed" : 4,
		"windDir" : 96,
		"rain" : 0,
		"cloudbase" : null,
		"flyability" : 0,
		"reason" : "windDir",
		"timestamp" :1555088400
		},
	"2019-04-12T22:00:00+01:00" : {
		"windSpeed" : 2.9,
		"windDir" : 99,
		"rain" : 0,
		"cloudbase" : null,
		"flyability" : 0,
		"reason" : "windDir",
		"timestamp" :1555099200
		},
	"2019-04-13T01:00:00+01:00" : {
		"windSpeed" : 2.5,
		"windDir" : 103,
		"rain" : 0,
		"cloudbase" : 940,
		"flyability" : 0,
		"reason" : "windDir",
		"timestamp" :1555110000
		},
	"2019-04-13T04:00:00+01:00" : {
		"windSpeed" : 2.6,
		"windDir" : 101,
		"rain" : 0,
		"cloudbase" : null,
		"flyability" : 0,
		"reason" : "windDir",
		"timestamp" :1555120800
		},
	"2019-04-13T07:00:00+01:00" : {
		"windSpeed" : 2.5,
		"windDir" : 90,
		"rain" : 0,
		"cloudbase" : 1050,
		"flyability" : 0,
		"reason" : "windDir",
		"timestamp" :1555131600
		},
	"2019-04-13T10:00:00+01:00" : {
		"windSpeed" : 5.5,
		"windDir" : 84,
		"rain" : 0,
		"cloudbase" : 1263.2325,
		"flyability" : 0,
		"reason" : "windSpeed, windDir",
		"timestamp" :1555142400
		},
	"2019-04-13T13:00:00+01:00" : {
		"windSpeed" : 4.8,
		"windDir" : 72,
		"rain" : 0,
		"cloudbase" : 1247.17125,
		"flyability" : 0,
		"reason" : "windDir",
		"timestamp" :1555153200
		},
	"2019-04-13T16:00:00+01:00" : {
		"windSpeed" : 4.8,
		"windDir" : 71,
		"rain" : 0,
		"cloudbase" : null,
		"flyability" : 0,
		"reason" : "windDir",
		"timestamp" :1555164000
		},
	"2019-04-13T19:00:00+01:00" : {
		"windSpeed" : 3.8,
		"windDir" : 66,
		"rain" : 0,
		"cloudbase" : null,
		"flyability" : 0,
		"reason" : "windDir",
		"timestamp" :1555174800
		},
	"2019-04-13T22:00:00+01:00" : {
		"windSpeed" : 2.1,
		"windDir" : 76,
		"rain" : 0,
		"cloudbase" : null,
		"flyability" : 0,
		"reason" : "windDir",
		"timestamp" :1555185600
		},
	"2019-04-14T01:00:00+01:00" : {
		"windSpeed" : 2.5,
		"windDir" : 90,
		"rain" : 0,
		"cloudbase" : 1050,
		"flyability" : 0,
		"reason" : "windDir",
		"timestamp" :1555196400
		}
	}
}