{
"site" : "Steinbach North airport, MB",
"id" : 13658,
"orientations" : "00000000",
"forecasts" : { 
	"2019-04-05T22:00:00-05:00" : {
		"windSpeed" : 2.3,
		"windDir" : 40,
		"rain" : 0,
		"cloudbase" : 992.47,
		"flyability" : 0,
		"reason" : "orientationsUnknown",
		"timestamp" :1554516000
		},
	"2019-04-06T01:00:00-05:00" : {
		"windSpeed" : 2.1,
		"windDir" : 55,
		"rain" : 0,
		"cloudbase" : 8162.1324,
		"flyability" : 0,
		"reason" : "orientationsUnknown",
		"timestamp" :1554526800
		},
	"2019-04-06T04:00:00-05:00" : {
		"windSpeed" : 2.2,
		"windDir" : 63,
		"rain" : 0,
		"cloudbase" : null,
		"flyability" : 0,
		"reason" : "orientationsUnknown",
		"timestamp" :1554537600
		},
	"2019-04-06T07:00:00-05:00" : {
		"windSpeed" : 2.8,
		"windDir" : 80,
		"rain" : 0,
		"cloudbase" : 4089.7176,
		"flyability" : 0,
		"reason" : "orientationsUnknown",
		"timestamp" :1554548400
		},
	"2019-04-06T10:00:00-05:00" : {
		"windSpeed" : 3,
		"windDir" : 81,
		"rain" : 0,
		"cloudbase" : 7100,
		"flyability" : 0,
		"reason" : "orientationsUnknown",
		"timestamp" :1554559200
		},
	"2019-04-06T13:00:00-05:00" : {
		"windSpeed" : 3.8,
		"windDir" : 102,
		"rain" : 0,
		"cloudbase" : 6800,
		"flyability" : 0,
		"reason" : "orientationsUnknown",
		"timestamp" :1554570000
		},
	"2019-04-06T16:00:00-05:00" : {
		"windSpeed" : 4.3,
		"windDir" : 98,
		"rain" : 0,
		"cloudbase" : 4944.0486,
		"flyability" : 0,
		"reason" : "orientationsUnknown",
		"timestamp" :1554580800
		},
	"2019-04-06T19:00:00-05:00" : {
		"windSpeed" : 4.3,
		"windDir" : 83,
		"rain" : 0,
		"cloudbase" : null,
		"flyability" : 0,
		"reason" : "orientationsUnknown",
		"timestamp" :1554591600
		},
	"2019-04-06T22:00:00-05:00" : {
		"windSpeed" : 5.1,
		"windDir" : 110,
		"rain" : 0,
		"cloudbase" : 1941.1267999996,
		"flyability" : 0,
		"reason" : "windSpeed, orientationsUnknown",
		"timestamp" :1554602400
		},
	"2019-04-07T01:00:00-05:00" : {
		"windSpeed" : 4,
		"windDir" : 129,
		"rain" : 1,
		"cloudbase" : 547.51999999999,
		"flyability" : 0,
		"reason" : "orientationsUnknown, rain",
		"timestamp" :1554613200
		},
	"2019-04-07T04:00:00-05:00" : {
		"windSpeed" : 2.3,
		"windDir" : 130,
		"rain" : 1,
		"cloudbase" : 701.31184,
		"flyability" : 0,
		"reason" : "orientationsUnknown, rain",
		"timestamp" :1554624000
		},
	"2019-04-07T07:00:00-05:00" : {
		"windSpeed" : 1.4,
		"windDir" : 198,
		"rain" : 1,
		"cloudbase" : 316.12676,
		"flyability" : 0,
		"reason" : "orientationsUnknown, rain",
		"timestamp" :1554634800
		},
	"2019-04-07T10:00:00-05:00" : {
		"windSpeed" : 1.8,
		"windDir" : 254,
		"rain" : 1,
		"cloudbase" : 104.24676,
		"flyability" : 0,
		"reason" : "orientationsUnknown, rain, cloudbase",
		"timestamp" :1554645600
		},
	"2019-04-07T13:00:00-05:00" : {
		"windSpeed" : 3.8,
		"windDir" : 262,
		"rain" : 0,
		"cloudbase" : 465.56704000001,
		"flyability" : 0,
		"reason" : "orientationsUnknown",
		"timestamp" :1554656400
		},
	"2019-04-07T16:00:00-05:00" : {
		"windSpeed" : 4.8,
		"windDir" : 251,
		"rain" : 1,
		"cloudbase" : 6259.2670000004,
		"flyability" : 0,
		"reason" : "orientationsUnknown, rain",
		"timestamp" :1554667200
		},
	"2019-04-07T19:00:00-05:00" : {
		"windSpeed" : 3,
		"windDir" : 336,
		"rain" : 1,
		"cloudbase" : 6200.8648,
		"flyability" : 0,
		"reason" : "orientationsUnknown, rain",
		"timestamp" :1554678000
		},
	"2019-04-07T22:00:00-05:00" : {
		"windSpeed" : 2.6,
		"windDir" : 332,
		"rain" : 1,
		"cloudbase" : null,
		"flyability" : 0,
		"reason" : "orientationsUnknown, rain",
		"timestamp" :1554688800
		},
	"2019-04-08T01:00:00-05:00" : {
		"windSpeed" : 1.6,
		"windDir" : 320,
		"rain" : 0,
		"cloudbase" : 30,
		"flyability" : 0,
		"reason" : "orientationsUnknown, cloudbase",
		"timestamp" :1554699600
		},
	"2019-04-08T04:00:00-05:00" : {
		"windSpeed" : 0.8,
		"windDir" : 220,
		"rain" : 0,
		"cloudbase" : 30,
		"flyability" : 0,
		"reason" : "orientationsUnknown, cloudbase",
		"timestamp" :1554710400
		},
	"2019-04-08T07:00:00-05:00" : {
		"windSpeed" : 1.4,
		"windDir" : 136,
		"rain" : 0,
		"cloudbase" : 30,
		"flyability" : 0,
		"reason" : "orientationsUnknown, cloudbase",
		"timestamp" :1554721200
		},
	"2019-04-08T10:00:00-05:00" : {
		"windSpeed" : 1.2,
		"windDir" : 320,
		"rain" : 0,
		"cloudbase" : 30,
		"flyability" : 0,
		"reason" : "orientationsUnknown, cloudbase",
		"timestamp" :1554732000
		},
	"2019-04-08T13:00:00-05:00" : {
		"windSpeed" : 3.6,
		"windDir" : 326,
		"rain" : 0,
		"cloudbase" : 79.060000000001,
		"flyability" : 0,
		"reason" : "orientationsUnknown, cloudbase",
		"timestamp" :1554742800
		},
	"2019-04-08T16:00:00-05:00" : {
		"windSpeed" : 5.8,
		"windDir" : 335,
		"rain" : 0,
		"cloudbase" : 876.29352000001,
		"flyability" : 0,
		"reason" : "windSpeed, orientationsUnknown",
		"timestamp" :1554753600
		},
	"2019-04-08T19:00:00-05:00" : {
		"windSpeed" : 5.5,
		"windDir" : 2,
		"rain" : 0,
		"cloudbase" : 1700,
		"flyability" : 0,
		"reason" : "windSpeed, orientationsUnknown",
		"timestamp" :1554764400
		},
	"2019-04-08T22:00:00-05:00" : {
		"windSpeed" : 3.8,
		"windDir" : 8,
		"rain" : 0,
		"cloudbase" : 664.73352,
		"flyability" : 0,
		"reason" : "orientationsUnknown",
		"timestamp" :1554775200
		},
	"2019-04-09T01:00:00-05:00" : {
		"windSpeed" : 3,
		"windDir" : 25,
		"rain" : 0,
		"cloudbase" : null,
		"flyability" : 0,
		"reason" : "orientationsUnknown",
		"timestamp" :1554786000
		},
	"2019-04-09T04:00:00-05:00" : {
		"windSpeed" : 2,
		"windDir" : 60,
		"rain" : 0,
		"cloudbase" : null,
		"flyability" : 0,
		"reason" : "orientationsUnknown",
		"timestamp" :1554796800
		},
	"2019-04-09T07:00:00-05:00" : {
		"windSpeed" : 2.7,
		"windDir" : 68,
		"rain" : 0,
		"cloudbase" : null,
		"flyability" : 0,
		"reason" : "orientationsUnknown",
		"timestamp" :1554807600
		},
	"2019-04-09T10:00:00-05:00" : {
		"windSpeed" : 4,
		"windDir" : 83,
		"rain" : 0,
		"cloudbase" : 8222.5352,
		"flyability" : 0,
		"reason" : "orientationsUnknown",
		"timestamp" :1554818400
		},
	"2019-04-09T13:00:00-05:00" : {
		"windSpeed" : 3,
		"windDir" : 90,
		"rain" : 0,
		"cloudbase" : null,
		"flyability" : 0,
		"reason" : "orientationsUnknown",
		"timestamp" :1554829200
		},
	"2019-04-09T16:00:00-05:00" : {
		"windSpeed" : 3.6,
		"windDir" : 102,
		"rain" : 0,
		"cloudbase" : 8447.9324,
		"flyability" : 0,
		"reason" : "orientationsUnknown",
		"timestamp" :1554840000
		},
	"2019-04-09T19:00:00-05:00" : {
		"windSpeed" : 3.5,
		"windDir" : 94,
		"rain" : 0,
		"cloudbase" : 8343.3324,
		"flyability" : 0,
		"reason" : "orientationsUnknown",
		"timestamp" :1554850800
		},
	"2019-04-09T22:00:00-05:00" : {
		"windSpeed" : 2.5,
		"windDir" : 96,
		"rain" : 0,
		"cloudbase" : 8100,
		"flyability" : 0,
		"reason" : "orientationsUnknown",
		"timestamp" :1554861600
		},
	"2019-04-10T01:00:00-05:00" : {
		"windSpeed" : 3,
		"windDir" : 99,
		"rain" : 0,
		"cloudbase" : 7343.1,
		"flyability" : 0,
		"reason" : "orientationsUnknown",
		"timestamp" :1554872400
		},
	"2019-04-10T04:00:00-05:00" : {
		"windSpeed" : 3.5,
		"windDir" : 98,
		"rain" : 0,
		"cloudbase" : 9152.3,
		"flyability" : 0,
		"reason" : "orientationsUnknown",
		"timestamp" :1554883200
		},
	"2019-04-10T07:00:00-05:00" : {
		"windSpeed" : 3.5,
		"windDir" : 98,
		"rain" : 0,
		"cloudbase" : 8852.3,
		"flyability" : 0,
		"reason" : "orientationsUnknown",
		"timestamp" :1554894000
		},
	"2019-04-10T10:00:00-05:00" : {
		"windSpeed" : 3.7,
		"windDir" : 90,
		"rain" : 0,
		"cloudbase" : null,
		"flyability" : 0,
		"reason" : "orientationsUnknown",
		"timestamp" :1554904800
		},
	"2019-04-10T13:00:00-05:00" : {
		"windSpeed" : 5.3,
		"windDir" : 85,
		"rain" : 0,
		"cloudbase" : 7356.9,
		"flyability" : 0,
		"reason" : "windSpeed, orientationsUnknown",
		"timestamp" :1554915600
		},
	"2019-04-10T16:00:00-05:00" : {
		"windSpeed" : 6,
		"windDir" : 90,
		"rain" : 0,
		"cloudbase" : 8061.2676,
		"flyability" : 0,
		"reason" : "windSpeed, orientationsUnknown",
		"timestamp" :1554926400
		},
	"2019-04-10T19:00:00-05:00" : {
		"windSpeed" : 5.6,
		"windDir" : 80,
		"rain" : 0,
		"cloudbase" : 7752.3,
		"flyability" : 0,
		"reason" : "windSpeed, orientationsUnknown",
		"timestamp" :1554937200
		},
	"2019-04-10T22:00:00-05:00" : {
		"windSpeed" : 4.2,
		"windDir" : 72,
		"rain" : 0,
		"cloudbase" : 7252.3,
		"flyability" : 0,
		"reason" : "orientationsUnknown",
		"timestamp" :1554948000
		},
	"2019-04-11T01:00:00-05:00" : {
		"windSpeed" : 5,
		"windDir" : 70,
		"rain" : 0,
		"cloudbase" : 6865.8676,
		"flyability" : 0,
		"reason" : "orientationsUnknown",
		"timestamp" :1554958800
		},
	"2019-04-11T04:00:00-05:00" : {
		"windSpeed" : 5.5,
		"windDir" : 72,
		"rain" : 1,
		"cloudbase" : 6556.9,
		"flyability" : 0,
		"reason" : "windSpeed, orientationsUnknown, rain",
		"timestamp" :1554969600
		},
	"2019-04-11T07:00:00-05:00" : {
		"windSpeed" : 5.9,
		"windDir" : 63,
		"rain" : 0,
		"cloudbase" : 6265.8676,
		"flyability" : 0,
		"reason" : "windSpeed, orientationsUnknown",
		"timestamp" :1554980400
		},
	"2019-04-11T10:00:00-05:00" : {
		"windSpeed" : 6.8,
		"windDir" : 67,
		"rain" : 0,
		"cloudbase" : 6100,
		"flyability" : 0,
		"reason" : "windSpeed, orientationsUnknown",
		"timestamp" :1554991200
		},
	"2019-04-11T13:00:00-05:00" : {
		"windSpeed" : 7.6,
		"windDir" : 63,
		"rain" : 0,
		"cloudbase" : 6034.3648,
		"flyability" : 0,
		"reason" : "windSpeed, orientationsUnknown",
		"timestamp" :1555002000
		},
	"2019-04-11T16:00:00-05:00" : {
		"windSpeed" : 7.8,
		"windDir" : 53,
		"rain" : 0,
		"cloudbase" : 5800,
		"flyability" : 0,
		"reason" : "windSpeed, orientationsUnknown",
		"timestamp" :1555012800
		},
	"2019-04-11T19:00:00-05:00" : {
		"windSpeed" : 7,
		"windDir" : 55,
		"rain" : 0,
		"cloudbase" : 5647.0676,
		"flyability" : 0,
		"reason" : "windSpeed, orientationsUnknown",
		"timestamp" :1555023600
		}
	}
}