{
"site" : "Pico do Areeiro",
"id" : 13654,
"orientations" : "00000000",
"forecasts" : { 
	"2019-04-08T04:00:00+01:00" : {
		"windSpeed" : 1.5,
		"windDir" : 258,
		"rain" : 0,
		"cloudbase" : null,
		"flyability" : -50,
		"reason" : "orientationsUnknown",
		"timestamp" :1554688800
		},
	"2019-04-08T07:00:00+01:00" : {
		"windSpeed" : 1.4,
		"windDir" : 265,
		"rain" : 1,
		"cloudbase" : null,
		"flyability" : -0,
		"reason" : "orientationsUnknown, rain",
		"timestamp" :1554699600
		},
	"2019-04-08T10:00:00+01:00" : {
		"windSpeed" : 2.3,
		"windDir" : 332,
		"rain" : 1,
		"cloudbase" : 295.99249999998,
		"flyability" : -0,
		"reason" : "orientationsUnknown, rain, cloudbase",
		"timestamp" :1554710400
		},
	"2019-04-08T13:00:00+01:00" : {
		"windSpeed" : 1.8,
		"windDir" : 347,
		"rain" : 1,
		"cloudbase" : 645.425,
		"flyability" : -0,
		"reason" : "orientationsUnknown, rain, cloudbase",
		"timestamp" :1554721200
		},
	"2019-04-08T16:00:00+01:00" : {
		"windSpeed" : 1.3,
		"windDir" : 313,
		"rain" : 1,
		"cloudbase" : 2879.5750000002,
		"flyability" : -0,
		"reason" : "orientationsUnknown, rain",
		"timestamp" :1554732000
		},
	"2019-04-08T19:00:00+01:00" : {
		"windSpeed" : 0.9,
		"windDir" : 323,
		"rain" : 1,
		"cloudbase" : 4230.9500000003,
		"flyability" : -0,
		"reason" : "orientationsUnknown, rain",
		"timestamp" :1554742800
		},
	"2019-04-08T22:00:00+01:00" : {
		"windSpeed" : 1,
		"windDir" : 14,
		"rain" : 1,
		"cloudbase" : 3105.5200000001,
		"flyability" : -0,
		"reason" : "orientationsUnknown, rain",
		"timestamp" :1554753600
		},
	"2019-04-09T01:00:00+01:00" : {
		"windSpeed" : 1,
		"windDir" : 23,
		"rain" : 1,
		"cloudbase" : 3562.72,
		"flyability" : -0,
		"reason" : "orientationsUnknown, rain",
		"timestamp" :1554764400
		},
	"2019-04-09T04:00:00+01:00" : {
		"windSpeed" : 0.9,
		"windDir" : 25,
		"rain" : 0,
		"cloudbase" : 6958.15,
		"flyability" : -50,
		"reason" : "orientationsUnknown",
		"timestamp" :1554775200
		},
	"2019-04-09T07:00:00+01:00" : {
		"windSpeed" : 1.2,
		"windDir" : 6,
		"rain" : 0,
		"cloudbase" : 6549.85,
		"flyability" : -50,
		"reason" : "orientationsUnknown",
		"timestamp" :1554786000
		},
	"2019-04-09T10:00:00+01:00" : {
		"windSpeed" : 2,
		"windDir" : 35,
		"rain" : 1,
		"cloudbase" : null,
		"flyability" : -0,
		"reason" : "orientationsUnknown, rain",
		"timestamp" :1554796800
		},
	"2019-04-09T13:00:00+01:00" : {
		"windSpeed" : 1.7,
		"windDir" : 60,
		"rain" : 1,
		"cloudbase" : 1001.66,
		"flyability" : -0,
		"reason" : "orientationsUnknown, rain, cloudbase",
		"timestamp" :1554807600
		},
	"2019-04-09T16:00:00+01:00" : {
		"windSpeed" : 1.7,
		"windDir" : 73,
		"rain" : 1,
		"cloudbase" : 781.64000000002,
		"flyability" : -0,
		"reason" : "orientationsUnknown, rain, cloudbase",
		"timestamp" :1554818400
		},
	"2019-04-09T19:00:00+01:00" : {
		"windSpeed" : 1.7,
		"windDir" : 40,
		"rain" : 1,
		"cloudbase" : 554.40999999999,
		"flyability" : -0,
		"reason" : "orientationsUnknown, rain, cloudbase",
		"timestamp" :1554829200
		},
	"2019-04-09T22:00:00+01:00" : {
		"windSpeed" : 1.8,
		"windDir" : 32,
		"rain" : 1,
		"cloudbase" : 502.54500000001,
		"flyability" : -0,
		"reason" : "orientationsUnknown, rain, cloudbase",
		"timestamp" :1554840000
		},
	"2019-04-10T01:00:00+01:00" : {
		"windSpeed" : 1.6,
		"windDir" : 17,
		"rain" : 0,
		"cloudbase" : 320,
		"flyability" : -0,
		"reason" : "orientationsUnknown, cloudbase",
		"timestamp" :1554850800
		},
	"2019-04-10T04:00:00+01:00" : {
		"windSpeed" : 1.9,
		"windDir" : 34,
		"rain" : 1,
		"cloudbase" : 517.07499999995,
		"flyability" : -0,
		"reason" : "orientationsUnknown, rain, cloudbase",
		"timestamp" :1554861600
		},
	"2019-04-10T07:00:00+01:00" : {
		"windSpeed" : 1.8,
		"windDir" : 26,
		"rain" : 1,
		"cloudbase" : null,
		"flyability" : -0,
		"reason" : "orientationsUnknown, rain",
		"timestamp" :1554872400
		},
	"2019-04-10T10:00:00+01:00" : {
		"windSpeed" : 2.6,
		"windDir" : 43,
		"rain" : 0,
		"cloudbase" : 760,
		"flyability" : -0,
		"reason" : "orientationsUnknown, cloudbase",
		"timestamp" :1554883200
		},
	"2019-04-10T13:00:00+01:00" : {
		"windSpeed" : 2.5,
		"windDir" : 47,
		"rain" : 1,
		"cloudbase" : 904.82500000002,
		"flyability" : -0,
		"reason" : "orientationsUnknown, rain, cloudbase",
		"timestamp" :1554894000
		},
	"2019-04-10T16:00:00+01:00" : {
		"windSpeed" : 2.1,
		"windDir" : 36,
		"rain" : 0,
		"cloudbase" : 665.37,
		"flyability" : -0,
		"reason" : "orientationsUnknown, cloudbase",
		"timestamp" :1554904800
		},
	"2019-04-10T19:00:00+01:00" : {
		"windSpeed" : 1.7,
		"windDir" : 32,
		"rain" : 1,
		"cloudbase" : 8638.7999999997,
		"flyability" : -0,
		"reason" : "orientationsUnknown, rain",
		"timestamp" :1554915600
		},
	"2019-04-10T22:00:00+01:00" : {
		"windSpeed" : 1.1,
		"windDir" : 29,
		"rain" : 0,
		"cloudbase" : 8944.85,
		"flyability" : -50,
		"reason" : "orientationsUnknown",
		"timestamp" :1554926400
		},
	"2019-04-11T01:00:00+01:00" : {
		"windSpeed" : 1.3,
		"windDir" : 1,
		"rain" : 0,
		"cloudbase" : null,
		"flyability" : -50,
		"reason" : "orientationsUnknown",
		"timestamp" :1554937200
		},
	"2019-04-11T04:00:00+01:00" : {
		"windSpeed" : 1.1,
		"windDir" : 25,
		"rain" : 0,
		"cloudbase" : null,
		"flyability" : -50,
		"reason" : "orientationsUnknown",
		"timestamp" :1554948000
		},
	"2019-04-11T07:00:00+01:00" : {
		"windSpeed" : 1.2,
		"windDir" : 22,
		"rain" : 0,
		"cloudbase" : null,
		"flyability" : -50,
		"reason" : "orientationsUnknown",
		"timestamp" :1554958800
		},
	"2019-04-11T10:00:00+01:00" : {
		"windSpeed" : 1.4,
		"windDir" : 24,
		"rain" : 1,
		"cloudbase" : 5249.9249999997,
		"flyability" : -0,
		"reason" : "orientationsUnknown, rain",
		"timestamp" :1554969600
		},
	"2019-04-11T13:00:00+01:00" : {
		"windSpeed" : 0.9,
		"windDir" : 22,
		"rain" : 1,
		"cloudbase" : 1493.9249999999,
		"flyability" : -0,
		"reason" : "orientationsUnknown, rain, cloudbase",
		"timestamp" :1554980400
		},
	"2019-04-11T16:00:00+01:00" : {
		"windSpeed" : 0.7,
		"windDir" : 2,
		"rain" : 0,
		"cloudbase" : 842.96999999999,
		"flyability" : -0,
		"reason" : "orientationsUnknown, cloudbase",
		"timestamp" :1554991200
		},
	"2019-04-11T19:00:00+01:00" : {
		"windSpeed" : 1.2,
		"windDir" : 352,
		"rain" : 0,
		"cloudbase" : 720,
		"flyability" : -0,
		"reason" : "orientationsUnknown, cloudbase",
		"timestamp" :1555002000
		},
	"2019-04-11T22:00:00+01:00" : {
		"windSpeed" : 1.6,
		"windDir" : 356,
		"rain" : 0,
		"cloudbase" : null,
		"flyability" : -50,
		"reason" : "orientationsUnknown",
		"timestamp" :1555012800
		},
	"2019-04-12T01:00:00+01:00" : {
		"windSpeed" : 1.5,
		"windDir" : 358,
		"rain" : 0,
		"cloudbase" : null,
		"flyability" : -50,
		"reason" : "orientationsUnknown",
		"timestamp" :1555023600
		},
	"2019-04-12T04:00:00+01:00" : {
		"windSpeed" : 1.2,
		"windDir" : 0,
		"rain" : 0,
		"cloudbase" : null,
		"flyability" : -50,
		"reason" : "orientationsUnknown",
		"timestamp" :1555034400
		},
	"2019-04-12T07:00:00+01:00" : {
		"windSpeed" : 1.3,
		"windDir" : 335,
		"rain" : 0,
		"cloudbase" : null,
		"flyability" : -50,
		"reason" : "orientationsUnknown",
		"timestamp" :1555045200
		},
	"2019-04-12T10:00:00+01:00" : {
		"windSpeed" : 1.7,
		"windDir" : 8,
		"rain" : 0,
		"cloudbase" : null,
		"flyability" : -50,
		"reason" : "orientationsUnknown",
		"timestamp" :1555056000
		},
	"2019-04-12T13:00:00+01:00" : {
		"windSpeed" : 1.3,
		"windDir" : 13,
		"rain" : 0,
		"cloudbase" : 12845,
		"flyability" : -50,
		"reason" : "orientationsUnknown",
		"timestamp" :1555066800
		},
	"2019-04-12T16:00:00+01:00" : {
		"windSpeed" : 1.3,
		"windDir" : 29,
		"rain" : 0,
		"cloudbase" : null,
		"flyability" : -50,
		"reason" : "orientationsUnknown",
		"timestamp" :1555077600
		},
	"2019-04-12T19:00:00+01:00" : {
		"windSpeed" : 0.7,
		"windDir" : 30,
		"rain" : 0,
		"cloudbase" : null,
		"flyability" : -50,
		"reason" : "orientationsUnknown",
		"timestamp" :1555088400
		},
	"2019-04-12T22:00:00+01:00" : {
		"windSpeed" : 0.9,
		"windDir" : 349,
		"rain" : 0,
		"cloudbase" : 10345,
		"flyability" : -50,
		"reason" : "orientationsUnknown",
		"timestamp" :1555099200
		},
	"2019-04-13T01:00:00+01:00" : {
		"windSpeed" : 0.9,
		"windDir" : 349,
		"rain" : 1,
		"cloudbase" : 11000,
		"flyability" : -0,
		"reason" : "orientationsUnknown, rain",
		"timestamp" :1555110000
		},
	"2019-04-13T04:00:00+01:00" : {
		"windSpeed" : 0.9,
		"windDir" : 349,
		"rain" : 0,
		"cloudbase" : null,
		"flyability" : -50,
		"reason" : "orientationsUnknown",
		"timestamp" :1555120800
		},
	"2019-04-13T07:00:00+01:00" : {
		"windSpeed" : 0.4,
		"windDir" : 354,
		"rain" : 0,
		"cloudbase" : null,
		"flyability" : -50,
		"reason" : "orientationsUnknown",
		"timestamp" :1555131600
		},
	"2019-04-13T10:00:00+01:00" : {
		"windSpeed" : 0.6,
		"windDir" : 73,
		"rain" : 0,
		"cloudbase" : null,
		"flyability" : -50,
		"reason" : "orientationsUnknown",
		"timestamp" :1555142400
		},
	"2019-04-13T13:00:00+01:00" : {
		"windSpeed" : 1.6,
		"windDir" : 122,
		"rain" : 0,
		"cloudbase" : 8746.0499999993,
		"flyability" : -50,
		"reason" : "orientationsUnknown",
		"timestamp" :1555153200
		},
	"2019-04-13T16:00:00+01:00" : {
		"windSpeed" : 1.4,
		"windDir" : 119,
		"rain" : 0,
		"cloudbase" : 666.22999999999,
		"flyability" : -0,
		"reason" : "orientationsUnknown, cloudbase",
		"timestamp" :1555164000
		},
	"2019-04-13T19:00:00+01:00" : {
		"windSpeed" : 0.9,
		"windDir" : 114,
		"rain" : 0,
		"cloudbase" : 543.07499999999,
		"flyability" : -0,
		"reason" : "orientationsUnknown, cloudbase",
		"timestamp" :1555174800
		},
	"2019-04-13T22:00:00+01:00" : {
		"windSpeed" : 0.4,
		"windDir" : 104,
		"rain" : 0,
		"cloudbase" : 400,
		"flyability" : -0,
		"reason" : "orientationsUnknown, cloudbase",
		"timestamp" :1555185600
		},
	"2019-04-14T01:00:00+01:00" : {
		"windSpeed" : 0.3,
		"windDir" : 208,
		"rain" : 0,
		"cloudbase" : 5600,
		"flyability" : -50,
		"reason" : "orientationsUnknown",
		"timestamp" :1555196400
		}
	}
}