{
"site" : "Mount Guntur",
"id" : 14054,
"orientations" : "00000000",
"forecasts" : { 
	"2019-04-22T10:00:00+07:00" : {
		"windSpeed" : 1.1,
		"windDir" : 112,
		"rain" : 0,
		"cloudbase" : 8952.906,
		"flyability" : -50,
		"reason" : "orientationsUnknown",
		"timestamp" :1555898400
		},
	"2019-04-22T13:00:00+07:00" : {
		"windSpeed" : 2.1,
		"windDir" : 117,
		"rain" : 1,
		"cloudbase" : null,
		"flyability" : -0,
		"reason" : "orientationsUnknown, rain",
		"timestamp" :1555909200
		},
	"2019-04-22T16:00:00+07:00" : {
		"windSpeed" : 1.6,
		"windDir" : 151,
		"rain" : 1,
		"cloudbase" : 980,
		"flyability" : -0,
		"reason" : "orientationsUnknown, rain, cloudbase",
		"timestamp" :1555920000
		},
	"2019-04-22T19:00:00+07:00" : {
		"windSpeed" : 0.9,
		"windDir" : 174,
		"rain" : 1,
		"cloudbase" : null,
		"flyability" : -0,
		"reason" : "orientationsUnknown, rain",
		"timestamp" :1555930800
		},
	"2019-04-22T22:00:00+07:00" : {
		"windSpeed" : 0.9,
		"windDir" : 193,
		"rain" : 0,
		"cloudbase" : null,
		"flyability" : -50,
		"reason" : "orientationsUnknown",
		"timestamp" :1555941600
		},
	"2019-04-23T01:00:00+07:00" : {
		"windSpeed" : 0.9,
		"windDir" : 185,
		"rain" : 0,
		"cloudbase" : 200,
		"flyability" : -0,
		"reason" : "orientationsUnknown, cloudbase",
		"timestamp" :1555952400
		},
	"2019-04-23T04:00:00+07:00" : {
		"windSpeed" : 1,
		"windDir" : 184,
		"rain" : 0,
		"cloudbase" : 6140.3474000013,
		"flyability" : -50,
		"reason" : "orientationsUnknown",
		"timestamp" :1555963200
		},
	"2019-04-23T07:00:00+07:00" : {
		"windSpeed" : 1.4,
		"windDir" : 162,
		"rain" : 0,
		"cloudbase" : 9947.7240000011,
		"flyability" : -50,
		"reason" : "orientationsUnknown",
		"timestamp" :1555974000
		},
	"2019-04-23T10:00:00+07:00" : {
		"windSpeed" : 1.7,
		"windDir" : 135,
		"rain" : 0,
		"cloudbase" : null,
		"flyability" : -50,
		"reason" : "orientationsUnknown",
		"timestamp" :1555984800
		},
	"2019-04-23T13:00:00+07:00" : {
		"windSpeed" : 2.2,
		"windDir" : 108,
		"rain" : 1,
		"cloudbase" : 13205.952,
		"flyability" : -0,
		"reason" : "orientationsUnknown, rain",
		"timestamp" :1555995600
		},
	"2019-04-23T16:00:00+07:00" : {
		"windSpeed" : 1,
		"windDir" : 71,
		"rain" : 0,
		"cloudbase" : 9303.3719999997,
		"flyability" : -50,
		"reason" : "orientationsUnknown",
		"timestamp" :1556006400
		},
	"2019-04-23T19:00:00+07:00" : {
		"windSpeed" : 0.7,
		"windDir" : 148,
		"rain" : 1,
		"cloudbase" : 1181.3094000003,
		"flyability" : -0,
		"reason" : "orientationsUnknown, rain, cloudbase",
		"timestamp" :1556017200
		},
	"2019-04-23T22:00:00+07:00" : {
		"windSpeed" : 0.7,
		"windDir" : 145,
		"rain" : 1,
		"cloudbase" : 4393.9526000009,
		"flyability" : -0,
		"reason" : "orientationsUnknown, rain",
		"timestamp" :1556028000
		},
	"2019-04-24T01:00:00+07:00" : {
		"windSpeed" : 0.9,
		"windDir" : 305,
		"rain" : 1,
		"cloudbase" : 1732.8715999996,
		"flyability" : -0,
		"reason" : "orientationsUnknown, rain",
		"timestamp" :1556038800
		},
	"2019-04-24T04:00:00+07:00" : {
		"windSpeed" : 0.6,
		"windDir" : 137,
		"rain" : 1,
		"cloudbase" : 6938.718,
		"flyability" : -0,
		"reason" : "orientationsUnknown, rain",
		"timestamp" :1556049600
		},
	"2019-04-24T07:00:00+07:00" : {
		"windSpeed" : 0.3,
		"windDir" : 226,
		"rain" : 1,
		"cloudbase" : 11884.46,
		"flyability" : -0,
		"reason" : "orientationsUnknown, rain",
		"timestamp" :1556060400
		},
	"2019-04-24T10:00:00+07:00" : {
		"windSpeed" : 0.6,
		"windDir" : 69,
		"rain" : 0,
		"cloudbase" : 11122.968,
		"flyability" : -50,
		"reason" : "orientationsUnknown",
		"timestamp" :1556071200
		},
	"2019-04-24T13:00:00+07:00" : {
		"windSpeed" : 1.7,
		"windDir" : 36,
		"rain" : 1,
		"cloudbase" : 7877.8210000009,
		"flyability" : -0,
		"reason" : "orientationsUnknown, rain",
		"timestamp" :1556082000
		},
	"2019-04-24T16:00:00+07:00" : {
		"windSpeed" : 0.2,
		"windDir" : 8,
		"rain" : 1,
		"cloudbase" : 5646.3344000008,
		"flyability" : -0,
		"reason" : "orientationsUnknown, rain",
		"timestamp" :1556092800
		},
	"2019-04-24T19:00:00+07:00" : {
		"windSpeed" : 0.4,
		"windDir" : 234,
		"rain" : 0,
		"cloudbase" : 9823.108,
		"flyability" : -50,
		"reason" : "orientationsUnknown",
		"timestamp" :1556103600
		},
	"2019-04-24T22:00:00+07:00" : {
		"windSpeed" : 0.6,
		"windDir" : 160,
		"rain" : 1,
		"cloudbase" : 5616.2940000009,
		"flyability" : -0,
		"reason" : "orientationsUnknown, rain",
		"timestamp" :1556114400
		},
	"2019-04-25T01:00:00+07:00" : {
		"windSpeed" : 0.7,
		"windDir" : 205,
		"rain" : 1,
		"cloudbase" : 11511.15,
		"flyability" : -0,
		"reason" : "orientationsUnknown, rain",
		"timestamp" :1556125200
		},
	"2019-04-25T04:00:00+07:00" : {
		"windSpeed" : 0.7,
		"windDir" : 220,
		"rain" : 0,
		"cloudbase" : 10602.37,
		"flyability" : -50,
		"reason" : "orientationsUnknown",
		"timestamp" :1556136000
		},
	"2019-04-25T07:00:00+07:00" : {
		"windSpeed" : 0.9,
		"windDir" : 186,
		"rain" : 0,
		"cloudbase" : 12000,
		"flyability" : -50,
		"reason" : "orientationsUnknown",
		"timestamp" :1556146800
		},
	"2019-04-25T10:00:00+07:00" : {
		"windSpeed" : 1.6,
		"windDir" : 104,
		"rain" : 0,
		"cloudbase" : 12384.46,
		"flyability" : -50,
		"reason" : "orientationsUnknown",
		"timestamp" :1556157600
		},
	"2019-04-25T13:00:00+07:00" : {
		"windSpeed" : 1.4,
		"windDir" : 84,
		"rain" : 1,
		"cloudbase" : 4886.7600000006,
		"flyability" : -0,
		"reason" : "orientationsUnknown, rain",
		"timestamp" :1556168400
		},
	"2019-04-25T16:00:00+07:00" : {
		"windSpeed" : 0.5,
		"windDir" : 87,
		"rain" : 0,
		"cloudbase" : 1731.5216000003,
		"flyability" : -50,
		"reason" : "orientationsUnknown",
		"timestamp" :1556179200
		},
	"2019-04-25T19:00:00+07:00" : {
		"windSpeed" : 0.5,
		"windDir" : 170,
		"rain" : 1,
		"cloudbase" : 4657.7269999991,
		"flyability" : -0,
		"reason" : "orientationsUnknown, rain",
		"timestamp" :1556190000
		},
	"2019-04-25T22:00:00+07:00" : {
		"windSpeed" : 0.6,
		"windDir" : 129,
		"rain" : 1,
		"cloudbase" : 1637.0212000003,
		"flyability" : -0,
		"reason" : "orientationsUnknown, rain",
		"timestamp" :1556200800
		},
	"2019-04-26T01:00:00+07:00" : {
		"windSpeed" : 0.7,
		"windDir" : 220,
		"rain" : 1,
		"cloudbase" : 4939.631,
		"flyability" : -0,
		"reason" : "orientationsUnknown, rain",
		"timestamp" :1556211600
		},
	"2019-04-26T04:00:00+07:00" : {
		"windSpeed" : 1,
		"windDir" : 175,
		"rain" : 1,
		"cloudbase" : 6045.074,
		"flyability" : -0,
		"reason" : "orientationsUnknown, rain",
		"timestamp" :1556222400
		},
	"2019-04-26T07:00:00+07:00" : {
		"windSpeed" : 1.3,
		"windDir" : 162,
		"rain" : 1,
		"cloudbase" : 15800,
		"flyability" : -0,
		"reason" : "orientationsUnknown, rain",
		"timestamp" :1556233200
		},
	"2019-04-26T10:00:00+07:00" : {
		"windSpeed" : 2,
		"windDir" : 127,
		"rain" : 0,
		"cloudbase" : 880,
		"flyability" : -0,
		"reason" : "orientationsUnknown, cloudbase",
		"timestamp" :1556244000
		},
	"2019-04-26T13:00:00+07:00" : {
		"windSpeed" : 1.3,
		"windDir" : 122,
		"rain" : 1,
		"cloudbase" : 11840.528,
		"flyability" : -0,
		"reason" : "orientationsUnknown, rain",
		"timestamp" :1556254800
		},
	"2019-04-26T16:00:00+07:00" : {
		"windSpeed" : 0.3,
		"windDir" : 117,
		"rain" : 0,
		"cloudbase" : 1028.1211999999,
		"flyability" : -0,
		"reason" : "orientationsUnknown, cloudbase",
		"timestamp" :1556265600
		},
	"2019-04-26T19:00:00+07:00" : {
		"windSpeed" : 1.2,
		"windDir" : 165,
		"rain" : 1,
		"cloudbase" : 5921.2629999999,
		"flyability" : -0,
		"reason" : "orientationsUnknown, rain",
		"timestamp" :1556276400
		},
	"2019-04-26T22:00:00+07:00" : {
		"windSpeed" : 1.3,
		"windDir" : 161,
		"rain" : 1,
		"cloudbase" : 2983.4688,
		"flyability" : -0,
		"reason" : "orientationsUnknown, rain",
		"timestamp" :1556287200
		},
	"2019-04-27T01:00:00+07:00" : {
		"windSpeed" : 0.6,
		"windDir" : 225,
		"rain" : 0,
		"cloudbase" : 11035.804,
		"flyability" : -50,
		"reason" : "orientationsUnknown",
		"timestamp" :1556298000
		},
	"2019-04-27T04:00:00+07:00" : {
		"windSpeed" : 0.5,
		"windDir" : 185,
		"rain" : 1,
		"cloudbase" : 11242.564,
		"flyability" : -0,
		"reason" : "orientationsUnknown, rain",
		"timestamp" :1556308800
		},
	"2019-04-27T07:00:00+07:00" : {
		"windSpeed" : 0.1,
		"windDir" : 270,
		"rain" : 0,
		"cloudbase" : 10583.776,
		"flyability" : -50,
		"reason" : "orientationsUnknown",
		"timestamp" :1556319600
		},
	"2019-04-27T10:00:00+07:00" : {
		"windSpeed" : 0.5,
		"windDir" : 78,
		"rain" : 1,
		"cloudbase" : 11800,
		"flyability" : -0,
		"reason" : "orientationsUnknown, rain",
		"timestamp" :1556330400
		},
	"2019-04-27T13:00:00+07:00" : {
		"windSpeed" : 1.8,
		"windDir" : 42,
		"rain" : 0,
		"cloudbase" : null,
		"flyability" : -50,
		"reason" : "orientationsUnknown",
		"timestamp" :1556341200
		},
	"2019-04-27T16:00:00+07:00" : {
		"windSpeed" : 1.2,
		"windDir" : 83,
		"rain" : 1,
		"cloudbase" : 680,
		"flyability" : -0,
		"reason" : "orientationsUnknown, rain, cloudbase",
		"timestamp" :1556352000
		},
	"2019-04-27T19:00:00+07:00" : {
		"windSpeed" : 1,
		"windDir" : 157,
		"rain" : 1,
		"cloudbase" : 1157.8260000001,
		"flyability" : -0,
		"reason" : "orientationsUnknown, rain, cloudbase",
		"timestamp" :1556362800
		},
	"2019-04-27T22:00:00+07:00" : {
		"windSpeed" : 0.9,
		"windDir" : 158,
		"rain" : 1,
		"cloudbase" : 2468.5429999998,
		"flyability" : -0,
		"reason" : "orientationsUnknown, rain",
		"timestamp" :1556373600
		},
	"2019-04-28T01:00:00+07:00" : {
		"windSpeed" : 0.4,
		"windDir" : 178,
		"rain" : 1,
		"cloudbase" : 3718.007,
		"flyability" : -0,
		"reason" : "orientationsUnknown, rain",
		"timestamp" :1556384400
		},
	"2019-04-28T04:00:00+07:00" : {
		"windSpeed" : 0.9,
		"windDir" : 200,
		"rain" : 0,
		"cloudbase" : null,
		"flyability" : -50,
		"reason" : "orientationsUnknown",
		"timestamp" :1556395200
		},
	"2019-04-28T07:00:00+07:00" : {
		"windSpeed" : 0.5,
		"windDir" : 169,
		"rain" : 0,
		"cloudbase" : null,
		"flyability" : -50,
		"reason" : "orientationsUnknown",
		"timestamp" :1556406000
		}
	}
}