{
"site" : "Aconeera or Cnoc Mordain",
"id" : 14338,
"orientations" : "00021002",
"forecasts" : { 
	"2019-04-14T04:00:00+01:00" : {
		"windSpeed" : 7.8,
		"windDir" : 110,
		"rain" : 1,
		"cloudbase" : 391.78048,
		"flyability" : 0,
		"reason" : "windSpeed, windDir, rain",
		"timestamp" :1555207200
		},
	"2019-04-14T07:00:00+01:00" : {
		"windSpeed" : 7.1,
		"windDir" : 109,
		"rain" : 1,
		"cloudbase" : 258.46072,
		"flyability" : 0,
		"reason" : "windSpeed, windDir, rain",
		"timestamp" :1555218000
		},
	"2019-04-14T10:00:00+01:00" : {
		"windSpeed" : 8.1,
		"windDir" : 128,
		"rain" : 1,
		"cloudbase" : 485.93904,
		"flyability" : 0,
		"reason" : "windSpeed, rain",
		"timestamp" :1555228800
		},
	"2019-04-14T13:00:00+01:00" : {
		"windSpeed" : 9.5,
		"windDir" : 139,
		"rain" : 1,
		"cloudbase" : 622.16047999999,
		"flyability" : 0,
		"reason" : "windSpeed, rain",
		"timestamp" :1555239600
		},
	"2019-04-14T16:00:00+01:00" : {
		"windSpeed" : 7.8,
		"windDir" : 127,
		"rain" : 1,
		"cloudbase" : 601.08048,
		"flyability" : 0,
		"reason" : "windSpeed, rain",
		"timestamp" :1555250400
		},
	"2019-04-14T19:00:00+01:00" : {
		"windSpeed" : 5.7,
		"windDir" : 97,
		"rain" : 0,
		"cloudbase" : 657.15903999999,
		"flyability" : 0,
		"reason" : "windSpeed, windDir",
		"timestamp" :1555261200
		},
	"2019-04-14T22:00:00+01:00" : {
		"windSpeed" : 6.5,
		"windDir" : 105,
		"rain" : 1,
		"cloudbase" : 1034.9006400001,
		"flyability" : 0,
		"reason" : "windSpeed, windDir, rain",
		"timestamp" :1555272000
		},
	"2019-04-15T01:00:00+01:00" : {
		"windSpeed" : 7,
		"windDir" : 104,
		"rain" : 1,
		"cloudbase" : 1873.4951999999,
		"flyability" : 0,
		"reason" : "windSpeed, windDir, rain",
		"timestamp" :1555282800
		},
	"2019-04-15T04:00:00+01:00" : {
		"windSpeed" : 8.3,
		"windDir" : 97,
		"rain" : 1,
		"cloudbase" : 1775.3988,
		"flyability" : 0,
		"reason" : "windSpeed, windDir, rain",
		"timestamp" :1555293600
		},
	"2019-04-15T07:00:00+01:00" : {
		"windSpeed" : 9.2,
		"windDir" : 99,
		"rain" : 1,
		"cloudbase" : 1293.1024,
		"flyability" : 0,
		"reason" : "windSpeed, windDir, rain",
		"timestamp" :1555304400
		},
	"2019-04-15T10:00:00+01:00" : {
		"windSpeed" : 9.8,
		"windDir" : 108,
		"rain" : 1,
		"cloudbase" : 1960.1639999999,
		"flyability" : 0,
		"reason" : "windSpeed, windDir, rain",
		"timestamp" :1555315200
		},
	"2019-04-15T13:00:00+01:00" : {
		"windSpeed" : 11.1,
		"windDir" : 114,
		"rain" : 1,
		"cloudbase" : 3451.3156,
		"flyability" : 0,
		"reason" : "windSpeed, rain",
		"timestamp" :1555326000
		},
	"2019-04-15T16:00:00+01:00" : {
		"windSpeed" : 11.2,
		"windDir" : 119,
		"rain" : 1,
		"cloudbase" : 1296.3976,
		"flyability" : 0,
		"reason" : "windSpeed, rain",
		"timestamp" :1555336800
		},
	"2019-04-15T19:00:00+01:00" : {
		"windSpeed" : 9.3,
		"windDir" : 135,
		"rain" : 1,
		"cloudbase" : 1180.98984,
		"flyability" : 0,
		"reason" : "windSpeed, rain",
		"timestamp" :1555347600
		},
	"2019-04-15T22:00:00+01:00" : {
		"windSpeed" : 6.1,
		"windDir" : 149,
		"rain" : 0,
		"cloudbase" : 894.31855999999,
		"flyability" : 0,
		"reason" : "windSpeed",
		"timestamp" :1555358400
		},
	"2019-04-16T01:00:00+01:00" : {
		"windSpeed" : 3.8,
		"windDir" : 148,
		"rain" : 0,
		"cloudbase" : 8000,
		"flyability" : 100,
		"reason" : "",
		"timestamp" :1555369200
		},
	"2019-04-16T04:00:00+01:00" : {
		"windSpeed" : 2.8,
		"windDir" : 116,
		"rain" : 1,
		"cloudbase" : 8393.2048,
		"flyability" : 0,
		"reason" : "rain",
		"timestamp" :1555380000
		},
	"2019-04-16T07:00:00+01:00" : {
		"windSpeed" : 2.5,
		"windDir" : 93,
		"rain" : 1,
		"cloudbase" : null,
		"flyability" : 0,
		"reason" : "windDir, rain",
		"timestamp" :1555390800
		},
	"2019-04-16T10:00:00+01:00" : {
		"windSpeed" : 3,
		"windDir" : 134,
		"rain" : 1,
		"cloudbase" : 300,
		"flyability" : 0,
		"reason" : "rain",
		"timestamp" :1555401600
		},
	"2019-04-16T13:00:00+01:00" : {
		"windSpeed" : 3.8,
		"windDir" : 157,
		"rain" : 0,
		"cloudbase" : null,
		"flyability" : 100,
		"reason" : "",
		"timestamp" :1555412400
		},
	"2019-04-16T16:00:00+01:00" : {
		"windSpeed" : 2.9,
		"windDir" : 172,
		"rain" : 1,
		"cloudbase" : 1600,
		"flyability" : 0,
		"reason" : "rain",
		"timestamp" :1555423200
		},
	"2019-04-16T19:00:00+01:00" : {
		"windSpeed" : 3.3,
		"windDir" : 98,
		"rain" : 1,
		"cloudbase" : 4340.4744000005,
		"flyability" : 0,
		"reason" : "windDir, rain",
		"timestamp" :1555434000
		},
	"2019-04-16T22:00:00+01:00" : {
		"windSpeed" : 5.2,
		"windDir" : 98,
		"rain" : 0,
		"cloudbase" : 8315.8,
		"flyability" : 0,
		"reason" : "windSpeed, windDir",
		"timestamp" :1555444800
		},
	"2019-04-17T01:00:00+01:00" : {
		"windSpeed" : 3.5,
		"windDir" : 120,
		"rain" : 1,
		"cloudbase" : 8900,
		"flyability" : 0,
		"reason" : "rain",
		"timestamp" :1555455600
		},
	"2019-04-17T04:00:00+01:00" : {
		"windSpeed" : 3.7,
		"windDir" : 109,
		"rain" : 1,
		"cloudbase" : 300.56096000001,
		"flyability" : 0,
		"reason" : "windDir, rain",
		"timestamp" :1555466400
		},
	"2019-04-17T07:00:00+01:00" : {
		"windSpeed" : 4.3,
		"windDir" : 105,
		"rain" : 0,
		"cloudbase" : 237.53952,
		"flyability" : 0,
		"reason" : "windDir",
		"timestamp" :1555477200
		},
	"2019-04-17T10:00:00+01:00" : {
		"windSpeed" : 4.7,
		"windDir" : 123,
		"rain" : 1,
		"cloudbase" : 4488.4444,
		"flyability" : 0,
		"reason" : "rain",
		"timestamp" :1555488000
		},
	"2019-04-17T13:00:00+01:00" : {
		"windSpeed" : 5.3,
		"windDir" : 122,
		"rain" : 1,
		"cloudbase" : 3181.6,
		"flyability" : 0,
		"reason" : "windSpeed, rain",
		"timestamp" :1555498800
		},
	"2019-04-17T16:00:00+01:00" : {
		"windSpeed" : 5.1,
		"windDir" : 126,
		"rain" : 0,
		"cloudbase" : 7217.6024,
		"flyability" : 0,
		"reason" : "windSpeed",
		"timestamp" :1555509600
		},
	"2019-04-17T19:00:00+01:00" : {
		"windSpeed" : 4,
		"windDir" : 112,
		"rain" : 1,
		"cloudbase" : 8984.2,
		"flyability" : 0,
		"reason" : "windDir, rain",
		"timestamp" :1555520400
		},
	"2019-04-17T22:00:00+01:00" : {
		"windSpeed" : 3.7,
		"windDir" : 91,
		"rain" : 0,
		"cloudbase" : 5922.5952,
		"flyability" : 0,
		"reason" : "windDir",
		"timestamp" :1555531200
		},
	"2019-04-18T01:00:00+01:00" : {
		"windSpeed" : 4.2,
		"windDir" : 76,
		"rain" : 0,
		"cloudbase" : 8700,
		"flyability" : 0,
		"reason" : "windDir",
		"timestamp" :1555542000
		},
	"2019-04-18T04:00:00+01:00" : {
		"windSpeed" : 4.7,
		"windDir" : 79,
		"rain" : 0,
		"cloudbase" : 7540.1952,
		"flyability" : 0,
		"reason" : "windDir",
		"timestamp" :1555552800
		},
	"2019-04-18T07:00:00+01:00" : {
		"windSpeed" : 4.6,
		"windDir" : 86,
		"rain" : 0,
		"cloudbase" : 9059.3952,
		"flyability" : 0,
		"reason" : "windDir",
		"timestamp" :1555563600
		},
	"2019-04-18T10:00:00+01:00" : {
		"windSpeed" : 5.2,
		"windDir" : 102,
		"rain" : 0,
		"cloudbase" : null,
		"flyability" : 0,
		"reason" : "windSpeed, windDir",
		"timestamp" :1555574400
		},
	"2019-04-18T13:00:00+01:00" : {
		"windSpeed" : 4.4,
		"windDir" : 126,
		"rain" : 0,
		"cloudbase" : 3350,
		"flyability" : 100,
		"reason" : "",
		"timestamp" :1555585200
		},
	"2019-04-18T16:00:00+01:00" : {
		"windSpeed" : 5,
		"windDir" : 134,
		"rain" : 0,
		"cloudbase" : null,
		"flyability" : 100,
		"reason" : "",
		"timestamp" :1555596000
		},
	"2019-04-18T19:00:00+01:00" : {
		"windSpeed" : 3.6,
		"windDir" : 145,
		"rain" : 0,
		"cloudbase" : 4160.8807999999,
		"flyability" : 100,
		"reason" : "",
		"timestamp" :1555606800
		},
	"2019-04-18T22:00:00+01:00" : {
		"windSpeed" : 2.8,
		"windDir" : 116,
		"rain" : 1,
		"cloudbase" : 9400,
		"flyability" : 0,
		"reason" : "rain",
		"timestamp" :1555617600
		},
	"2019-04-19T01:00:00+01:00" : {
		"windSpeed" : 2.6,
		"windDir" : 104,
		"rain" : 0,
		"cloudbase" : 9400,
		"flyability" : 0,
		"reason" : "windDir",
		"timestamp" :1555628400
		},
	"2019-04-19T04:00:00+01:00" : {
		"windSpeed" : 2.6,
		"windDir" : 104,
		"rain" : 1,
		"cloudbase" : 8503.6024,
		"flyability" : 0,
		"reason" : "windDir, rain",
		"timestamp" :1555639200
		},
	"2019-04-19T07:00:00+01:00" : {
		"windSpeed" : 2.6,
		"windDir" : 104,
		"rain" : 0,
		"cloudbase" : null,
		"flyability" : 0,
		"reason" : "windDir",
		"timestamp" :1555650000
		},
	"2019-04-19T10:00:00+01:00" : {
		"windSpeed" : 3.4,
		"windDir" : 128,
		"rain" : 0,
		"cloudbase" : null,
		"flyability" : 100,
		"reason" : "",
		"timestamp" :1555660800
		},
	"2019-04-19T13:00:00+01:00" : {
		"windSpeed" : 3.8,
		"windDir" : 155,
		"rain" : 0,
		"cloudbase" : 12421,
		"flyability" : 100,
		"reason" : "",
		"timestamp" :1555671600
		},
	"2019-04-19T16:00:00+01:00" : {
		"windSpeed" : 3.3,
		"windDir" : 182,
		"rain" : 0,
		"cloudbase" : 10000,
		"flyability" : 100,
		"reason" : "",
		"timestamp" :1555682400
		},
	"2019-04-19T19:00:00+01:00" : {
		"windSpeed" : 1.7,
		"windDir" : 240,
		"rain" : 0,
		"cloudbase" : 11500,
		"flyability" : 0,
		"reason" : "windDir",
		"timestamp" :1555693200
		},
	"2019-04-19T22:00:00+01:00" : {
		"windSpeed" : 2,
		"windDir" : 299,
		"rain" : 0,
		"cloudbase" : 10500,
		"flyability" : 100,
		"reason" : "",
		"timestamp" :1555704000
		},
	"2019-04-20T01:00:00+01:00" : {
		"windSpeed" : 1.9,
		"windDir" : 302,
		"rain" : 0,
		"cloudbase" : 9747.4,
		"flyability" : 100,
		"reason" : "",
		"timestamp" :1555714800
		}
	}
}