{
"site" : "Benglenesky",
"id" : 14339,
"orientations" : "00002200",
"forecasts" : { 
	"2019-04-14T04:00:00+01:00" : {
		"windSpeed" : 8.4,
		"windDir" : 114,
		"rain" : 1,
		"cloudbase" : 356.46655999998,
		"flyability" : 0,
		"reason" : "windSpeed, windDir, rain, cloudbase",
		"timestamp" :1555207200
		},
	"2019-04-14T07:00:00+01:00" : {
		"windSpeed" : 7.7,
		"windDir" : 110,
		"rain" : 1,
		"cloudbase" : 197.46291199998,
		"flyability" : 0,
		"reason" : "windSpeed, windDir, rain, cloudbase",
		"timestamp" :1555218000
		},
	"2019-04-14T10:00:00+01:00" : {
		"windSpeed" : 7.6,
		"windDir" : 125,
		"rain" : 1,
		"cloudbase" : 409.12532799999,
		"flyability" : 0,
		"reason" : "windSpeed, windDir, rain, cloudbase",
		"timestamp" :1555228800
		},
	"2019-04-14T13:00:00+01:00" : {
		"windSpeed" : 9,
		"windDir" : 139,
		"rain" : 1,
		"cloudbase" : 567.00934399999,
		"flyability" : 0,
		"reason" : "windSpeed, windDir, rain",
		"timestamp" :1555239600
		},
	"2019-04-14T16:00:00+01:00" : {
		"windSpeed" : 7.7,
		"windDir" : 130,
		"rain" : 1,
		"cloudbase" : 584.68665599999,
		"flyability" : 0,
		"reason" : "windSpeed, windDir, rain",
		"timestamp" :1555250400
		},
	"2019-04-14T19:00:00+01:00" : {
		"windSpeed" : 5.9,
		"windDir" : 107,
		"rain" : 1,
		"cloudbase" : 550.88,
		"flyability" : 0,
		"reason" : "windSpeed, windDir, rain",
		"timestamp" :1555261200
		},
	"2019-04-14T22:00:00+01:00" : {
		"windSpeed" : 6.9,
		"windDir" : 112,
		"rain" : 1,
		"cloudbase" : 785.53212799994,
		"flyability" : 0,
		"reason" : "windSpeed, windDir, rain",
		"timestamp" :1555272000
		},
	"2019-04-15T01:00:00+01:00" : {
		"windSpeed" : 7.2,
		"windDir" : 108,
		"rain" : 1,
		"cloudbase" : 1168.99328,
		"flyability" : 0,
		"reason" : "windSpeed, windDir, rain",
		"timestamp" :1555282800
		},
	"2019-04-15T04:00:00+01:00" : {
		"windSpeed" : 8.5,
		"windDir" : 102,
		"rain" : 1,
		"cloudbase" : 1646.88992,
		"flyability" : 0,
		"reason" : "windSpeed, windDir, rain",
		"timestamp" :1555293600
		},
	"2019-04-15T07:00:00+01:00" : {
		"windSpeed" : 10,
		"windDir" : 104,
		"rain" : 1,
		"cloudbase" : 1276.39992,
		"flyability" : 0,
		"reason" : "windSpeed, windDir, rain",
		"timestamp" :1555304400
		},
	"2019-04-15T10:00:00+01:00" : {
		"windSpeed" : 10.5,
		"windDir" : 113,
		"rain" : 1,
		"cloudbase" : 1994.8466399998,
		"flyability" : 0,
		"reason" : "windSpeed, windDir, rain",
		"timestamp" :1555315200
		},
	"2019-04-15T13:00:00+01:00" : {
		"windSpeed" : 11.2,
		"windDir" : 117,
		"rain" : 1,
		"cloudbase" : 2535.3998400001,
		"flyability" : 0,
		"reason" : "windSpeed, windDir, rain",
		"timestamp" :1555326000
		},
	"2019-04-15T16:00:00+01:00" : {
		"windSpeed" : 10.2,
		"windDir" : 120,
		"rain" : 1,
		"cloudbase" : 1415.7797599999,
		"flyability" : 0,
		"reason" : "windSpeed, windDir, rain",
		"timestamp" :1555336800
		},
	"2019-04-15T19:00:00+01:00" : {
		"windSpeed" : 9.5,
		"windDir" : 139,
		"rain" : 1,
		"cloudbase" : 779.90924799996,
		"flyability" : 0,
		"reason" : "windSpeed, windDir, rain",
		"timestamp" :1555347600
		},
	"2019-04-15T22:00:00+01:00" : {
		"windSpeed" : 6,
		"windDir" : 150,
		"rain" : 1,
		"cloudbase" : 633.86265600001,
		"flyability" : 0,
		"reason" : "windSpeed, windDir, rain",
		"timestamp" :1555358400
		},
	"2019-04-16T01:00:00+01:00" : {
		"windSpeed" : 3.8,
		"windDir" : 148,
		"rain" : 1,
		"cloudbase" : 3193.6029439994,
		"flyability" : 0,
		"reason" : "windDir, rain",
		"timestamp" :1555369200
		},
	"2019-04-16T04:00:00+01:00" : {
		"windSpeed" : 3.1,
		"windDir" : 116,
		"rain" : 1,
		"cloudbase" : 8450.81328,
		"flyability" : 0,
		"reason" : "windDir, rain",
		"timestamp" :1555380000
		},
	"2019-04-16T07:00:00+01:00" : {
		"windSpeed" : 2.9,
		"windDir" : 105,
		"rain" : 1,
		"cloudbase" : null,
		"flyability" : 0,
		"reason" : "windDir, rain",
		"timestamp" :1555390800
		},
	"2019-04-16T10:00:00+01:00" : {
		"windSpeed" : 3.4,
		"windDir" : 132,
		"rain" : 0,
		"cloudbase" : 250,
		"flyability" : 0,
		"reason" : "windDir, cloudbase",
		"timestamp" :1555401600
		},
	"2019-04-16T13:00:00+01:00" : {
		"windSpeed" : 4.2,
		"windDir" : 156,
		"rain" : 0,
		"cloudbase" : null,
		"flyability" : 100,
		"reason" : "",
		"timestamp" :1555412400
		},
	"2019-04-16T16:00:00+01:00" : {
		"windSpeed" : 3.5,
		"windDir" : 169,
		"rain" : 0,
		"cloudbase" : null,
		"flyability" : 100,
		"reason" : "",
		"timestamp" :1555423200
		},
	"2019-04-16T19:00:00+01:00" : {
		"windSpeed" : 2.6,
		"windDir" : 116,
		"rain" : 0,
		"cloudbase" : 7040.98,
		"flyability" : 0,
		"reason" : "windDir",
		"timestamp" :1555434000
		},
	"2019-04-16T22:00:00+01:00" : {
		"windSpeed" : 5,
		"windDir" : 99,
		"rain" : 1,
		"cloudbase" : 8308.02672,
		"flyability" : 0,
		"reason" : "windDir, rain",
		"timestamp" :1555444800
		},
	"2019-04-17T01:00:00+01:00" : {
		"windSpeed" : 3.9,
		"windDir" : 123,
		"rain" : 0,
		"cloudbase" : 9032.10688,
		"flyability" : 0,
		"reason" : "windDir",
		"timestamp" :1555455600
		},
	"2019-04-17T04:00:00+01:00" : {
		"windSpeed" : 4.1,
		"windDir" : 109,
		"rain" : 1,
		"cloudbase" : 2673.3252000004,
		"flyability" : 0,
		"reason" : "windDir, rain",
		"timestamp" :1555466400
		},
	"2019-04-17T07:00:00+01:00" : {
		"windSpeed" : 4.6,
		"windDir" : 110,
		"rain" : 0,
		"cloudbase" : 137.05798399999,
		"flyability" : 0,
		"reason" : "windDir, cloudbase",
		"timestamp" :1555477200
		},
	"2019-04-17T10:00:00+01:00" : {
		"windSpeed" : 5.5,
		"windDir" : 127,
		"rain" : 1,
		"cloudbase" : 4100.52824,
		"flyability" : 0,
		"reason" : "windSpeed, windDir, rain",
		"timestamp" :1555488000
		},
	"2019-04-17T13:00:00+01:00" : {
		"windSpeed" : 5.2,
		"windDir" : 123,
		"rain" : 1,
		"cloudbase" : 3128.19328,
		"flyability" : 0,
		"reason" : "windSpeed, windDir, rain",
		"timestamp" :1555498800
		},
	"2019-04-17T16:00:00+01:00" : {
		"windSpeed" : 5.2,
		"windDir" : 129,
		"rain" : 0,
		"cloudbase" : 7308.02672,
		"flyability" : 0,
		"reason" : "windSpeed, windDir",
		"timestamp" :1555509600
		},
	"2019-04-17T19:00:00+01:00" : {
		"windSpeed" : 4,
		"windDir" : 117,
		"rain" : 1,
		"cloudbase" : 9086.4,
		"flyability" : 0,
		"reason" : "windDir, rain",
		"timestamp" :1555520400
		},
	"2019-04-17T22:00:00+01:00" : {
		"windSpeed" : 4.4,
		"windDir" : 105,
		"rain" : 0,
		"cloudbase" : 7805.2940800002,
		"flyability" : 0,
		"reason" : "windDir",
		"timestamp" :1555531200
		},
	"2019-04-18T01:00:00+01:00" : {
		"windSpeed" : 4.8,
		"windDir" : 95,
		"rain" : 0,
		"cloudbase" : 8735.40672,
		"flyability" : 0,
		"reason" : "windDir",
		"timestamp" :1555542000
		},
	"2019-04-18T04:00:00+01:00" : {
		"windSpeed" : 5.3,
		"windDir" : 94,
		"rain" : 0,
		"cloudbase" : 5607.67936,
		"flyability" : 0,
		"reason" : "windSpeed, windDir",
		"timestamp" :1555552800
		},
	"2019-04-18T07:00:00+01:00" : {
		"windSpeed" : 5.4,
		"windDir" : 102,
		"rain" : 0,
		"cloudbase" : 7893.7344000002,
		"flyability" : 0,
		"reason" : "windSpeed, windDir",
		"timestamp" :1555563600
		},
	"2019-04-18T10:00:00+01:00" : {
		"windSpeed" : 5.5,
		"windDir" : 106,
		"rain" : 0,
		"cloudbase" : null,
		"flyability" : 0,
		"reason" : "windSpeed, windDir",
		"timestamp" :1555574400
		},
	"2019-04-18T13:00:00+01:00" : {
		"windSpeed" : 5.1,
		"windDir" : 129,
		"rain" : 0,
		"cloudbase" : null,
		"flyability" : 0,
		"reason" : "windSpeed, windDir",
		"timestamp" :1555585200
		},
	"2019-04-18T16:00:00+01:00" : {
		"windSpeed" : 5.5,
		"windDir" : 136,
		"rain" : 0,
		"cloudbase" : null,
		"flyability" : 0,
		"reason" : "windSpeed, windDir",
		"timestamp" :1555596000
		},
	"2019-04-18T19:00:00+01:00" : {
		"windSpeed" : 4,
		"windDir" : 145,
		"rain" : 0,
		"cloudbase" : 3822.38656,
		"flyability" : 0,
		"reason" : "windDir",
		"timestamp" :1555606800
		},
	"2019-04-18T22:00:00+01:00" : {
		"windSpeed" : 3.3,
		"windDir" : 120,
		"rain" : 1,
		"cloudbase" : null,
		"flyability" : 0,
		"reason" : "windDir, rain",
		"timestamp" :1555617600
		},
	"2019-04-19T01:00:00+01:00" : {
		"windSpeed" : 3.4,
		"windDir" : 116,
		"rain" : 0,
		"cloudbase" : 9262.60672,
		"flyability" : 0,
		"reason" : "windDir",
		"timestamp" :1555628400
		},
	"2019-04-19T04:00:00+01:00" : {
		"windSpeed" : 3.5,
		"windDir" : 115,
		"rain" : 1,
		"cloudbase" : 7995.38,
		"flyability" : 0,
		"reason" : "windDir, rain",
		"timestamp" :1555639200
		},
	"2019-04-19T07:00:00+01:00" : {
		"windSpeed" : 3,
		"windDir" : 111,
		"rain" : 1,
		"cloudbase" : null,
		"flyability" : 0,
		"reason" : "windDir, rain",
		"timestamp" :1555650000
		},
	"2019-04-19T10:00:00+01:00" : {
		"windSpeed" : 4,
		"windDir" : 135,
		"rain" : 0,
		"cloudbase" : null,
		"flyability" : 0,
		"reason" : "windDir",
		"timestamp" :1555660800
		},
	"2019-04-19T13:00:00+01:00" : {
		"windSpeed" : 4.5,
		"windDir" : 160,
		"rain" : 0,
		"cloudbase" : 12282.8328,
		"flyability" : 100,
		"reason" : "",
		"timestamp" :1555671600
		},
	"2019-04-19T16:00:00+01:00" : {
		"windSpeed" : 3.6,
		"windDir" : 180,
		"rain" : 0,
		"cloudbase" : 9846.55328,
		"flyability" : 100,
		"reason" : "",
		"timestamp" :1555682400
		},
	"2019-04-19T19:00:00+01:00" : {
		"windSpeed" : 1.2,
		"windDir" : 241,
		"rain" : 0,
		"cloudbase" : 11245.0336,
		"flyability" : 100,
		"reason" : "",
		"timestamp" :1555693200
		},
	"2019-04-19T22:00:00+01:00" : {
		"windSpeed" : 1.4,
		"windDir" : 334,
		"rain" : 0,
		"cloudbase" : 10500,
		"flyability" : 0,
		"reason" : "windDir",
		"timestamp" :1555704000
		},
	"2019-04-20T01:00:00+01:00" : {
		"windSpeed" : 0.2,
		"windDir" : 8,
		"rain" : 0,
		"cloudbase" : 9713.6,
		"flyability" : 0,
		"reason" : "windDir",
		"timestamp" :1555714800
		}
	}
}