{
"site" : "Knocknagantee \/ Finnararagh",
"id" : 14394,
"orientations" : "00000000",
"forecasts" : { 
	"2019-04-20T04:00:00+01:00" : {
		"windSpeed" : 0.9,
		"windDir" : 338,
		"rain" : 0,
		"cloudbase" : 6450.2433599996,
		"flyability" : -50,
		"reason" : "orientationsUnknown",
		"timestamp" :1555725600
		},
	"2019-04-20T07:00:00+01:00" : {
		"windSpeed" : 1.1,
		"windDir" : 28,
		"rain" : 0,
		"cloudbase" : 414.31487999979,
		"flyability" : -0,
		"reason" : "orientationsUnknown, cloudbase",
		"timestamp" :1555736400
		},
	"2019-04-20T10:00:00+01:00" : {
		"windSpeed" : 1,
		"windDir" : 358,
		"rain" : 0,
		"cloudbase" : 6613.6959999995,
		"flyability" : -50,
		"reason" : "orientationsUnknown",
		"timestamp" :1555747200
		},
	"2019-04-20T13:00:00+01:00" : {
		"windSpeed" : 0.2,
		"windDir" : 132,
		"rain" : 0,
		"cloudbase" : 5875.64512,
		"flyability" : -50,
		"reason" : "orientationsUnknown",
		"timestamp" :1555758000
		},
	"2019-04-20T16:00:00+01:00" : {
		"windSpeed" : 2.4,
		"windDir" : 205,
		"rain" : 0,
		"cloudbase" : 6763.44,
		"flyability" : -50,
		"reason" : "orientationsUnknown",
		"timestamp" :1555768800
		},
	"2019-04-20T19:00:00+01:00" : {
		"windSpeed" : 1.6,
		"windDir" : 256,
		"rain" : 0,
		"cloudbase" : 9906.4,
		"flyability" : -50,
		"reason" : "orientationsUnknown",
		"timestamp" :1555779600
		},
	"2019-04-20T22:00:00+01:00" : {
		"windSpeed" : 1.4,
		"windDir" : 338,
		"rain" : 0,
		"cloudbase" : 9902.23488,
		"flyability" : -50,
		"reason" : "orientationsUnknown",
		"timestamp" :1555790400
		},
	"2019-04-21T01:00:00+01:00" : {
		"windSpeed" : 1.1,
		"windDir" : 342,
		"rain" : 0,
		"cloudbase" : 7430.8476799993,
		"flyability" : -50,
		"reason" : "orientationsUnknown",
		"timestamp" :1555801200
		},
	"2019-04-21T04:00:00+01:00" : {
		"windSpeed" : 0.8,
		"windDir" : 261,
		"rain" : 0,
		"cloudbase" : 30,
		"flyability" : -0,
		"reason" : "orientationsUnknown, cloudbase",
		"timestamp" :1555812000
		},
	"2019-04-21T07:00:00+01:00" : {
		"windSpeed" : 2,
		"windDir" : 211,
		"rain" : 0,
		"cloudbase" : 30,
		"flyability" : -0,
		"reason" : "orientationsUnknown, cloudbase",
		"timestamp" :1555822800
		},
	"2019-04-21T10:00:00+01:00" : {
		"windSpeed" : 3.2,
		"windDir" : 198,
		"rain" : 1,
		"cloudbase" : 30,
		"flyability" : -0,
		"reason" : "orientationsUnknown, rain, cloudbase",
		"timestamp" :1555833600
		},
	"2019-04-21T13:00:00+01:00" : {
		"windSpeed" : 4.1,
		"windDir" : 192,
		"rain" : 1,
		"cloudbase" : 31.376511999999,
		"flyability" : -0,
		"reason" : "orientationsUnknown, rain, cloudbase",
		"timestamp" :1555844400
		},
	"2019-04-21T16:00:00+01:00" : {
		"windSpeed" : 4.6,
		"windDir" : 187,
		"rain" : 1,
		"cloudbase" : 31.376511999999,
		"flyability" : -0,
		"reason" : "orientationsUnknown, rain, cloudbase",
		"timestamp" :1555855200
		},
	"2019-04-21T19:00:00+01:00" : {
		"windSpeed" : 5.2,
		"windDir" : 178,
		"rain" : 1,
		"cloudbase" : 30.416512,
		"flyability" : -0,
		"reason" : "windSpeed, orientationsUnknown, rain, cloudbase",
		"timestamp" :1555866000
		},
	"2019-04-21T22:00:00+01:00" : {
		"windSpeed" : 5.8,
		"windDir" : 168,
		"rain" : 1,
		"cloudbase" : 30,
		"flyability" : -0,
		"reason" : "windSpeed, orientationsUnknown, rain, cloudbase",
		"timestamp" :1555876800
		},
	"2019-04-22T01:00:00+01:00" : {
		"windSpeed" : 6.5,
		"windDir" : 157,
		"rain" : 1,
		"cloudbase" : 30,
		"flyability" : -0,
		"reason" : "windSpeed, orientationsUnknown, rain, cloudbase",
		"timestamp" :1555887600
		},
	"2019-04-22T04:00:00+01:00" : {
		"windSpeed" : 6.4,
		"windDir" : 160,
		"rain" : 1,
		"cloudbase" : 60.957535999996,
		"flyability" : -0,
		"reason" : "windSpeed, orientationsUnknown, rain, cloudbase",
		"timestamp" :1555898400
		},
	"2019-04-22T07:00:00+01:00" : {
		"windSpeed" : 5.7,
		"windDir" : 152,
		"rain" : 1,
		"cloudbase" : 6897.47488,
		"flyability" : -0,
		"reason" : "windSpeed, orientationsUnknown, rain",
		"timestamp" :1555909200
		},
	"2019-04-22T10:00:00+01:00" : {
		"windSpeed" : 6.2,
		"windDir" : 156,
		"rain" : 0,
		"cloudbase" : 6835.7651199999,
		"flyability" : -0,
		"reason" : "windSpeed, orientationsUnknown",
		"timestamp" :1555920000
		},
	"2019-04-22T13:00:00+01:00" : {
		"windSpeed" : 7,
		"windDir" : 159,
		"rain" : 0,
		"cloudbase" : 5408.33024,
		"flyability" : -0,
		"reason" : "windSpeed, orientationsUnknown",
		"timestamp" :1555930800
		},
	"2019-04-22T16:00:00+01:00" : {
		"windSpeed" : 6.4,
		"windDir" : 160,
		"rain" : 0,
		"cloudbase" : 5542.96,
		"flyability" : -0,
		"reason" : "windSpeed, orientationsUnknown",
		"timestamp" :1555941600
		},
	"2019-04-22T19:00:00+01:00" : {
		"windSpeed" : 5.5,
		"windDir" : 146,
		"rain" : 0,
		"cloudbase" : 6197.512,
		"flyability" : -0,
		"reason" : "windSpeed, orientationsUnknown",
		"timestamp" :1555952400
		},
	"2019-04-22T22:00:00+01:00" : {
		"windSpeed" : 4.3,
		"windDir" : 135,
		"rain" : 0,
		"cloudbase" : 103.891184,
		"flyability" : -0,
		"reason" : "orientationsUnknown, cloudbase",
		"timestamp" :1555963200
		},
	"2019-04-23T01:00:00+01:00" : {
		"windSpeed" : 4,
		"windDir" : 183,
		"rain" : 1,
		"cloudbase" : 35,
		"flyability" : -0,
		"reason" : "orientationsUnknown, rain, cloudbase",
		"timestamp" :1555974000
		},
	"2019-04-23T04:00:00+01:00" : {
		"windSpeed" : 1.7,
		"windDir" : 181,
		"rain" : 0,
		"cloudbase" : null,
		"flyability" : -50,
		"reason" : "orientationsUnknown",
		"timestamp" :1555984800
		},
	"2019-04-23T07:00:00+01:00" : {
		"windSpeed" : 0.7,
		"windDir" : 344,
		"rain" : 0,
		"cloudbase" : 2004.49024,
		"flyability" : -50,
		"reason" : "orientationsUnknown",
		"timestamp" :1555995600
		},
	"2019-04-23T10:00:00+01:00" : {
		"windSpeed" : 2.1,
		"windDir" : 347,
		"rain" : 0,
		"cloudbase" : 595.66476799995,
		"flyability" : -0,
		"reason" : "orientationsUnknown, cloudbase",
		"timestamp" :1556006400
		},
	"2019-04-23T13:00:00+01:00" : {
		"windSpeed" : 2.3,
		"windDir" : 30,
		"rain" : 0,
		"cloudbase" : 620.30995199999,
		"flyability" : -0,
		"reason" : "orientationsUnknown, cloudbase",
		"timestamp" :1556017200
		},
	"2019-04-23T16:00:00+01:00" : {
		"windSpeed" : 3.4,
		"windDir" : 9,
		"rain" : 1,
		"cloudbase" : 722.23200000001,
		"flyability" : -0,
		"reason" : "orientationsUnknown, rain",
		"timestamp" :1556028000
		},
	"2019-04-23T19:00:00+01:00" : {
		"windSpeed" : 2.7,
		"windDir" : 22,
		"rain" : 1,
		"cloudbase" : 939.36492800001,
		"flyability" : -0,
		"reason" : "orientationsUnknown, rain",
		"timestamp" :1556038800
		},
	"2019-04-23T22:00:00+01:00" : {
		"windSpeed" : 2,
		"windDir" : 50,
		"rain" : 0,
		"cloudbase" : 476.97353600001,
		"flyability" : -0,
		"reason" : "orientationsUnknown, cloudbase",
		"timestamp" :1556049600
		},
	"2019-04-24T01:00:00+01:00" : {
		"windSpeed" : 2.5,
		"windDir" : 168,
		"rain" : 1,
		"cloudbase" : 87.862000000003,
		"flyability" : -0,
		"reason" : "orientationsUnknown, rain, cloudbase",
		"timestamp" :1556060400
		},
	"2019-04-24T04:00:00+01:00" : {
		"windSpeed" : 2.1,
		"windDir" : 200,
		"rain" : 1,
		"cloudbase" : 71.655584000003,
		"flyability" : -0,
		"reason" : "orientationsUnknown, rain, cloudbase",
		"timestamp" :1556071200
		},
	"2019-04-24T07:00:00+01:00" : {
		"windSpeed" : 1.7,
		"windDir" : 210,
		"rain" : 1,
		"cloudbase" : 231.24185599999,
		"flyability" : -0,
		"reason" : "orientationsUnknown, rain, cloudbase",
		"timestamp" :1556082000
		},
	"2019-04-24T10:00:00+01:00" : {
		"windSpeed" : 1.9,
		"windDir" : 142,
		"rain" : 1,
		"cloudbase" : 562.15302400001,
		"flyability" : -0,
		"reason" : "orientationsUnknown, rain, cloudbase",
		"timestamp" :1556092800
		},
	"2019-04-24T13:00:00+01:00" : {
		"windSpeed" : 4.9,
		"windDir" : 163,
		"rain" : 0,
		"cloudbase" : 491.249536,
		"flyability" : -0,
		"reason" : "orientationsUnknown, cloudbase",
		"timestamp" :1556103600
		},
	"2019-04-24T16:00:00+01:00" : {
		"windSpeed" : 3.8,
		"windDir" : 165,
		"rain" : 1,
		"cloudbase" : 528.59199999999,
		"flyability" : -0,
		"reason" : "orientationsUnknown, rain, cloudbase",
		"timestamp" :1556114400
		},
	"2019-04-24T19:00:00+01:00" : {
		"windSpeed" : 2.3,
		"windDir" : 153,
		"rain" : 1,
		"cloudbase" : 1598.84464,
		"flyability" : -0,
		"reason" : "orientationsUnknown, rain",
		"timestamp" :1556125200
		},
	"2019-04-24T22:00:00+01:00" : {
		"windSpeed" : 1,
		"windDir" : 177,
		"rain" : 1,
		"cloudbase" : 994.13542400004,
		"flyability" : -0,
		"reason" : "orientationsUnknown, rain",
		"timestamp" :1556136000
		},
	"2019-04-25T01:00:00+01:00" : {
		"windSpeed" : 1.1,
		"windDir" : 67,
		"rain" : 1,
		"cloudbase" : 1934,
		"flyability" : -0,
		"reason" : "orientationsUnknown, rain",
		"timestamp" :1556146800
		},
	"2019-04-25T04:00:00+01:00" : {
		"windSpeed" : 1.1,
		"windDir" : 268,
		"rain" : 1,
		"cloudbase" : 838.96326400001,
		"flyability" : -0,
		"reason" : "orientationsUnknown, rain",
		"timestamp" :1556157600
		},
	"2019-04-25T07:00:00+01:00" : {
		"windSpeed" : 2.5,
		"windDir" : 156,
		"rain" : 1,
		"cloudbase" : 439.028512,
		"flyability" : -0,
		"reason" : "orientationsUnknown, rain, cloudbase",
		"timestamp" :1556168400
		},
	"2019-04-25T10:00:00+01:00" : {
		"windSpeed" : 5.7,
		"windDir" : 217,
		"rain" : 1,
		"cloudbase" : 627.68,
		"flyability" : -0,
		"reason" : "windSpeed, orientationsUnknown, rain, cloudbase",
		"timestamp" :1556179200
		},
	"2019-04-25T13:00:00+01:00" : {
		"windSpeed" : 6.1,
		"windDir" : 232,
		"rain" : 1,
		"cloudbase" : 734.19177600002,
		"flyability" : -0,
		"reason" : "windSpeed, orientationsUnknown, rain",
		"timestamp" :1556190000
		},
	"2019-04-25T16:00:00+01:00" : {
		"windSpeed" : 5.2,
		"windDir" : 247,
		"rain" : 1,
		"cloudbase" : 4621.13744,
		"flyability" : -0,
		"reason" : "windSpeed, orientationsUnknown, rain",
		"timestamp" :1556200800
		},
	"2019-04-25T19:00:00+01:00" : {
		"windSpeed" : 4.3,
		"windDir" : 250,
		"rain" : 1,
		"cloudbase" : 4771.4246400001,
		"flyability" : -0,
		"reason" : "orientationsUnknown, rain",
		"timestamp" :1556211600
		},
	"2019-04-25T22:00:00+01:00" : {
		"windSpeed" : 3.7,
		"windDir" : 228,
		"rain" : 1,
		"cloudbase" : 3773.9571199997,
		"flyability" : -0,
		"reason" : "orientationsUnknown, rain",
		"timestamp" :1556222400
		},
	"2019-04-26T01:00:00+01:00" : {
		"windSpeed" : 3.8,
		"windDir" : 270,
		"rain" : 1,
		"cloudbase" : 6000,
		"flyability" : -0,
		"reason" : "orientationsUnknown, rain",
		"timestamp" :1556233200
		}
	}
}