{
"site" : "Arra",
"id" : 14402,
"orientations" : "00000221",
"forecasts" : { 
	"2019-04-20T04:00:00+01:00" : {
		"windSpeed" : 0.5,
		"windDir" : 266,
		"rain" : 0,
		"cloudbase" : 90.685247999893,
		"flyability" : 0,
		"reason" : "cloudbase",
		"timestamp" :1555725600
		},
	"2019-04-20T07:00:00+01:00" : {
		"windSpeed" : 0,
		"windDir" : 180,
		"rain" : 0,
		"cloudbase" : 30,
		"flyability" : 0,
		"reason" : "windDir, cloudbase",
		"timestamp" :1555736400
		},
	"2019-04-20T10:00:00+01:00" : {
		"windSpeed" : 0.5,
		"windDir" : 360,
		"rain" : 0,
		"cloudbase" : 82.783522999907,
		"flyability" : 0,
		"reason" : "windDir, cloudbase",
		"timestamp" :1555747200
		},
	"2019-04-20T13:00:00+01:00" : {
		"windSpeed" : 0.4,
		"windDir" : 315,
		"rain" : 0,
		"cloudbase" : 2660.5463179999,
		"flyability" : 100,
		"reason" : "",
		"timestamp" :1555758000
		},
	"2019-04-20T16:00:00+01:00" : {
		"windSpeed" : 1.1,
		"windDir" : 227,
		"rain" : 0,
		"cloudbase" : 6923.6710399999,
		"flyability" : 100,
		"reason" : "",
		"timestamp" :1555768800
		},
	"2019-04-20T19:00:00+01:00" : {
		"windSpeed" : 0.7,
		"windDir" : 271,
		"rain" : 0,
		"cloudbase" : 5995.1506900001,
		"flyability" : 100,
		"reason" : "",
		"timestamp" :1555779600
		},
	"2019-04-20T22:00:00+01:00" : {
		"windSpeed" : 1.8,
		"windDir" : 303,
		"rain" : 0,
		"cloudbase" : 9946.7,
		"flyability" : 100,
		"reason" : "",
		"timestamp" :1555790400
		},
	"2019-04-21T01:00:00+01:00" : {
		"windSpeed" : 1.1,
		"windDir" : 223,
		"rain" : 0,
		"cloudbase" : 10000,
		"flyability" : 100,
		"reason" : "",
		"timestamp" :1555801200
		},
	"2019-04-21T04:00:00+01:00" : {
		"windSpeed" : 1.6,
		"windDir" : 231,
		"rain" : 0,
		"cloudbase" : 30,
		"flyability" : 0,
		"reason" : "cloudbase",
		"timestamp" :1555812000
		},
	"2019-04-21T07:00:00+01:00" : {
		"windSpeed" : 1.8,
		"windDir" : 188,
		"rain" : 0,
		"cloudbase" : 30,
		"flyability" : 0,
		"reason" : "windDir, cloudbase",
		"timestamp" :1555822800
		},
	"2019-04-21T10:00:00+01:00" : {
		"windSpeed" : 2.8,
		"windDir" : 207,
		"rain" : 0,
		"cloudbase" : 129.14834499999,
		"flyability" : 0,
		"reason" : "cloudbase",
		"timestamp" :1555833600
		},
	"2019-04-21T13:00:00+01:00" : {
		"windSpeed" : 3.4,
		"windDir" : 207,
		"rain" : 0,
		"cloudbase" : 507.11599999999,
		"flyability" : 100,
		"reason" : "",
		"timestamp" :1555844400
		},
	"2019-04-21T16:00:00+01:00" : {
		"windSpeed" : 4.7,
		"windDir" : 212,
		"rain" : 1,
		"cloudbase" : 1270.10638,
		"flyability" : 0,
		"reason" : "rain",
		"timestamp" :1555855200
		},
	"2019-04-21T19:00:00+01:00" : {
		"windSpeed" : 3.6,
		"windDir" : 205,
		"rain" : 0,
		"cloudbase" : null,
		"flyability" : 100,
		"reason" : "",
		"timestamp" :1555866000
		},
	"2019-04-21T22:00:00+01:00" : {
		"windSpeed" : 4.5,
		"windDir" : 183,
		"rain" : 0,
		"cloudbase" : 3121.7249999994,
		"flyability" : 0,
		"reason" : "windDir",
		"timestamp" :1555876800
		},
	"2019-04-22T01:00:00+01:00" : {
		"windSpeed" : 5,
		"windDir" : 183,
		"rain" : 0,
		"cloudbase" : 8605.93,
		"flyability" : 0,
		"reason" : "windDir",
		"timestamp" :1555887600
		},
	"2019-04-22T04:00:00+01:00" : {
		"windSpeed" : 4.6,
		"windDir" : 170,
		"rain" : 0,
		"cloudbase" : null,
		"flyability" : 0,
		"reason" : "windDir",
		"timestamp" :1555898400
		},
	"2019-04-22T07:00:00+01:00" : {
		"windSpeed" : 4.3,
		"windDir" : 159,
		"rain" : 0,
		"cloudbase" : null,
		"flyability" : 0,
		"reason" : "windDir",
		"timestamp" :1555909200
		},
	"2019-04-22T10:00:00+01:00" : {
		"windSpeed" : 5,
		"windDir" : 149,
		"rain" : 0,
		"cloudbase" : null,
		"flyability" : 0,
		"reason" : "windDir",
		"timestamp" :1555920000
		},
	"2019-04-22T13:00:00+01:00" : {
		"windSpeed" : 6.3,
		"windDir" : 151,
		"rain" : 0,
		"cloudbase" : null,
		"flyability" : 0,
		"reason" : "windSpeed, windDir",
		"timestamp" :1555930800
		},
	"2019-04-22T16:00:00+01:00" : {
		"windSpeed" : 5.7,
		"windDir" : 157,
		"rain" : 0,
		"cloudbase" : null,
		"flyability" : 0,
		"reason" : "windSpeed, windDir",
		"timestamp" :1555941600
		},
	"2019-04-22T19:00:00+01:00" : {
		"windSpeed" : 3.9,
		"windDir" : 135,
		"rain" : 0,
		"cloudbase" : null,
		"flyability" : 0,
		"reason" : "windDir",
		"timestamp" :1555952400
		},
	"2019-04-22T22:00:00+01:00" : {
		"windSpeed" : 3.9,
		"windDir" : 140,
		"rain" : 0,
		"cloudbase" : 2599.80431,
		"flyability" : 0,
		"reason" : "windDir",
		"timestamp" :1555963200
		},
	"2019-04-23T01:00:00+01:00" : {
		"windSpeed" : 3.1,
		"windDir" : 125,
		"rain" : 1,
		"cloudbase" : 4250,
		"flyability" : 0,
		"reason" : "windDir, rain",
		"timestamp" :1555974000
		},
	"2019-04-23T04:00:00+01:00" : {
		"windSpeed" : 2.4,
		"windDir" : 161,
		"rain" : 1,
		"cloudbase" : 2903.24362,
		"flyability" : 0,
		"reason" : "windDir, rain",
		"timestamp" :1555984800
		},
	"2019-04-23T07:00:00+01:00" : {
		"windSpeed" : 1.8,
		"windDir" : 187,
		"rain" : 0,
		"cloudbase" : 1413.9599999998,
		"flyability" : 0,
		"reason" : "windDir",
		"timestamp" :1555995600
		},
	"2019-04-23T10:00:00+01:00" : {
		"windSpeed" : 2.1,
		"windDir" : 194,
		"rain" : 0,
		"cloudbase" : 447.217069,
		"flyability" : 0,
		"reason" : "windDir",
		"timestamp" :1556006400
		},
	"2019-04-23T13:00:00+01:00" : {
		"windSpeed" : 1.1,
		"windDir" : 117,
		"rain" : 1,
		"cloudbase" : 1215.61293,
		"flyability" : 0,
		"reason" : "windDir, rain",
		"timestamp" :1556017200
		},
	"2019-04-23T16:00:00+01:00" : {
		"windSpeed" : 1.7,
		"windDir" : 90,
		"rain" : 1,
		"cloudbase" : 763.90138000001,
		"flyability" : 0,
		"reason" : "windDir, rain",
		"timestamp" :1556028000
		},
	"2019-04-23T19:00:00+01:00" : {
		"windSpeed" : 1.6,
		"windDir" : 19,
		"rain" : 0,
		"cloudbase" : 2610.82,
		"flyability" : 0,
		"reason" : "windDir",
		"timestamp" :1556038800
		},
	"2019-04-23T22:00:00+01:00" : {
		"windSpeed" : 1.9,
		"windDir" : 115,
		"rain" : 1,
		"cloudbase" : 3174.651725,
		"flyability" : 0,
		"reason" : "windDir, rain",
		"timestamp" :1556049600
		},
	"2019-04-24T01:00:00+01:00" : {
		"windSpeed" : 2,
		"windDir" : 140,
		"rain" : 1,
		"cloudbase" : 9300,
		"flyability" : 0,
		"reason" : "windDir, rain",
		"timestamp" :1556060400
		},
	"2019-04-24T04:00:00+01:00" : {
		"windSpeed" : 1.9,
		"windDir" : 164,
		"rain" : 1,
		"cloudbase" : 2998.049655,
		"flyability" : 0,
		"reason" : "windDir, rain",
		"timestamp" :1556071200
		},
	"2019-04-24T07:00:00+01:00" : {
		"windSpeed" : 2.4,
		"windDir" : 148,
		"rain" : 1,
		"cloudbase" : 1677.3996549999,
		"flyability" : 0,
		"reason" : "windDir, rain",
		"timestamp" :1556082000
		},
	"2019-04-24T10:00:00+01:00" : {
		"windSpeed" : 4.2,
		"windDir" : 147,
		"rain" : 0,
		"cloudbase" : 333.576517,
		"flyability" : 0,
		"reason" : "windDir, cloudbase",
		"timestamp" :1556092800
		},
	"2019-04-24T13:00:00+01:00" : {
		"windSpeed" : 4.9,
		"windDir" : 145,
		"rain" : 1,
		"cloudbase" : null,
		"flyability" : 0,
		"reason" : "windDir, rain",
		"timestamp" :1556103600
		},
	"2019-04-24T16:00:00+01:00" : {
		"windSpeed" : 3.9,
		"windDir" : 140,
		"rain" : 1,
		"cloudbase" : 2786.2089599996,
		"flyability" : 0,
		"reason" : "windDir, rain",
		"timestamp" :1556114400
		},
	"2019-04-24T19:00:00+01:00" : {
		"windSpeed" : 5,
		"windDir" : 135,
		"rain" : 1,
		"cloudbase" : 5551.59207,
		"flyability" : 0,
		"reason" : "windDir, rain",
		"timestamp" :1556125200
		},
	"2019-04-24T22:00:00+01:00" : {
		"windSpeed" : 4.7,
		"windDir" : 122,
		"rain" : 0,
		"cloudbase" : 397.703931,
		"flyability" : 0,
		"reason" : "windDir, cloudbase",
		"timestamp" :1556136000
		},
	"2019-04-25T01:00:00+01:00" : {
		"windSpeed" : 6.9,
		"windDir" : 131,
		"rain" : 1,
		"cloudbase" : null,
		"flyability" : 0,
		"reason" : "windSpeed, windDir, rain",
		"timestamp" :1556146800
		},
	"2019-04-25T04:00:00+01:00" : {
		"windSpeed" : 4.3,
		"windDir" : 111,
		"rain" : 1,
		"cloudbase" : 1327.0882700001,
		"flyability" : 0,
		"reason" : "windDir, rain",
		"timestamp" :1556157600
		},
	"2019-04-25T07:00:00+01:00" : {
		"windSpeed" : 3.4,
		"windDir" : 107,
		"rain" : 1,
		"cloudbase" : 364.632793,
		"flyability" : 0,
		"reason" : "windDir, rain, cloudbase",
		"timestamp" :1556168400
		},
	"2019-04-25T10:00:00+01:00" : {
		"windSpeed" : 7.8,
		"windDir" : 173,
		"rain" : 1,
		"cloudbase" : null,
		"flyability" : 0,
		"reason" : "windSpeed, windDir, rain",
		"timestamp" :1556179200
		},
	"2019-04-25T13:00:00+01:00" : {
		"windSpeed" : 8,
		"windDir" : 183,
		"rain" : 1,
		"cloudbase" : null,
		"flyability" : 0,
		"reason" : "windSpeed, windDir, rain",
		"timestamp" :1556190000
		},
	"2019-04-25T16:00:00+01:00" : {
		"windSpeed" : 7.4,
		"windDir" : 204,
		"rain" : 1,
		"cloudbase" : 5900,
		"flyability" : 0,
		"reason" : "windSpeed, rain",
		"timestamp" :1556200800
		},
	"2019-04-25T19:00:00+01:00" : {
		"windSpeed" : 4.1,
		"windDir" : 223,
		"rain" : 1,
		"cloudbase" : 6177.69,
		"flyability" : 0,
		"reason" : "rain",
		"timestamp" :1556211600
		},
	"2019-04-25T22:00:00+01:00" : {
		"windSpeed" : 2.5,
		"windDir" : 186,
		"rain" : 1,
		"cloudbase" : null,
		"flyability" : 0,
		"reason" : "windDir, rain",
		"timestamp" :1556222400
		},
	"2019-04-26T01:00:00+01:00" : {
		"windSpeed" : 3.2,
		"windDir" : 202,
		"rain" : 0,
		"cloudbase" : null,
		"flyability" : 0,
		"reason" : "windDir",
		"timestamp" :1556233200
		}
	}
}