{
"site" : "Woodstock",
"id" : 14540,
"orientations" : "00000012",
"forecasts" : { 
	"2019-04-13T11:00:00-04:00" : {
		"windSpeed" : 0.5,
		"windDir" : 262,
		"rain" : 0,
		"cloudbase" : null,
		"flyability" : 100,
		"reason" : "",
		"timestamp" :1555171200
		},
	"2019-04-13T14:00:00-04:00" : {
		"windSpeed" : 1.2,
		"windDir" : 191,
		"rain" : 0,
		"cloudbase" : 4783.85,
		"flyability" : 0,
		"reason" : "windDir",
		"timestamp" :1555182000
		},
	"2019-04-13T17:00:00-04:00" : {
		"windSpeed" : 3.4,
		"windDir" : 181,
		"rain" : 0,
		"cloudbase" : 7832.4,
		"flyability" : 0,
		"reason" : "windDir",
		"timestamp" :1555192800
		},
	"2019-04-13T20:00:00-04:00" : {
		"windSpeed" : 2.2,
		"windDir" : 194,
		"rain" : 0,
		"cloudbase" : 4067.65,
		"flyability" : 0,
		"reason" : "windDir",
		"timestamp" :1555203600
		},
	"2019-04-13T23:00:00-04:00" : {
		"windSpeed" : 2.4,
		"windDir" : 234,
		"rain" : 0,
		"cloudbase" : null,
		"flyability" : 0,
		"reason" : "windDir",
		"timestamp" :1555214400
		},
	"2019-04-14T02:00:00-04:00" : {
		"windSpeed" : 1.9,
		"windDir" : 222,
		"rain" : 0,
		"cloudbase" : 479.70999999999,
		"flyability" : 0,
		"reason" : "windDir, cloudbase",
		"timestamp" :1555225200
		},
	"2019-04-14T05:00:00-04:00" : {
		"windSpeed" : 1.2,
		"windDir" : 185,
		"rain" : 0,
		"cloudbase" : 248.83,
		"flyability" : 0,
		"reason" : "windDir, cloudbase",
		"timestamp" :1555236000
		},
	"2019-04-14T08:00:00-04:00" : {
		"windSpeed" : 0.6,
		"windDir" : 111,
		"rain" : 0,
		"cloudbase" : 370.88999999999,
		"flyability" : 0,
		"reason" : "windDir, cloudbase",
		"timestamp" :1555246800
		},
	"2019-04-14T11:00:00-04:00" : {
		"windSpeed" : 2.9,
		"windDir" : 170,
		"rain" : 1,
		"cloudbase" : 391.77,
		"flyability" : 0,
		"reason" : "windDir, rain, cloudbase",
		"timestamp" :1555257600
		},
	"2019-04-14T14:00:00-04:00" : {
		"windSpeed" : 6.7,
		"windDir" : 192,
		"rain" : 1,
		"cloudbase" : 5802.7499999996,
		"flyability" : 0,
		"reason" : "windSpeed, windDir, rain",
		"timestamp" :1555268400
		},
	"2019-04-14T17:00:00-04:00" : {
		"windSpeed" : 4.2,
		"windDir" : 181,
		"rain" : 1,
		"cloudbase" : 5905.9,
		"flyability" : 0,
		"reason" : "windDir, rain",
		"timestamp" :1555279200
		},
	"2019-04-14T20:00:00-04:00" : {
		"windSpeed" : 5,
		"windDir" : 181,
		"rain" : 1,
		"cloudbase" : 11500,
		"flyability" : 0,
		"reason" : "windDir, rain",
		"timestamp" :1555290000
		},
	"2019-04-14T23:00:00-04:00" : {
		"windSpeed" : 6,
		"windDir" : 198,
		"rain" : 1,
		"cloudbase" : 792.38000000002,
		"flyability" : 0,
		"reason" : "windSpeed, windDir, rain",
		"timestamp" :1555300800
		},
	"2019-04-15T02:00:00-04:00" : {
		"windSpeed" : 5.1,
		"windDir" : 216,
		"rain" : 0,
		"cloudbase" : null,
		"flyability" : 0,
		"reason" : "windSpeed, windDir",
		"timestamp" :1555311600
		},
	"2019-04-15T05:00:00-04:00" : {
		"windSpeed" : 3.4,
		"windDir" : 265,
		"rain" : 0,
		"cloudbase" : 2400,
		"flyability" : 100,
		"reason" : "",
		"timestamp" :1555322400
		},
	"2019-04-15T08:00:00-04:00" : {
		"windSpeed" : 5,
		"windDir" : 269,
		"rain" : 0,
		"cloudbase" : 1154.4,
		"flyability" : 100,
		"reason" : "",
		"timestamp" :1555333200
		},
	"2019-04-15T11:00:00-04:00" : {
		"windSpeed" : 6.1,
		"windDir" : 279,
		"rain" : 0,
		"cloudbase" : 969.98999999997,
		"flyability" : 0,
		"reason" : "windSpeed",
		"timestamp" :1555344000
		},
	"2019-04-15T14:00:00-04:00" : {
		"windSpeed" : 5.6,
		"windDir" : 281,
		"rain" : 0,
		"cloudbase" : 1000.29,
		"flyability" : 0,
		"reason" : "windSpeed",
		"timestamp" :1555354800
		},
	"2019-04-15T17:00:00-04:00" : {
		"windSpeed" : 5.6,
		"windDir" : 286,
		"rain" : 0,
		"cloudbase" : 1125,
		"flyability" : 0,
		"reason" : "windSpeed",
		"timestamp" :1555365600
		},
	"2019-04-15T20:00:00-04:00" : {
		"windSpeed" : 5,
		"windDir" : 300,
		"rain" : 0,
		"cloudbase" : 1092.65,
		"flyability" : 100,
		"reason" : "",
		"timestamp" :1555376400
		},
	"2019-04-15T23:00:00-04:00" : {
		"windSpeed" : 3.6,
		"windDir" : 299,
		"rain" : 0,
		"cloudbase" : null,
		"flyability" : 100,
		"reason" : "",
		"timestamp" :1555387200
		},
	"2019-04-16T02:00:00-04:00" : {
		"windSpeed" : 2.6,
		"windDir" : 285,
		"rain" : 0,
		"cloudbase" : null,
		"flyability" : 100,
		"reason" : "",
		"timestamp" :1555398000
		},
	"2019-04-16T05:00:00-04:00" : {
		"windSpeed" : 2.7,
		"windDir" : 270,
		"rain" : 0,
		"cloudbase" : null,
		"flyability" : 100,
		"reason" : "",
		"timestamp" :1555408800
		},
	"2019-04-16T08:00:00-04:00" : {
		"windSpeed" : 2.3,
		"windDir" : 259,
		"rain" : 0,
		"cloudbase" : null,
		"flyability" : 100,
		"reason" : "",
		"timestamp" :1555419600
		},
	"2019-04-16T11:00:00-04:00" : {
		"windSpeed" : 2.5,
		"windDir" : 280,
		"rain" : 0,
		"cloudbase" : 9100,
		"flyability" : 100,
		"reason" : "",
		"timestamp" :1555430400
		},
	"2019-04-16T14:00:00-04:00" : {
		"windSpeed" : 2.3,
		"windDir" : 266,
		"rain" : 0,
		"cloudbase" : null,
		"flyability" : 100,
		"reason" : "",
		"timestamp" :1555441200
		},
	"2019-04-16T17:00:00-04:00" : {
		"windSpeed" : 2.4,
		"windDir" : 249,
		"rain" : 0,
		"cloudbase" : null,
		"flyability" : 100,
		"reason" : "",
		"timestamp" :1555452000
		},
	"2019-04-16T20:00:00-04:00" : {
		"windSpeed" : 1,
		"windDir" : 246,
		"rain" : 0,
		"cloudbase" : null,
		"flyability" : 0,
		"reason" : "windDir",
		"timestamp" :1555462800
		},
	"2019-04-16T23:00:00-04:00" : {
		"windSpeed" : 2.9,
		"windDir" : 219,
		"rain" : 0,
		"cloudbase" : null,
		"flyability" : 0,
		"reason" : "windDir",
		"timestamp" :1555473600
		},
	"2019-04-17T02:00:00-04:00" : {
		"windSpeed" : 3.1,
		"windDir" : 222,
		"rain" : 0,
		"cloudbase" : null,
		"flyability" : 0,
		"reason" : "windDir",
		"timestamp" :1555484400
		},
	"2019-04-17T05:00:00-04:00" : {
		"windSpeed" : 3.2,
		"windDir" : 220,
		"rain" : 0,
		"cloudbase" : null,
		"flyability" : 0,
		"reason" : "windDir",
		"timestamp" :1555495200
		},
	"2019-04-17T08:00:00-04:00" : {
		"windSpeed" : 2.7,
		"windDir" : 216,
		"rain" : 0,
		"cloudbase" : 7167.6000000001,
		"flyability" : 0,
		"reason" : "windDir",
		"timestamp" :1555506000
		},
	"2019-04-17T11:00:00-04:00" : {
		"windSpeed" : 2.4,
		"windDir" : 212,
		"rain" : 0,
		"cloudbase" : 6250,
		"flyability" : 0,
		"reason" : "windDir",
		"timestamp" :1555516800
		},
	"2019-04-17T14:00:00-04:00" : {
		"windSpeed" : 1.7,
		"windDir" : 205,
		"rain" : 0,
		"cloudbase" : 5500,
		"flyability" : 0,
		"reason" : "windDir",
		"timestamp" :1555527600
		},
	"2019-04-17T17:00:00-04:00" : {
		"windSpeed" : 0.9,
		"windDir" : 186,
		"rain" : 0,
		"cloudbase" : 5794.1,
		"flyability" : 0,
		"reason" : "windDir",
		"timestamp" :1555538400
		},
	"2019-04-17T20:00:00-04:00" : {
		"windSpeed" : 0.4,
		"windDir" : 221,
		"rain" : 0,
		"cloudbase" : 6264.8,
		"flyability" : 0,
		"reason" : "windDir",
		"timestamp" :1555549200
		},
	"2019-04-17T23:00:00-04:00" : {
		"windSpeed" : 0.5,
		"windDir" : 222,
		"rain" : 0,
		"cloudbase" : 4448.55,
		"flyability" : 0,
		"reason" : "windDir",
		"timestamp" :1555560000
		},
	"2019-04-18T02:00:00-04:00" : {
		"windSpeed" : 0.6,
		"windDir" : 245,
		"rain" : 0,
		"cloudbase" : null,
		"flyability" : 0,
		"reason" : "windDir",
		"timestamp" :1555570800
		},
	"2019-04-18T05:00:00-04:00" : {
		"windSpeed" : 0.4,
		"windDir" : 221,
		"rain" : 0,
		"cloudbase" : null,
		"flyability" : 0,
		"reason" : "windDir",
		"timestamp" :1555581600
		},
	"2019-04-18T08:00:00-04:00" : {
		"windSpeed" : 2.2,
		"windDir" : 43,
		"rain" : 0,
		"cloudbase" : 85,
		"flyability" : 0,
		"reason" : "windDir, cloudbase",
		"timestamp" :1555592400
		},
	"2019-04-18T11:00:00-04:00" : {
		"windSpeed" : 2.2,
		"windDir" : 65,
		"rain" : 0,
		"cloudbase" : 9200,
		"flyability" : 0,
		"reason" : "windDir",
		"timestamp" :1555603200
		},
	"2019-04-18T14:00:00-04:00" : {
		"windSpeed" : 2.9,
		"windDir" : 124,
		"rain" : 0,
		"cloudbase" : null,
		"flyability" : 0,
		"reason" : "windDir",
		"timestamp" :1555614000
		},
	"2019-04-18T17:00:00-04:00" : {
		"windSpeed" : 3.5,
		"windDir" : 163,
		"rain" : 0,
		"cloudbase" : 1750,
		"flyability" : 0,
		"reason" : "windDir",
		"timestamp" :1555624800
		},
	"2019-04-18T20:00:00-04:00" : {
		"windSpeed" : 2.5,
		"windDir" : 137,
		"rain" : 0,
		"cloudbase" : 13500,
		"flyability" : 0,
		"reason" : "windDir",
		"timestamp" :1555635600
		},
	"2019-04-18T23:00:00-04:00" : {
		"windSpeed" : 3.1,
		"windDir" : 174,
		"rain" : 0,
		"cloudbase" : 13000,
		"flyability" : 0,
		"reason" : "windDir",
		"timestamp" :1555646400
		},
	"2019-04-19T02:00:00-04:00" : {
		"windSpeed" : 2.9,
		"windDir" : 199,
		"rain" : 0,
		"cloudbase" : 13000,
		"flyability" : 0,
		"reason" : "windDir",
		"timestamp" :1555657200
		},
	"2019-04-19T05:00:00-04:00" : {
		"windSpeed" : 2.9,
		"windDir" : 192,
		"rain" : 0,
		"cloudbase" : 12529.5,
		"flyability" : 0,
		"reason" : "windDir",
		"timestamp" :1555668000
		},
	"2019-04-19T08:00:00-04:00" : {
		"windSpeed" : 2.9,
		"windDir" : 190,
		"rain" : 0,
		"cloudbase" : 623.85,
		"flyability" : 0,
		"reason" : "windDir",
		"timestamp" :1555678800
		}
	}
}