{
"site" : "Economy Mountain",
"id" : 14768,
"orientations" : "00210000",
"forecasts" : { 
	"2019-04-21T12:00:00-03:00" : {
		"windSpeed" : 6.5,
		"windDir" : 184,
		"rain" : 1,
		"cloudbase" : 279.44885,
		"flyability" : 0,
		"reason" : "windSpeed, windDir, rain",
		"timestamp" :1555858800
		},
	"2019-04-21T15:00:00-03:00" : {
		"windSpeed" : 8.1,
		"windDir" : 187,
		"rain" : 1,
		"cloudbase" : 5407.1999999998,
		"flyability" : 0,
		"reason" : "windSpeed, windDir, rain",
		"timestamp" :1555869600
		},
	"2019-04-21T18:00:00-03:00" : {
		"windSpeed" : 8.1,
		"windDir" : 190,
		"rain" : 1,
		"cloudbase" : 816.88415999996,
		"flyability" : 0,
		"reason" : "windSpeed, windDir, rain",
		"timestamp" :1555880400
		},
	"2019-04-21T21:00:00-03:00" : {
		"windSpeed" : 3.5,
		"windDir" : 188,
		"rain" : 1,
		"cloudbase" : 525.74777999992,
		"flyability" : 0,
		"reason" : "windDir, rain",
		"timestamp" :1555891200
		},
	"2019-04-22T00:00:00-03:00" : {
		"windSpeed" : 4,
		"windDir" : 180,
		"rain" : 1,
		"cloudbase" : 32.851979999932,
		"flyability" : 0,
		"reason" : "windDir, rain, cloudbase",
		"timestamp" :1555902000
		},
	"2019-04-22T03:00:00-03:00" : {
		"windSpeed" : 2.5,
		"windDir" : 233,
		"rain" : 1,
		"cloudbase" : 31.829999999957,
		"flyability" : 0,
		"reason" : "windDir, rain, cloudbase",
		"timestamp" :1555912800
		},
	"2019-04-22T06:00:00-03:00" : {
		"windSpeed" : 1,
		"windDir" : 272,
		"rain" : 1,
		"cloudbase" : 30,
		"flyability" : 0,
		"reason" : "windDir, rain, cloudbase",
		"timestamp" :1555923600
		},
	"2019-04-22T09:00:00-03:00" : {
		"windSpeed" : 1.1,
		"windDir" : 300,
		"rain" : 1,
		"cloudbase" : 39.733229999999,
		"flyability" : 0,
		"reason" : "windDir, rain, cloudbase",
		"timestamp" :1555934400
		},
	"2019-04-22T12:00:00-03:00" : {
		"windSpeed" : 1.1,
		"windDir" : 63,
		"rain" : 1,
		"cloudbase" : 3550.5187900002,
		"flyability" : 0,
		"reason" : "windDir, rain",
		"timestamp" :1555945200
		},
	"2019-04-22T15:00:00-03:00" : {
		"windSpeed" : 2.5,
		"windDir" : 101,
		"rain" : 1,
		"cloudbase" : 2353.4538100001,
		"flyability" : 0,
		"reason" : "rain",
		"timestamp" :1555956000
		},
	"2019-04-22T18:00:00-03:00" : {
		"windSpeed" : 4.6,
		"windDir" : 41,
		"rain" : 1,
		"cloudbase" : 485.38646000001,
		"flyability" : 0,
		"reason" : "windDir, rain",
		"timestamp" :1555966800
		},
	"2019-04-22T21:00:00-03:00" : {
		"windSpeed" : 5.7,
		"windDir" : 45,
		"rain" : 1,
		"cloudbase" : 440.16823000001,
		"flyability" : 0,
		"reason" : "windSpeed, windDir, rain",
		"timestamp" :1555977600
		},
	"2019-04-23T00:00:00-03:00" : {
		"windSpeed" : 5.7,
		"windDir" : 52,
		"rain" : 0,
		"cloudbase" : 329.32177,
		"flyability" : 0,
		"reason" : "windSpeed, windDir",
		"timestamp" :1555988400
		},
	"2019-04-23T03:00:00-03:00" : {
		"windSpeed" : 5.3,
		"windDir" : 49,
		"rain" : 1,
		"cloudbase" : 340.46823,
		"flyability" : 0,
		"reason" : "windSpeed, windDir, rain",
		"timestamp" :1555999200
		},
	"2019-04-23T06:00:00-03:00" : {
		"windSpeed" : 6.1,
		"windDir" : 55,
		"rain" : 1,
		"cloudbase" : 490.79822999999,
		"flyability" : 0,
		"reason" : "windSpeed, windDir, rain",
		"timestamp" :1556010000
		},
	"2019-04-23T09:00:00-03:00" : {
		"windSpeed" : 6,
		"windDir" : 66,
		"rain" : 1,
		"cloudbase" : 372.25584,
		"flyability" : 0,
		"reason" : "windSpeed, windDir, rain",
		"timestamp" :1556020800
		},
	"2019-04-23T12:00:00-03:00" : {
		"windSpeed" : 6.1,
		"windDir" : 81,
		"rain" : 1,
		"cloudbase" : 338.66937999999,
		"flyability" : 0,
		"reason" : "windSpeed, rain",
		"timestamp" :1556031600
		},
	"2019-04-23T15:00:00-03:00" : {
		"windSpeed" : 7,
		"windDir" : 69,
		"rain" : 1,
		"cloudbase" : 288.34708000001,
		"flyability" : 0,
		"reason" : "windSpeed, rain",
		"timestamp" :1556042400
		},
	"2019-04-23T18:00:00-03:00" : {
		"windSpeed" : 6.5,
		"windDir" : 90,
		"rain" : 1,
		"cloudbase" : 159.26708,
		"flyability" : 0,
		"reason" : "windSpeed, rain, cloudbase",
		"timestamp" :1556053200
		},
	"2019-04-23T21:00:00-03:00" : {
		"windSpeed" : 4.6,
		"windDir" : 77,
		"rain" : 1,
		"cloudbase" : 31.055839999989,
		"flyability" : 0,
		"reason" : "rain, cloudbase",
		"timestamp" :1556064000
		},
	"2019-04-24T00:00:00-03:00" : {
		"windSpeed" : 4,
		"windDir" : 90,
		"rain" : 1,
		"cloudbase" : 30.372299999991,
		"flyability" : 0,
		"reason" : "rain, cloudbase",
		"timestamp" :1556074800
		},
	"2019-04-24T03:00:00-03:00" : {
		"windSpeed" : 1.9,
		"windDir" : 328,
		"rain" : 1,
		"cloudbase" : 30.117344999997,
		"flyability" : 0,
		"reason" : "windDir, rain, cloudbase",
		"timestamp" :1556085600
		},
	"2019-04-24T06:00:00-03:00" : {
		"windSpeed" : 3.6,
		"windDir" : 327,
		"rain" : 1,
		"cloudbase" : 258.47531,
		"flyability" : 0,
		"reason" : "windDir, rain",
		"timestamp" :1556096400
		},
	"2019-04-24T09:00:00-03:00" : {
		"windSpeed" : 3.5,
		"windDir" : 270,
		"rain" : 1,
		"cloudbase" : 94.397344999994,
		"flyability" : 0,
		"reason" : "windDir, rain, cloudbase",
		"timestamp" :1556107200
		},
	"2019-04-24T12:00:00-03:00" : {
		"windSpeed" : 4,
		"windDir" : 241,
		"rain" : 1,
		"cloudbase" : 267.42592999999,
		"flyability" : 0,
		"reason" : "windDir, rain",
		"timestamp" :1556118000
		},
	"2019-04-24T15:00:00-03:00" : {
		"windSpeed" : 1.6,
		"windDir" : 252,
		"rain" : 1,
		"cloudbase" : 3046.6420500002,
		"flyability" : 0,
		"reason" : "windDir, rain",
		"timestamp" :1556128800
		},
	"2019-04-24T18:00:00-03:00" : {
		"windSpeed" : 3,
		"windDir" : 80,
		"rain" : 1,
		"cloudbase" : 396.80052999999,
		"flyability" : 0,
		"reason" : "rain",
		"timestamp" :1556139600
		},
	"2019-04-24T21:00:00-03:00" : {
		"windSpeed" : 5.7,
		"windDir" : 74,
		"rain" : 1,
		"cloudbase" : 190.51239,
		"flyability" : 0,
		"reason" : "windSpeed, rain, cloudbase",
		"timestamp" :1556150400
		},
	"2019-04-25T00:00:00-03:00" : {
		"windSpeed" : 4.5,
		"windDir" : 84,
		"rain" : 1,
		"cloudbase" : 128.88354,
		"flyability" : 0,
		"reason" : "rain, cloudbase",
		"timestamp" :1556161200
		},
	"2019-04-25T03:00:00-03:00" : {
		"windSpeed" : 2.7,
		"windDir" : 10,
		"rain" : 1,
		"cloudbase" : 218.11,
		"flyability" : 0,
		"reason" : "windDir, rain, cloudbase",
		"timestamp" :1556172000
		},
	"2019-04-25T06:00:00-03:00" : {
		"windSpeed" : 4.3,
		"windDir" : 324,
		"rain" : 1,
		"cloudbase" : 373.62646,
		"flyability" : 0,
		"reason" : "windDir, rain",
		"timestamp" :1556182800
		},
	"2019-04-25T09:00:00-03:00" : {
		"windSpeed" : 4.3,
		"windDir" : 340,
		"rain" : 0,
		"cloudbase" : 180.85291999999,
		"flyability" : 0,
		"reason" : "windDir, cloudbase",
		"timestamp" :1556193600
		},
	"2019-04-25T12:00:00-03:00" : {
		"windSpeed" : 4.3,
		"windDir" : 339,
		"rain" : 0,
		"cloudbase" : 260.88291999999,
		"flyability" : 0,
		"reason" : "windDir",
		"timestamp" :1556204400
		},
	"2019-04-25T15:00:00-03:00" : {
		"windSpeed" : 4.3,
		"windDir" : 339,
		"rain" : 0,
		"cloudbase" : 580.29999999999,
		"flyability" : 0,
		"reason" : "windDir",
		"timestamp" :1556215200
		},
	"2019-04-25T18:00:00-03:00" : {
		"windSpeed" : 5.4,
		"windDir" : 338,
		"rain" : 0,
		"cloudbase" : 368.58822999999,
		"flyability" : 0,
		"reason" : "windSpeed, windDir",
		"timestamp" :1556226000
		},
	"2019-04-25T21:00:00-03:00" : {
		"windSpeed" : 4.5,
		"windDir" : 334,
		"rain" : 0,
		"cloudbase" : 220.76823,
		"flyability" : 0,
		"reason" : "windDir",
		"timestamp" :1556236800
		},
	"2019-04-26T00:00:00-03:00" : {
		"windSpeed" : 3.8,
		"windDir" : 337,
		"rain" : 0,
		"cloudbase" : 208.63937999999,
		"flyability" : 0,
		"reason" : "windDir, cloudbase",
		"timestamp" :1556247600
		},
	"2019-04-26T03:00:00-03:00" : {
		"windSpeed" : 3.9,
		"windDir" : 320,
		"rain" : 0,
		"cloudbase" : 206.72646,
		"flyability" : 0,
		"reason" : "windDir, cloudbase",
		"timestamp" :1556258400
		},
	"2019-04-26T06:00:00-03:00" : {
		"windSpeed" : 3.2,
		"windDir" : 342,
		"rain" : 1,
		"cloudbase" : 120.44468999999,
		"flyability" : 0,
		"reason" : "windDir, rain, cloudbase",
		"timestamp" :1556269200
		},
	"2019-04-26T09:00:00-03:00" : {
		"windSpeed" : 1.5,
		"windDir" : 1,
		"rain" : 0,
		"cloudbase" : 210.76292,
		"flyability" : 0,
		"reason" : "windDir, cloudbase",
		"timestamp" :1556280000
		},
	"2019-04-26T12:00:00-03:00" : {
		"windSpeed" : 1.5,
		"windDir" : 180,
		"rain" : 1,
		"cloudbase" : 561.11646,
		"flyability" : 0,
		"reason" : "windDir, rain",
		"timestamp" :1556290800
		},
	"2019-04-26T15:00:00-03:00" : {
		"windSpeed" : 1.1,
		"windDir" : 206,
		"rain" : 1,
		"cloudbase" : 4541.8711500003,
		"flyability" : 0,
		"reason" : "windDir, rain",
		"timestamp" :1556301600
		},
	"2019-04-26T18:00:00-03:00" : {
		"windSpeed" : 1.4,
		"windDir" : 46,
		"rain" : 1,
		"cloudbase" : 1006.0323,
		"flyability" : 0,
		"reason" : "windDir, rain",
		"timestamp" :1556312400
		},
	"2019-04-26T21:00:00-03:00" : {
		"windSpeed" : 3.1,
		"windDir" : 171,
		"rain" : 1,
		"cloudbase" : 989.75415999986,
		"flyability" : 0,
		"reason" : "windDir, rain",
		"timestamp" :1556323200
		},
	"2019-04-27T00:00:00-03:00" : {
		"windSpeed" : 3,
		"windDir" : 90,
		"rain" : 1,
		"cloudbase" : 30,
		"flyability" : 0,
		"reason" : "rain, cloudbase",
		"timestamp" :1556334000
		},
	"2019-04-27T03:00:00-03:00" : {
		"windSpeed" : 2.9,
		"windDir" : 59,
		"rain" : 1,
		"cloudbase" : 44.972655000001,
		"flyability" : 0,
		"reason" : "windDir, rain, cloudbase",
		"timestamp" :1556344800
		},
	"2019-04-27T06:00:00-03:00" : {
		"windSpeed" : 1.6,
		"windDir" : 72,
		"rain" : 1,
		"cloudbase" : 613.71916000004,
		"flyability" : 0,
		"reason" : "rain",
		"timestamp" :1556355600
		},
	"2019-04-27T09:00:00-03:00" : {
		"windSpeed" : 2.1,
		"windDir" : 225,
		"rain" : 1,
		"cloudbase" : 138.26,
		"flyability" : 0,
		"reason" : "windDir, rain, cloudbase",
		"timestamp" :1556366400
		}
	}
}