{
"site" : "Sky Road",
"id" : 15449,
"orientations" : "00002200",
"forecasts" : { 
	"2019-04-14T04:00:00+01:00" : {
		"windSpeed" : 13,
		"windDir" : 122,
		"rain" : 1,
		"cloudbase" : 902.24456000002,
		"flyability" : 0,
		"reason" : "windSpeed, windDir, rain",
		"timestamp" :1555207200
		},
	"2019-04-14T07:00:00+01:00" : {
		"windSpeed" : 12.7,
		"windDir" : 120,
		"rain" : 1,
		"cloudbase" : 781.92052000002,
		"flyability" : 0,
		"reason" : "windSpeed, windDir, rain",
		"timestamp" :1555218000
		},
	"2019-04-14T10:00:00+01:00" : {
		"windSpeed" : 12.6,
		"windDir" : 132,
		"rain" : 1,
		"cloudbase" : 499.53720000001,
		"flyability" : 0,
		"reason" : "windSpeed, windDir, rain",
		"timestamp" :1555228800
		},
	"2019-04-14T13:00:00+01:00" : {
		"windSpeed" : 13.1,
		"windDir" : 143,
		"rain" : 1,
		"cloudbase" : 599.00456,
		"flyability" : 0,
		"reason" : "windSpeed, windDir, rain",
		"timestamp" :1555239600
		},
	"2019-04-14T16:00:00+01:00" : {
		"windSpeed" : 11.6,
		"windDir" : 137,
		"rain" : 1,
		"cloudbase" : 659.71544000001,
		"flyability" : 0,
		"reason" : "windSpeed, windDir, rain",
		"timestamp" :1555250400
		},
	"2019-04-14T19:00:00+01:00" : {
		"windSpeed" : 9.3,
		"windDir" : 115,
		"rain" : 0,
		"cloudbase" : 699.04000000002,
		"flyability" : 0,
		"reason" : "windSpeed, windDir",
		"timestamp" :1555261200
		},
	"2019-04-14T22:00:00+01:00" : {
		"windSpeed" : 10,
		"windDir" : 117,
		"rain" : 1,
		"cloudbase" : 1397.8,
		"flyability" : 0,
		"reason" : "windSpeed, windDir, rain",
		"timestamp" :1555272000
		},
	"2019-04-15T01:00:00+01:00" : {
		"windSpeed" : 10.4,
		"windDir" : 115,
		"rain" : 1,
		"cloudbase" : 1499.8886,
		"flyability" : 0,
		"reason" : "windSpeed, windDir, rain",
		"timestamp" :1555282800
		},
	"2019-04-15T04:00:00+01:00" : {
		"windSpeed" : 11,
		"windDir" : 108,
		"rain" : 1,
		"cloudbase" : 1855.3456,
		"flyability" : 0,
		"reason" : "windSpeed, windDir, rain",
		"timestamp" :1555293600
		},
	"2019-04-15T07:00:00+01:00" : {
		"windSpeed" : 14.3,
		"windDir" : 110,
		"rain" : 1,
		"cloudbase" : 1453.0824,
		"flyability" : 0,
		"reason" : "windSpeed, windDir, rain",
		"timestamp" :1555304400
		},
	"2019-04-15T10:00:00+01:00" : {
		"windSpeed" : 14.5,
		"windDir" : 117,
		"rain" : 1,
		"cloudbase" : 3705.1570000001,
		"flyability" : 0,
		"reason" : "windSpeed, windDir, rain",
		"timestamp" :1555315200
		},
	"2019-04-15T13:00:00+01:00" : {
		"windSpeed" : 14.7,
		"windDir" : 118,
		"rain" : 1,
		"cloudbase" : 2014.6632,
		"flyability" : 0,
		"reason" : "windSpeed, windDir, rain",
		"timestamp" :1555326000
		},
	"2019-04-15T16:00:00+01:00" : {
		"windSpeed" : 14.7,
		"windDir" : 123,
		"rain" : 0,
		"cloudbase" : 3215.6456000001,
		"flyability" : 0,
		"reason" : "windSpeed, windDir",
		"timestamp" :1555336800
		},
	"2019-04-15T19:00:00+01:00" : {
		"windSpeed" : 13.1,
		"windDir" : 140,
		"rain" : 1,
		"cloudbase" : 960.50124,
		"flyability" : 0,
		"reason" : "windSpeed, windDir, rain",
		"timestamp" :1555347600
		},
	"2019-04-15T22:00:00+01:00" : {
		"windSpeed" : 9.6,
		"windDir" : 159,
		"rain" : 1,
		"cloudbase" : 598.34860000001,
		"flyability" : 0,
		"reason" : "windSpeed, rain",
		"timestamp" :1555358400
		},
	"2019-04-16T01:00:00+01:00" : {
		"windSpeed" : 6.9,
		"windDir" : 159,
		"rain" : 0,
		"cloudbase" : 6206.7824400005,
		"flyability" : 0,
		"reason" : "windSpeed",
		"timestamp" :1555369200
		},
	"2019-04-16T04:00:00+01:00" : {
		"windSpeed" : 5.3,
		"windDir" : 146,
		"rain" : 1,
		"cloudbase" : 8891.2,
		"flyability" : 0,
		"reason" : "windSpeed, windDir, rain",
		"timestamp" :1555380000
		},
	"2019-04-16T07:00:00+01:00" : {
		"windSpeed" : 5.4,
		"windDir" : 124,
		"rain" : 0,
		"cloudbase" : null,
		"flyability" : 0,
		"reason" : "windSpeed, windDir",
		"timestamp" :1555390800
		},
	"2019-04-16T10:00:00+01:00" : {
		"windSpeed" : 5.3,
		"windDir" : 139,
		"rain" : 1,
		"cloudbase" : 280,
		"flyability" : 0,
		"reason" : "windSpeed, windDir, rain",
		"timestamp" :1555401600
		},
	"2019-04-16T13:00:00+01:00" : {
		"windSpeed" : 5.2,
		"windDir" : 163,
		"rain" : 0,
		"cloudbase" : 9400,
		"flyability" : 0,
		"reason" : "windSpeed",
		"timestamp" :1555412400
		},
	"2019-04-16T16:00:00+01:00" : {
		"windSpeed" : 3.1,
		"windDir" : 189,
		"rain" : 0,
		"cloudbase" : 8600,
		"flyability" : 100,
		"reason" : "",
		"timestamp" :1555423200
		},
	"2019-04-16T19:00:00+01:00" : {
		"windSpeed" : 0,
		"windDir" : 109,
		"rain" : 1,
		"cloudbase" : 7000.0456,
		"flyability" : 0,
		"reason" : "windDir, rain",
		"timestamp" :1555434000
		},
	"2019-04-16T22:00:00+01:00" : {
		"windSpeed" : 5.1,
		"windDir" : 101,
		"rain" : 0,
		"cloudbase" : 8108.7544,
		"flyability" : 0,
		"reason" : "windSpeed, windDir",
		"timestamp" :1555444800
		},
	"2019-04-17T01:00:00+01:00" : {
		"windSpeed" : 6.7,
		"windDir" : 138,
		"rain" : 1,
		"cloudbase" : 9294.9772,
		"flyability" : 0,
		"reason" : "windSpeed, windDir, rain",
		"timestamp" :1555455600
		},
	"2019-04-17T04:00:00+01:00" : {
		"windSpeed" : 6.5,
		"windDir" : 122,
		"rain" : 1,
		"cloudbase" : 5722.8000000001,
		"flyability" : 0,
		"reason" : "windSpeed, windDir, rain",
		"timestamp" :1555466400
		},
	"2019-04-17T07:00:00+01:00" : {
		"windSpeed" : 7.8,
		"windDir" : 125,
		"rain" : 0,
		"cloudbase" : 237.54456000001,
		"flyability" : 0,
		"reason" : "windSpeed, windDir",
		"timestamp" :1555477200
		},
	"2019-04-17T10:00:00+01:00" : {
		"windSpeed" : 8.1,
		"windDir" : 133,
		"rain" : 1,
		"cloudbase" : 4788.943,
		"flyability" : 0,
		"reason" : "windSpeed, windDir, rain",
		"timestamp" :1555488000
		},
	"2019-04-17T13:00:00+01:00" : {
		"windSpeed" : 7.1,
		"windDir" : 129,
		"rain" : 1,
		"cloudbase" : 3148.2,
		"flyability" : 0,
		"reason" : "windSpeed, windDir, rain",
		"timestamp" :1555498800
		},
	"2019-04-17T16:00:00+01:00" : {
		"windSpeed" : 6.3,
		"windDir" : 135,
		"rain" : 0,
		"cloudbase" : 7497.3772,
		"flyability" : 0,
		"reason" : "windSpeed, windDir",
		"timestamp" :1555509600
		},
	"2019-04-17T19:00:00+01:00" : {
		"windSpeed" : 5.4,
		"windDir" : 124,
		"rain" : 0,
		"cloudbase" : 8988.6455999999,
		"flyability" : 0,
		"reason" : "windSpeed, windDir",
		"timestamp" :1555520400
		},
	"2019-04-17T22:00:00+01:00" : {
		"windSpeed" : 5.8,
		"windDir" : 110,
		"rain" : 1,
		"cloudbase" : 7605.7772000001,
		"flyability" : 0,
		"reason" : "windSpeed, windDir, rain",
		"timestamp" :1555531200
		},
	"2019-04-18T01:00:00+01:00" : {
		"windSpeed" : 6.9,
		"windDir" : 111,
		"rain" : 0,
		"cloudbase" : 8796.7772,
		"flyability" : 0,
		"reason" : "windSpeed, windDir",
		"timestamp" :1555542000
		},
	"2019-04-18T04:00:00+01:00" : {
		"windSpeed" : 7.4,
		"windDir" : 110,
		"rain" : 0,
		"cloudbase" : 5501.1544,
		"flyability" : 0,
		"reason" : "windSpeed, windDir",
		"timestamp" :1555552800
		},
	"2019-04-18T07:00:00+01:00" : {
		"windSpeed" : 7.6,
		"windDir" : 113,
		"rain" : 0,
		"cloudbase" : 5500,
		"flyability" : 0,
		"reason" : "windSpeed, windDir",
		"timestamp" :1555563600
		},
	"2019-04-18T10:00:00+01:00" : {
		"windSpeed" : 7.3,
		"windDir" : 118,
		"rain" : 0,
		"cloudbase" : 9800,
		"flyability" : 0,
		"reason" : "windSpeed, windDir",
		"timestamp" :1555574400
		},
	"2019-04-18T13:00:00+01:00" : {
		"windSpeed" : 7,
		"windDir" : 135,
		"rain" : 0,
		"cloudbase" : null,
		"flyability" : 0,
		"reason" : "windSpeed, windDir",
		"timestamp" :1555585200
		},
	"2019-04-18T16:00:00+01:00" : {
		"windSpeed" : 6.7,
		"windDir" : 138,
		"rain" : 0,
		"cloudbase" : 8999.4228,
		"flyability" : 0,
		"reason" : "windSpeed, windDir",
		"timestamp" :1555596000
		},
	"2019-04-18T19:00:00+01:00" : {
		"windSpeed" : 6.1,
		"windDir" : 145,
		"rain" : 1,
		"cloudbase" : 4172.4596000001,
		"flyability" : 0,
		"reason" : "windSpeed, windDir, rain",
		"timestamp" :1555606800
		},
	"2019-04-18T22:00:00+01:00" : {
		"windSpeed" : 5.6,
		"windDir" : 135,
		"rain" : 1,
		"cloudbase" : null,
		"flyability" : 0,
		"reason" : "windSpeed, windDir, rain",
		"timestamp" :1555617600
		},
	"2019-04-19T01:00:00+01:00" : {
		"windSpeed" : 5.6,
		"windDir" : 135,
		"rain" : 0,
		"cloudbase" : 9100,
		"flyability" : 0,
		"reason" : "windSpeed, windDir",
		"timestamp" :1555628400
		},
	"2019-04-19T04:00:00+01:00" : {
		"windSpeed" : 5.6,
		"windDir" : 135,
		"rain" : 1,
		"cloudbase" : 7802.5772,
		"flyability" : 0,
		"reason" : "windSpeed, windDir, rain",
		"timestamp" :1555639200
		},
	"2019-04-19T07:00:00+01:00" : {
		"windSpeed" : 5.6,
		"windDir" : 135,
		"rain" : 1,
		"cloudbase" : null,
		"flyability" : 0,
		"reason" : "windSpeed, windDir, rain",
		"timestamp" :1555650000
		},
	"2019-04-19T10:00:00+01:00" : {
		"windSpeed" : 6.1,
		"windDir" : 145,
		"rain" : 0,
		"cloudbase" : null,
		"flyability" : 0,
		"reason" : "windSpeed, windDir",
		"timestamp" :1555660800
		},
	"2019-04-19T13:00:00+01:00" : {
		"windSpeed" : 5.7,
		"windDir" : 165,
		"rain" : 0,
		"cloudbase" : 12003,
		"flyability" : 0,
		"reason" : "windSpeed",
		"timestamp" :1555671600
		},
	"2019-04-19T16:00:00+01:00" : {
		"windSpeed" : 3.7,
		"windDir" : 196,
		"rain" : 0,
		"cloudbase" : 9700,
		"flyability" : 100,
		"reason" : "",
		"timestamp" :1555682400
		},
	"2019-04-19T19:00:00+01:00" : {
		"windSpeed" : 1.6,
		"windDir" : 288,
		"rain" : 0,
		"cloudbase" : 10511.3824,
		"flyability" : 0,
		"reason" : "windDir",
		"timestamp" :1555693200
		},
	"2019-04-19T22:00:00+01:00" : {
		"windSpeed" : 1.1,
		"windDir" : 334,
		"rain" : 0,
		"cloudbase" : 10500,
		"flyability" : 0,
		"reason" : "windDir",
		"timestamp" :1555704000
		},
	"2019-04-20T01:00:00+01:00" : {
		"windSpeed" : 3,
		"windDir" : 170,
		"rain" : 0,
		"cloudbase" : 9895.6,
		"flyability" : 100,
		"reason" : "",
		"timestamp" :1555714800
		}
	}
}