{
"site" : "Les Tielles",
"id" : 15612,
"orientations" : "00002000",
"forecasts" : { 
	"2019-04-19T04:00:00+01:00" : {
		"windSpeed" : 6.5,
		"windDir" : 68,
		"rain" : 0,
		"cloudbase" : null,
		"flyability" : 0,
		"reason" : "windSpeed, windDir",
		"timestamp" :1555639200
		},
	"2019-04-19T07:00:00+01:00" : {
		"windSpeed" : 6.8,
		"windDir" : 63,
		"rain" : 0,
		"cloudbase" : null,
		"flyability" : 0,
		"reason" : "windSpeed, windDir",
		"timestamp" :1555650000
		},
	"2019-04-19T10:00:00+01:00" : {
		"windSpeed" : 6,
		"windDir" : 59,
		"rain" : 0,
		"cloudbase" : null,
		"flyability" : 0,
		"reason" : "windSpeed, windDir",
		"timestamp" :1555660800
		},
	"2019-04-19T13:00:00+01:00" : {
		"windSpeed" : 6.4,
		"windDir" : 46,
		"rain" : 0,
		"cloudbase" : null,
		"flyability" : 0,
		"reason" : "windSpeed, windDir",
		"timestamp" :1555671600
		},
	"2019-04-19T16:00:00+01:00" : {
		"windSpeed" : 7.1,
		"windDir" : 41,
		"rain" : 0,
		"cloudbase" : 8284.7447,
		"flyability" : 0,
		"reason" : "windSpeed, windDir",
		"timestamp" :1555682400
		},
	"2019-04-19T19:00:00+01:00" : {
		"windSpeed" : 7.1,
		"windDir" : 54,
		"rain" : 0,
		"cloudbase" : null,
		"flyability" : 0,
		"reason" : "windSpeed, windDir",
		"timestamp" :1555693200
		},
	"2019-04-19T22:00:00+01:00" : {
		"windSpeed" : 6.9,
		"windDir" : 60,
		"rain" : 0,
		"cloudbase" : null,
		"flyability" : 0,
		"reason" : "windSpeed, windDir",
		"timestamp" :1555704000
		},
	"2019-04-20T01:00:00+01:00" : {
		"windSpeed" : 6.2,
		"windDir" : 51,
		"rain" : 0,
		"cloudbase" : null,
		"flyability" : 0,
		"reason" : "windSpeed, windDir",
		"timestamp" :1555714800
		},
	"2019-04-20T04:00:00+01:00" : {
		"windSpeed" : 5.8,
		"windDir" : 39,
		"rain" : 0,
		"cloudbase" : null,
		"flyability" : 0,
		"reason" : "windSpeed, windDir",
		"timestamp" :1555725600
		},
	"2019-04-20T07:00:00+01:00" : {
		"windSpeed" : 6.4,
		"windDir" : 45,
		"rain" : 0,
		"cloudbase" : null,
		"flyability" : 0,
		"reason" : "windSpeed, windDir",
		"timestamp" :1555736400
		},
	"2019-04-20T10:00:00+01:00" : {
		"windSpeed" : 6.7,
		"windDir" : 43,
		"rain" : 0,
		"cloudbase" : null,
		"flyability" : 0,
		"reason" : "windSpeed, windDir",
		"timestamp" :1555747200
		},
	"2019-04-20T13:00:00+01:00" : {
		"windSpeed" : 7.4,
		"windDir" : 40,
		"rain" : 0,
		"cloudbase" : null,
		"flyability" : 0,
		"reason" : "windSpeed, windDir",
		"timestamp" :1555758000
		},
	"2019-04-20T16:00:00+01:00" : {
		"windSpeed" : 7.4,
		"windDir" : 37,
		"rain" : 0,
		"cloudbase" : null,
		"flyability" : 0,
		"reason" : "windSpeed, windDir",
		"timestamp" :1555768800
		},
	"2019-04-20T19:00:00+01:00" : {
		"windSpeed" : 6.9,
		"windDir" : 39,
		"rain" : 0,
		"cloudbase" : null,
		"flyability" : 0,
		"reason" : "windSpeed, windDir",
		"timestamp" :1555779600
		},
	"2019-04-20T22:00:00+01:00" : {
		"windSpeed" : 6.7,
		"windDir" : 55,
		"rain" : 0,
		"cloudbase" : null,
		"flyability" : 0,
		"reason" : "windSpeed, windDir",
		"timestamp" :1555790400
		},
	"2019-04-21T01:00:00+01:00" : {
		"windSpeed" : 6.7,
		"windDir" : 63,
		"rain" : 0,
		"cloudbase" : null,
		"flyability" : 0,
		"reason" : "windSpeed, windDir",
		"timestamp" :1555801200
		},
	"2019-04-21T04:00:00+01:00" : {
		"windSpeed" : 6.2,
		"windDir" : 62,
		"rain" : 0,
		"cloudbase" : null,
		"flyability" : 0,
		"reason" : "windSpeed, windDir",
		"timestamp" :1555812000
		},
	"2019-04-21T07:00:00+01:00" : {
		"windSpeed" : 6.4,
		"windDir" : 48,
		"rain" : 0,
		"cloudbase" : null,
		"flyability" : 0,
		"reason" : "windSpeed, windDir",
		"timestamp" :1555822800
		},
	"2019-04-21T10:00:00+01:00" : {
		"windSpeed" : 6.3,
		"windDir" : 52,
		"rain" : 0,
		"cloudbase" : null,
		"flyability" : 0,
		"reason" : "windSpeed, windDir",
		"timestamp" :1555833600
		},
	"2019-04-21T13:00:00+01:00" : {
		"windSpeed" : 5.9,
		"windDir" : 49,
		"rain" : 0,
		"cloudbase" : null,
		"flyability" : 0,
		"reason" : "windSpeed, windDir",
		"timestamp" :1555844400
		},
	"2019-04-21T16:00:00+01:00" : {
		"windSpeed" : 5.9,
		"windDir" : 42,
		"rain" : 0,
		"cloudbase" : null,
		"flyability" : 0,
		"reason" : "windSpeed, windDir",
		"timestamp" :1555855200
		},
	"2019-04-21T19:00:00+01:00" : {
		"windSpeed" : 5.6,
		"windDir" : 46,
		"rain" : 0,
		"cloudbase" : null,
		"flyability" : 0,
		"reason" : "windSpeed, windDir",
		"timestamp" :1555866000
		},
	"2019-04-21T22:00:00+01:00" : {
		"windSpeed" : 5.5,
		"windDir" : 70,
		"rain" : 0,
		"cloudbase" : null,
		"flyability" : 0,
		"reason" : "windSpeed, windDir",
		"timestamp" :1555876800
		},
	"2019-04-22T01:00:00+01:00" : {
		"windSpeed" : 5,
		"windDir" : 78,
		"rain" : 0,
		"cloudbase" : null,
		"flyability" : 0,
		"reason" : "windDir",
		"timestamp" :1555887600
		},
	"2019-04-22T04:00:00+01:00" : {
		"windSpeed" : 4.3,
		"windDir" : 118,
		"rain" : 0,
		"cloudbase" : null,
		"flyability" : 0,
		"reason" : "windDir",
		"timestamp" :1555898400
		},
	"2019-04-22T07:00:00+01:00" : {
		"windSpeed" : 5.4,
		"windDir" : 123,
		"rain" : 0,
		"cloudbase" : null,
		"flyability" : 0,
		"reason" : "windSpeed, windDir",
		"timestamp" :1555909200
		},
	"2019-04-22T10:00:00+01:00" : {
		"windSpeed" : 5.7,
		"windDir" : 142,
		"rain" : 0,
		"cloudbase" : 7500,
		"flyability" : 0,
		"reason" : "windSpeed, windDir",
		"timestamp" :1555920000
		},
	"2019-04-22T13:00:00+01:00" : {
		"windSpeed" : 3.7,
		"windDir" : 146,
		"rain" : 0,
		"cloudbase" : 3186.15,
		"flyability" : 0,
		"reason" : "windDir",
		"timestamp" :1555930800
		},
	"2019-04-22T16:00:00+01:00" : {
		"windSpeed" : 3.5,
		"windDir" : 94,
		"rain" : 0,
		"cloudbase" : 10500,
		"flyability" : 0,
		"reason" : "windDir",
		"timestamp" :1555941600
		},
	"2019-04-22T19:00:00+01:00" : {
		"windSpeed" : 3.1,
		"windDir" : 62,
		"rain" : 0,
		"cloudbase" : 2657.62765,
		"flyability" : 0,
		"reason" : "windDir",
		"timestamp" :1555952400
		},
	"2019-04-22T22:00:00+01:00" : {
		"windSpeed" : 3.3,
		"windDir" : 72,
		"rain" : 1,
		"cloudbase" : 2939.3553,
		"flyability" : 0,
		"reason" : "windDir, rain",
		"timestamp" :1555963200
		},
	"2019-04-23T01:00:00+01:00" : {
		"windSpeed" : 6.5,
		"windDir" : 93,
		"rain" : 0,
		"cloudbase" : 2824.68295,
		"flyability" : 0,
		"reason" : "windSpeed, windDir",
		"timestamp" :1555974000
		},
	"2019-04-23T04:00:00+01:00" : {
		"windSpeed" : 6.3,
		"windDir" : 119,
		"rain" : 1,
		"cloudbase" : 3218.27235,
		"flyability" : 0,
		"reason" : "windSpeed, windDir, rain",
		"timestamp" :1555984800
		},
	"2019-04-23T07:00:00+01:00" : {
		"windSpeed" : 6.4,
		"windDir" : 129,
		"rain" : 0,
		"cloudbase" : 8860.7894,
		"flyability" : 0,
		"reason" : "windSpeed, windDir",
		"timestamp" :1555995600
		},
	"2019-04-23T10:00:00+01:00" : {
		"windSpeed" : 6.2,
		"windDir" : 126,
		"rain" : 0,
		"cloudbase" : 5400,
		"flyability" : 0,
		"reason" : "windSpeed, windDir",
		"timestamp" :1556006400
		},
	"2019-04-23T13:00:00+01:00" : {
		"windSpeed" : 5.3,
		"windDir" : 95,
		"rain" : 0,
		"cloudbase" : 2139.3553,
		"flyability" : 0,
		"reason" : "windSpeed, windDir",
		"timestamp" :1556017200
		},
	"2019-04-23T16:00:00+01:00" : {
		"windSpeed" : 5.7,
		"windDir" : 62,
		"rain" : 0,
		"cloudbase" : 2360.01705,
		"flyability" : 0,
		"reason" : "windSpeed, windDir",
		"timestamp" :1556028000
		},
	"2019-04-23T19:00:00+01:00" : {
		"windSpeed" : 6.2,
		"windDir" : 106,
		"rain" : 1,
		"cloudbase" : 1982.3553,
		"flyability" : 0,
		"reason" : "windSpeed, windDir, rain",
		"timestamp" :1556038800
		},
	"2019-04-23T22:00:00+01:00" : {
		"windSpeed" : 8.1,
		"windDir" : 151,
		"rain" : 1,
		"cloudbase" : 7694.0553,
		"flyability" : 0,
		"reason" : "windSpeed, windDir, rain",
		"timestamp" :1556049600
		},
	"2019-04-24T01:00:00+01:00" : {
		"windSpeed" : 9.6,
		"windDir" : 159,
		"rain" : 0,
		"cloudbase" : 6941.8553,
		"flyability" : 0,
		"reason" : "windSpeed",
		"timestamp" :1556060400
		},
	"2019-04-24T04:00:00+01:00" : {
		"windSpeed" : 12.3,
		"windDir" : 166,
		"rain" : 1,
		"cloudbase" : 5923.9447,
		"flyability" : 0,
		"reason" : "windSpeed, rain",
		"timestamp" :1556071200
		},
	"2019-04-24T07:00:00+01:00" : {
		"windSpeed" : 12.2,
		"windDir" : 169,
		"rain" : 0,
		"cloudbase" : 7718.8553,
		"flyability" : 0,
		"reason" : "windSpeed",
		"timestamp" :1556082000
		},
	"2019-04-24T10:00:00+01:00" : {
		"windSpeed" : 11.5,
		"windDir" : 162,
		"rain" : 0,
		"cloudbase" : null,
		"flyability" : 0,
		"reason" : "windSpeed",
		"timestamp" :1556092800
		},
	"2019-04-24T13:00:00+01:00" : {
		"windSpeed" : 10.8,
		"windDir" : 163,
		"rain" : 0,
		"cloudbase" : 6600,
		"flyability" : 0,
		"reason" : "windSpeed",
		"timestamp" :1556103600
		},
	"2019-04-24T16:00:00+01:00" : {
		"windSpeed" : 9.8,
		"windDir" : 139,
		"rain" : 0,
		"cloudbase" : null,
		"flyability" : 0,
		"reason" : "windSpeed, windDir",
		"timestamp" :1556114400
		},
	"2019-04-24T19:00:00+01:00" : {
		"windSpeed" : 9.7,
		"windDir" : 145,
		"rain" : 0,
		"cloudbase" : 5620.3447,
		"flyability" : 0,
		"reason" : "windSpeed, windDir",
		"timestamp" :1556125200
		},
	"2019-04-24T22:00:00+01:00" : {
		"windSpeed" : 12.9,
		"windDir" : 150,
		"rain" : 1,
		"cloudbase" : 972.40894,
		"flyability" : 0,
		"reason" : "windSpeed, windDir, rain",
		"timestamp" :1556136000
		},
	"2019-04-25T01:00:00+01:00" : {
		"windSpeed" : 10.9,
		"windDir" : 158,
		"rain" : 1,
		"cloudbase" : 1183.18023,
		"flyability" : 0,
		"reason" : "windSpeed, rain",
		"timestamp" :1556146800
		}
	}
}