{
"site" : "Lespignan Slope School",
"id" : 15630,
"orientations" : "00012000",
"forecasts" : { 
	"2019-04-21T05:00:00+02:00" : {
		"windSpeed" : 4.6,
		"windDir" : 6,
		"rain" : 1,
		"cloudbase" : 3386.4,
		"flyability" : 0,
		"reason" : "windDir, rain",
		"timestamp" :1555819200
		},
	"2019-04-21T08:00:00+02:00" : {
		"windSpeed" : 4.2,
		"windDir" : 31,
		"rain" : 0,
		"cloudbase" : 3550,
		"flyability" : 0,
		"reason" : "windDir",
		"timestamp" :1555830000
		},
	"2019-04-21T11:00:00+02:00" : {
		"windSpeed" : 4.6,
		"windDir" : 92,
		"rain" : 1,
		"cloudbase" : 2099.8,
		"flyability" : 0,
		"reason" : "windDir, rain",
		"timestamp" :1555840800
		},
	"2019-04-21T14:00:00+02:00" : {
		"windSpeed" : 7.2,
		"windDir" : 90,
		"rain" : 1,
		"cloudbase" : 2850,
		"flyability" : 0,
		"reason" : "windSpeed, windDir, rain",
		"timestamp" :1555851600
		},
	"2019-04-21T17:00:00+02:00" : {
		"windSpeed" : 5.2,
		"windDir" : 90,
		"rain" : 0,
		"cloudbase" : 3042,
		"flyability" : 0,
		"reason" : "windSpeed, windDir",
		"timestamp" :1555862400
		},
	"2019-04-21T20:00:00+02:00" : {
		"windSpeed" : 1.4,
		"windDir" : 72,
		"rain" : 0,
		"cloudbase" : 3203.6,
		"flyability" : 0,
		"reason" : "windDir",
		"timestamp" :1555873200
		},
	"2019-04-21T23:00:00+02:00" : {
		"windSpeed" : 3.5,
		"windDir" : 49,
		"rain" : 0,
		"cloudbase" : 9600,
		"flyability" : 0,
		"reason" : "windDir",
		"timestamp" :1555884000
		},
	"2019-04-22T02:00:00+02:00" : {
		"windSpeed" : 5.1,
		"windDir" : 73,
		"rain" : 0,
		"cloudbase" : 2650,
		"flyability" : 0,
		"reason" : "windSpeed, windDir",
		"timestamp" :1555894800
		},
	"2019-04-22T05:00:00+02:00" : {
		"windSpeed" : 3,
		"windDir" : 35,
		"rain" : 0,
		"cloudbase" : null,
		"flyability" : 0,
		"reason" : "windDir",
		"timestamp" :1555905600
		},
	"2019-04-22T08:00:00+02:00" : {
		"windSpeed" : 1.7,
		"windDir" : 39,
		"rain" : 1,
		"cloudbase" : 8326,
		"flyability" : 0,
		"reason" : "windDir, rain",
		"timestamp" :1555916400
		},
	"2019-04-22T11:00:00+02:00" : {
		"windSpeed" : 4.2,
		"windDir" : 84,
		"rain" : 0,
		"cloudbase" : null,
		"flyability" : 0,
		"reason" : "windDir",
		"timestamp" :1555927200
		},
	"2019-04-22T14:00:00+02:00" : {
		"windSpeed" : 4.7,
		"windDir" : 129,
		"rain" : 0,
		"cloudbase" : 9200,
		"flyability" : 100,
		"reason" : "",
		"timestamp" :1555938000
		},
	"2019-04-22T17:00:00+02:00" : {
		"windSpeed" : 2.1,
		"windDir" : 180,
		"rain" : 0,
		"cloudbase" : null,
		"flyability" : 100,
		"reason" : "",
		"timestamp" :1555948800
		},
	"2019-04-22T20:00:00+02:00" : {
		"windSpeed" : 5.8,
		"windDir" : 110,
		"rain" : 0,
		"cloudbase" : 7949.2,
		"flyability" : 0,
		"reason" : "windSpeed, windDir",
		"timestamp" :1555959600
		},
	"2019-04-22T23:00:00+02:00" : {
		"windSpeed" : 3.6,
		"windDir" : 53,
		"rain" : 1,
		"cloudbase" : 2025.8,
		"flyability" : 0,
		"reason" : "windDir, rain",
		"timestamp" :1555970400
		},
	"2019-04-23T02:00:00+02:00" : {
		"windSpeed" : 1.5,
		"windDir" : 12,
		"rain" : 1,
		"cloudbase" : 1455,
		"flyability" : 0,
		"reason" : "windDir, rain",
		"timestamp" :1555981200
		},
	"2019-04-23T05:00:00+02:00" : {
		"windSpeed" : 1.7,
		"windDir" : 10,
		"rain" : 1,
		"cloudbase" : 1487,
		"flyability" : 0,
		"reason" : "windDir, rain",
		"timestamp" :1555992000
		},
	"2019-04-23T08:00:00+02:00" : {
		"windSpeed" : 3.7,
		"windDir" : 36,
		"rain" : 1,
		"cloudbase" : 1101.2,
		"flyability" : 0,
		"reason" : "windDir, rain",
		"timestamp" :1556002800
		},
	"2019-04-23T11:00:00+02:00" : {
		"windSpeed" : 5.2,
		"windDir" : 61,
		"rain" : 1,
		"cloudbase" : 940.67999999999,
		"flyability" : 0,
		"reason" : "windSpeed, windDir, rain",
		"timestamp" :1556013600
		},
	"2019-04-23T14:00:00+02:00" : {
		"windSpeed" : 3.9,
		"windDir" : 72,
		"rain" : 1,
		"cloudbase" : 834.2,
		"flyability" : 0,
		"reason" : "windDir, rain",
		"timestamp" :1556024400
		},
	"2019-04-23T17:00:00+02:00" : {
		"windSpeed" : 7,
		"windDir" : 95,
		"rain" : 1,
		"cloudbase" : 300.59999999999,
		"flyability" : 0,
		"reason" : "windSpeed, windDir, rain",
		"timestamp" :1556035200
		},
	"2019-04-23T20:00:00+02:00" : {
		"windSpeed" : 5.1,
		"windDir" : 104,
		"rain" : 1,
		"cloudbase" : 205.06,
		"flyability" : 0,
		"reason" : "windSpeed, windDir, rain",
		"timestamp" :1556046000
		},
	"2019-04-23T23:00:00+02:00" : {
		"windSpeed" : 4.2,
		"windDir" : 122,
		"rain" : 1,
		"cloudbase" : 6700,
		"flyability" : 0,
		"reason" : "rain",
		"timestamp" :1556056800
		},
	"2019-04-24T02:00:00+02:00" : {
		"windSpeed" : 7.2,
		"windDir" : 155,
		"rain" : 0,
		"cloudbase" : 8577.8,
		"flyability" : 0,
		"reason" : "windSpeed",
		"timestamp" :1556067600
		},
	"2019-04-24T05:00:00+02:00" : {
		"windSpeed" : 6.9,
		"windDir" : 145,
		"rain" : 0,
		"cloudbase" : 3818.8999999996,
		"flyability" : 0,
		"reason" : "windSpeed",
		"timestamp" :1556078400
		},
	"2019-04-24T08:00:00+02:00" : {
		"windSpeed" : 7,
		"windDir" : 174,
		"rain" : 0,
		"cloudbase" : 5700,
		"flyability" : 0,
		"reason" : "windSpeed",
		"timestamp" :1556089200
		},
	"2019-04-24T11:00:00+02:00" : {
		"windSpeed" : 6.4,
		"windDir" : 181,
		"rain" : 0,
		"cloudbase" : 8800,
		"flyability" : 0,
		"reason" : "windSpeed",
		"timestamp" :1556100000
		},
	"2019-04-24T14:00:00+02:00" : {
		"windSpeed" : 11,
		"windDir" : 156,
		"rain" : 0,
		"cloudbase" : null,
		"flyability" : 0,
		"reason" : "windSpeed",
		"timestamp" :1556110800
		},
	"2019-04-24T17:00:00+02:00" : {
		"windSpeed" : 11.6,
		"windDir" : 160,
		"rain" : 0,
		"cloudbase" : null,
		"flyability" : 0,
		"reason" : "windSpeed",
		"timestamp" :1556121600
		},
	"2019-04-24T20:00:00+02:00" : {
		"windSpeed" : 9.1,
		"windDir" : 161,
		"rain" : 0,
		"cloudbase" : null,
		"flyability" : 0,
		"reason" : "windSpeed",
		"timestamp" :1556132400
		},
	"2019-04-24T23:00:00+02:00" : {
		"windSpeed" : 7.3,
		"windDir" : 165,
		"rain" : 0,
		"cloudbase" : 6255.6,
		"flyability" : 0,
		"reason" : "windSpeed",
		"timestamp" :1556143200
		},
	"2019-04-25T02:00:00+02:00" : {
		"windSpeed" : 7.7,
		"windDir" : 170,
		"rain" : 1,
		"cloudbase" : 6962.4,
		"flyability" : 0,
		"reason" : "windSpeed, rain",
		"timestamp" :1556154000
		},
	"2019-04-25T05:00:00+02:00" : {
		"windSpeed" : 8.9,
		"windDir" : 163,
		"rain" : 0,
		"cloudbase" : 6609.9999999999,
		"flyability" : 0,
		"reason" : "windSpeed",
		"timestamp" :1556164800
		},
	"2019-04-25T08:00:00+02:00" : {
		"windSpeed" : 11.6,
		"windDir" : 163,
		"rain" : 1,
		"cloudbase" : 7748.2,
		"flyability" : 0,
		"reason" : "windSpeed, rain",
		"timestamp" :1556175600
		},
	"2019-04-25T11:00:00+02:00" : {
		"windSpeed" : 13.5,
		"windDir" : 154,
		"rain" : 0,
		"cloudbase" : 7600,
		"flyability" : 0,
		"reason" : "windSpeed",
		"timestamp" :1556186400
		},
	"2019-04-25T14:00:00+02:00" : {
		"windSpeed" : 13.1,
		"windDir" : 147,
		"rain" : 0,
		"cloudbase" : null,
		"flyability" : 0,
		"reason" : "windSpeed",
		"timestamp" :1556197200
		},
	"2019-04-25T17:00:00+02:00" : {
		"windSpeed" : 9.9,
		"windDir" : 157,
		"rain" : 1,
		"cloudbase" : null,
		"flyability" : 0,
		"reason" : "windSpeed, rain",
		"timestamp" :1556208000
		},
	"2019-04-25T20:00:00+02:00" : {
		"windSpeed" : 6.2,
		"windDir" : 171,
		"rain" : 0,
		"cloudbase" : null,
		"flyability" : 0,
		"reason" : "windSpeed",
		"timestamp" :1556218800
		},
	"2019-04-25T23:00:00+02:00" : {
		"windSpeed" : 2.2,
		"windDir" : 356,
		"rain" : 1,
		"cloudbase" : null,
		"flyability" : 0,
		"reason" : "windDir, rain",
		"timestamp" :1556229600
		},
	"2019-04-26T02:00:00+02:00" : {
		"windSpeed" : 2.8,
		"windDir" : 5,
		"rain" : 1,
		"cloudbase" : null,
		"flyability" : 0,
		"reason" : "windDir, rain",
		"timestamp" :1556240400
		},
	"2019-04-26T05:00:00+02:00" : {
		"windSpeed" : 2.6,
		"windDir" : 295,
		"rain" : 0,
		"cloudbase" : null,
		"flyability" : 0,
		"reason" : "windDir",
		"timestamp" :1556251200
		},
	"2019-04-26T08:00:00+02:00" : {
		"windSpeed" : 1.2,
		"windDir" : 270,
		"rain" : 0,
		"cloudbase" : null,
		"flyability" : 0,
		"reason" : "windDir",
		"timestamp" :1556262000
		},
	"2019-04-26T11:00:00+02:00" : {
		"windSpeed" : 5.8,
		"windDir" : 293,
		"rain" : 0,
		"cloudbase" : null,
		"flyability" : 0,
		"reason" : "windSpeed, windDir",
		"timestamp" :1556272800
		},
	"2019-04-26T14:00:00+02:00" : {
		"windSpeed" : 7.4,
		"windDir" : 298,
		"rain" : 0,
		"cloudbase" : null,
		"flyability" : 0,
		"reason" : "windSpeed, windDir",
		"timestamp" :1556283600
		},
	"2019-04-26T17:00:00+02:00" : {
		"windSpeed" : 9.1,
		"windDir" : 304,
		"rain" : 0,
		"cloudbase" : null,
		"flyability" : 0,
		"reason" : "windSpeed, windDir",
		"timestamp" :1556294400
		},
	"2019-04-26T20:00:00+02:00" : {
		"windSpeed" : 4.6,
		"windDir" : 303,
		"rain" : 1,
		"cloudbase" : null,
		"flyability" : 0,
		"reason" : "windDir, rain",
		"timestamp" :1556305200
		},
	"2019-04-26T23:00:00+02:00" : {
		"windSpeed" : 4.1,
		"windDir" : 290,
		"rain" : 1,
		"cloudbase" : null,
		"flyability" : 0,
		"reason" : "windDir, rain",
		"timestamp" :1556316000
		},
	"2019-04-27T02:00:00+02:00" : {
		"windSpeed" : 4.8,
		"windDir" : 285,
		"rain" : 0,
		"cloudbase" : null,
		"flyability" : 0,
		"reason" : "windDir",
		"timestamp" :1556326800
		}
	}
}