{
"site" : "Azacualpa",
"id" : 15670,
"orientations" : "00200000",
"forecasts" : { 
	"2019-04-02T21:00:00-06:00" : {
		"windSpeed" : 3.2,
		"windDir" : 50,
		"rain" : 0,
		"cloudbase" : null,
		"flyability" : 0,
		"reason" : "windDir",
		"timestamp" :1554260400
		},
	"2019-04-03T00:00:00-06:00" : {
		"windSpeed" : 3.2,
		"windDir" : 43,
		"rain" : 1,
		"cloudbase" : null,
		"flyability" : 0,
		"reason" : "windDir, rain",
		"timestamp" :1554271200
		},
	"2019-04-03T03:00:00-06:00" : {
		"windSpeed" : 3.5,
		"windDir" : 35,
		"rain" : 1,
		"cloudbase" : 150,
		"flyability" : 0,
		"reason" : "windDir, rain, cloudbase",
		"timestamp" :1554282000
		},
	"2019-04-03T06:00:00-06:00" : {
		"windSpeed" : 4,
		"windDir" : 39,
		"rain" : 1,
		"cloudbase" : null,
		"flyability" : 0,
		"reason" : "windDir, rain",
		"timestamp" :1554292800
		},
	"2019-04-03T09:00:00-06:00" : {
		"windSpeed" : 5.5,
		"windDir" : 50,
		"rain" : 1,
		"cloudbase" : null,
		"flyability" : 0,
		"reason" : "windSpeed, windDir, rain",
		"timestamp" :1554303600
		},
	"2019-04-03T12:00:00-06:00" : {
		"windSpeed" : 5.3,
		"windDir" : 58,
		"rain" : 0,
		"cloudbase" : null,
		"flyability" : 0,
		"reason" : "windSpeed, windDir",
		"timestamp" :1554314400
		},
	"2019-04-03T15:00:00-06:00" : {
		"windSpeed" : 4.7,
		"windDir" : 58,
		"rain" : 0,
		"cloudbase" : null,
		"flyability" : 0,
		"reason" : "windDir",
		"timestamp" :1554325200
		},
	"2019-04-03T18:00:00-06:00" : {
		"windSpeed" : 3,
		"windDir" : 48,
		"rain" : 0,
		"cloudbase" : null,
		"flyability" : 0,
		"reason" : "windDir",
		"timestamp" :1554336000
		},
	"2019-04-03T21:00:00-06:00" : {
		"windSpeed" : 3.6,
		"windDir" : 51,
		"rain" : 0,
		"cloudbase" : null,
		"flyability" : 0,
		"reason" : "windDir",
		"timestamp" :1554346800
		},
	"2019-04-04T00:00:00-06:00" : {
		"windSpeed" : 3.5,
		"windDir" : 35,
		"rain" : 0,
		"cloudbase" : null,
		"flyability" : 0,
		"reason" : "windDir",
		"timestamp" :1554357600
		},
	"2019-04-04T03:00:00-06:00" : {
		"windSpeed" : 3.8,
		"windDir" : 36,
		"rain" : 0,
		"cloudbase" : 180,
		"flyability" : 0,
		"reason" : "windDir, cloudbase",
		"timestamp" :1554368400
		},
	"2019-04-04T06:00:00-06:00" : {
		"windSpeed" : 3.9,
		"windDir" : 36,
		"rain" : 0,
		"cloudbase" : 55,
		"flyability" : 0,
		"reason" : "windDir, cloudbase",
		"timestamp" :1554379200
		},
	"2019-04-04T09:00:00-06:00" : {
		"windSpeed" : 5.1,
		"windDir" : 53,
		"rain" : 0,
		"cloudbase" : null,
		"flyability" : 0,
		"reason" : "windSpeed, windDir",
		"timestamp" :1554390000
		},
	"2019-04-04T12:00:00-06:00" : {
		"windSpeed" : 3.8,
		"windDir" : 59,
		"rain" : 0,
		"cloudbase" : 9800,
		"flyability" : 0,
		"reason" : "windDir",
		"timestamp" :1554400800
		},
	"2019-04-04T15:00:00-06:00" : {
		"windSpeed" : 3,
		"windDir" : 65,
		"rain" : 0,
		"cloudbase" : null,
		"flyability" : 0,
		"reason" : "windDir",
		"timestamp" :1554411600
		},
	"2019-04-04T18:00:00-06:00" : {
		"windSpeed" : 2.3,
		"windDir" : 77,
		"rain" : 0,
		"cloudbase" : 8840.3904,
		"flyability" : 100,
		"reason" : "",
		"timestamp" :1554422400
		},
	"2019-04-04T21:00:00-06:00" : {
		"windSpeed" : 2,
		"windDir" : 61,
		"rain" : 0,
		"cloudbase" : 8296.8968,
		"flyability" : 0,
		"reason" : "windDir",
		"timestamp" :1554433200
		},
	"2019-04-05T00:00:00-06:00" : {
		"windSpeed" : 1.9,
		"windDir" : 39,
		"rain" : 0,
		"cloudbase" : null,
		"flyability" : 0,
		"reason" : "windDir",
		"timestamp" :1554444000
		},
	"2019-04-05T03:00:00-06:00" : {
		"windSpeed" : 2.1,
		"windDir" : 28,
		"rain" : 0,
		"cloudbase" : null,
		"flyability" : 0,
		"reason" : "windDir",
		"timestamp" :1554454800
		},
	"2019-04-05T06:00:00-06:00" : {
		"windSpeed" : 2.5,
		"windDir" : 23,
		"rain" : 0,
		"cloudbase" : 120,
		"flyability" : 0,
		"reason" : "windDir, cloudbase",
		"timestamp" :1554465600
		},
	"2019-04-05T09:00:00-06:00" : {
		"windSpeed" : 3.5,
		"windDir" : 50,
		"rain" : 0,
		"cloudbase" : null,
		"flyability" : 0,
		"reason" : "windDir",
		"timestamp" :1554476400
		},
	"2019-04-05T12:00:00-06:00" : {
		"windSpeed" : 3.1,
		"windDir" : 77,
		"rain" : 0,
		"cloudbase" : null,
		"flyability" : 100,
		"reason" : "",
		"timestamp" :1554487200
		},
	"2019-04-05T15:00:00-06:00" : {
		"windSpeed" : 3,
		"windDir" : 65,
		"rain" : 1,
		"cloudbase" : null,
		"flyability" : 0,
		"reason" : "windDir, rain",
		"timestamp" :1554498000
		},
	"2019-04-05T18:00:00-06:00" : {
		"windSpeed" : 1.7,
		"windDir" : 57,
		"rain" : 1,
		"cloudbase" : 3450,
		"flyability" : 0,
		"reason" : "windDir, rain",
		"timestamp" :1554508800
		},
	"2019-04-05T21:00:00-06:00" : {
		"windSpeed" : 2.3,
		"windDir" : 72,
		"rain" : 1,
		"cloudbase" : null,
		"flyability" : 0,
		"reason" : "rain",
		"timestamp" :1554519600
		},
	"2019-04-06T00:00:00-06:00" : {
		"windSpeed" : 1.6,
		"windDir" : 38,
		"rain" : 0,
		"cloudbase" : null,
		"flyability" : 0,
		"reason" : "windDir",
		"timestamp" :1554530400
		},
	"2019-04-06T03:00:00-06:00" : {
		"windSpeed" : 2.1,
		"windDir" : 29,
		"rain" : 0,
		"cloudbase" : null,
		"flyability" : 0,
		"reason" : "windDir",
		"timestamp" :1554541200
		},
	"2019-04-06T06:00:00-06:00" : {
		"windSpeed" : 2.6,
		"windDir" : 29,
		"rain" : 0,
		"cloudbase" : null,
		"flyability" : 0,
		"reason" : "windDir",
		"timestamp" :1554552000
		},
	"2019-04-06T09:00:00-06:00" : {
		"windSpeed" : 3.1,
		"windDir" : 55,
		"rain" : 0,
		"cloudbase" : null,
		"flyability" : 0,
		"reason" : "windDir",
		"timestamp" :1554562800
		},
	"2019-04-06T12:00:00-06:00" : {
		"windSpeed" : 3.4,
		"windDir" : 78,
		"rain" : 0,
		"cloudbase" : null,
		"flyability" : 100,
		"reason" : "",
		"timestamp" :1554573600
		},
	"2019-04-06T15:00:00-06:00" : {
		"windSpeed" : 3.4,
		"windDir" : 72,
		"rain" : 0,
		"cloudbase" : null,
		"flyability" : 100,
		"reason" : "",
		"timestamp" :1554584400
		},
	"2019-04-06T18:00:00-06:00" : {
		"windSpeed" : 1,
		"windDir" : 115,
		"rain" : 0,
		"cloudbase" : 3000,
		"flyability" : 0,
		"reason" : "windDir",
		"timestamp" :1554595200
		},
	"2019-04-06T21:00:00-06:00" : {
		"windSpeed" : 0.3,
		"windDir" : 164,
		"rain" : 0,
		"cloudbase" : null,
		"flyability" : 0,
		"reason" : "windDir",
		"timestamp" :1554606000
		},
	"2019-04-07T00:00:00-06:00" : {
		"windSpeed" : 1.4,
		"windDir" : 31,
		"rain" : 0,
		"cloudbase" : null,
		"flyability" : 0,
		"reason" : "windDir",
		"timestamp" :1554616800
		},
	"2019-04-07T03:00:00-06:00" : {
		"windSpeed" : 2.2,
		"windDir" : 44,
		"rain" : 0,
		"cloudbase" : null,
		"flyability" : 0,
		"reason" : "windDir",
		"timestamp" :1554627600
		},
	"2019-04-07T06:00:00-06:00" : {
		"windSpeed" : 2.3,
		"windDir" : 40,
		"rain" : 0,
		"cloudbase" : null,
		"flyability" : 0,
		"reason" : "windDir",
		"timestamp" :1554638400
		},
	"2019-04-07T09:00:00-06:00" : {
		"windSpeed" : 2.8,
		"windDir" : 63,
		"rain" : 0,
		"cloudbase" : null,
		"flyability" : 0,
		"reason" : "windDir",
		"timestamp" :1554649200
		},
	"2019-04-07T12:00:00-06:00" : {
		"windSpeed" : 2.5,
		"windDir" : 79,
		"rain" : 0,
		"cloudbase" : null,
		"flyability" : 100,
		"reason" : "",
		"timestamp" :1554660000
		},
	"2019-04-07T15:00:00-06:00" : {
		"windSpeed" : 0.9,
		"windDir" : 150,
		"rain" : 0,
		"cloudbase" : 2550,
		"flyability" : 0,
		"reason" : "windDir",
		"timestamp" :1554670800
		},
	"2019-04-07T18:00:00-06:00" : {
		"windSpeed" : 2.6,
		"windDir" : 218,
		"rain" : 0,
		"cloudbase" : null,
		"flyability" : 0,
		"reason" : "windDir",
		"timestamp" :1554681600
		},
	"2019-04-07T21:00:00-06:00" : {
		"windSpeed" : 1.5,
		"windDir" : 204,
		"rain" : 1,
		"cloudbase" : null,
		"flyability" : 0,
		"reason" : "windDir, rain",
		"timestamp" :1554692400
		},
	"2019-04-08T00:00:00-06:00" : {
		"windSpeed" : 0.5,
		"windDir" : 94,
		"rain" : 1,
		"cloudbase" : null,
		"flyability" : 0,
		"reason" : "rain",
		"timestamp" :1554703200
		},
	"2019-04-08T03:00:00-06:00" : {
		"windSpeed" : 1,
		"windDir" : 46,
		"rain" : 0,
		"cloudbase" : null,
		"flyability" : 0,
		"reason" : "windDir",
		"timestamp" :1554714000
		},
	"2019-04-08T06:00:00-06:00" : {
		"windSpeed" : 1.5,
		"windDir" : 31,
		"rain" : 0,
		"cloudbase" : null,
		"flyability" : 0,
		"reason" : "windDir",
		"timestamp" :1554724800
		},
	"2019-04-08T09:00:00-06:00" : {
		"windSpeed" : 0.8,
		"windDir" : 58,
		"rain" : 0,
		"cloudbase" : null,
		"flyability" : 0,
		"reason" : "windDir",
		"timestamp" :1554735600
		},
	"2019-04-08T12:00:00-06:00" : {
		"windSpeed" : 1,
		"windDir" : 212,
		"rain" : 1,
		"cloudbase" : 1600,
		"flyability" : 0,
		"reason" : "windDir, rain, cloudbase",
		"timestamp" :1554746400
		},
	"2019-04-08T15:00:00-06:00" : {
		"windSpeed" : 0.8,
		"windDir" : 192,
		"rain" : 1,
		"cloudbase" : null,
		"flyability" : 0,
		"reason" : "windDir, rain",
		"timestamp" :1554757200
		},
	"2019-04-08T18:00:00-06:00" : {
		"windSpeed" : 1.7,
		"windDir" : 225,
		"rain" : 1,
		"cloudbase" : null,
		"flyability" : 0,
		"reason" : "windDir, rain",
		"timestamp" :1554768000
		}
	}
}