{
"site" : "S. Ant\u00f3nio Valpoldres",
"id" : 15835,
"orientations" : "00000000",
"forecasts" : { 
	"2019-04-09T04:00:00+01:00" : {
		"windSpeed" : 3.8,
		"windDir" : 199,
		"rain" : 1,
		"cloudbase" : 254.4019975,
		"flyability" : -0,
		"reason" : "orientationsUnknown, rain, cloudbase",
		"timestamp" :1554775200
		},
	"2019-04-09T07:00:00+01:00" : {
		"windSpeed" : 2.5,
		"windDir" : 255,
		"rain" : 1,
		"cloudbase" : 409.86308500001,
		"flyability" : -0,
		"reason" : "orientationsUnknown, rain, cloudbase",
		"timestamp" :1554786000
		},
	"2019-04-09T10:00:00+01:00" : {
		"windSpeed" : 1.7,
		"windDir" : 260,
		"rain" : 1,
		"cloudbase" : 139.38242500001,
		"flyability" : -0,
		"reason" : "orientationsUnknown, rain, cloudbase",
		"timestamp" :1554796800
		},
	"2019-04-09T13:00:00+01:00" : {
		"windSpeed" : 3.8,
		"windDir" : 251,
		"rain" : 1,
		"cloudbase" : 381.70968000001,
		"flyability" : -0,
		"reason" : "orientationsUnknown, rain, cloudbase",
		"timestamp" :1554807600
		},
	"2019-04-09T16:00:00+01:00" : {
		"windSpeed" : 4.6,
		"windDir" : 244,
		"rain" : 1,
		"cloudbase" : 299.68364750001,
		"flyability" : -0,
		"reason" : "orientationsUnknown, rain, cloudbase",
		"timestamp" :1554818400
		},
	"2019-04-09T19:00:00+01:00" : {
		"windSpeed" : 3.2,
		"windDir" : 264,
		"rain" : 1,
		"cloudbase" : 194.609085,
		"flyability" : -0,
		"reason" : "orientationsUnknown, rain, cloudbase",
		"timestamp" :1554829200
		},
	"2019-04-09T22:00:00+01:00" : {
		"windSpeed" : 2.7,
		"windDir" : 257,
		"rain" : 1,
		"cloudbase" : 87.714490000002,
		"flyability" : -0,
		"reason" : "orientationsUnknown, rain, cloudbase",
		"timestamp" :1554840000
		},
	"2019-04-10T01:00:00+01:00" : {
		"windSpeed" : 3.6,
		"windDir" : 279,
		"rain" : 1,
		"cloudbase" : 99.987320000006,
		"flyability" : -0,
		"reason" : "orientationsUnknown, rain, cloudbase",
		"timestamp" :1554850800
		},
	"2019-04-10T04:00:00+01:00" : {
		"windSpeed" : 3.6,
		"windDir" : 288,
		"rain" : 1,
		"cloudbase" : 88.751000000002,
		"flyability" : -0,
		"reason" : "orientationsUnknown, rain, cloudbase",
		"timestamp" :1554861600
		},
	"2019-04-10T07:00:00+01:00" : {
		"windSpeed" : 2.3,
		"windDir" : 301,
		"rain" : 1,
		"cloudbase" : 31.816915,
		"flyability" : -0,
		"reason" : "orientationsUnknown, rain, cloudbase",
		"timestamp" :1554872400
		},
	"2019-04-10T10:00:00+01:00" : {
		"windSpeed" : 2.4,
		"windDir" : 333,
		"rain" : 1,
		"cloudbase" : 215.70676499999,
		"flyability" : -0,
		"reason" : "orientationsUnknown, rain, cloudbase",
		"timestamp" :1554883200
		},
	"2019-04-10T13:00:00+01:00" : {
		"windSpeed" : 3.1,
		"windDir" : 307,
		"rain" : 1,
		"cloudbase" : 141.6862975,
		"flyability" : -0,
		"reason" : "orientationsUnknown, rain, cloudbase",
		"timestamp" :1554894000
		},
	"2019-04-10T16:00:00+01:00" : {
		"windSpeed" : 3.9,
		"windDir" : 323,
		"rain" : 1,
		"cloudbase" : null,
		"flyability" : -0,
		"reason" : "orientationsUnknown, rain",
		"timestamp" :1554904800
		},
	"2019-04-10T19:00:00+01:00" : {
		"windSpeed" : 3.1,
		"windDir" : 323,
		"rain" : 1,
		"cloudbase" : null,
		"flyability" : -0,
		"reason" : "orientationsUnknown, rain",
		"timestamp" :1554915600
		},
	"2019-04-10T22:00:00+01:00" : {
		"windSpeed" : 1.8,
		"windDir" : 8,
		"rain" : 1,
		"cloudbase" : null,
		"flyability" : -0,
		"reason" : "orientationsUnknown, rain",
		"timestamp" :1554926400
		},
	"2019-04-11T01:00:00+01:00" : {
		"windSpeed" : 2,
		"windDir" : 77,
		"rain" : 0,
		"cloudbase" : null,
		"flyability" : -50,
		"reason" : "orientationsUnknown",
		"timestamp" :1554937200
		},
	"2019-04-11T04:00:00+01:00" : {
		"windSpeed" : 1.9,
		"windDir" : 87,
		"rain" : 1,
		"cloudbase" : 30,
		"flyability" : -0,
		"reason" : "orientationsUnknown, rain, cloudbase",
		"timestamp" :1554948000
		},
	"2019-04-11T07:00:00+01:00" : {
		"windSpeed" : 1.6,
		"windDir" : 104,
		"rain" : 1,
		"cloudbase" : 30.9084575,
		"flyability" : -0,
		"reason" : "orientationsUnknown, rain, cloudbase",
		"timestamp" :1554958800
		},
	"2019-04-11T10:00:00+01:00" : {
		"windSpeed" : 1.3,
		"windDir" : 63,
		"rain" : 1,
		"cloudbase" : null,
		"flyability" : -0,
		"reason" : "orientationsUnknown, rain",
		"timestamp" :1554969600
		},
	"2019-04-11T13:00:00+01:00" : {
		"windSpeed" : 2.2,
		"windDir" : 331,
		"rain" : 1,
		"cloudbase" : 1400,
		"flyability" : -0,
		"reason" : "orientationsUnknown, rain",
		"timestamp" :1554980400
		},
	"2019-04-11T16:00:00+01:00" : {
		"windSpeed" : 2.9,
		"windDir" : 351,
		"rain" : 0,
		"cloudbase" : 7413.2659000003,
		"flyability" : -50,
		"reason" : "orientationsUnknown",
		"timestamp" :1554991200
		},
	"2019-04-11T19:00:00+01:00" : {
		"windSpeed" : 2.3,
		"windDir" : 318,
		"rain" : 0,
		"cloudbase" : 7375.11,
		"flyability" : -50,
		"reason" : "orientationsUnknown",
		"timestamp" :1555002000
		},
	"2019-04-11T22:00:00+01:00" : {
		"windSpeed" : 1,
		"windDir" : 71,
		"rain" : 1,
		"cloudbase" : 6304.74,
		"flyability" : -0,
		"reason" : "orientationsUnknown, rain",
		"timestamp" :1555012800
		},
	"2019-04-12T01:00:00+01:00" : {
		"windSpeed" : 1.6,
		"windDir" : 77,
		"rain" : 1,
		"cloudbase" : 5954.70085,
		"flyability" : -0,
		"reason" : "orientationsUnknown, rain",
		"timestamp" :1555023600
		},
	"2019-04-12T04:00:00+01:00" : {
		"windSpeed" : 1.6,
		"windDir" : 109,
		"rain" : 0,
		"cloudbase" : null,
		"flyability" : -50,
		"reason" : "orientationsUnknown",
		"timestamp" :1555034400
		},
	"2019-04-12T07:00:00+01:00" : {
		"windSpeed" : 1.2,
		"windDir" : 111,
		"rain" : 1,
		"cloudbase" : null,
		"flyability" : -0,
		"reason" : "orientationsUnknown, rain",
		"timestamp" :1555045200
		},
	"2019-04-12T10:00:00+01:00" : {
		"windSpeed" : 0.4,
		"windDir" : 284,
		"rain" : 1,
		"cloudbase" : null,
		"flyability" : -0,
		"reason" : "orientationsUnknown, rain",
		"timestamp" :1555056000
		},
	"2019-04-12T13:00:00+01:00" : {
		"windSpeed" : 2,
		"windDir" : 318,
		"rain" : 0,
		"cloudbase" : null,
		"flyability" : -50,
		"reason" : "orientationsUnknown",
		"timestamp" :1555066800
		},
	"2019-04-12T16:00:00+01:00" : {
		"windSpeed" : 2.3,
		"windDir" : 321,
		"rain" : 0,
		"cloudbase" : null,
		"flyability" : -50,
		"reason" : "orientationsUnknown",
		"timestamp" :1555077600
		},
	"2019-04-12T19:00:00+01:00" : {
		"windSpeed" : 1.4,
		"windDir" : 327,
		"rain" : 1,
		"cloudbase" : null,
		"flyability" : -0,
		"reason" : "orientationsUnknown, rain",
		"timestamp" :1555088400
		},
	"2019-04-12T22:00:00+01:00" : {
		"windSpeed" : 1.2,
		"windDir" : 81,
		"rain" : 0,
		"cloudbase" : 8000.09085,
		"flyability" : -50,
		"reason" : "orientationsUnknown",
		"timestamp" :1555099200
		},
	"2019-04-13T01:00:00+01:00" : {
		"windSpeed" : 1.5,
		"windDir" : 110,
		"rain" : 1,
		"cloudbase" : 7800.09085,
		"flyability" : -0,
		"reason" : "orientationsUnknown, rain",
		"timestamp" :1555110000
		},
	"2019-04-13T04:00:00+01:00" : {
		"windSpeed" : 0.8,
		"windDir" : 131,
		"rain" : 0,
		"cloudbase" : null,
		"flyability" : -50,
		"reason" : "orientationsUnknown",
		"timestamp" :1555120800
		},
	"2019-04-13T07:00:00+01:00" : {
		"windSpeed" : 0.8,
		"windDir" : 130,
		"rain" : 1,
		"cloudbase" : null,
		"flyability" : -0,
		"reason" : "orientationsUnknown, rain",
		"timestamp" :1555131600
		},
	"2019-04-13T10:00:00+01:00" : {
		"windSpeed" : 0.9,
		"windDir" : 245,
		"rain" : 0,
		"cloudbase" : null,
		"flyability" : -50,
		"reason" : "orientationsUnknown",
		"timestamp" :1555142400
		},
	"2019-04-13T13:00:00+01:00" : {
		"windSpeed" : 2,
		"windDir" : 259,
		"rain" : 0,
		"cloudbase" : null,
		"flyability" : -50,
		"reason" : "orientationsUnknown",
		"timestamp" :1555153200
		},
	"2019-04-13T16:00:00+01:00" : {
		"windSpeed" : 3.5,
		"windDir" : 271,
		"rain" : 0,
		"cloudbase" : 1686.831275,
		"flyability" : -50,
		"reason" : "orientationsUnknown",
		"timestamp" :1555164000
		},
	"2019-04-13T19:00:00+01:00" : {
		"windSpeed" : 2,
		"windDir" : 269,
		"rain" : 0,
		"cloudbase" : 2379.675425,
		"flyability" : -50,
		"reason" : "orientationsUnknown",
		"timestamp" :1555174800
		},
	"2019-04-13T22:00:00+01:00" : {
		"windSpeed" : 1.2,
		"windDir" : 139,
		"rain" : 0,
		"cloudbase" : null,
		"flyability" : -50,
		"reason" : "orientationsUnknown",
		"timestamp" :1555185600
		},
	"2019-04-14T01:00:00+01:00" : {
		"windSpeed" : 1.6,
		"windDir" : 144,
		"rain" : 0,
		"cloudbase" : 9000.09085,
		"flyability" : -50,
		"reason" : "orientationsUnknown",
		"timestamp" :1555196400
		},
	"2019-04-14T04:00:00+01:00" : {
		"windSpeed" : 1.7,
		"windDir" : 146,
		"rain" : 0,
		"cloudbase" : 622.73347499974,
		"flyability" : -0,
		"reason" : "orientationsUnknown, cloudbase",
		"timestamp" :1555207200
		},
	"2019-04-14T07:00:00+01:00" : {
		"windSpeed" : 1,
		"windDir" : 151,
		"rain" : 0,
		"cloudbase" : 231.25251,
		"flyability" : -0,
		"reason" : "orientationsUnknown, cloudbase",
		"timestamp" :1555218000
		},
	"2019-04-14T10:00:00+01:00" : {
		"windSpeed" : 2.4,
		"windDir" : 195,
		"rain" : 0,
		"cloudbase" : 837.55136000002,
		"flyability" : -0,
		"reason" : "orientationsUnknown, cloudbase",
		"timestamp" :1555228800
		},
	"2019-04-14T13:00:00+01:00" : {
		"windSpeed" : 2.8,
		"windDir" : 207,
		"rain" : 0,
		"cloudbase" : 581.48434,
		"flyability" : -0,
		"reason" : "orientationsUnknown, cloudbase",
		"timestamp" :1555239600
		},
	"2019-04-14T16:00:00+01:00" : {
		"windSpeed" : 3.6,
		"windDir" : 216,
		"rain" : 0,
		"cloudbase" : 589.18434,
		"flyability" : -0,
		"reason" : "orientationsUnknown, cloudbase",
		"timestamp" :1555250400
		},
	"2019-04-14T19:00:00+01:00" : {
		"windSpeed" : 3.2,
		"windDir" : 210,
		"rain" : 0,
		"cloudbase" : 448.950975,
		"flyability" : -0,
		"reason" : "orientationsUnknown, cloudbase",
		"timestamp" :1555261200
		},
	"2019-04-14T22:00:00+01:00" : {
		"windSpeed" : 2.3,
		"windDir" : 184,
		"rain" : 1,
		"cloudbase" : 148.15736,
		"flyability" : -0,
		"reason" : "orientationsUnknown, rain, cloudbase",
		"timestamp" :1555272000
		},
	"2019-04-15T01:00:00+01:00" : {
		"windSpeed" : 2.4,
		"windDir" : 182,
		"rain" : 1,
		"cloudbase" : 263.07761750001,
		"flyability" : -0,
		"reason" : "orientationsUnknown, rain, cloudbase",
		"timestamp" :1555282800
		}
	}
}