{
"site" : "\u00c3\u2021\u00c4\u00b1\u00c4\u0178l\u00c4\u00b1k \/ Katran Mountain",
"id" : 15844,
"orientations" : "11111111",
"forecasts" : { 
	"2019-04-04T06:00:00+03:00" : {
		"windSpeed" : 1.6,
		"windDir" : 308,
		"rain" : 0,
		"cloudbase" : 9130.5699999999,
		"flyability" : 100,
		"reason" : "",
		"timestamp" :1554346800
		},
	"2019-04-04T09:00:00+03:00" : {
		"windSpeed" : 0.9,
		"windDir" : 303,
		"rain" : 0,
		"cloudbase" : 8630.14,
		"flyability" : 100,
		"reason" : "",
		"timestamp" :1554357600
		},
	"2019-04-04T12:00:00+03:00" : {
		"windSpeed" : 2.5,
		"windDir" : 135,
		"rain" : 0,
		"cloudbase" : null,
		"flyability" : 100,
		"reason" : "",
		"timestamp" :1554368400
		},
	"2019-04-04T15:00:00+03:00" : {
		"windSpeed" : 3.1,
		"windDir" : 145,
		"rain" : 1,
		"cloudbase" : 7931.1399999999,
		"flyability" : 0,
		"reason" : "rain",
		"timestamp" :1554379200
		},
	"2019-04-04T18:00:00+03:00" : {
		"windSpeed" : 1.8,
		"windDir" : 162,
		"rain" : 1,
		"cloudbase" : 6115.5699999999,
		"flyability" : 0,
		"reason" : "rain",
		"timestamp" :1554390000
		},
	"2019-04-04T21:00:00+03:00" : {
		"windSpeed" : 1,
		"windDir" : 344,
		"rain" : 0,
		"cloudbase" : 5100,
		"flyability" : 100,
		"reason" : "",
		"timestamp" :1554400800
		},
	"2019-04-05T00:00:00+03:00" : {
		"windSpeed" : 1.6,
		"windDir" : 308,
		"rain" : 0,
		"cloudbase" : null,
		"flyability" : 100,
		"reason" : "",
		"timestamp" :1554411600
		},
	"2019-04-05T03:00:00+03:00" : {
		"windSpeed" : 2,
		"windDir" : 299,
		"rain" : 0,
		"cloudbase" : null,
		"flyability" : 100,
		"reason" : "",
		"timestamp" :1554422400
		},
	"2019-04-05T06:00:00+03:00" : {
		"windSpeed" : 2.3,
		"windDir" : 310,
		"rain" : 0,
		"cloudbase" : null,
		"flyability" : 100,
		"reason" : "",
		"timestamp" :1554433200
		},
	"2019-04-05T09:00:00+03:00" : {
		"windSpeed" : 1.2,
		"windDir" : 306,
		"rain" : 0,
		"cloudbase" : null,
		"flyability" : 100,
		"reason" : "",
		"timestamp" :1554444000
		},
	"2019-04-05T12:00:00+03:00" : {
		"windSpeed" : 2,
		"windDir" : 119,
		"rain" : 0,
		"cloudbase" : null,
		"flyability" : 100,
		"reason" : "",
		"timestamp" :1554454800
		},
	"2019-04-05T15:00:00+03:00" : {
		"windSpeed" : 3.4,
		"windDir" : 149,
		"rain" : 0,
		"cloudbase" : null,
		"flyability" : 100,
		"reason" : "",
		"timestamp" :1554465600
		},
	"2019-04-05T18:00:00+03:00" : {
		"windSpeed" : 2.4,
		"windDir" : 147,
		"rain" : 0,
		"cloudbase" : null,
		"flyability" : 100,
		"reason" : "",
		"timestamp" :1554476400
		},
	"2019-04-05T21:00:00+03:00" : {
		"windSpeed" : 0.7,
		"windDir" : 315,
		"rain" : 0,
		"cloudbase" : 9283.86,
		"flyability" : 100,
		"reason" : "",
		"timestamp" :1554487200
		},
	"2019-04-06T00:00:00+03:00" : {
		"windSpeed" : 1.2,
		"windDir" : 306,
		"rain" : 0,
		"cloudbase" : 8370.7099999999,
		"flyability" : 100,
		"reason" : "",
		"timestamp" :1554498000
		},
	"2019-04-06T03:00:00+03:00" : {
		"windSpeed" : 1.2,
		"windDir" : 306,
		"rain" : 0,
		"cloudbase" : 7872.5699999999,
		"flyability" : 100,
		"reason" : "",
		"timestamp" :1554508800
		},
	"2019-04-06T06:00:00+03:00" : {
		"windSpeed" : 1.8,
		"windDir" : 304,
		"rain" : 0,
		"cloudbase" : 6684.43,
		"flyability" : 100,
		"reason" : "",
		"timestamp" :1554519600
		},
	"2019-04-06T09:00:00+03:00" : {
		"windSpeed" : 0.8,
		"windDir" : 338,
		"rain" : 0,
		"cloudbase" : 4364.1399999999,
		"flyability" : 100,
		"reason" : "",
		"timestamp" :1554530400
		},
	"2019-04-06T12:00:00+03:00" : {
		"windSpeed" : 1.7,
		"windDir" : 140,
		"rain" : 0,
		"cloudbase" : 5205.5599999998,
		"flyability" : 100,
		"reason" : "",
		"timestamp" :1554541200
		},
	"2019-04-06T15:00:00+03:00" : {
		"windSpeed" : 1,
		"windDir" : 188,
		"rain" : 1,
		"cloudbase" : 2930.2849999999,
		"flyability" : 0,
		"reason" : "rain",
		"timestamp" :1554552000
		},
	"2019-04-06T18:00:00+03:00" : {
		"windSpeed" : 1.5,
		"windDir" : 343,
		"rain" : 1,
		"cloudbase" : 2415,
		"flyability" : 0,
		"reason" : "rain",
		"timestamp" :1554562800
		},
	"2019-04-06T21:00:00+03:00" : {
		"windSpeed" : 1,
		"windDir" : 315,
		"rain" : 1,
		"cloudbase" : 1944.4249999999,
		"flyability" : 0,
		"reason" : "rain",
		"timestamp" :1554573600
		},
	"2019-04-07T00:00:00+03:00" : {
		"windSpeed" : 0.7,
		"windDir" : 315,
		"rain" : 1,
		"cloudbase" : 1753.4249999999,
		"flyability" : 0,
		"reason" : "rain",
		"timestamp" :1554584400
		},
	"2019-04-07T03:00:00+03:00" : {
		"windSpeed" : 0.7,
		"windDir" : 315,
		"rain" : 0,
		"cloudbase" : 3188.8100000004,
		"flyability" : 100,
		"reason" : "",
		"timestamp" :1554595200
		},
	"2019-04-07T06:00:00+03:00" : {
		"windSpeed" : 0.9,
		"windDir" : 305,
		"rain" : 1,
		"cloudbase" : 3050,
		"flyability" : 0,
		"reason" : "rain",
		"timestamp" :1554606000
		},
	"2019-04-07T09:00:00+03:00" : {
		"windSpeed" : 0.7,
		"windDir" : 360,
		"rain" : 1,
		"cloudbase" : null,
		"flyability" : 0,
		"reason" : "rain",
		"timestamp" :1554616800
		},
	"2019-04-07T12:00:00+03:00" : {
		"windSpeed" : 2.4,
		"windDir" : 139,
		"rain" : 0,
		"cloudbase" : 942.50099999995,
		"flyability" : 100,
		"reason" : "",
		"timestamp" :1554627600
		},
	"2019-04-07T15:00:00+03:00" : {
		"windSpeed" : 2.8,
		"windDir" : 164,
		"rain" : 0,
		"cloudbase" : 1602.1399999999,
		"flyability" : 100,
		"reason" : "",
		"timestamp" :1554638400
		},
	"2019-04-07T18:00:00+03:00" : {
		"windSpeed" : 1.7,
		"windDir" : 171,
		"rain" : 0,
		"cloudbase" : null,
		"flyability" : 100,
		"reason" : "",
		"timestamp" :1554649200
		},
	"2019-04-07T21:00:00+03:00" : {
		"windSpeed" : 0.7,
		"windDir" : 315,
		"rain" : 0,
		"cloudbase" : null,
		"flyability" : 100,
		"reason" : "",
		"timestamp" :1554660000
		},
	"2019-04-08T00:00:00+03:00" : {
		"windSpeed" : 0.7,
		"windDir" : 315,
		"rain" : 0,
		"cloudbase" : null,
		"flyability" : 100,
		"reason" : "",
		"timestamp" :1554670800
		},
	"2019-04-08T03:00:00+03:00" : {
		"windSpeed" : 0.9,
		"windDir" : 305,
		"rain" : 0,
		"cloudbase" : null,
		"flyability" : 100,
		"reason" : "",
		"timestamp" :1554681600
		},
	"2019-04-08T06:00:00+03:00" : {
		"windSpeed" : 1.1,
		"windDir" : 297,
		"rain" : 0,
		"cloudbase" : null,
		"flyability" : 100,
		"reason" : "",
		"timestamp" :1554692400
		},
	"2019-04-08T09:00:00+03:00" : {
		"windSpeed" : 0.6,
		"windDir" : 29,
		"rain" : 0,
		"cloudbase" : null,
		"flyability" : 100,
		"reason" : "",
		"timestamp" :1554703200
		},
	"2019-04-08T12:00:00+03:00" : {
		"windSpeed" : 2.7,
		"windDir" : 138,
		"rain" : 1,
		"cloudbase" : 1082.285,
		"flyability" : 0,
		"reason" : "rain",
		"timestamp" :1554714000
		},
	"2019-04-08T15:00:00+03:00" : {
		"windSpeed" : 4.4,
		"windDir" : 149,
		"rain" : 1,
		"cloudbase" : null,
		"flyability" : 0,
		"reason" : "rain",
		"timestamp" :1554724800
		},
	"2019-04-08T18:00:00+03:00" : {
		"windSpeed" : 3.6,
		"windDir" : 154,
		"rain" : 1,
		"cloudbase" : 371.12499999995,
		"flyability" : 0,
		"reason" : "rain",
		"timestamp" :1554735600
		},
	"2019-04-08T21:00:00+03:00" : {
		"windSpeed" : 3.2,
		"windDir" : 171,
		"rain" : 1,
		"cloudbase" : 80,
		"flyability" : 0,
		"reason" : "rain, cloudbase",
		"timestamp" :1554746400
		},
	"2019-04-09T00:00:00+03:00" : {
		"windSpeed" : 2,
		"windDir" : 144,
		"rain" : 1,
		"cloudbase" : 45.443499999994,
		"flyability" : 0,
		"reason" : "rain, cloudbase",
		"timestamp" :1554757200
		},
	"2019-04-09T03:00:00+03:00" : {
		"windSpeed" : 2,
		"windDir" : 109,
		"rain" : 1,
		"cloudbase" : 47.658499999993,
		"flyability" : 0,
		"reason" : "rain, cloudbase",
		"timestamp" :1554768000
		},
	"2019-04-09T06:00:00+03:00" : {
		"windSpeed" : 2.3,
		"windDir" : 20,
		"rain" : 1,
		"cloudbase" : 56.559499999989,
		"flyability" : 0,
		"reason" : "rain, cloudbase",
		"timestamp" :1554778800
		},
	"2019-04-09T09:00:00+03:00" : {
		"windSpeed" : 2.3,
		"windDir" : 5,
		"rain" : 1,
		"cloudbase" : 300,
		"flyability" : 0,
		"reason" : "rain, cloudbase",
		"timestamp" :1554789600
		},
	"2019-04-09T12:00:00+03:00" : {
		"windSpeed" : 2.8,
		"windDir" : 90,
		"rain" : 1,
		"cloudbase" : 260,
		"flyability" : 0,
		"reason" : "rain, cloudbase",
		"timestamp" :1554800400
		},
	"2019-04-09T15:00:00+03:00" : {
		"windSpeed" : 3.5,
		"windDir" : 124,
		"rain" : 0,
		"cloudbase" : 5800,
		"flyability" : 100,
		"reason" : "",
		"timestamp" :1554811200
		},
	"2019-04-09T18:00:00+03:00" : {
		"windSpeed" : 1.9,
		"windDir" : 65,
		"rain" : 0,
		"cloudbase" : 3250,
		"flyability" : 100,
		"reason" : "",
		"timestamp" :1554822000
		},
	"2019-04-09T21:00:00+03:00" : {
		"windSpeed" : 2.6,
		"windDir" : 47,
		"rain" : 1,
		"cloudbase" : 339.94499999989,
		"flyability" : 0,
		"reason" : "rain",
		"timestamp" :1554832800
		},
	"2019-04-10T00:00:00+03:00" : {
		"windSpeed" : 1.8,
		"windDir" : 7,
		"rain" : 1,
		"cloudbase" : 95,
		"flyability" : 0,
		"reason" : "rain, cloudbase",
		"timestamp" :1554843600
		},
	"2019-04-10T03:00:00+03:00" : {
		"windSpeed" : 1.3,
		"windDir" : 337,
		"rain" : 1,
		"cloudbase" : 215.72899999996,
		"flyability" : 0,
		"reason" : "rain, cloudbase",
		"timestamp" :1554854400
		}
	}
}