{
"site" : "La Gardiole O-NO",
"id" : 15912,
"orientations" : "00000022",
"forecasts" : { 
	"2019-04-21T05:00:00+02:00" : {
		"windSpeed" : 5.5,
		"windDir" : 5,
		"rain" : 1,
		"cloudbase" : 3596.1524,
		"flyability" : 0,
		"reason" : "windSpeed, windDir, rain",
		"timestamp" :1555819200
		},
	"2019-04-21T08:00:00+02:00" : {
		"windSpeed" : 4.7,
		"windDir" : 28,
		"rain" : 1,
		"cloudbase" : 4044.1738,
		"flyability" : 0,
		"reason" : "windDir, rain",
		"timestamp" :1555830000
		},
	"2019-04-21T11:00:00+02:00" : {
		"windSpeed" : 4,
		"windDir" : 57,
		"rain" : 1,
		"cloudbase" : 2562.1,
		"flyability" : 0,
		"reason" : "windDir, rain",
		"timestamp" :1555840800
		},
	"2019-04-21T14:00:00+02:00" : {
		"windSpeed" : 5.1,
		"windDir" : 74,
		"rain" : 1,
		"cloudbase" : 3071.5,
		"flyability" : 0,
		"reason" : "windSpeed, windDir, rain",
		"timestamp" :1555851600
		},
	"2019-04-21T17:00:00+02:00" : {
		"windSpeed" : 3.7,
		"windDir" : 53,
		"rain" : 0,
		"cloudbase" : 3350,
		"flyability" : 0,
		"reason" : "windDir",
		"timestamp" :1555862400
		},
	"2019-04-21T20:00:00+02:00" : {
		"windSpeed" : 4,
		"windDir" : 23,
		"rain" : 1,
		"cloudbase" : null,
		"flyability" : 0,
		"reason" : "windDir, rain",
		"timestamp" :1555873200
		},
	"2019-04-21T23:00:00+02:00" : {
		"windSpeed" : 4.5,
		"windDir" : 36,
		"rain" : 0,
		"cloudbase" : null,
		"flyability" : 0,
		"reason" : "windDir",
		"timestamp" :1555884000
		},
	"2019-04-22T02:00:00+02:00" : {
		"windSpeed" : 4.1,
		"windDir" : 44,
		"rain" : 1,
		"cloudbase" : 9545.6,
		"flyability" : 0,
		"reason" : "windDir, rain",
		"timestamp" :1555894800
		},
	"2019-04-22T05:00:00+02:00" : {
		"windSpeed" : 5.5,
		"windDir" : 26,
		"rain" : 1,
		"cloudbase" : null,
		"flyability" : 0,
		"reason" : "windSpeed, windDir, rain",
		"timestamp" :1555905600
		},
	"2019-04-22T08:00:00+02:00" : {
		"windSpeed" : 5,
		"windDir" : 28,
		"rain" : 1,
		"cloudbase" : 8359.1711999998,
		"flyability" : 0,
		"reason" : "windDir, rain",
		"timestamp" :1555916400
		},
	"2019-04-22T11:00:00+02:00" : {
		"windSpeed" : 4.6,
		"windDir" : 33,
		"rain" : 1,
		"cloudbase" : 8772.6524,
		"flyability" : 0,
		"reason" : "windDir, rain",
		"timestamp" :1555927200
		},
	"2019-04-22T14:00:00+02:00" : {
		"windSpeed" : 1.4,
		"windDir" : 117,
		"rain" : 1,
		"cloudbase" : 9338.4524,
		"flyability" : 0,
		"reason" : "windDir, rain",
		"timestamp" :1555938000
		},
	"2019-04-22T17:00:00+02:00" : {
		"windSpeed" : 4.5,
		"windDir" : 194,
		"rain" : 1,
		"cloudbase" : null,
		"flyability" : 0,
		"reason" : "windDir, rain",
		"timestamp" :1555948800
		},
	"2019-04-22T20:00:00+02:00" : {
		"windSpeed" : 6.8,
		"windDir" : 121,
		"rain" : 0,
		"cloudbase" : 6082.9572,
		"flyability" : 0,
		"reason" : "windSpeed, windDir",
		"timestamp" :1555959600
		},
	"2019-04-22T23:00:00+02:00" : {
		"windSpeed" : 4.1,
		"windDir" : 21,
		"rain" : 1,
		"cloudbase" : 2109.6786,
		"flyability" : 0,
		"reason" : "windDir, rain",
		"timestamp" :1555970400
		},
	"2019-04-23T02:00:00+02:00" : {
		"windSpeed" : 4.7,
		"windDir" : 61,
		"rain" : 1,
		"cloudbase" : 1775.0738,
		"flyability" : 0,
		"reason" : "windDir, rain",
		"timestamp" :1555981200
		},
	"2019-04-23T05:00:00+02:00" : {
		"windSpeed" : 2.3,
		"windDir" : 37,
		"rain" : 1,
		"cloudbase" : 2141.8428,
		"flyability" : 0,
		"reason" : "windDir, rain",
		"timestamp" :1555992000
		},
	"2019-04-23T08:00:00+02:00" : {
		"windSpeed" : 4,
		"windDir" : 31,
		"rain" : 1,
		"cloudbase" : 1413.6738,
		"flyability" : 0,
		"reason" : "windDir, rain",
		"timestamp" :1556002800
		},
	"2019-04-23T11:00:00+02:00" : {
		"windSpeed" : 5.5,
		"windDir" : 44,
		"rain" : 1,
		"cloudbase" : 2300,
		"flyability" : 0,
		"reason" : "windSpeed, windDir, rain",
		"timestamp" :1556013600
		},
	"2019-04-23T14:00:00+02:00" : {
		"windSpeed" : 5,
		"windDir" : 83,
		"rain" : 1,
		"cloudbase" : 1514.6785200001,
		"flyability" : 0,
		"reason" : "windDir, rain",
		"timestamp" :1556024400
		},
	"2019-04-23T17:00:00+02:00" : {
		"windSpeed" : 8.6,
		"windDir" : 109,
		"rain" : 1,
		"cloudbase" : 762.86095999999,
		"flyability" : 0,
		"reason" : "windSpeed, windDir, rain",
		"timestamp" :1556035200
		},
	"2019-04-23T20:00:00+02:00" : {
		"windSpeed" : 8,
		"windDir" : 111,
		"rain" : 1,
		"cloudbase" : 237.96951999999,
		"flyability" : 0,
		"reason" : "windSpeed, windDir, rain",
		"timestamp" :1556046000
		},
	"2019-04-23T23:00:00+02:00" : {
		"windSpeed" : 4.3,
		"windDir" : 155,
		"rain" : 0,
		"cloudbase" : 6239.3999999999,
		"flyability" : 0,
		"reason" : "windDir",
		"timestamp" :1556056800
		},
	"2019-04-24T02:00:00+02:00" : {
		"windSpeed" : 6.5,
		"windDir" : 152,
		"rain" : 0,
		"cloudbase" : 9511.6952,
		"flyability" : 0,
		"reason" : "windSpeed, windDir",
		"timestamp" :1556067600
		},
	"2019-04-24T05:00:00+02:00" : {
		"windSpeed" : 7.2,
		"windDir" : 140,
		"rain" : 0,
		"cloudbase" : 4921.0262,
		"flyability" : 0,
		"reason" : "windSpeed, windDir",
		"timestamp" :1556078400
		},
	"2019-04-24T08:00:00+02:00" : {
		"windSpeed" : 10,
		"windDir" : 164,
		"rain" : 0,
		"cloudbase" : 5119.7904,
		"flyability" : 0,
		"reason" : "windSpeed, windDir",
		"timestamp" :1556089200
		},
	"2019-04-24T11:00:00+02:00" : {
		"windSpeed" : 9.5,
		"windDir" : 168,
		"rain" : 0,
		"cloudbase" : 6287.3336000002,
		"flyability" : 0,
		"reason" : "windSpeed, windDir",
		"timestamp" :1556100000
		},
	"2019-04-24T14:00:00+02:00" : {
		"windSpeed" : 11.2,
		"windDir" : 163,
		"rain" : 0,
		"cloudbase" : null,
		"flyability" : 0,
		"reason" : "windSpeed, windDir",
		"timestamp" :1556110800
		},
	"2019-04-24T17:00:00+02:00" : {
		"windSpeed" : 11.7,
		"windDir" : 170,
		"rain" : 0,
		"cloudbase" : null,
		"flyability" : 0,
		"reason" : "windSpeed, windDir",
		"timestamp" :1556121600
		},
	"2019-04-24T20:00:00+02:00" : {
		"windSpeed" : 8.4,
		"windDir" : 166,
		"rain" : 0,
		"cloudbase" : null,
		"flyability" : 0,
		"reason" : "windSpeed, windDir",
		"timestamp" :1556132400
		},
	"2019-04-24T23:00:00+02:00" : {
		"windSpeed" : 7.5,
		"windDir" : 159,
		"rain" : 1,
		"cloudbase" : null,
		"flyability" : 0,
		"reason" : "windSpeed, windDir, rain",
		"timestamp" :1556143200
		},
	"2019-04-25T02:00:00+02:00" : {
		"windSpeed" : 9.6,
		"windDir" : 155,
		"rain" : 1,
		"cloudbase" : 7028.5572,
		"flyability" : 0,
		"reason" : "windSpeed, windDir, rain",
		"timestamp" :1556154000
		},
	"2019-04-25T05:00:00+02:00" : {
		"windSpeed" : 7.1,
		"windDir" : 151,
		"rain" : 0,
		"cloudbase" : 6716.6428,
		"flyability" : 0,
		"reason" : "windSpeed, windDir",
		"timestamp" :1556164800
		},
	"2019-04-25T08:00:00+02:00" : {
		"windSpeed" : 9,
		"windDir" : 149,
		"rain" : 0,
		"cloudbase" : 7800,
		"flyability" : 0,
		"reason" : "windSpeed, windDir",
		"timestamp" :1556175600
		},
	"2019-04-25T11:00:00+02:00" : {
		"windSpeed" : 11.2,
		"windDir" : 156,
		"rain" : 0,
		"cloudbase" : 7500,
		"flyability" : 0,
		"reason" : "windSpeed, windDir",
		"timestamp" :1556186400
		},
	"2019-04-25T14:00:00+02:00" : {
		"windSpeed" : 13.3,
		"windDir" : 149,
		"rain" : 0,
		"cloudbase" : null,
		"flyability" : 0,
		"reason" : "windSpeed, windDir",
		"timestamp" :1556197200
		},
	"2019-04-25T17:00:00+02:00" : {
		"windSpeed" : 12.6,
		"windDir" : 152,
		"rain" : 0,
		"cloudbase" : null,
		"flyability" : 0,
		"reason" : "windSpeed, windDir",
		"timestamp" :1556208000
		},
	"2019-04-25T20:00:00+02:00" : {
		"windSpeed" : 9.8,
		"windDir" : 163,
		"rain" : 0,
		"cloudbase" : 3959.4,
		"flyability" : 0,
		"reason" : "windSpeed, windDir",
		"timestamp" :1556218800
		},
	"2019-04-25T23:00:00+02:00" : {
		"windSpeed" : 5.3,
		"windDir" : 186,
		"rain" : 1,
		"cloudbase" : null,
		"flyability" : 0,
		"reason" : "windSpeed, windDir, rain",
		"timestamp" :1556229600
		},
	"2019-04-26T02:00:00+02:00" : {
		"windSpeed" : 1.7,
		"windDir" : 221,
		"rain" : 1,
		"cloudbase" : null,
		"flyability" : 0,
		"reason" : "windDir, rain",
		"timestamp" :1556240400
		},
	"2019-04-26T05:00:00+02:00" : {
		"windSpeed" : 4,
		"windDir" : 7,
		"rain" : 0,
		"cloudbase" : null,
		"flyability" : 0,
		"reason" : "windDir",
		"timestamp" :1556251200
		},
	"2019-04-26T08:00:00+02:00" : {
		"windSpeed" : 3.8,
		"windDir" : 12,
		"rain" : 0,
		"cloudbase" : null,
		"flyability" : 0,
		"reason" : "windDir",
		"timestamp" :1556262000
		},
	"2019-04-26T11:00:00+02:00" : {
		"windSpeed" : 2,
		"windDir" : 296,
		"rain" : 0,
		"cloudbase" : null,
		"flyability" : 100,
		"reason" : "",
		"timestamp" :1556272800
		},
	"2019-04-26T14:00:00+02:00" : {
		"windSpeed" : 6.2,
		"windDir" : 296,
		"rain" : 1,
		"cloudbase" : null,
		"flyability" : 0,
		"reason" : "windSpeed, rain",
		"timestamp" :1556283600
		},
	"2019-04-26T17:00:00+02:00" : {
		"windSpeed" : 7.1,
		"windDir" : 302,
		"rain" : 0,
		"cloudbase" : null,
		"flyability" : 0,
		"reason" : "windSpeed",
		"timestamp" :1556294400
		},
	"2019-04-26T20:00:00+02:00" : {
		"windSpeed" : 6.7,
		"windDir" : 311,
		"rain" : 0,
		"cloudbase" : null,
		"flyability" : 0,
		"reason" : "windSpeed",
		"timestamp" :1556305200
		},
	"2019-04-26T23:00:00+02:00" : {
		"windSpeed" : 4.9,
		"windDir" : 295,
		"rain" : 1,
		"cloudbase" : null,
		"flyability" : 0,
		"reason" : "rain",
		"timestamp" :1556316000
		},
	"2019-04-27T02:00:00+02:00" : {
		"windSpeed" : 4.7,
		"windDir" : 297,
		"rain" : 0,
		"cloudbase" : null,
		"flyability" : 100,
		"reason" : "",
		"timestamp" :1556326800
		}
	}
}