{
"site" : "Dinosaur",
"id" : 15955,
"orientations" : "00022200",
"forecasts" : { 
	"2019-04-21T21:00:00-06:00" : {
		"windSpeed" : 1.3,
		"windDir" : 54,
		"rain" : 0,
		"cloudbase" : null,
		"flyability" : 0,
		"reason" : "windDir",
		"timestamp" :1555902000
		},
	"2019-04-22T00:00:00-06:00" : {
		"windSpeed" : 2.6,
		"windDir" : 34,
		"rain" : 0,
		"cloudbase" : null,
		"flyability" : 0,
		"reason" : "windDir",
		"timestamp" :1555912800
		},
	"2019-04-22T03:00:00-06:00" : {
		"windSpeed" : 3.7,
		"windDir" : 44,
		"rain" : 0,
		"cloudbase" : null,
		"flyability" : 0,
		"reason" : "windDir",
		"timestamp" :1555923600
		},
	"2019-04-22T06:00:00-06:00" : {
		"windSpeed" : 2.9,
		"windDir" : 40,
		"rain" : 0,
		"cloudbase" : 4851.8825,
		"flyability" : 0,
		"reason" : "windDir",
		"timestamp" :1555934400
		},
	"2019-04-22T09:00:00-06:00" : {
		"windSpeed" : 3.2,
		"windDir" : 40,
		"rain" : 1,
		"cloudbase" : 5330.333,
		"flyability" : 0,
		"reason" : "windDir, rain",
		"timestamp" :1555945200
		},
	"2019-04-22T12:00:00-06:00" : {
		"windSpeed" : 3.4,
		"windDir" : 37,
		"rain" : 1,
		"cloudbase" : 6295.089,
		"flyability" : 0,
		"reason" : "windDir, rain",
		"timestamp" :1555956000
		},
	"2019-04-22T15:00:00-06:00" : {
		"windSpeed" : 3.1,
		"windDir" : 17,
		"rain" : 1,
		"cloudbase" : null,
		"flyability" : 0,
		"reason" : "windDir, rain",
		"timestamp" :1555966800
		},
	"2019-04-22T18:00:00-06:00" : {
		"windSpeed" : 3.6,
		"windDir" : 44,
		"rain" : 1,
		"cloudbase" : 6600,
		"flyability" : 0,
		"reason" : "windDir, rain",
		"timestamp" :1555977600
		},
	"2019-04-22T21:00:00-06:00" : {
		"windSpeed" : 2.5,
		"windDir" : 26,
		"rain" : 0,
		"cloudbase" : null,
		"flyability" : 0,
		"reason" : "windDir",
		"timestamp" :1555988400
		},
	"2019-04-23T00:00:00-06:00" : {
		"windSpeed" : 3.5,
		"windDir" : 35,
		"rain" : 0,
		"cloudbase" : null,
		"flyability" : 0,
		"reason" : "windDir",
		"timestamp" :1555999200
		},
	"2019-04-23T03:00:00-06:00" : {
		"windSpeed" : 2.5,
		"windDir" : 32,
		"rain" : 0,
		"cloudbase" : null,
		"flyability" : 0,
		"reason" : "windDir",
		"timestamp" :1556010000
		},
	"2019-04-23T06:00:00-06:00" : {
		"windSpeed" : 2,
		"windDir" : 40,
		"rain" : 0,
		"cloudbase" : null,
		"flyability" : 0,
		"reason" : "windDir",
		"timestamp" :1556020800
		},
	"2019-04-23T09:00:00-06:00" : {
		"windSpeed" : 0,
		"windDir" : 34,
		"rain" : 0,
		"cloudbase" : null,
		"flyability" : 0,
		"reason" : "windDir",
		"timestamp" :1556031600
		},
	"2019-04-23T12:00:00-06:00" : {
		"windSpeed" : 1.9,
		"windDir" : 327,
		"rain" : 0,
		"cloudbase" : 1800,
		"flyability" : 0,
		"reason" : "windDir, cloudbase",
		"timestamp" :1556042400
		},
	"2019-04-23T15:00:00-06:00" : {
		"windSpeed" : 2.7,
		"windDir" : 336,
		"rain" : 0,
		"cloudbase" : 2000,
		"flyability" : 0,
		"reason" : "windDir, cloudbase",
		"timestamp" :1556053200
		},
	"2019-04-23T18:00:00-06:00" : {
		"windSpeed" : 3.2,
		"windDir" : 355,
		"rain" : 0,
		"cloudbase" : null,
		"flyability" : 0,
		"reason" : "windDir",
		"timestamp" :1556064000
		},
	"2019-04-23T21:00:00-06:00" : {
		"windSpeed" : 2.5,
		"windDir" : 359,
		"rain" : 0,
		"cloudbase" : null,
		"flyability" : 0,
		"reason" : "windDir",
		"timestamp" :1556074800
		},
	"2019-04-24T00:00:00-06:00" : {
		"windSpeed" : 3,
		"windDir" : 21,
		"rain" : 0,
		"cloudbase" : null,
		"flyability" : 0,
		"reason" : "windDir",
		"timestamp" :1556085600
		},
	"2019-04-24T03:00:00-06:00" : {
		"windSpeed" : 1.7,
		"windDir" : 63,
		"rain" : 0,
		"cloudbase" : null,
		"flyability" : 0,
		"reason" : "windDir",
		"timestamp" :1556096400
		},
	"2019-04-24T06:00:00-06:00" : {
		"windSpeed" : 1.2,
		"windDir" : 112,
		"rain" : 0,
		"cloudbase" : 9900,
		"flyability" : 0,
		"reason" : "windDir",
		"timestamp" :1556107200
		},
	"2019-04-24T09:00:00-06:00" : {
		"windSpeed" : 0.5,
		"windDir" : 208,
		"rain" : 0,
		"cloudbase" : null,
		"flyability" : 100,
		"reason" : "",
		"timestamp" :1556118000
		},
	"2019-04-24T12:00:00-06:00" : {
		"windSpeed" : 2.2,
		"windDir" : 241,
		"rain" : 0,
		"cloudbase" : 1300,
		"flyability" : 0,
		"reason" : "cloudbase",
		"timestamp" :1556128800
		},
	"2019-04-24T15:00:00-06:00" : {
		"windSpeed" : 2.3,
		"windDir" : 283,
		"rain" : 0,
		"cloudbase" : null,
		"flyability" : 0,
		"reason" : "windDir",
		"timestamp" :1556139600
		},
	"2019-04-24T18:00:00-06:00" : {
		"windSpeed" : 1.7,
		"windDir" : 341,
		"rain" : 0,
		"cloudbase" : null,
		"flyability" : 0,
		"reason" : "windDir",
		"timestamp" :1556150400
		},
	"2019-04-24T21:00:00-06:00" : {
		"windSpeed" : 2.9,
		"windDir" : 31,
		"rain" : 0,
		"cloudbase" : null,
		"flyability" : 0,
		"reason" : "windDir",
		"timestamp" :1556161200
		},
	"2019-04-25T00:00:00-06:00" : {
		"windSpeed" : 2.5,
		"windDir" : 42,
		"rain" : 0,
		"cloudbase" : null,
		"flyability" : 0,
		"reason" : "windDir",
		"timestamp" :1556172000
		},
	"2019-04-25T03:00:00-06:00" : {
		"windSpeed" : 1.2,
		"windDir" : 75,
		"rain" : 0,
		"cloudbase" : null,
		"flyability" : 0,
		"reason" : "windDir",
		"timestamp" :1556182800
		},
	"2019-04-25T06:00:00-06:00" : {
		"windSpeed" : 1.6,
		"windDir" : 65,
		"rain" : 0,
		"cloudbase" : null,
		"flyability" : 0,
		"reason" : "windDir",
		"timestamp" :1556193600
		},
	"2019-04-25T09:00:00-06:00" : {
		"windSpeed" : 0.3,
		"windDir" : 206,
		"rain" : 0,
		"cloudbase" : null,
		"flyability" : 100,
		"reason" : "",
		"timestamp" :1556204400
		},
	"2019-04-25T12:00:00-06:00" : {
		"windSpeed" : 2.2,
		"windDir" : 249,
		"rain" : 1,
		"cloudbase" : null,
		"flyability" : 0,
		"reason" : "windDir, rain",
		"timestamp" :1556215200
		},
	"2019-04-25T15:00:00-06:00" : {
		"windSpeed" : 2.4,
		"windDir" : 261,
		"rain" : 1,
		"cloudbase" : null,
		"flyability" : 0,
		"reason" : "windDir, rain",
		"timestamp" :1556226000
		},
	"2019-04-25T18:00:00-06:00" : {
		"windSpeed" : 2.1,
		"windDir" : 278,
		"rain" : 0,
		"cloudbase" : null,
		"flyability" : 0,
		"reason" : "windDir",
		"timestamp" :1556236800
		},
	"2019-04-25T21:00:00-06:00" : {
		"windSpeed" : 1.8,
		"windDir" : 47,
		"rain" : 0,
		"cloudbase" : 7518.057,
		"flyability" : 0,
		"reason" : "windDir",
		"timestamp" :1556247600
		},
	"2019-04-26T00:00:00-06:00" : {
		"windSpeed" : 1.5,
		"windDir" : 120,
		"rain" : 0,
		"cloudbase" : 6613.422,
		"flyability" : 100,
		"reason" : "",
		"timestamp" :1556258400
		},
	"2019-04-26T03:00:00-06:00" : {
		"windSpeed" : 1.8,
		"windDir" : 163,
		"rain" : 0,
		"cloudbase" : null,
		"flyability" : 100,
		"reason" : "",
		"timestamp" :1556269200
		},
	"2019-04-26T06:00:00-06:00" : {
		"windSpeed" : 1.9,
		"windDir" : 147,
		"rain" : 0,
		"cloudbase" : null,
		"flyability" : 100,
		"reason" : "",
		"timestamp" :1556280000
		},
	"2019-04-26T09:00:00-06:00" : {
		"windSpeed" : 2.1,
		"windDir" : 217,
		"rain" : 0,
		"cloudbase" : null,
		"flyability" : 100,
		"reason" : "",
		"timestamp" :1556290800
		},
	"2019-04-26T12:00:00-06:00" : {
		"windSpeed" : 2.8,
		"windDir" : 264,
		"rain" : 0,
		"cloudbase" : 7218.033,
		"flyability" : 0,
		"reason" : "windDir",
		"timestamp" :1556301600
		},
	"2019-04-26T15:00:00-06:00" : {
		"windSpeed" : 6.5,
		"windDir" : 249,
		"rain" : 0,
		"cloudbase" : null,
		"flyability" : 0,
		"reason" : "windSpeed, windDir",
		"timestamp" :1556312400
		},
	"2019-04-26T18:00:00-06:00" : {
		"windSpeed" : 7.4,
		"windDir" : 258,
		"rain" : 1,
		"cloudbase" : 5318.689,
		"flyability" : 0,
		"reason" : "windSpeed, windDir, rain",
		"timestamp" :1556323200
		},
	"2019-04-26T21:00:00-06:00" : {
		"windSpeed" : 2.2,
		"windDir" : 294,
		"rain" : 0,
		"cloudbase" : 7419.1,
		"flyability" : 0,
		"reason" : "windDir",
		"timestamp" :1556334000
		},
	"2019-04-27T00:00:00-06:00" : {
		"windSpeed" : 0.9,
		"windDir" : 203,
		"rain" : 0,
		"cloudbase" : 6919.1,
		"flyability" : 100,
		"reason" : "",
		"timestamp" :1556344800
		},
	"2019-04-27T03:00:00-06:00" : {
		"windSpeed" : 1,
		"windDir" : 97,
		"rain" : 1,
		"cloudbase" : null,
		"flyability" : 0,
		"reason" : "windDir, rain",
		"timestamp" :1556355600
		},
	"2019-04-27T06:00:00-06:00" : {
		"windSpeed" : 1.7,
		"windDir" : 124,
		"rain" : 0,
		"cloudbase" : null,
		"flyability" : 100,
		"reason" : "",
		"timestamp" :1556366400
		},
	"2019-04-27T09:00:00-06:00" : {
		"windSpeed" : 2.1,
		"windDir" : 206,
		"rain" : 0,
		"cloudbase" : null,
		"flyability" : 100,
		"reason" : "",
		"timestamp" :1556377200
		},
	"2019-04-27T12:00:00-06:00" : {
		"windSpeed" : 3.5,
		"windDir" : 238,
		"rain" : 0,
		"cloudbase" : null,
		"flyability" : 100,
		"reason" : "",
		"timestamp" :1556388000
		},
	"2019-04-27T15:00:00-06:00" : {
		"windSpeed" : 3.8,
		"windDir" : 262,
		"rain" : 0,
		"cloudbase" : null,
		"flyability" : 0,
		"reason" : "windDir",
		"timestamp" :1556398800
		},
	"2019-04-27T18:00:00-06:00" : {
		"windSpeed" : 6.3,
		"windDir" : 251,
		"rain" : 0,
		"cloudbase" : null,
		"flyability" : 0,
		"reason" : "windSpeed, windDir",
		"timestamp" :1556409600
		}
	}
}