{
"site" : "Mosthanets",
"id" : 15980,
"orientations" : "21000000",
"forecasts" : { 
	"2019-04-17T06:00:00+03:00" : {
		"windSpeed" : 1.3,
		"windDir" : 294,
		"rain" : 0,
		"cloudbase" : null,
		"flyability" : 0,
		"reason" : "windDir",
		"timestamp" :1555470000
		},
	"2019-04-17T09:00:00+03:00" : {
		"windSpeed" : 1.9,
		"windDir" : 320,
		"rain" : 0,
		"cloudbase" : null,
		"flyability" : 0,
		"reason" : "windDir",
		"timestamp" :1555480800
		},
	"2019-04-17T12:00:00+03:00" : {
		"windSpeed" : 3.9,
		"windDir" : 338,
		"rain" : 0,
		"cloudbase" : null,
		"flyability" : 100,
		"reason" : "",
		"timestamp" :1555491600
		},
	"2019-04-17T15:00:00+03:00" : {
		"windSpeed" : 3.8,
		"windDir" : 341,
		"rain" : 0,
		"cloudbase" : 2950,
		"flyability" : 100,
		"reason" : "",
		"timestamp" :1555502400
		},
	"2019-04-17T18:00:00+03:00" : {
		"windSpeed" : 4.2,
		"windDir" : 11,
		"rain" : 0,
		"cloudbase" : null,
		"flyability" : 100,
		"reason" : "",
		"timestamp" :1555513200
		},
	"2019-04-17T21:00:00+03:00" : {
		"windSpeed" : 1.8,
		"windDir" : 12,
		"rain" : 0,
		"cloudbase" : null,
		"flyability" : 100,
		"reason" : "",
		"timestamp" :1555524000
		},
	"2019-04-18T00:00:00+03:00" : {
		"windSpeed" : 0.3,
		"windDir" : 80,
		"rain" : 0,
		"cloudbase" : 6500,
		"flyability" : 0,
		"reason" : "windDir",
		"timestamp" :1555534800
		},
	"2019-04-18T03:00:00+03:00" : {
		"windSpeed" : 0.1,
		"windDir" : 9,
		"rain" : 0,
		"cloudbase" : null,
		"flyability" : 100,
		"reason" : "",
		"timestamp" :1555545600
		},
	"2019-04-18T06:00:00+03:00" : {
		"windSpeed" : 0.7,
		"windDir" : 253,
		"rain" : 0,
		"cloudbase" : 2150,
		"flyability" : 0,
		"reason" : "windDir",
		"timestamp" :1555556400
		},
	"2019-04-18T09:00:00+03:00" : {
		"windSpeed" : 1.6,
		"windDir" : 311,
		"rain" : 0,
		"cloudbase" : null,
		"flyability" : 0,
		"reason" : "windDir",
		"timestamp" :1555567200
		},
	"2019-04-18T12:00:00+03:00" : {
		"windSpeed" : 2.3,
		"windDir" : 326,
		"rain" : 0,
		"cloudbase" : null,
		"flyability" : 0,
		"reason" : "windDir",
		"timestamp" :1555578000
		},
	"2019-04-18T15:00:00+03:00" : {
		"windSpeed" : 2,
		"windDir" : 3,
		"rain" : 1,
		"cloudbase" : 5849.26,
		"flyability" : 0,
		"reason" : "rain",
		"timestamp" :1555588800
		},
	"2019-04-18T18:00:00+03:00" : {
		"windSpeed" : 3,
		"windDir" : 339,
		"rain" : 0,
		"cloudbase" : 3534.915,
		"flyability" : 100,
		"reason" : "",
		"timestamp" :1555599600
		},
	"2019-04-18T21:00:00+03:00" : {
		"windSpeed" : 2.8,
		"windDir" : 339,
		"rain" : 1,
		"cloudbase" : 2250,
		"flyability" : 0,
		"reason" : "rain",
		"timestamp" :1555610400
		},
	"2019-04-19T00:00:00+03:00" : {
		"windSpeed" : 1.5,
		"windDir" : 338,
		"rain" : 1,
		"cloudbase" : null,
		"flyability" : 0,
		"reason" : "rain",
		"timestamp" :1555621200
		},
	"2019-04-19T03:00:00+03:00" : {
		"windSpeed" : 1.5,
		"windDir" : 312,
		"rain" : 0,
		"cloudbase" : null,
		"flyability" : 0,
		"reason" : "windDir",
		"timestamp" :1555632000
		},
	"2019-04-19T06:00:00+03:00" : {
		"windSpeed" : 1.2,
		"windDir" : 294,
		"rain" : 0,
		"cloudbase" : null,
		"flyability" : 0,
		"reason" : "windDir",
		"timestamp" :1555642800
		},
	"2019-04-19T09:00:00+03:00" : {
		"windSpeed" : 1.8,
		"windDir" : 323,
		"rain" : 0,
		"cloudbase" : null,
		"flyability" : 0,
		"reason" : "windDir",
		"timestamp" :1555653600
		},
	"2019-04-19T12:00:00+03:00" : {
		"windSpeed" : 4.6,
		"windDir" : 337,
		"rain" : 0,
		"cloudbase" : 2000,
		"flyability" : 0,
		"reason" : "windDir",
		"timestamp" :1555664400
		},
	"2019-04-19T15:00:00+03:00" : {
		"windSpeed" : 4.2,
		"windDir" : 347,
		"rain" : 0,
		"cloudbase" : 2117.365,
		"flyability" : 100,
		"reason" : "",
		"timestamp" :1555675200
		},
	"2019-04-19T18:00:00+03:00" : {
		"windSpeed" : 5.3,
		"windDir" : 350,
		"rain" : 0,
		"cloudbase" : 2363.955,
		"flyability" : 0,
		"reason" : "windSpeed",
		"timestamp" :1555686000
		},
	"2019-04-19T21:00:00+03:00" : {
		"windSpeed" : 1.9,
		"windDir" : 358,
		"rain" : 0,
		"cloudbase" : 2750,
		"flyability" : 100,
		"reason" : "",
		"timestamp" :1555696800
		},
	"2019-04-20T00:00:00+03:00" : {
		"windSpeed" : 2.3,
		"windDir" : 306,
		"rain" : 0,
		"cloudbase" : null,
		"flyability" : 0,
		"reason" : "windDir",
		"timestamp" :1555707600
		},
	"2019-04-20T03:00:00+03:00" : {
		"windSpeed" : 1.7,
		"windDir" : 324,
		"rain" : 0,
		"cloudbase" : null,
		"flyability" : 0,
		"reason" : "windDir",
		"timestamp" :1555718400
		},
	"2019-04-20T06:00:00+03:00" : {
		"windSpeed" : 1.6,
		"windDir" : 321,
		"rain" : 0,
		"cloudbase" : null,
		"flyability" : 0,
		"reason" : "windDir",
		"timestamp" :1555729200
		},
	"2019-04-20T09:00:00+03:00" : {
		"windSpeed" : 1.8,
		"windDir" : 313,
		"rain" : 0,
		"cloudbase" : 2000,
		"flyability" : 0,
		"reason" : "windDir",
		"timestamp" :1555740000
		},
	"2019-04-20T12:00:00+03:00" : {
		"windSpeed" : 4.3,
		"windDir" : 346,
		"rain" : 0,
		"cloudbase" : null,
		"flyability" : 100,
		"reason" : "",
		"timestamp" :1555750800
		},
	"2019-04-20T15:00:00+03:00" : {
		"windSpeed" : 5.1,
		"windDir" : 346,
		"rain" : 0,
		"cloudbase" : 2466.5,
		"flyability" : 0,
		"reason" : "windSpeed",
		"timestamp" :1555761600
		},
	"2019-04-20T18:00:00+03:00" : {
		"windSpeed" : 4.3,
		"windDir" : 8,
		"rain" : 0,
		"cloudbase" : 2000,
		"flyability" : 100,
		"reason" : "",
		"timestamp" :1555772400
		},
	"2019-04-20T21:00:00+03:00" : {
		"windSpeed" : 1.8,
		"windDir" : 325,
		"rain" : 0,
		"cloudbase" : null,
		"flyability" : 0,
		"reason" : "windDir",
		"timestamp" :1555783200
		},
	"2019-04-21T00:00:00+03:00" : {
		"windSpeed" : 0.6,
		"windDir" : 336,
		"rain" : 0,
		"cloudbase" : null,
		"flyability" : 0,
		"reason" : "windDir",
		"timestamp" :1555794000
		},
	"2019-04-21T03:00:00+03:00" : {
		"windSpeed" : 0.3,
		"windDir" : 229,
		"rain" : 0,
		"cloudbase" : null,
		"flyability" : 0,
		"reason" : "windDir",
		"timestamp" :1555804800
		},
	"2019-04-21T06:00:00+03:00" : {
		"windSpeed" : 0.6,
		"windDir" : 270,
		"rain" : 0,
		"cloudbase" : null,
		"flyability" : 0,
		"reason" : "windDir",
		"timestamp" :1555815600
		},
	"2019-04-21T09:00:00+03:00" : {
		"windSpeed" : 0.3,
		"windDir" : 304,
		"rain" : 0,
		"cloudbase" : null,
		"flyability" : 0,
		"reason" : "windDir",
		"timestamp" :1555826400
		},
	"2019-04-21T12:00:00+03:00" : {
		"windSpeed" : 1,
		"windDir" : 354,
		"rain" : 0,
		"cloudbase" : null,
		"flyability" : 100,
		"reason" : "",
		"timestamp" :1555837200
		},
	"2019-04-21T15:00:00+03:00" : {
		"windSpeed" : 3,
		"windDir" : 335,
		"rain" : 0,
		"cloudbase" : 2116.045,
		"flyability" : 0,
		"reason" : "windDir",
		"timestamp" :1555848000
		},
	"2019-04-21T18:00:00+03:00" : {
		"windSpeed" : 0.7,
		"windDir" : 263,
		"rain" : 0,
		"cloudbase" : 2077.365,
		"flyability" : 0,
		"reason" : "windDir",
		"timestamp" :1555858800
		},
	"2019-04-21T21:00:00+03:00" : {
		"windSpeed" : 1.5,
		"windDir" : 180,
		"rain" : 0,
		"cloudbase" : null,
		"flyability" : 0,
		"reason" : "windDir",
		"timestamp" :1555869600
		},
	"2019-04-22T00:00:00+03:00" : {
		"windSpeed" : 1.3,
		"windDir" : 160,
		"rain" : 0,
		"cloudbase" : 3300,
		"flyability" : 0,
		"reason" : "windDir",
		"timestamp" :1555880400
		},
	"2019-04-22T03:00:00+03:00" : {
		"windSpeed" : 1.5,
		"windDir" : 178,
		"rain" : 0,
		"cloudbase" : null,
		"flyability" : 0,
		"reason" : "windDir",
		"timestamp" :1555891200
		},
	"2019-04-22T06:00:00+03:00" : {
		"windSpeed" : 1.1,
		"windDir" : 177,
		"rain" : 0,
		"cloudbase" : null,
		"flyability" : 0,
		"reason" : "windDir",
		"timestamp" :1555902000
		},
	"2019-04-22T09:00:00+03:00" : {
		"windSpeed" : 1.2,
		"windDir" : 156,
		"rain" : 0,
		"cloudbase" : null,
		"flyability" : 0,
		"reason" : "windDir",
		"timestamp" :1555912800
		},
	"2019-04-22T12:00:00+03:00" : {
		"windSpeed" : 0.6,
		"windDir" : 164,
		"rain" : 1,
		"cloudbase" : null,
		"flyability" : 0,
		"reason" : "windDir, rain",
		"timestamp" :1555923600
		},
	"2019-04-22T15:00:00+03:00" : {
		"windSpeed" : 2.1,
		"windDir" : 131,
		"rain" : 1,
		"cloudbase" : 2145.415,
		"flyability" : 0,
		"reason" : "windDir, rain",
		"timestamp" :1555934400
		},
	"2019-04-22T18:00:00+03:00" : {
		"windSpeed" : 2.5,
		"windDir" : 176,
		"rain" : 1,
		"cloudbase" : 2728.315,
		"flyability" : 0,
		"reason" : "windDir, rain",
		"timestamp" :1555945200
		},
	"2019-04-22T21:00:00+03:00" : {
		"windSpeed" : 2.5,
		"windDir" : 155,
		"rain" : 1,
		"cloudbase" : 3029.775,
		"flyability" : 0,
		"reason" : "windDir, rain",
		"timestamp" :1555956000
		},
	"2019-04-23T00:00:00+03:00" : {
		"windSpeed" : 2.3,
		"windDir" : 158,
		"rain" : 1,
		"cloudbase" : 1484.135,
		"flyability" : 0,
		"reason" : "windDir, rain",
		"timestamp" :1555966800
		},
	"2019-04-23T03:00:00+03:00" : {
		"windSpeed" : 2,
		"windDir" : 149,
		"rain" : 1,
		"cloudbase" : 1242.68,
		"flyability" : 0,
		"reason" : "windDir, rain",
		"timestamp" :1555977600
		}
	}
}