{
"site" : "Ghalajeh",
"id" : 16056,
"orientations" : "00001221",
"forecasts" : { 
	"2019-04-05T07:30:00+04:30" : {
		"windSpeed" : 1.6,
		"windDir" : 112,
		"rain" : 1,
		"cloudbase" : 4975.63295,
		"flyability" : 0,
		"reason" : "windDir, rain",
		"timestamp" :1554429600
		},
	"2019-04-05T10:30:00+04:30" : {
		"windSpeed" : 3,
		"windDir" : 88,
		"rain" : 1,
		"cloudbase" : 3052.87155,
		"flyability" : 0,
		"reason" : "windDir, rain",
		"timestamp" :1554440400
		},
	"2019-04-05T13:30:00+04:30" : {
		"windSpeed" : 4.6,
		"windDir" : 99,
		"rain" : 1,
		"cloudbase" : 2910.1224999999,
		"flyability" : 0,
		"reason" : "windDir, rain",
		"timestamp" :1554451200
		},
	"2019-04-05T16:30:00+04:30" : {
		"windSpeed" : 3.3,
		"windDir" : 102,
		"rain" : 1,
		"cloudbase" : 4593.06495,
		"flyability" : 0,
		"reason" : "windDir, rain",
		"timestamp" :1554462000
		},
	"2019-04-05T19:30:00+04:30" : {
		"windSpeed" : 3.7,
		"windDir" : 105,
		"rain" : 1,
		"cloudbase" : 7332.8209,
		"flyability" : 0,
		"reason" : "windDir, rain",
		"timestamp" :1554472800
		},
	"2019-04-05T22:30:00+04:30" : {
		"windSpeed" : 3.3,
		"windDir" : 105,
		"rain" : 0,
		"cloudbase" : 7741.7,
		"flyability" : 0,
		"reason" : "windDir",
		"timestamp" :1554483600
		},
	"2019-04-06T01:30:00+04:30" : {
		"windSpeed" : 3.5,
		"windDir" : 115,
		"rain" : 0,
		"cloudbase" : null,
		"flyability" : 0,
		"reason" : "windDir",
		"timestamp" :1554494400
		},
	"2019-04-06T04:30:00+04:30" : {
		"windSpeed" : 2.9,
		"windDir" : 119,
		"rain" : 0,
		"cloudbase" : 850.40270000001,
		"flyability" : 0,
		"reason" : "windDir, cloudbase",
		"timestamp" :1554505200
		},
	"2019-04-06T07:30:00+04:30" : {
		"windSpeed" : 3.3,
		"windDir" : 134,
		"rain" : 0,
		"cloudbase" : 363.84135000001,
		"flyability" : 0,
		"reason" : "windDir, cloudbase",
		"timestamp" :1554516000
		},
	"2019-04-06T10:30:00+04:30" : {
		"windSpeed" : 2.8,
		"windDir" : 134,
		"rain" : 0,
		"cloudbase" : 341.17774999997,
		"flyability" : 0,
		"reason" : "windDir, cloudbase",
		"timestamp" :1554526800
		},
	"2019-04-06T13:30:00+04:30" : {
		"windSpeed" : 2.1,
		"windDir" : 182,
		"rain" : 1,
		"cloudbase" : 261.14553,
		"flyability" : 0,
		"reason" : "rain, cloudbase",
		"timestamp" :1554537600
		},
	"2019-04-06T16:30:00+04:30" : {
		"windSpeed" : 3.1,
		"windDir" : 227,
		"rain" : 1,
		"cloudbase" : 3348.7353400003,
		"flyability" : 0,
		"reason" : "rain",
		"timestamp" :1554548400
		},
	"2019-04-06T19:30:00+04:30" : {
		"windSpeed" : 1.4,
		"windDir" : 214,
		"rain" : 1,
		"cloudbase" : 5945.9509500001,
		"flyability" : 0,
		"reason" : "rain",
		"timestamp" :1554559200
		},
	"2019-04-06T22:30:00+04:30" : {
		"windSpeed" : 1.1,
		"windDir" : 131,
		"rain" : 0,
		"cloudbase" : 3705.9805300001,
		"flyability" : 0,
		"reason" : "windDir",
		"timestamp" :1554570000
		},
	"2019-04-07T01:30:00+04:30" : {
		"windSpeed" : 0.9,
		"windDir" : 134,
		"rain" : 0,
		"cloudbase" : 139.44581999998,
		"flyability" : 0,
		"reason" : "windDir, cloudbase",
		"timestamp" :1554580800
		},
	"2019-04-07T04:30:00+04:30" : {
		"windSpeed" : 0.8,
		"windDir" : 155,
		"rain" : 1,
		"cloudbase" : 1073.0157650001,
		"flyability" : 0,
		"reason" : "windDir, rain, cloudbase",
		"timestamp" :1554591600
		},
	"2019-04-07T07:30:00+04:30" : {
		"windSpeed" : 0.4,
		"windDir" : 120,
		"rain" : 0,
		"cloudbase" : 3866.95865,
		"flyability" : 0,
		"reason" : "windDir",
		"timestamp" :1554602400
		},
	"2019-04-07T10:30:00+04:30" : {
		"windSpeed" : 2.3,
		"windDir" : 220,
		"rain" : 0,
		"cloudbase" : null,
		"flyability" : 100,
		"reason" : "",
		"timestamp" :1554613200
		},
	"2019-04-07T13:30:00+04:30" : {
		"windSpeed" : 4.3,
		"windDir" : 232,
		"rain" : 0,
		"cloudbase" : null,
		"flyability" : 100,
		"reason" : "",
		"timestamp" :1554624000
		},
	"2019-04-07T16:30:00+04:30" : {
		"windSpeed" : 3.9,
		"windDir" : 248,
		"rain" : 0,
		"cloudbase" : null,
		"flyability" : 100,
		"reason" : "",
		"timestamp" :1554634800
		},
	"2019-04-07T19:30:00+04:30" : {
		"windSpeed" : 1.9,
		"windDir" : 257,
		"rain" : 0,
		"cloudbase" : 3324.61865,
		"flyability" : 100,
		"reason" : "",
		"timestamp" :1554645600
		},
	"2019-04-07T22:30:00+04:30" : {
		"windSpeed" : 0.6,
		"windDir" : 184,
		"rain" : 0,
		"cloudbase" : 6176.7029000001,
		"flyability" : 100,
		"reason" : "",
		"timestamp" :1554656400
		},
	"2019-04-08T01:30:00+04:30" : {
		"windSpeed" : 1.1,
		"windDir" : 158,
		"rain" : 0,
		"cloudbase" : null,
		"flyability" : 100,
		"reason" : "",
		"timestamp" :1554667200
		},
	"2019-04-08T04:30:00+04:30" : {
		"windSpeed" : 0.9,
		"windDir" : 180,
		"rain" : 0,
		"cloudbase" : 1850,
		"flyability" : 0,
		"reason" : "cloudbase",
		"timestamp" :1554678000
		},
	"2019-04-08T07:30:00+04:30" : {
		"windSpeed" : 0.9,
		"windDir" : 153,
		"rain" : 0,
		"cloudbase" : null,
		"flyability" : 0,
		"reason" : "windDir",
		"timestamp" :1554688800
		},
	"2019-04-08T10:30:00+04:30" : {
		"windSpeed" : 2.3,
		"windDir" : 257,
		"rain" : 0,
		"cloudbase" : null,
		"flyability" : 100,
		"reason" : "",
		"timestamp" :1554699600
		},
	"2019-04-08T13:30:00+04:30" : {
		"windSpeed" : 4.3,
		"windDir" : 258,
		"rain" : 1,
		"cloudbase" : null,
		"flyability" : 0,
		"reason" : "rain",
		"timestamp" :1554710400
		},
	"2019-04-08T16:30:00+04:30" : {
		"windSpeed" : 4.3,
		"windDir" : 266,
		"rain" : 1,
		"cloudbase" : null,
		"flyability" : 0,
		"reason" : "rain",
		"timestamp" :1554721200
		},
	"2019-04-08T19:30:00+04:30" : {
		"windSpeed" : 1.6,
		"windDir" : 252,
		"rain" : 0,
		"cloudbase" : null,
		"flyability" : 100,
		"reason" : "",
		"timestamp" :1554732000
		},
	"2019-04-08T22:30:00+04:30" : {
		"windSpeed" : 1.5,
		"windDir" : 156,
		"rain" : 0,
		"cloudbase" : null,
		"flyability" : 100,
		"reason" : "",
		"timestamp" :1554742800
		},
	"2019-04-09T01:30:00+04:30" : {
		"windSpeed" : 1.2,
		"windDir" : 168,
		"rain" : 0,
		"cloudbase" : null,
		"flyability" : 100,
		"reason" : "",
		"timestamp" :1554753600
		},
	"2019-04-09T04:30:00+04:30" : {
		"windSpeed" : 1.2,
		"windDir" : 180,
		"rain" : 0,
		"cloudbase" : null,
		"flyability" : 100,
		"reason" : "",
		"timestamp" :1554764400
		},
	"2019-04-09T07:30:00+04:30" : {
		"windSpeed" : 1.3,
		"windDir" : 153,
		"rain" : 0,
		"cloudbase" : null,
		"flyability" : 0,
		"reason" : "windDir",
		"timestamp" :1554775200
		},
	"2019-04-09T10:30:00+04:30" : {
		"windSpeed" : 2.2,
		"windDir" : 257,
		"rain" : 0,
		"cloudbase" : null,
		"flyability" : 100,
		"reason" : "",
		"timestamp" :1554786000
		},
	"2019-04-09T13:30:00+04:30" : {
		"windSpeed" : 3.7,
		"windDir" : 267,
		"rain" : 1,
		"cloudbase" : null,
		"flyability" : 0,
		"reason" : "rain",
		"timestamp" :1554796800
		},
	"2019-04-09T16:30:00+04:30" : {
		"windSpeed" : 3.4,
		"windDir" : 273,
		"rain" : 1,
		"cloudbase" : null,
		"flyability" : 0,
		"reason" : "rain",
		"timestamp" :1554807600
		},
	"2019-04-09T19:30:00+04:30" : {
		"windSpeed" : 1.7,
		"windDir" : 270,
		"rain" : 1,
		"cloudbase" : null,
		"flyability" : 0,
		"reason" : "rain",
		"timestamp" :1554818400
		},
	"2019-04-09T22:30:00+04:30" : {
		"windSpeed" : 0.5,
		"windDir" : 87,
		"rain" : 1,
		"cloudbase" : null,
		"flyability" : 0,
		"reason" : "windDir, rain",
		"timestamp" :1554829200
		},
	"2019-04-10T01:30:00+04:30" : {
		"windSpeed" : 1.6,
		"windDir" : 75,
		"rain" : 0,
		"cloudbase" : null,
		"flyability" : 0,
		"reason" : "windDir",
		"timestamp" :1554840000
		},
	"2019-04-10T04:30:00+04:30" : {
		"windSpeed" : 1.6,
		"windDir" : 87,
		"rain" : 0,
		"cloudbase" : null,
		"flyability" : 0,
		"reason" : "windDir",
		"timestamp" :1554850800
		},
	"2019-04-10T07:30:00+04:30" : {
		"windSpeed" : 2.1,
		"windDir" : 90,
		"rain" : 0,
		"cloudbase" : null,
		"flyability" : 0,
		"reason" : "windDir",
		"timestamp" :1554861600
		},
	"2019-04-10T10:30:00+04:30" : {
		"windSpeed" : 1.5,
		"windDir" : 91,
		"rain" : 0,
		"cloudbase" : null,
		"flyability" : 0,
		"reason" : "windDir",
		"timestamp" :1554872400
		},
	"2019-04-10T13:30:00+04:30" : {
		"windSpeed" : 1.9,
		"windDir" : 260,
		"rain" : 1,
		"cloudbase" : null,
		"flyability" : 0,
		"reason" : "rain",
		"timestamp" :1554883200
		},
	"2019-04-10T16:30:00+04:30" : {
		"windSpeed" : 2.6,
		"windDir" : 252,
		"rain" : 0,
		"cloudbase" : null,
		"flyability" : 100,
		"reason" : "",
		"timestamp" :1554894000
		},
	"2019-04-10T19:30:00+04:30" : {
		"windSpeed" : 0.4,
		"windDir" : 171,
		"rain" : 0,
		"cloudbase" : 8700,
		"flyability" : 100,
		"reason" : "",
		"timestamp" :1554904800
		},
	"2019-04-10T22:30:00+04:30" : {
		"windSpeed" : 1.7,
		"windDir" : 84,
		"rain" : 0,
		"cloudbase" : null,
		"flyability" : 0,
		"reason" : "windDir",
		"timestamp" :1554915600
		},
	"2019-04-11T01:30:00+04:30" : {
		"windSpeed" : 2.2,
		"windDir" : 105,
		"rain" : 0,
		"cloudbase" : null,
		"flyability" : 0,
		"reason" : "windDir",
		"timestamp" :1554926400
		},
	"2019-04-11T04:30:00+04:30" : {
		"windSpeed" : 2.1,
		"windDir" : 90,
		"rain" : 0,
		"cloudbase" : null,
		"flyability" : 0,
		"reason" : "windDir",
		"timestamp" :1554937200
		}
	}
}