{
"site" : "Tatah",
"id" : 16057,
"orientations" : "21100012",
"forecasts" : { 
	"2019-04-04T19:30:00+04:30" : {
		"windSpeed" : 1.2,
		"windDir" : 262,
		"rain" : 0,
		"cloudbase" : 5425.7198,
		"flyability" : 100,
		"reason" : "",
		"timestamp" :1554386400
		},
	"2019-04-04T22:30:00+04:30" : {
		"windSpeed" : 1,
		"windDir" : 83,
		"rain" : 1,
		"cloudbase" : 5378.2934000001,
		"flyability" : 0,
		"reason" : "rain",
		"timestamp" :1554397200
		},
	"2019-04-05T01:30:00+04:30" : {
		"windSpeed" : 1.8,
		"windDir" : 80,
		"rain" : 1,
		"cloudbase" : null,
		"flyability" : 0,
		"reason" : "rain",
		"timestamp" :1554408000
		},
	"2019-04-05T04:30:00+04:30" : {
		"windSpeed" : 2,
		"windDir" : 84,
		"rain" : 0,
		"cloudbase" : null,
		"flyability" : 100,
		"reason" : "",
		"timestamp" :1554418800
		},
	"2019-04-05T07:30:00+04:30" : {
		"windSpeed" : 1.6,
		"windDir" : 82,
		"rain" : 0,
		"cloudbase" : null,
		"flyability" : 100,
		"reason" : "",
		"timestamp" :1554429600
		},
	"2019-04-05T10:30:00+04:30" : {
		"windSpeed" : 2.3,
		"windDir" : 174,
		"rain" : 0,
		"cloudbase" : 5841.4934000001,
		"flyability" : 0,
		"reason" : "windDir",
		"timestamp" :1554440400
		},
	"2019-04-05T13:30:00+04:30" : {
		"windSpeed" : 3,
		"windDir" : 165,
		"rain" : 1,
		"cloudbase" : 3591.5500000001,
		"flyability" : 0,
		"reason" : "windDir, rain",
		"timestamp" :1554451200
		},
	"2019-04-05T16:30:00+04:30" : {
		"windSpeed" : 2.7,
		"windDir" : 79,
		"rain" : 1,
		"cloudbase" : 5456.3198000001,
		"flyability" : 0,
		"reason" : "rain",
		"timestamp" :1554462000
		},
	"2019-04-05T19:30:00+04:30" : {
		"windSpeed" : 2.6,
		"windDir" : 85,
		"rain" : 1,
		"cloudbase" : 4917.2769,
		"flyability" : 0,
		"reason" : "rain",
		"timestamp" :1554472800
		},
	"2019-04-05T22:30:00+04:30" : {
		"windSpeed" : 2,
		"windDir" : 84,
		"rain" : 1,
		"cloudbase" : 2550,
		"flyability" : 0,
		"reason" : "rain, cloudbase",
		"timestamp" :1554483600
		},
	"2019-04-06T01:30:00+04:30" : {
		"windSpeed" : 2.4,
		"windDir" : 99,
		"rain" : 1,
		"cloudbase" : 5312.0000000002,
		"flyability" : 0,
		"reason" : "rain",
		"timestamp" :1554494400
		},
	"2019-04-06T04:30:00+04:30" : {
		"windSpeed" : 1.5,
		"windDir" : 86,
		"rain" : 0,
		"cloudbase" : 2060.9740999998,
		"flyability" : 0,
		"reason" : "cloudbase",
		"timestamp" :1554505200
		},
	"2019-04-06T07:30:00+04:30" : {
		"windSpeed" : 1.8,
		"windDir" : 102,
		"rain" : 0,
		"cloudbase" : 3942.7759000006,
		"flyability" : 100,
		"reason" : "",
		"timestamp" :1554516000
		},
	"2019-04-06T10:30:00+04:30" : {
		"windSpeed" : 2,
		"windDir" : 132,
		"rain" : 1,
		"cloudbase" : 993.10792000001,
		"flyability" : 0,
		"reason" : "windDir, rain, cloudbase",
		"timestamp" :1554526800
		},
	"2019-04-06T13:30:00+04:30" : {
		"windSpeed" : 3.1,
		"windDir" : 222,
		"rain" : 1,
		"cloudbase" : 369.18065999995,
		"flyability" : 0,
		"reason" : "windDir, rain, cloudbase",
		"timestamp" :1554537600
		},
	"2019-04-06T16:30:00+04:30" : {
		"windSpeed" : 2.1,
		"windDir" : 213,
		"rain" : 1,
		"cloudbase" : 144.95637000006,
		"flyability" : 0,
		"reason" : "windDir, rain, cloudbase",
		"timestamp" :1554548400
		},
	"2019-04-06T19:30:00+04:30" : {
		"windSpeed" : 1.6,
		"windDir" : 237,
		"rain" : 1,
		"cloudbase" : 61.699110000025,
		"flyability" : 0,
		"reason" : "windDir, rain, cloudbase",
		"timestamp" :1554559200
		},
	"2019-04-06T22:30:00+04:30" : {
		"windSpeed" : 0.4,
		"windDir" : 234,
		"rain" : 1,
		"cloudbase" : 30,
		"flyability" : 0,
		"reason" : "windDir, rain, cloudbase",
		"timestamp" :1554570000
		},
	"2019-04-07T01:30:00+04:30" : {
		"windSpeed" : 0.7,
		"windDir" : 79,
		"rain" : 0,
		"cloudbase" : null,
		"flyability" : 100,
		"reason" : "",
		"timestamp" :1554580800
		},
	"2019-04-07T04:30:00+04:30" : {
		"windSpeed" : 1.1,
		"windDir" : 84,
		"rain" : 0,
		"cloudbase" : 1150,
		"flyability" : 0,
		"reason" : "cloudbase",
		"timestamp" :1554591600
		},
	"2019-04-07T07:30:00+04:30" : {
		"windSpeed" : 1.9,
		"windDir" : 84,
		"rain" : 1,
		"cloudbase" : 558.30447000073,
		"flyability" : 0,
		"reason" : "rain, cloudbase",
		"timestamp" :1554602400
		},
	"2019-04-07T10:30:00+04:30" : {
		"windSpeed" : 0.8,
		"windDir" : 120,
		"rain" : 0,
		"cloudbase" : 3098.1566000001,
		"flyability" : 0,
		"reason" : "windDir",
		"timestamp" :1554613200
		},
	"2019-04-07T13:30:00+04:30" : {
		"windSpeed" : 2.6,
		"windDir" : 236,
		"rain" : 0,
		"cloudbase" : null,
		"flyability" : 0,
		"reason" : "windDir",
		"timestamp" :1554624000
		},
	"2019-04-07T16:30:00+04:30" : {
		"windSpeed" : 2.9,
		"windDir" : 241,
		"rain" : 0,
		"cloudbase" : 1300,
		"flyability" : 0,
		"reason" : "windDir, cloudbase",
		"timestamp" :1554634800
		},
	"2019-04-07T19:30:00+04:30" : {
		"windSpeed" : 1.1,
		"windDir" : 249,
		"rain" : 0,
		"cloudbase" : null,
		"flyability" : 100,
		"reason" : "",
		"timestamp" :1554645600
		},
	"2019-04-07T22:30:00+04:30" : {
		"windSpeed" : 0.4,
		"windDir" : 77,
		"rain" : 0,
		"cloudbase" : 5486.7560999997,
		"flyability" : 100,
		"reason" : "",
		"timestamp" :1554656400
		},
	"2019-04-08T01:30:00+04:30" : {
		"windSpeed" : 0.5,
		"windDir" : 77,
		"rain" : 0,
		"cloudbase" : 3089.1566000001,
		"flyability" : 100,
		"reason" : "",
		"timestamp" :1554667200
		},
	"2019-04-08T04:30:00+04:30" : {
		"windSpeed" : 0.3,
		"windDir" : 70,
		"rain" : 0,
		"cloudbase" : 2450,
		"flyability" : 0,
		"reason" : "cloudbase",
		"timestamp" :1554678000
		},
	"2019-04-08T07:30:00+04:30" : {
		"windSpeed" : 1,
		"windDir" : 83,
		"rain" : 0,
		"cloudbase" : null,
		"flyability" : 100,
		"reason" : "",
		"timestamp" :1554688800
		},
	"2019-04-08T10:30:00+04:30" : {
		"windSpeed" : 0.9,
		"windDir" : 212,
		"rain" : 0,
		"cloudbase" : null,
		"flyability" : 0,
		"reason" : "windDir",
		"timestamp" :1554699600
		},
	"2019-04-08T13:30:00+04:30" : {
		"windSpeed" : 2.4,
		"windDir" : 249,
		"rain" : 1,
		"cloudbase" : null,
		"flyability" : 0,
		"reason" : "rain",
		"timestamp" :1554710400
		},
	"2019-04-08T16:30:00+04:30" : {
		"windSpeed" : 2.5,
		"windDir" : 259,
		"rain" : 0,
		"cloudbase" : null,
		"flyability" : 100,
		"reason" : "",
		"timestamp" :1554721200
		},
	"2019-04-08T19:30:00+04:30" : {
		"windSpeed" : 1,
		"windDir" : 272,
		"rain" : 1,
		"cloudbase" : null,
		"flyability" : 0,
		"reason" : "rain",
		"timestamp" :1554732000
		},
	"2019-04-08T22:30:00+04:30" : {
		"windSpeed" : 0.7,
		"windDir" : 117,
		"rain" : 1,
		"cloudbase" : null,
		"flyability" : 0,
		"reason" : "windDir, rain",
		"timestamp" :1554742800
		},
	"2019-04-09T01:30:00+04:30" : {
		"windSpeed" : 1,
		"windDir" : 101,
		"rain" : 0,
		"cloudbase" : null,
		"flyability" : 100,
		"reason" : "",
		"timestamp" :1554753600
		},
	"2019-04-09T04:30:00+04:30" : {
		"windSpeed" : 0.4,
		"windDir" : 118,
		"rain" : 1,
		"cloudbase" : null,
		"flyability" : 0,
		"reason" : "windDir, rain",
		"timestamp" :1554764400
		},
	"2019-04-09T07:30:00+04:30" : {
		"windSpeed" : 0.8,
		"windDir" : 103,
		"rain" : 1,
		"cloudbase" : null,
		"flyability" : 0,
		"reason" : "rain",
		"timestamp" :1554775200
		},
	"2019-04-09T10:30:00+04:30" : {
		"windSpeed" : 1.3,
		"windDir" : 222,
		"rain" : 1,
		"cloudbase" : null,
		"flyability" : 0,
		"reason" : "windDir, rain",
		"timestamp" :1554786000
		},
	"2019-04-09T13:30:00+04:30" : {
		"windSpeed" : 2.6,
		"windDir" : 252,
		"rain" : 1,
		"cloudbase" : null,
		"flyability" : 0,
		"reason" : "rain",
		"timestamp" :1554796800
		},
	"2019-04-09T16:30:00+04:30" : {
		"windSpeed" : 2.3,
		"windDir" : 247,
		"rain" : 1,
		"cloudbase" : null,
		"flyability" : 0,
		"reason" : "windDir, rain",
		"timestamp" :1554807600
		},
	"2019-04-09T19:30:00+04:30" : {
		"windSpeed" : 0.8,
		"windDir" : 234,
		"rain" : 1,
		"cloudbase" : null,
		"flyability" : 0,
		"reason" : "windDir, rain",
		"timestamp" :1554818400
		},
	"2019-04-09T22:30:00+04:30" : {
		"windSpeed" : 0.7,
		"windDir" : 123,
		"rain" : 1,
		"cloudbase" : null,
		"flyability" : 0,
		"reason" : "windDir, rain",
		"timestamp" :1554829200
		},
	"2019-04-10T01:30:00+04:30" : {
		"windSpeed" : 1,
		"windDir" : 101,
		"rain" : 0,
		"cloudbase" : null,
		"flyability" : 100,
		"reason" : "",
		"timestamp" :1554840000
		},
	"2019-04-10T04:30:00+04:30" : {
		"windSpeed" : 1.5,
		"windDir" : 82,
		"rain" : 0,
		"cloudbase" : null,
		"flyability" : 100,
		"reason" : "",
		"timestamp" :1554850800
		},
	"2019-04-10T07:30:00+04:30" : {
		"windSpeed" : 1.8,
		"windDir" : 79,
		"rain" : 1,
		"cloudbase" : 30,
		"flyability" : 0,
		"reason" : "rain, cloudbase",
		"timestamp" :1554861600
		},
	"2019-04-10T10:30:00+04:30" : {
		"windSpeed" : 1.2,
		"windDir" : 109,
		"rain" : 0,
		"cloudbase" : null,
		"flyability" : 100,
		"reason" : "",
		"timestamp" :1554872400
		},
	"2019-04-10T13:30:00+04:30" : {
		"windSpeed" : 2.5,
		"windDir" : 259,
		"rain" : 1,
		"cloudbase" : null,
		"flyability" : 0,
		"reason" : "rain",
		"timestamp" :1554883200
		},
	"2019-04-10T16:30:00+04:30" : {
		"windSpeed" : 1.9,
		"windDir" : 237,
		"rain" : 0,
		"cloudbase" : 1550,
		"flyability" : 0,
		"reason" : "windDir, cloudbase",
		"timestamp" :1554894000
		}
	}
}