{
"site" : "Iss\u0131zca",
"id" : 16907,
"orientations" : "00000121",
"forecasts" : { 
	"2019-04-22T06:00:00+03:00" : {
		"windSpeed" : 0.7,
		"windDir" : 189,
		"rain" : 0,
		"cloudbase" : null,
		"flyability" : 0,
		"reason" : "windDir",
		"timestamp" :1555902000
		},
	"2019-04-22T09:00:00+03:00" : {
		"windSpeed" : 2.4,
		"windDir" : 282,
		"rain" : 0,
		"cloudbase" : null,
		"flyability" : 100,
		"reason" : "",
		"timestamp" :1555912800
		},
	"2019-04-22T12:00:00+03:00" : {
		"windSpeed" : 2.1,
		"windDir" : 303,
		"rain" : 0,
		"cloudbase" : null,
		"flyability" : 100,
		"reason" : "",
		"timestamp" :1555923600
		},
	"2019-04-22T15:00:00+03:00" : {
		"windSpeed" : 4,
		"windDir" : 306,
		"rain" : 0,
		"cloudbase" : 1997.314,
		"flyability" : 100,
		"reason" : "",
		"timestamp" :1555934400
		},
	"2019-04-22T18:00:00+03:00" : {
		"windSpeed" : 3,
		"windDir" : 296,
		"rain" : 0,
		"cloudbase" : null,
		"flyability" : 100,
		"reason" : "",
		"timestamp" :1555945200
		},
	"2019-04-22T21:00:00+03:00" : {
		"windSpeed" : 1.5,
		"windDir" : 268,
		"rain" : 0,
		"cloudbase" : null,
		"flyability" : 100,
		"reason" : "",
		"timestamp" :1555956000
		},
	"2019-04-23T00:00:00+03:00" : {
		"windSpeed" : 0.5,
		"windDir" : 195,
		"rain" : 0,
		"cloudbase" : null,
		"flyability" : 0,
		"reason" : "windDir",
		"timestamp" :1555966800
		},
	"2019-04-23T03:00:00+03:00" : {
		"windSpeed" : 0.9,
		"windDir" : 140,
		"rain" : 0,
		"cloudbase" : null,
		"flyability" : 0,
		"reason" : "windDir",
		"timestamp" :1555977600
		},
	"2019-04-23T06:00:00+03:00" : {
		"windSpeed" : 0.4,
		"windDir" : 210,
		"rain" : 0,
		"cloudbase" : null,
		"flyability" : 100,
		"reason" : "",
		"timestamp" :1555988400
		},
	"2019-04-23T09:00:00+03:00" : {
		"windSpeed" : 1,
		"windDir" : 305,
		"rain" : 0,
		"cloudbase" : null,
		"flyability" : 100,
		"reason" : "",
		"timestamp" :1555999200
		},
	"2019-04-23T12:00:00+03:00" : {
		"windSpeed" : 2.2,
		"windDir" : 285,
		"rain" : 0,
		"cloudbase" : null,
		"flyability" : 100,
		"reason" : "",
		"timestamp" :1556010000
		},
	"2019-04-23T15:00:00+03:00" : {
		"windSpeed" : 2.2,
		"windDir" : 271,
		"rain" : 0,
		"cloudbase" : null,
		"flyability" : 100,
		"reason" : "",
		"timestamp" :1556020800
		},
	"2019-04-23T18:00:00+03:00" : {
		"windSpeed" : 1.7,
		"windDir" : 252,
		"rain" : 0,
		"cloudbase" : null,
		"flyability" : 100,
		"reason" : "",
		"timestamp" :1556031600
		},
	"2019-04-23T21:00:00+03:00" : {
		"windSpeed" : 0.8,
		"windDir" : 155,
		"rain" : 0,
		"cloudbase" : null,
		"flyability" : 0,
		"reason" : "windDir",
		"timestamp" :1556042400
		},
	"2019-04-24T00:00:00+03:00" : {
		"windSpeed" : 1.2,
		"windDir" : 112,
		"rain" : 0,
		"cloudbase" : null,
		"flyability" : 0,
		"reason" : "windDir",
		"timestamp" :1556053200
		},
	"2019-04-24T03:00:00+03:00" : {
		"windSpeed" : 1,
		"windDir" : 109,
		"rain" : 0,
		"cloudbase" : null,
		"flyability" : 0,
		"reason" : "windDir",
		"timestamp" :1556064000
		},
	"2019-04-24T06:00:00+03:00" : {
		"windSpeed" : 0.7,
		"windDir" : 94,
		"rain" : 0,
		"cloudbase" : null,
		"flyability" : 0,
		"reason" : "windDir",
		"timestamp" :1556074800
		},
	"2019-04-24T09:00:00+03:00" : {
		"windSpeed" : 1,
		"windDir" : 3,
		"rain" : 0,
		"cloudbase" : null,
		"flyability" : 0,
		"reason" : "windDir",
		"timestamp" :1556085600
		},
	"2019-04-24T12:00:00+03:00" : {
		"windSpeed" : 1.2,
		"windDir" : 313,
		"rain" : 0,
		"cloudbase" : 7927.1368,
		"flyability" : 100,
		"reason" : "",
		"timestamp" :1556096400
		},
	"2019-04-24T15:00:00+03:00" : {
		"windSpeed" : 2.2,
		"windDir" : 269,
		"rain" : 0,
		"cloudbase" : null,
		"flyability" : 100,
		"reason" : "",
		"timestamp" :1556107200
		},
	"2019-04-24T18:00:00+03:00" : {
		"windSpeed" : 0.7,
		"windDir" : 235,
		"rain" : 0,
		"cloudbase" : null,
		"flyability" : 100,
		"reason" : "",
		"timestamp" :1556118000
		},
	"2019-04-24T21:00:00+03:00" : {
		"windSpeed" : 0.4,
		"windDir" : 197,
		"rain" : 0,
		"cloudbase" : null,
		"flyability" : 0,
		"reason" : "windDir",
		"timestamp" :1556128800
		},
	"2019-04-25T00:00:00+03:00" : {
		"windSpeed" : 0.7,
		"windDir" : 152,
		"rain" : 0,
		"cloudbase" : null,
		"flyability" : 0,
		"reason" : "windDir",
		"timestamp" :1556139600
		},
	"2019-04-25T03:00:00+03:00" : {
		"windSpeed" : 0.8,
		"windDir" : 97,
		"rain" : 0,
		"cloudbase" : null,
		"flyability" : 0,
		"reason" : "windDir",
		"timestamp" :1556150400
		},
	"2019-04-25T06:00:00+03:00" : {
		"windSpeed" : 0.9,
		"windDir" : 106,
		"rain" : 0,
		"cloudbase" : null,
		"flyability" : 0,
		"reason" : "windDir",
		"timestamp" :1556161200
		},
	"2019-04-25T09:00:00+03:00" : {
		"windSpeed" : 0.6,
		"windDir" : 7,
		"rain" : 0,
		"cloudbase" : null,
		"flyability" : 0,
		"reason" : "windDir",
		"timestamp" :1556172000
		},
	"2019-04-25T12:00:00+03:00" : {
		"windSpeed" : 1.9,
		"windDir" : 315,
		"rain" : 0,
		"cloudbase" : null,
		"flyability" : 100,
		"reason" : "",
		"timestamp" :1556182800
		},
	"2019-04-25T15:00:00+03:00" : {
		"windSpeed" : 2.2,
		"windDir" : 271,
		"rain" : 0,
		"cloudbase" : null,
		"flyability" : 100,
		"reason" : "",
		"timestamp" :1556193600
		},
	"2019-04-25T18:00:00+03:00" : {
		"windSpeed" : 0.8,
		"windDir" : 282,
		"rain" : 0,
		"cloudbase" : null,
		"flyability" : 100,
		"reason" : "",
		"timestamp" :1556204400
		},
	"2019-04-25T21:00:00+03:00" : {
		"windSpeed" : 0.6,
		"windDir" : 130,
		"rain" : 0,
		"cloudbase" : null,
		"flyability" : 0,
		"reason" : "windDir",
		"timestamp" :1556215200
		},
	"2019-04-26T00:00:00+03:00" : {
		"windSpeed" : 1.1,
		"windDir" : 116,
		"rain" : 0,
		"cloudbase" : null,
		"flyability" : 0,
		"reason" : "windDir",
		"timestamp" :1556226000
		},
	"2019-04-26T03:00:00+03:00" : {
		"windSpeed" : 1,
		"windDir" : 100,
		"rain" : 0,
		"cloudbase" : null,
		"flyability" : 0,
		"reason" : "windDir",
		"timestamp" :1556236800
		},
	"2019-04-26T06:00:00+03:00" : {
		"windSpeed" : 1.4,
		"windDir" : 110,
		"rain" : 0,
		"cloudbase" : null,
		"flyability" : 0,
		"reason" : "windDir",
		"timestamp" :1556247600
		},
	"2019-04-26T09:00:00+03:00" : {
		"windSpeed" : 0.8,
		"windDir" : 16,
		"rain" : 0,
		"cloudbase" : null,
		"flyability" : 0,
		"reason" : "windDir",
		"timestamp" :1556258400
		},
	"2019-04-26T12:00:00+03:00" : {
		"windSpeed" : 1.6,
		"windDir" : 336,
		"rain" : 0,
		"cloudbase" : null,
		"flyability" : 100,
		"reason" : "",
		"timestamp" :1556269200
		},
	"2019-04-26T15:00:00+03:00" : {
		"windSpeed" : 2.2,
		"windDir" : 278,
		"rain" : 0,
		"cloudbase" : null,
		"flyability" : 100,
		"reason" : "",
		"timestamp" :1556280000
		},
	"2019-04-26T18:00:00+03:00" : {
		"windSpeed" : 0.1,
		"windDir" : 352,
		"rain" : 0,
		"cloudbase" : null,
		"flyability" : 0,
		"reason" : "windDir",
		"timestamp" :1556290800
		},
	"2019-04-26T21:00:00+03:00" : {
		"windSpeed" : 1.2,
		"windDir" : 118,
		"rain" : 0,
		"cloudbase" : 8197.6456,
		"flyability" : 0,
		"reason" : "windDir",
		"timestamp" :1556301600
		},
	"2019-04-27T00:00:00+03:00" : {
		"windSpeed" : 1.2,
		"windDir" : 112,
		"rain" : 0,
		"cloudbase" : null,
		"flyability" : 0,
		"reason" : "windDir",
		"timestamp" :1556312400
		},
	"2019-04-27T03:00:00+03:00" : {
		"windSpeed" : 1,
		"windDir" : 116,
		"rain" : 0,
		"cloudbase" : null,
		"flyability" : 0,
		"reason" : "windDir",
		"timestamp" :1556323200
		},
	"2019-04-27T06:00:00+03:00" : {
		"windSpeed" : 1.5,
		"windDir" : 123,
		"rain" : 0,
		"cloudbase" : 8210.3368,
		"flyability" : 0,
		"reason" : "windDir",
		"timestamp" :1556334000
		},
	"2019-04-27T09:00:00+03:00" : {
		"windSpeed" : 1,
		"windDir" : 123,
		"rain" : 0,
		"cloudbase" : null,
		"flyability" : 0,
		"reason" : "windDir",
		"timestamp" :1556344800
		},
	"2019-04-27T12:00:00+03:00" : {
		"windSpeed" : 1.1,
		"windDir" : 297,
		"rain" : 1,
		"cloudbase" : null,
		"flyability" : 0,
		"reason" : "rain",
		"timestamp" :1556355600
		},
	"2019-04-27T15:00:00+03:00" : {
		"windSpeed" : 1,
		"windDir" : 291,
		"rain" : 1,
		"cloudbase" : null,
		"flyability" : 0,
		"reason" : "rain",
		"timestamp" :1556366400
		},
	"2019-04-27T18:00:00+03:00" : {
		"windSpeed" : 1,
		"windDir" : 325,
		"rain" : 1,
		"cloudbase" : null,
		"flyability" : 0,
		"reason" : "rain",
		"timestamp" :1556377200
		},
	"2019-04-27T21:00:00+03:00" : {
		"windSpeed" : 1.1,
		"windDir" : 126,
		"rain" : 0,
		"cloudbase" : null,
		"flyability" : 0,
		"reason" : "windDir",
		"timestamp" :1556388000
		},
	"2019-04-28T00:00:00+03:00" : {
		"windSpeed" : 1.3,
		"windDir" : 120,
		"rain" : 0,
		"cloudbase" : null,
		"flyability" : 0,
		"reason" : "windDir",
		"timestamp" :1556398800
		},
	"2019-04-28T03:00:00+03:00" : {
		"windSpeed" : 2,
		"windDir" : 126,
		"rain" : 0,
		"cloudbase" : null,
		"flyability" : 0,
		"reason" : "windDir",
		"timestamp" :1556409600
		}
	}
}