{
"site" : "Zadni Treban",
"id" : 16959,
"orientations" : "20000000",
"forecasts" : { 
	"2019-04-09T05:00:00+02:00" : {
		"windSpeed" : 1.8,
		"windDir" : 308,
		"rain" : 0,
		"cloudbase" : null,
		"flyability" : 0,
		"reason" : "windDir",
		"timestamp" :1554782400
		},
	"2019-04-09T08:00:00+02:00" : {
		"windSpeed" : 1,
		"windDir" : 310,
		"rain" : 0,
		"cloudbase" : null,
		"flyability" : 0,
		"reason" : "windDir",
		"timestamp" :1554793200
		},
	"2019-04-09T11:00:00+02:00" : {
		"windSpeed" : 1.9,
		"windDir" : 34,
		"rain" : 0,
		"cloudbase" : null,
		"flyability" : 0,
		"reason" : "windDir",
		"timestamp" :1554804000
		},
	"2019-04-09T14:00:00+02:00" : {
		"windSpeed" : 4.5,
		"windDir" : 24,
		"rain" : 1,
		"cloudbase" : 2250,
		"flyability" : 0,
		"reason" : "windDir, rain",
		"timestamp" :1554814800
		},
	"2019-04-09T17:00:00+02:00" : {
		"windSpeed" : 5.3,
		"windDir" : 28,
		"rain" : 0,
		"cloudbase" : null,
		"flyability" : 0,
		"reason" : "windSpeed, windDir",
		"timestamp" :1554825600
		},
	"2019-04-09T20:00:00+02:00" : {
		"windSpeed" : 4.2,
		"windDir" : 28,
		"rain" : 0,
		"cloudbase" : 8477.6000000002,
		"flyability" : 0,
		"reason" : "windDir",
		"timestamp" :1554836400
		},
	"2019-04-09T23:00:00+02:00" : {
		"windSpeed" : 3.3,
		"windDir" : 50,
		"rain" : 0,
		"cloudbase" : 8446.4,
		"flyability" : 0,
		"reason" : "windDir",
		"timestamp" :1554847200
		},
	"2019-04-10T02:00:00+02:00" : {
		"windSpeed" : 3.3,
		"windDir" : 54,
		"rain" : 0,
		"cloudbase" : 8032,
		"flyability" : 0,
		"reason" : "windDir",
		"timestamp" :1554858000
		},
	"2019-04-10T05:00:00+02:00" : {
		"windSpeed" : 2.3,
		"windDir" : 47,
		"rain" : 0,
		"cloudbase" : null,
		"flyability" : 0,
		"reason" : "windDir",
		"timestamp" :1554868800
		},
	"2019-04-10T08:00:00+02:00" : {
		"windSpeed" : 3.6,
		"windDir" : 46,
		"rain" : 0,
		"cloudbase" : 8800,
		"flyability" : 0,
		"reason" : "windDir",
		"timestamp" :1554879600
		},
	"2019-04-10T11:00:00+02:00" : {
		"windSpeed" : 3.6,
		"windDir" : 46,
		"rain" : 0,
		"cloudbase" : 1750,
		"flyability" : 0,
		"reason" : "windDir",
		"timestamp" :1554890400
		},
	"2019-04-10T14:00:00+02:00" : {
		"windSpeed" : 3.5,
		"windDir" : 55,
		"rain" : 0,
		"cloudbase" : 1616,
		"flyability" : 0,
		"reason" : "windDir",
		"timestamp" :1554901200
		},
	"2019-04-10T17:00:00+02:00" : {
		"windSpeed" : 4.9,
		"windDir" : 53,
		"rain" : 0,
		"cloudbase" : 1892.8,
		"flyability" : 0,
		"reason" : "windDir",
		"timestamp" :1554912000
		},
	"2019-04-10T20:00:00+02:00" : {
		"windSpeed" : 4.9,
		"windDir" : 51,
		"rain" : 0,
		"cloudbase" : 8048.8,
		"flyability" : 0,
		"reason" : "windDir",
		"timestamp" :1554922800
		},
	"2019-04-10T23:00:00+02:00" : {
		"windSpeed" : 4.3,
		"windDir" : 55,
		"rain" : 0,
		"cloudbase" : 7585.2000000002,
		"flyability" : 0,
		"reason" : "windDir",
		"timestamp" :1554933600
		},
	"2019-04-11T02:00:00+02:00" : {
		"windSpeed" : 3.7,
		"windDir" : 34,
		"rain" : 0,
		"cloudbase" : 8173.6,
		"flyability" : 0,
		"reason" : "windDir",
		"timestamp" :1554944400
		},
	"2019-04-11T05:00:00+02:00" : {
		"windSpeed" : 3.7,
		"windDir" : 16,
		"rain" : 0,
		"cloudbase" : 6706.4000000001,
		"flyability" : 100,
		"reason" : "",
		"timestamp" :1554955200
		},
	"2019-04-11T08:00:00+02:00" : {
		"windSpeed" : 4.2,
		"windDir" : 14,
		"rain" : 0,
		"cloudbase" : null,
		"flyability" : 100,
		"reason" : "",
		"timestamp" :1554966000
		},
	"2019-04-11T11:00:00+02:00" : {
		"windSpeed" : 4.6,
		"windDir" : 39,
		"rain" : 0,
		"cloudbase" : null,
		"flyability" : 0,
		"reason" : "windDir",
		"timestamp" :1554976800
		},
	"2019-04-11T14:00:00+02:00" : {
		"windSpeed" : 4.4,
		"windDir" : 21,
		"rain" : 0,
		"cloudbase" : 7700,
		"flyability" : 100,
		"reason" : "",
		"timestamp" :1554987600
		},
	"2019-04-11T17:00:00+02:00" : {
		"windSpeed" : 5.3,
		"windDir" : 16,
		"rain" : 0,
		"cloudbase" : 1575.6,
		"flyability" : 0,
		"reason" : "windSpeed",
		"timestamp" :1554998400
		},
	"2019-04-11T20:00:00+02:00" : {
		"windSpeed" : 6.1,
		"windDir" : 10,
		"rain" : 0,
		"cloudbase" : 1400,
		"flyability" : 0,
		"reason" : "windSpeed",
		"timestamp" :1555009200
		},
	"2019-04-11T23:00:00+02:00" : {
		"windSpeed" : 4.9,
		"windDir" : 20,
		"rain" : 0,
		"cloudbase" : 1416,
		"flyability" : 100,
		"reason" : "",
		"timestamp" :1555020000
		},
	"2019-04-12T02:00:00+02:00" : {
		"windSpeed" : 4.8,
		"windDir" : 19,
		"rain" : 0,
		"cloudbase" : 1649.2,
		"flyability" : 100,
		"reason" : "",
		"timestamp" :1555030800
		},
	"2019-04-12T05:00:00+02:00" : {
		"windSpeed" : 4.2,
		"windDir" : 15,
		"rain" : 0,
		"cloudbase" : 1373.2,
		"flyability" : 100,
		"reason" : "",
		"timestamp" :1555041600
		},
	"2019-04-12T08:00:00+02:00" : {
		"windSpeed" : 4.3,
		"windDir" : 19,
		"rain" : 0,
		"cloudbase" : null,
		"flyability" : 100,
		"reason" : "",
		"timestamp" :1555052400
		},
	"2019-04-12T11:00:00+02:00" : {
		"windSpeed" : 4,
		"windDir" : 29,
		"rain" : 0,
		"cloudbase" : 1250,
		"flyability" : 0,
		"reason" : "windDir",
		"timestamp" :1555063200
		},
	"2019-04-12T14:00:00+02:00" : {
		"windSpeed" : 4.1,
		"windDir" : 29,
		"rain" : 0,
		"cloudbase" : 1320.2,
		"flyability" : 0,
		"reason" : "windDir",
		"timestamp" :1555074000
		},
	"2019-04-12T17:00:00+02:00" : {
		"windSpeed" : 4.7,
		"windDir" : 20,
		"rain" : 0,
		"cloudbase" : 1353.8,
		"flyability" : 100,
		"reason" : "",
		"timestamp" :1555084800
		},
	"2019-04-12T20:00:00+02:00" : {
		"windSpeed" : 4.5,
		"windDir" : 28,
		"rain" : 0,
		"cloudbase" : 988.95999999998,
		"flyability" : 0,
		"reason" : "windDir",
		"timestamp" :1555095600
		},
	"2019-04-12T23:00:00+02:00" : {
		"windSpeed" : 3.1,
		"windDir" : 11,
		"rain" : 0,
		"cloudbase" : 912.08000000001,
		"flyability" : 100,
		"reason" : "",
		"timestamp" :1555106400
		},
	"2019-04-13T02:00:00+02:00" : {
		"windSpeed" : 2.8,
		"windDir" : 21,
		"rain" : 1,
		"cloudbase" : 2742.6,
		"flyability" : 0,
		"reason" : "rain",
		"timestamp" :1555117200
		},
	"2019-04-13T05:00:00+02:00" : {
		"windSpeed" : 3.4,
		"windDir" : 27,
		"rain" : 0,
		"cloudbase" : 2414.4,
		"flyability" : 0,
		"reason" : "windDir",
		"timestamp" :1555128000
		},
	"2019-04-13T08:00:00+02:00" : {
		"windSpeed" : 4.2,
		"windDir" : 16,
		"rain" : 0,
		"cloudbase" : 1116,
		"flyability" : 100,
		"reason" : "",
		"timestamp" :1555138800
		},
	"2019-04-13T11:00:00+02:00" : {
		"windSpeed" : 3.9,
		"windDir" : 23,
		"rain" : 0,
		"cloudbase" : 599.68,
		"flyability" : 0,
		"reason" : "windDir",
		"timestamp" :1555149600
		},
	"2019-04-13T14:00:00+02:00" : {
		"windSpeed" : 4.4,
		"windDir" : 21,
		"rain" : 1,
		"cloudbase" : 560.48000000001,
		"flyability" : 0,
		"reason" : "rain",
		"timestamp" :1555160400
		},
	"2019-04-13T17:00:00+02:00" : {
		"windSpeed" : 4.8,
		"windDir" : 20,
		"rain" : 1,
		"cloudbase" : 617.12,
		"flyability" : 0,
		"reason" : "rain",
		"timestamp" :1555171200
		},
	"2019-04-13T20:00:00+02:00" : {
		"windSpeed" : 4.4,
		"windDir" : 21,
		"rain" : 1,
		"cloudbase" : 315.19999999999,
		"flyability" : 0,
		"reason" : "rain",
		"timestamp" :1555182000
		},
	"2019-04-13T23:00:00+02:00" : {
		"windSpeed" : 3.3,
		"windDir" : 17,
		"rain" : 1,
		"cloudbase" : 137.29999999999,
		"flyability" : 0,
		"reason" : "rain, cloudbase",
		"timestamp" :1555192800
		},
	"2019-04-14T02:00:00+02:00" : {
		"windSpeed" : 3.1,
		"windDir" : 9,
		"rain" : 1,
		"cloudbase" : 219.12,
		"flyability" : 0,
		"reason" : "rain, cloudbase",
		"timestamp" :1555203600
		},
	"2019-04-14T05:00:00+02:00" : {
		"windSpeed" : 2.6,
		"windDir" : 1,
		"rain" : 0,
		"cloudbase" : 111.76,
		"flyability" : 0,
		"reason" : "cloudbase",
		"timestamp" :1555214400
		},
	"2019-04-14T08:00:00+02:00" : {
		"windSpeed" : 3.1,
		"windDir" : 9,
		"rain" : 1,
		"cloudbase" : 141.6,
		"flyability" : 0,
		"reason" : "rain, cloudbase",
		"timestamp" :1555225200
		},
	"2019-04-14T11:00:00+02:00" : {
		"windSpeed" : 3.1,
		"windDir" : 1,
		"rain" : 1,
		"cloudbase" : 201.44,
		"flyability" : 0,
		"reason" : "rain, cloudbase",
		"timestamp" :1555236000
		},
	"2019-04-14T14:00:00+02:00" : {
		"windSpeed" : 4,
		"windDir" : 360,
		"rain" : 1,
		"cloudbase" : 279.12,
		"flyability" : 0,
		"reason" : "rain, cloudbase",
		"timestamp" :1555246800
		},
	"2019-04-14T17:00:00+02:00" : {
		"windSpeed" : 4.5,
		"windDir" : 360,
		"rain" : 1,
		"cloudbase" : 284.76,
		"flyability" : 0,
		"reason" : "rain, cloudbase",
		"timestamp" :1555257600
		},
	"2019-04-14T20:00:00+02:00" : {
		"windSpeed" : 4.3,
		"windDir" : 20,
		"rain" : 1,
		"cloudbase" : 307.64,
		"flyability" : 0,
		"reason" : "rain, cloudbase",
		"timestamp" :1555268400
		},
	"2019-04-14T23:00:00+02:00" : {
		"windSpeed" : 3.1,
		"windDir" : 9,
		"rain" : 1,
		"cloudbase" : 369.11999999999,
		"flyability" : 0,
		"reason" : "rain",
		"timestamp" :1555279200
		},
	"2019-04-15T02:00:00+02:00" : {
		"windSpeed" : 3.1,
		"windDir" : 360,
		"rain" : 1,
		"cloudbase" : 516,
		"flyability" : 0,
		"reason" : "rain",
		"timestamp" :1555290000
		}
	}
}