{
"site" : "La Pesse",
"id" : 16969,
"orientations" : "00012100",
"forecasts" : { 
	"2019-04-20T05:00:00+02:00" : {
		"windSpeed" : 0.7,
		"windDir" : 16,
		"rain" : 0,
		"cloudbase" : null,
		"flyability" : 0,
		"reason" : "windDir",
		"timestamp" :1555732800
		},
	"2019-04-20T08:00:00+02:00" : {
		"windSpeed" : 0.7,
		"windDir" : 360,
		"rain" : 0,
		"cloudbase" : null,
		"flyability" : 0,
		"reason" : "windDir",
		"timestamp" :1555743600
		},
	"2019-04-20T11:00:00+02:00" : {
		"windSpeed" : 1.9,
		"windDir" : 124,
		"rain" : 0,
		"cloudbase" : 1800,
		"flyability" : 100,
		"reason" : "",
		"timestamp" :1555754400
		},
	"2019-04-20T14:00:00+02:00" : {
		"windSpeed" : 2.6,
		"windDir" : 119,
		"rain" : 0,
		"cloudbase" : 1847.2538,
		"flyability" : 100,
		"reason" : "",
		"timestamp" :1555765200
		},
	"2019-04-20T17:00:00+02:00" : {
		"windSpeed" : 2,
		"windDir" : 107,
		"rain" : 0,
		"cloudbase" : 1850,
		"flyability" : 0,
		"reason" : "windDir",
		"timestamp" :1555776000
		},
	"2019-04-20T20:00:00+02:00" : {
		"windSpeed" : 1.1,
		"windDir" : 117,
		"rain" : 0,
		"cloudbase" : null,
		"flyability" : 100,
		"reason" : "",
		"timestamp" :1555786800
		},
	"2019-04-20T23:00:00+02:00" : {
		"windSpeed" : 0.4,
		"windDir" : 54,
		"rain" : 0,
		"cloudbase" : 8035.2,
		"flyability" : 0,
		"reason" : "windDir",
		"timestamp" :1555797600
		},
	"2019-04-21T02:00:00+02:00" : {
		"windSpeed" : 0.9,
		"windDir" : 72,
		"rain" : 0,
		"cloudbase" : 6820.1,
		"flyability" : 0,
		"reason" : "windDir",
		"timestamp" :1555808400
		},
	"2019-04-21T05:00:00+02:00" : {
		"windSpeed" : 0.4,
		"windDir" : 52,
		"rain" : 0,
		"cloudbase" : null,
		"flyability" : 0,
		"reason" : "windDir",
		"timestamp" :1555819200
		},
	"2019-04-21T08:00:00+02:00" : {
		"windSpeed" : 0.3,
		"windDir" : 75,
		"rain" : 0,
		"cloudbase" : 5230.3076,
		"flyability" : 0,
		"reason" : "windDir",
		"timestamp" :1555830000
		},
	"2019-04-21T11:00:00+02:00" : {
		"windSpeed" : 1.7,
		"windDir" : 113,
		"rain" : 0,
		"cloudbase" : 7472.6,
		"flyability" : 100,
		"reason" : "",
		"timestamp" :1555840800
		},
	"2019-04-21T14:00:00+02:00" : {
		"windSpeed" : 2.1,
		"windDir" : 118,
		"rain" : 0,
		"cloudbase" : 6820.1,
		"flyability" : 100,
		"reason" : "",
		"timestamp" :1555851600
		},
	"2019-04-21T17:00:00+02:00" : {
		"windSpeed" : 2,
		"windDir" : 110,
		"rain" : 0,
		"cloudbase" : 4807.8,
		"flyability" : 0,
		"reason" : "windDir",
		"timestamp" :1555862400
		},
	"2019-04-21T20:00:00+02:00" : {
		"windSpeed" : 1,
		"windDir" : 114,
		"rain" : 0,
		"cloudbase" : 3228.5862000002,
		"flyability" : 100,
		"reason" : "",
		"timestamp" :1555873200
		},
	"2019-04-21T23:00:00+02:00" : {
		"windSpeed" : 1.1,
		"windDir" : 88,
		"rain" : 0,
		"cloudbase" : 2492.641,
		"flyability" : 0,
		"reason" : "windDir",
		"timestamp" :1555884000
		},
	"2019-04-22T02:00:00+02:00" : {
		"windSpeed" : 0.9,
		"windDir" : 84,
		"rain" : 0,
		"cloudbase" : 4040.5075999997,
		"flyability" : 0,
		"reason" : "windDir",
		"timestamp" :1555894800
		},
	"2019-04-22T05:00:00+02:00" : {
		"windSpeed" : 1,
		"windDir" : 78,
		"rain" : 0,
		"cloudbase" : 5267.6002,
		"flyability" : 0,
		"reason" : "windDir",
		"timestamp" :1555905600
		},
	"2019-04-22T08:00:00+02:00" : {
		"windSpeed" : 0.8,
		"windDir" : 87,
		"rain" : 0,
		"cloudbase" : 6024.362,
		"flyability" : 0,
		"reason" : "windDir",
		"timestamp" :1555916400
		},
	"2019-04-22T11:00:00+02:00" : {
		"windSpeed" : 1.6,
		"windDir" : 96,
		"rain" : 0,
		"cloudbase" : 5065.1538,
		"flyability" : 0,
		"reason" : "windDir",
		"timestamp" :1555927200
		},
	"2019-04-22T14:00:00+02:00" : {
		"windSpeed" : 2.2,
		"windDir" : 108,
		"rain" : 0,
		"cloudbase" : 5300,
		"flyability" : 0,
		"reason" : "windDir",
		"timestamp" :1555938000
		},
	"2019-04-22T17:00:00+02:00" : {
		"windSpeed" : 2.1,
		"windDir" : 108,
		"rain" : 0,
		"cloudbase" : null,
		"flyability" : 0,
		"reason" : "windDir",
		"timestamp" :1555948800
		},
	"2019-04-22T20:00:00+02:00" : {
		"windSpeed" : 1.4,
		"windDir" : 94,
		"rain" : 0,
		"cloudbase" : null,
		"flyability" : 0,
		"reason" : "windDir",
		"timestamp" :1555959600
		},
	"2019-04-22T23:00:00+02:00" : {
		"windSpeed" : 1.4,
		"windDir" : 86,
		"rain" : 0,
		"cloudbase" : 3309.6950000002,
		"flyability" : 0,
		"reason" : "windDir",
		"timestamp" :1555970400
		},
	"2019-04-23T02:00:00+02:00" : {
		"windSpeed" : 1.1,
		"windDir" : 111,
		"rain" : 1,
		"cloudbase" : 520,
		"flyability" : 0,
		"reason" : "windDir, rain, cloudbase",
		"timestamp" :1555981200
		},
	"2019-04-23T05:00:00+02:00" : {
		"windSpeed" : 0.1,
		"windDir" : 122,
		"rain" : 1,
		"cloudbase" : 836.27088000002,
		"flyability" : 0,
		"reason" : "rain, cloudbase",
		"timestamp" :1555992000
		},
	"2019-04-23T08:00:00+02:00" : {
		"windSpeed" : 0.9,
		"windDir" : 80,
		"rain" : 1,
		"cloudbase" : 525.31672,
		"flyability" : 0,
		"reason" : "windDir, rain, cloudbase",
		"timestamp" :1556002800
		},
	"2019-04-23T11:00:00+02:00" : {
		"windSpeed" : 1.4,
		"windDir" : 98,
		"rain" : 1,
		"cloudbase" : 210.41835999999,
		"flyability" : 0,
		"reason" : "windDir, rain, cloudbase",
		"timestamp" :1556013600
		},
	"2019-04-23T14:00:00+02:00" : {
		"windSpeed" : 0.6,
		"windDir" : 109,
		"rain" : 1,
		"cloudbase" : 555.39064000001,
		"flyability" : 0,
		"reason" : "windDir, rain, cloudbase",
		"timestamp" :1556024400
		},
	"2019-04-23T17:00:00+02:00" : {
		"windSpeed" : 0.6,
		"windDir" : 96,
		"rain" : 1,
		"cloudbase" : 333.28180000002,
		"flyability" : 0,
		"reason" : "windDir, rain, cloudbase",
		"timestamp" :1556035200
		},
	"2019-04-23T20:00:00+02:00" : {
		"windSpeed" : 0.9,
		"windDir" : 74,
		"rain" : 1,
		"cloudbase" : 489.34468000001,
		"flyability" : 0,
		"reason" : "windDir, rain, cloudbase",
		"timestamp" :1556046000
		},
	"2019-04-23T23:00:00+02:00" : {
		"windSpeed" : 1.4,
		"windDir" : 85,
		"rain" : 1,
		"cloudbase" : 522.00784000001,
		"flyability" : 0,
		"reason" : "windDir, rain, cloudbase",
		"timestamp" :1556056800
		},
	"2019-04-24T02:00:00+02:00" : {
		"windSpeed" : 1,
		"windDir" : 55,
		"rain" : 1,
		"cloudbase" : 382.68935999999,
		"flyability" : 0,
		"reason" : "windDir, rain, cloudbase",
		"timestamp" :1556067600
		},
	"2019-04-24T05:00:00+02:00" : {
		"windSpeed" : 1.3,
		"windDir" : 62,
		"rain" : 0,
		"cloudbase" : 390.69707999999,
		"flyability" : 0,
		"reason" : "windDir, cloudbase",
		"timestamp" :1556078400
		},
	"2019-04-24T08:00:00+02:00" : {
		"windSpeed" : 1.2,
		"windDir" : 78,
		"rain" : 1,
		"cloudbase" : 392.87099999999,
		"flyability" : 0,
		"reason" : "windDir, rain, cloudbase",
		"timestamp" :1556089200
		},
	"2019-04-24T11:00:00+02:00" : {
		"windSpeed" : 1.3,
		"windDir" : 93,
		"rain" : 0,
		"cloudbase" : 464.12620000001,
		"flyability" : 0,
		"reason" : "windDir, cloudbase",
		"timestamp" :1556100000
		},
	"2019-04-24T14:00:00+02:00" : {
		"windSpeed" : 1.5,
		"windDir" : 92,
		"rain" : 0,
		"cloudbase" : 491.60620000001,
		"flyability" : 0,
		"reason" : "windDir, cloudbase",
		"timestamp" :1556110800
		},
	"2019-04-24T17:00:00+02:00" : {
		"windSpeed" : 1.8,
		"windDir" : 92,
		"rain" : 1,
		"cloudbase" : 544.08304,
		"flyability" : 0,
		"reason" : "windDir, rain, cloudbase",
		"timestamp" :1556121600
		},
	"2019-04-24T20:00:00+02:00" : {
		"windSpeed" : 1.5,
		"windDir" : 62,
		"rain" : 1,
		"cloudbase" : 728.55520000001,
		"flyability" : 0,
		"reason" : "windDir, rain, cloudbase",
		"timestamp" :1556132400
		},
	"2019-04-24T23:00:00+02:00" : {
		"windSpeed" : 1.3,
		"windDir" : 41,
		"rain" : 1,
		"cloudbase" : 624.46387999998,
		"flyability" : 0,
		"reason" : "windDir, rain, cloudbase",
		"timestamp" :1556143200
		},
	"2019-04-25T02:00:00+02:00" : {
		"windSpeed" : 1.6,
		"windDir" : 54,
		"rain" : 1,
		"cloudbase" : 536.2744,
		"flyability" : 0,
		"reason" : "windDir, rain, cloudbase",
		"timestamp" :1556154000
		},
	"2019-04-25T05:00:00+02:00" : {
		"windSpeed" : 1.2,
		"windDir" : 61,
		"rain" : 1,
		"cloudbase" : 453.34784,
		"flyability" : 0,
		"reason" : "windDir, rain, cloudbase",
		"timestamp" :1556164800
		},
	"2019-04-25T08:00:00+02:00" : {
		"windSpeed" : 1.2,
		"windDir" : 61,
		"rain" : 1,
		"cloudbase" : 463.12012,
		"flyability" : 0,
		"reason" : "windDir, rain, cloudbase",
		"timestamp" :1556175600
		},
	"2019-04-25T11:00:00+02:00" : {
		"windSpeed" : 1.8,
		"windDir" : 83,
		"rain" : 1,
		"cloudbase" : 361.05784,
		"flyability" : 0,
		"reason" : "windDir, rain, cloudbase",
		"timestamp" :1556186400
		},
	"2019-04-25T14:00:00+02:00" : {
		"windSpeed" : 1.4,
		"windDir" : 73,
		"rain" : 1,
		"cloudbase" : 373.34392,
		"flyability" : 0,
		"reason" : "windDir, rain, cloudbase",
		"timestamp" :1556197200
		},
	"2019-04-25T17:00:00+02:00" : {
		"windSpeed" : 1.1,
		"windDir" : 77,
		"rain" : 1,
		"cloudbase" : 365.83631999999,
		"flyability" : 0,
		"reason" : "windDir, rain, cloudbase",
		"timestamp" :1556208000
		},
	"2019-04-25T20:00:00+02:00" : {
		"windSpeed" : 1.4,
		"windDir" : 43,
		"rain" : 0,
		"cloudbase" : null,
		"flyability" : 0,
		"reason" : "windDir",
		"timestamp" :1556218800
		},
	"2019-04-25T23:00:00+02:00" : {
		"windSpeed" : 0.9,
		"windDir" : 345,
		"rain" : 0,
		"cloudbase" : 371.61757999998,
		"flyability" : 0,
		"reason" : "windDir, cloudbase",
		"timestamp" :1556229600
		},
	"2019-04-26T02:00:00+02:00" : {
		"windSpeed" : 1.2,
		"windDir" : 253,
		"rain" : 0,
		"cloudbase" : 1119.59008,
		"flyability" : 0,
		"reason" : "windDir, cloudbase",
		"timestamp" :1556240400
		}
	}
}