{
"site" : "Collado Garcia",
"id" : 17265,
"orientations" : "00022200",
"forecasts" : { 
	"2019-04-20T17:00:00+02:00" : {
		"windSpeed" : 5.4,
		"windDir" : 57,
		"rain" : 1,
		"cloudbase" : 313.23631999992,
		"flyability" : 0,
		"reason" : "windSpeed, windDir, rain, cloudbase",
		"timestamp" :1555776000
		},
	"2019-04-20T20:00:00+02:00" : {
		"windSpeed" : 4,
		"windDir" : 30,
		"rain" : 1,
		"cloudbase" : 448.61830399999,
		"flyability" : 0,
		"reason" : "windDir, rain, cloudbase",
		"timestamp" :1555786800
		},
	"2019-04-20T23:00:00+02:00" : {
		"windSpeed" : 3.8,
		"windDir" : 28,
		"rain" : 1,
		"cloudbase" : 474.63747199996,
		"flyability" : 0,
		"reason" : "windDir, rain, cloudbase",
		"timestamp" :1555797600
		},
	"2019-04-21T02:00:00+02:00" : {
		"windSpeed" : 4.1,
		"windDir" : 359,
		"rain" : 1,
		"cloudbase" : 561.60124799999,
		"flyability" : 0,
		"reason" : "windDir, rain, cloudbase",
		"timestamp" :1555808400
		},
	"2019-04-21T05:00:00+02:00" : {
		"windSpeed" : 3.3,
		"windDir" : 6,
		"rain" : 1,
		"cloudbase" : 548.61830399999,
		"flyability" : 0,
		"reason" : "windDir, rain, cloudbase",
		"timestamp" :1555819200
		},
	"2019-04-21T08:00:00+02:00" : {
		"windSpeed" : 3.8,
		"windDir" : 4,
		"rain" : 1,
		"cloudbase" : 570.50083199996,
		"flyability" : 0,
		"reason" : "windDir, rain, cloudbase",
		"timestamp" :1555830000
		},
	"2019-04-21T11:00:00+02:00" : {
		"windSpeed" : 4.3,
		"windDir" : 357,
		"rain" : 1,
		"cloudbase" : 641.78483199996,
		"flyability" : 0,
		"reason" : "windDir, rain, cloudbase",
		"timestamp" :1555840800
		},
	"2019-04-21T14:00:00+02:00" : {
		"windSpeed" : 5,
		"windDir" : 359,
		"rain" : 1,
		"cloudbase" : 924.02103999997,
		"flyability" : 0,
		"reason" : "windDir, rain, cloudbase",
		"timestamp" :1555851600
		},
	"2019-04-21T17:00:00+02:00" : {
		"windSpeed" : 3.6,
		"windDir" : 343,
		"rain" : 1,
		"cloudbase" : 1328.2489599999,
		"flyability" : 0,
		"reason" : "windDir, rain",
		"timestamp" :1555862400
		},
	"2019-04-21T20:00:00+02:00" : {
		"windSpeed" : 4.1,
		"windDir" : 348,
		"rain" : 1,
		"cloudbase" : 1163.37312,
		"flyability" : 0,
		"reason" : "windDir, rain, cloudbase",
		"timestamp" :1555873200
		},
	"2019-04-21T23:00:00+02:00" : {
		"windSpeed" : 4.2,
		"windDir" : 336,
		"rain" : 1,
		"cloudbase" : 1137.761664,
		"flyability" : 0,
		"reason" : "windDir, rain, cloudbase",
		"timestamp" :1555884000
		},
	"2019-04-22T02:00:00+02:00" : {
		"windSpeed" : 4.3,
		"windDir" : 337,
		"rain" : 1,
		"cloudbase" : 1912.4784,
		"flyability" : 0,
		"reason" : "windDir, rain",
		"timestamp" :1555894800
		},
	"2019-04-22T05:00:00+02:00" : {
		"windSpeed" : 3.6,
		"windDir" : 329,
		"rain" : 1,
		"cloudbase" : 2005.5836799999,
		"flyability" : 0,
		"reason" : "windDir, rain",
		"timestamp" :1555905600
		},
	"2019-04-22T08:00:00+02:00" : {
		"windSpeed" : 3.4,
		"windDir" : 319,
		"rain" : 0,
		"cloudbase" : 1977.8316799997,
		"flyability" : 0,
		"reason" : "windDir",
		"timestamp" :1555916400
		},
	"2019-04-22T11:00:00+02:00" : {
		"windSpeed" : 3.1,
		"windDir" : 326,
		"rain" : 1,
		"cloudbase" : 3546.5426400003,
		"flyability" : 0,
		"reason" : "windDir, rain",
		"timestamp" :1555927200
		},
	"2019-04-22T14:00:00+02:00" : {
		"windSpeed" : 3.7,
		"windDir" : 304,
		"rain" : 1,
		"cloudbase" : 1328.2684,
		"flyability" : 0,
		"reason" : "windDir, rain",
		"timestamp" :1555938000
		},
	"2019-04-22T17:00:00+02:00" : {
		"windSpeed" : 2.9,
		"windDir" : 297,
		"rain" : 0,
		"cloudbase" : 1550,
		"flyability" : 0,
		"reason" : "windDir",
		"timestamp" :1555948800
		},
	"2019-04-22T20:00:00+02:00" : {
		"windSpeed" : 1.4,
		"windDir" : 323,
		"rain" : 0,
		"cloudbase" : 3250,
		"flyability" : 0,
		"reason" : "windDir",
		"timestamp" :1555959600
		},
	"2019-04-22T23:00:00+02:00" : {
		"windSpeed" : 1,
		"windDir" : 268,
		"rain" : 0,
		"cloudbase" : 4550,
		"flyability" : 0,
		"reason" : "windDir",
		"timestamp" :1555970400
		},
	"2019-04-23T02:00:00+02:00" : {
		"windSpeed" : 1.7,
		"windDir" : 248,
		"rain" : 0,
		"cloudbase" : null,
		"flyability" : 0,
		"reason" : "windDir",
		"timestamp" :1555981200
		},
	"2019-04-23T05:00:00+02:00" : {
		"windSpeed" : 0.7,
		"windDir" : 270,
		"rain" : 1,
		"cloudbase" : null,
		"flyability" : 0,
		"reason" : "windDir, rain",
		"timestamp" :1555992000
		},
	"2019-04-23T08:00:00+02:00" : {
		"windSpeed" : 1.1,
		"windDir" : 244,
		"rain" : 1,
		"cloudbase" : 8700,
		"flyability" : 0,
		"reason" : "rain",
		"timestamp" :1556002800
		},
	"2019-04-23T11:00:00+02:00" : {
		"windSpeed" : 2,
		"windDir" : 209,
		"rain" : 0,
		"cloudbase" : 7191.8126399999,
		"flyability" : 100,
		"reason" : "",
		"timestamp" :1556013600
		},
	"2019-04-23T14:00:00+02:00" : {
		"windSpeed" : 3.2,
		"windDir" : 221,
		"rain" : 1,
		"cloudbase" : 3607.2389599999,
		"flyability" : 0,
		"reason" : "rain",
		"timestamp" :1556024400
		},
	"2019-04-23T17:00:00+02:00" : {
		"windSpeed" : 4.5,
		"windDir" : 216,
		"rain" : 1,
		"cloudbase" : 4773.4148799995,
		"flyability" : 0,
		"reason" : "rain",
		"timestamp" :1556035200
		},
	"2019-04-23T20:00:00+02:00" : {
		"windSpeed" : 1.8,
		"windDir" : 238,
		"rain" : 1,
		"cloudbase" : null,
		"flyability" : 0,
		"reason" : "rain",
		"timestamp" :1556046000
		},
	"2019-04-23T23:00:00+02:00" : {
		"windSpeed" : 1.7,
		"windDir" : 228,
		"rain" : 1,
		"cloudbase" : null,
		"flyability" : 0,
		"reason" : "rain",
		"timestamp" :1556056800
		},
	"2019-04-24T02:00:00+02:00" : {
		"windSpeed" : 1.6,
		"windDir" : 268,
		"rain" : 0,
		"cloudbase" : 4256.4784,
		"flyability" : 0,
		"reason" : "windDir",
		"timestamp" :1556067600
		},
	"2019-04-24T05:00:00+02:00" : {
		"windSpeed" : 1.7,
		"windDir" : 284,
		"rain" : 0,
		"cloudbase" : 6800,
		"flyability" : 0,
		"reason" : "windDir",
		"timestamp" :1556078400
		},
	"2019-04-24T08:00:00+02:00" : {
		"windSpeed" : 1.6,
		"windDir" : 251,
		"rain" : 1,
		"cloudbase" : 2850,
		"flyability" : 0,
		"reason" : "windDir, rain",
		"timestamp" :1556089200
		},
	"2019-04-24T11:00:00+02:00" : {
		"windSpeed" : 1.3,
		"windDir" : 182,
		"rain" : 1,
		"cloudbase" : null,
		"flyability" : 0,
		"reason" : "rain",
		"timestamp" :1556100000
		},
	"2019-04-24T14:00:00+02:00" : {
		"windSpeed" : 3.6,
		"windDir" : 214,
		"rain" : 0,
		"cloudbase" : 1565.4689599999,
		"flyability" : 100,
		"reason" : "",
		"timestamp" :1556110800
		},
	"2019-04-24T17:00:00+02:00" : {
		"windSpeed" : 5.2,
		"windDir" : 199,
		"rain" : 1,
		"cloudbase" : 1917.8489599999,
		"flyability" : 0,
		"reason" : "windSpeed, rain",
		"timestamp" :1556121600
		},
	"2019-04-24T20:00:00+02:00" : {
		"windSpeed" : 2.8,
		"windDir" : 224,
		"rain" : 1,
		"cloudbase" : null,
		"flyability" : 0,
		"reason" : "rain",
		"timestamp" :1556132400
		},
	"2019-04-24T23:00:00+02:00" : {
		"windSpeed" : 2.9,
		"windDir" : 236,
		"rain" : 1,
		"cloudbase" : null,
		"flyability" : 0,
		"reason" : "rain",
		"timestamp" :1556143200
		},
	"2019-04-25T02:00:00+02:00" : {
		"windSpeed" : 2.9,
		"windDir" : 236,
		"rain" : 1,
		"cloudbase" : null,
		"flyability" : 0,
		"reason" : "rain",
		"timestamp" :1556154000
		},
	"2019-04-25T05:00:00+02:00" : {
		"windSpeed" : 4.5,
		"windDir" : 234,
		"rain" : 0,
		"cloudbase" : null,
		"flyability" : 100,
		"reason" : "",
		"timestamp" :1556164800
		},
	"2019-04-25T08:00:00+02:00" : {
		"windSpeed" : 4.2,
		"windDir" : 226,
		"rain" : 1,
		"cloudbase" : 56.232839999989,
		"flyability" : 0,
		"reason" : "rain, cloudbase",
		"timestamp" :1556175600
		},
	"2019-04-25T11:00:00+02:00" : {
		"windSpeed" : 6.3,
		"windDir" : 215,
		"rain" : 1,
		"cloudbase" : 390,
		"flyability" : 0,
		"reason" : "windSpeed, rain, cloudbase",
		"timestamp" :1556186400
		},
	"2019-04-25T14:00:00+02:00" : {
		"windSpeed" : 4.1,
		"windDir" : 230,
		"rain" : 1,
		"cloudbase" : 1300,
		"flyability" : 0,
		"reason" : "rain",
		"timestamp" :1556197200
		},
	"2019-04-25T17:00:00+02:00" : {
		"windSpeed" : 2.1,
		"windDir" : 208,
		"rain" : 1,
		"cloudbase" : 1397.6589599999,
		"flyability" : 0,
		"reason" : "rain",
		"timestamp" :1556208000
		},
	"2019-04-25T20:00:00+02:00" : {
		"windSpeed" : 0.6,
		"windDir" : 220,
		"rain" : 1,
		"cloudbase" : null,
		"flyability" : 0,
		"reason" : "rain",
		"timestamp" :1556218800
		},
	"2019-04-25T23:00:00+02:00" : {
		"windSpeed" : 1.1,
		"windDir" : 324,
		"rain" : 1,
		"cloudbase" : null,
		"flyability" : 0,
		"reason" : "windDir, rain",
		"timestamp" :1556229600
		},
	"2019-04-26T02:00:00+02:00" : {
		"windSpeed" : 2.1,
		"windDir" : 301,
		"rain" : 1,
		"cloudbase" : null,
		"flyability" : 0,
		"reason" : "windDir, rain",
		"timestamp" :1556240400
		},
	"2019-04-26T05:00:00+02:00" : {
		"windSpeed" : 1.9,
		"windDir" : 322,
		"rain" : 1,
		"cloudbase" : null,
		"flyability" : 0,
		"reason" : "windDir, rain",
		"timestamp" :1556251200
		},
	"2019-04-26T08:00:00+02:00" : {
		"windSpeed" : 1.8,
		"windDir" : 286,
		"rain" : 1,
		"cloudbase" : null,
		"flyability" : 0,
		"reason" : "windDir, rain",
		"timestamp" :1556262000
		},
	"2019-04-26T11:00:00+02:00" : {
		"windSpeed" : 2.4,
		"windDir" : 182,
		"rain" : 1,
		"cloudbase" : null,
		"flyability" : 0,
		"reason" : "rain",
		"timestamp" :1556272800
		},
	"2019-04-26T14:00:00+02:00" : {
		"windSpeed" : 2.6,
		"windDir" : 162,
		"rain" : 1,
		"cloudbase" : null,
		"flyability" : 0,
		"reason" : "rain",
		"timestamp" :1556283600
		}
	}
}