{
"site" : "Hesk Fell",
"id" : 17342,
"orientations" : "00000000",
"forecasts" : { 
	"2019-04-13T16:00:00+01:00" : {
		"windSpeed" : 6.5,
		"windDir" : 119,
		"rain" : 0,
		"cloudbase" : 1439.2337,
		"flyability" : -0,
		"reason" : "windSpeed, orientationsUnknown",
		"timestamp" :1555164000
		},
	"2019-04-13T19:00:00+01:00" : {
		"windSpeed" : 5.6,
		"windDir" : 113,
		"rain" : 0,
		"cloudbase" : 1352.8837,
		"flyability" : -0,
		"reason" : "windSpeed, orientationsUnknown",
		"timestamp" :1555174800
		},
	"2019-04-13T22:00:00+01:00" : {
		"windSpeed" : 5.9,
		"windDir" : 106,
		"rain" : 0,
		"cloudbase" : 7700,
		"flyability" : -0,
		"reason" : "windSpeed, orientationsUnknown",
		"timestamp" :1555185600
		},
	"2019-04-14T01:00:00+01:00" : {
		"windSpeed" : 5.1,
		"windDir" : 108,
		"rain" : 0,
		"cloudbase" : 6907.1337,
		"flyability" : -0,
		"reason" : "windSpeed, orientationsUnknown",
		"timestamp" :1555196400
		},
	"2019-04-14T04:00:00+01:00" : {
		"windSpeed" : 3.5,
		"windDir" : 100,
		"rain" : 0,
		"cloudbase" : 5189.6121000005,
		"flyability" : -50,
		"reason" : "orientationsUnknown",
		"timestamp" :1555207200
		},
	"2019-04-14T07:00:00+01:00" : {
		"windSpeed" : 4.8,
		"windDir" : 99,
		"rain" : 0,
		"cloudbase" : 6293.35,
		"flyability" : -50,
		"reason" : "orientationsUnknown",
		"timestamp" :1555218000
		},
	"2019-04-14T10:00:00+01:00" : {
		"windSpeed" : 7.1,
		"windDir" : 114,
		"rain" : 0,
		"cloudbase" : 3058.6770000005,
		"flyability" : -0,
		"reason" : "windSpeed, orientationsUnknown",
		"timestamp" :1555228800
		},
	"2019-04-14T13:00:00+01:00" : {
		"windSpeed" : 6.5,
		"windDir" : 117,
		"rain" : 0,
		"cloudbase" : 1079.01685,
		"flyability" : -0,
		"reason" : "windSpeed, orientationsUnknown",
		"timestamp" :1555239600
		},
	"2019-04-14T16:00:00+01:00" : {
		"windSpeed" : 6.2,
		"windDir" : 115,
		"rain" : 0,
		"cloudbase" : 1212.725,
		"flyability" : -0,
		"reason" : "windSpeed, orientationsUnknown",
		"timestamp" :1555250400
		},
	"2019-04-14T19:00:00+01:00" : {
		"windSpeed" : 5.3,
		"windDir" : 108,
		"rain" : 0,
		"cloudbase" : 1109.4,
		"flyability" : -0,
		"reason" : "windSpeed, orientationsUnknown",
		"timestamp" :1555261200
		},
	"2019-04-14T22:00:00+01:00" : {
		"windSpeed" : 5.3,
		"windDir" : 103,
		"rain" : 0,
		"cloudbase" : 4792.37235,
		"flyability" : -0,
		"reason" : "windSpeed, orientationsUnknown",
		"timestamp" :1555272000
		},
	"2019-04-15T01:00:00+01:00" : {
		"windSpeed" : 5.2,
		"windDir" : 100,
		"rain" : 0,
		"cloudbase" : 9311.5,
		"flyability" : -0,
		"reason" : "windSpeed, orientationsUnknown",
		"timestamp" :1555282800
		},
	"2019-04-15T04:00:00+01:00" : {
		"windSpeed" : 5.2,
		"windDir" : 106,
		"rain" : 0,
		"cloudbase" : null,
		"flyability" : -0,
		"reason" : "windSpeed, orientationsUnknown",
		"timestamp" :1555293600
		},
	"2019-04-15T07:00:00+01:00" : {
		"windSpeed" : 6.6,
		"windDir" : 106,
		"rain" : 0,
		"cloudbase" : 7789.4878999998,
		"flyability" : -0,
		"reason" : "windSpeed, orientationsUnknown",
		"timestamp" :1555304400
		},
	"2019-04-15T10:00:00+01:00" : {
		"windSpeed" : 7.5,
		"windDir" : 109,
		"rain" : 0,
		"cloudbase" : 3844.03315,
		"flyability" : -0,
		"reason" : "windSpeed, orientationsUnknown",
		"timestamp" :1555315200
		},
	"2019-04-15T13:00:00+01:00" : {
		"windSpeed" : 8.9,
		"windDir" : 119,
		"rain" : 0,
		"cloudbase" : 5230.1266500007,
		"flyability" : -0,
		"reason" : "windSpeed, orientationsUnknown",
		"timestamp" :1555326000
		},
	"2019-04-15T16:00:00+01:00" : {
		"windSpeed" : 8.3,
		"windDir" : 119,
		"rain" : 0,
		"cloudbase" : 8127.3,
		"flyability" : -0,
		"reason" : "windSpeed, orientationsUnknown",
		"timestamp" :1555336800
		},
	"2019-04-15T19:00:00+01:00" : {
		"windSpeed" : 6.6,
		"windDir" : 111,
		"rain" : 0,
		"cloudbase" : 8611.8837000002,
		"flyability" : -0,
		"reason" : "windSpeed, orientationsUnknown",
		"timestamp" :1555347600
		},
	"2019-04-15T22:00:00+01:00" : {
		"windSpeed" : 5.9,
		"windDir" : 109,
		"rain" : 0,
		"cloudbase" : 9060.7663,
		"flyability" : -0,
		"reason" : "windSpeed, orientationsUnknown",
		"timestamp" :1555358400
		},
	"2019-04-16T01:00:00+01:00" : {
		"windSpeed" : 4.8,
		"windDir" : 106,
		"rain" : 0,
		"cloudbase" : 9446.5184999999,
		"flyability" : -50,
		"reason" : "orientationsUnknown",
		"timestamp" :1555369200
		},
	"2019-04-16T04:00:00+01:00" : {
		"windSpeed" : 3.2,
		"windDir" : 87,
		"rain" : 0,
		"cloudbase" : 6862.4096999999,
		"flyability" : -50,
		"reason" : "orientationsUnknown",
		"timestamp" :1555380000
		},
	"2019-04-16T07:00:00+01:00" : {
		"windSpeed" : 2.8,
		"windDir" : 80,
		"rain" : 0,
		"cloudbase" : 3865.5070499999,
		"flyability" : -50,
		"reason" : "orientationsUnknown",
		"timestamp" :1555390800
		},
	"2019-04-16T10:00:00+01:00" : {
		"windSpeed" : 3.7,
		"windDir" : 91,
		"rain" : 1,
		"cloudbase" : 3580.625,
		"flyability" : -0,
		"reason" : "orientationsUnknown, rain",
		"timestamp" :1555401600
		},
	"2019-04-16T13:00:00+01:00" : {
		"windSpeed" : 4.5,
		"windDir" : 105,
		"rain" : 1,
		"cloudbase" : 3719.61685,
		"flyability" : -0,
		"reason" : "orientationsUnknown, rain",
		"timestamp" :1555412400
		},
	"2019-04-16T16:00:00+01:00" : {
		"windSpeed" : 4.1,
		"windDir" : 102,
		"rain" : 1,
		"cloudbase" : 3021.0418500002,
		"flyability" : -0,
		"reason" : "orientationsUnknown, rain",
		"timestamp" :1555423200
		},
	"2019-04-16T19:00:00+01:00" : {
		"windSpeed" : 3.4,
		"windDir" : 92,
		"rain" : 1,
		"cloudbase" : 3594.03315,
		"flyability" : -0,
		"reason" : "orientationsUnknown, rain",
		"timestamp" :1555434000
		},
	"2019-04-16T22:00:00+01:00" : {
		"windSpeed" : 4.3,
		"windDir" : 89,
		"rain" : 1,
		"cloudbase" : 3094.03315,
		"flyability" : -0,
		"reason" : "orientationsUnknown, rain",
		"timestamp" :1555444800
		},
	"2019-04-17T01:00:00+01:00" : {
		"windSpeed" : 3.8,
		"windDir" : 84,
		"rain" : 0,
		"cloudbase" : 2563.3935000001,
		"flyability" : -50,
		"reason" : "orientationsUnknown",
		"timestamp" :1555455600
		},
	"2019-04-17T04:00:00+01:00" : {
		"windSpeed" : 3.8,
		"windDir" : 80,
		"rain" : 0,
		"cloudbase" : 2422.80815,
		"flyability" : -50,
		"reason" : "orientationsUnknown",
		"timestamp" :1555466400
		},
	"2019-04-17T07:00:00+01:00" : {
		"windSpeed" : 3.8,
		"windDir" : 80,
		"rain" : 0,
		"cloudbase" : null,
		"flyability" : -50,
		"reason" : "orientationsUnknown",
		"timestamp" :1555477200
		},
	"2019-04-17T10:00:00+01:00" : {
		"windSpeed" : 4.4,
		"windDir" : 88,
		"rain" : 0,
		"cloudbase" : null,
		"flyability" : -50,
		"reason" : "orientationsUnknown",
		"timestamp" :1555488000
		},
	"2019-04-17T13:00:00+01:00" : {
		"windSpeed" : 4.8,
		"windDir" : 105,
		"rain" : 0,
		"cloudbase" : null,
		"flyability" : -50,
		"reason" : "orientationsUnknown",
		"timestamp" :1555498800
		},
	"2019-04-17T16:00:00+01:00" : {
		"windSpeed" : 4.1,
		"windDir" : 121,
		"rain" : 0,
		"cloudbase" : 1579.7,
		"flyability" : -50,
		"reason" : "orientationsUnknown",
		"timestamp" :1555509600
		},
	"2019-04-17T19:00:00+01:00" : {
		"windSpeed" : 4.3,
		"windDir" : 97,
		"rain" : 0,
		"cloudbase" : 7593.35,
		"flyability" : -50,
		"reason" : "orientationsUnknown",
		"timestamp" :1555520400
		},
	"2019-04-17T22:00:00+01:00" : {
		"windSpeed" : 3.9,
		"windDir" : 80,
		"rain" : 0,
		"cloudbase" : 8113.7837,
		"flyability" : -50,
		"reason" : "orientationsUnknown",
		"timestamp" :1555531200
		},
	"2019-04-18T01:00:00+01:00" : {
		"windSpeed" : 3.2,
		"windDir" : 72,
		"rain" : 0,
		"cloudbase" : 6223.5673999996,
		"flyability" : -50,
		"reason" : "orientationsUnknown",
		"timestamp" :1555542000
		},
	"2019-04-18T04:00:00+01:00" : {
		"windSpeed" : 3.1,
		"windDir" : 77,
		"rain" : 0,
		"cloudbase" : 7383.3685000001,
		"flyability" : -50,
		"reason" : "orientationsUnknown",
		"timestamp" :1555552800
		},
	"2019-04-18T07:00:00+01:00" : {
		"windSpeed" : 2.9,
		"windDir" : 77,
		"rain" : 0,
		"cloudbase" : 9928.3641,
		"flyability" : -50,
		"reason" : "orientationsUnknown",
		"timestamp" :1555563600
		},
	"2019-04-18T10:00:00+01:00" : {
		"windSpeed" : 3.8,
		"windDir" : 95,
		"rain" : 0,
		"cloudbase" : 9115.4174,
		"flyability" : -50,
		"reason" : "orientationsUnknown",
		"timestamp" :1555574400
		},
	"2019-04-18T13:00:00+01:00" : {
		"windSpeed" : 3.9,
		"windDir" : 127,
		"rain" : 0,
		"cloudbase" : 8305.0163,
		"flyability" : -50,
		"reason" : "orientationsUnknown",
		"timestamp" :1555585200
		},
	"2019-04-18T16:00:00+01:00" : {
		"windSpeed" : 4.2,
		"windDir" : 130,
		"rain" : 0,
		"cloudbase" : 1205.15,
		"flyability" : -50,
		"reason" : "orientationsUnknown",
		"timestamp" :1555596000
		},
	"2019-04-18T19:00:00+01:00" : {
		"windSpeed" : 3.4,
		"windDir" : 108,
		"rain" : 0,
		"cloudbase" : 1200,
		"flyability" : -50,
		"reason" : "orientationsUnknown",
		"timestamp" :1555606800
		},
	"2019-04-18T22:00:00+01:00" : {
		"windSpeed" : 3.5,
		"windDir" : 88,
		"rain" : 0,
		"cloudbase" : 9300,
		"flyability" : -50,
		"reason" : "orientationsUnknown",
		"timestamp" :1555617600
		},
	"2019-04-19T01:00:00+01:00" : {
		"windSpeed" : 2.9,
		"windDir" : 78,
		"rain" : 0,
		"cloudbase" : null,
		"flyability" : -50,
		"reason" : "orientationsUnknown",
		"timestamp" :1555628400
		},
	"2019-04-19T04:00:00+01:00" : {
		"windSpeed" : 2.5,
		"windDir" : 59,
		"rain" : 0,
		"cloudbase" : null,
		"flyability" : -50,
		"reason" : "orientationsUnknown",
		"timestamp" :1555639200
		},
	"2019-04-19T07:00:00+01:00" : {
		"windSpeed" : 2.4,
		"windDir" : 65,
		"rain" : 0,
		"cloudbase" : 10500,
		"flyability" : -50,
		"reason" : "orientationsUnknown",
		"timestamp" :1555650000
		},
	"2019-04-19T10:00:00+01:00" : {
		"windSpeed" : 3,
		"windDir" : 94,
		"rain" : 0,
		"cloudbase" : 9245.6163,
		"flyability" : -50,
		"reason" : "orientationsUnknown",
		"timestamp" :1555660800
		},
	"2019-04-19T13:00:00+01:00" : {
		"windSpeed" : 3.4,
		"windDir" : 131,
		"rain" : 0,
		"cloudbase" : 9300,
		"flyability" : -50,
		"reason" : "orientationsUnknown",
		"timestamp" :1555671600
		}
	}
}