{
"site" : "Kerry Head (NW-N)",
"id" : 17411,
"orientations" : "21000002",
"forecasts" : { 
	"2019-04-20T04:00:00+01:00" : {
		"windSpeed" : 0.9,
		"windDir" : 270,
		"rain" : 0,
		"cloudbase" : 30,
		"flyability" : 0,
		"reason" : "windDir, cloudbase",
		"timestamp" :1555725600
		},
	"2019-04-20T07:00:00+01:00" : {
		"windSpeed" : 1.1,
		"windDir" : 127,
		"rain" : 0,
		"cloudbase" : 30,
		"flyability" : 0,
		"reason" : "windDir, cloudbase",
		"timestamp" :1555736400
		},
	"2019-04-20T10:00:00+01:00" : {
		"windSpeed" : 0.8,
		"windDir" : 293,
		"rain" : 0,
		"cloudbase" : 73.161999999994,
		"flyability" : 100,
		"reason" : "",
		"timestamp" :1555747200
		},
	"2019-04-20T13:00:00+01:00" : {
		"windSpeed" : 1.3,
		"windDir" : 308,
		"rain" : 0,
		"cloudbase" : 141.6835,
		"flyability" : 100,
		"reason" : "",
		"timestamp" :1555758000
		},
	"2019-04-20T16:00:00+01:00" : {
		"windSpeed" : 2.7,
		"windDir" : 315,
		"rain" : 0,
		"cloudbase" : 9350.5349999998,
		"flyability" : 100,
		"reason" : "",
		"timestamp" :1555768800
		},
	"2019-04-20T19:00:00+01:00" : {
		"windSpeed" : 1.6,
		"windDir" : 286,
		"rain" : 0,
		"cloudbase" : 7316.1999999995,
		"flyability" : 0,
		"reason" : "windDir",
		"timestamp" :1555779600
		},
	"2019-04-20T22:00:00+01:00" : {
		"windSpeed" : 1.6,
		"windDir" : 221,
		"rain" : 0,
		"cloudbase" : 2431.6499999999,
		"flyability" : 0,
		"reason" : "windDir",
		"timestamp" :1555790400
		},
	"2019-04-21T01:00:00+01:00" : {
		"windSpeed" : 2.2,
		"windDir" : 184,
		"rain" : 0,
		"cloudbase" : 30,
		"flyability" : 0,
		"reason" : "windDir, cloudbase",
		"timestamp" :1555801200
		},
	"2019-04-21T04:00:00+01:00" : {
		"windSpeed" : 2.8,
		"windDir" : 170,
		"rain" : 0,
		"cloudbase" : 30,
		"flyability" : 0,
		"reason" : "windDir, cloudbase",
		"timestamp" :1555812000
		},
	"2019-04-21T07:00:00+01:00" : {
		"windSpeed" : 3.8,
		"windDir" : 180,
		"rain" : 0,
		"cloudbase" : 82.707000000014,
		"flyability" : 0,
		"reason" : "windDir",
		"timestamp" :1555822800
		},
	"2019-04-21T10:00:00+01:00" : {
		"windSpeed" : 5.7,
		"windDir" : 202,
		"rain" : 1,
		"cloudbase" : 277,
		"flyability" : 0,
		"reason" : "windSpeed, windDir, rain",
		"timestamp" :1555833600
		},
	"2019-04-21T13:00:00+01:00" : {
		"windSpeed" : 5.8,
		"windDir" : 196,
		"rain" : 1,
		"cloudbase" : 442.93399999999,
		"flyability" : 0,
		"reason" : "windSpeed, windDir, rain",
		"timestamp" :1555844400
		},
	"2019-04-21T16:00:00+01:00" : {
		"windSpeed" : 6.4,
		"windDir" : 190,
		"rain" : 1,
		"cloudbase" : 366.18499999999,
		"flyability" : 0,
		"reason" : "windSpeed, windDir, rain",
		"timestamp" :1555855200
		},
	"2019-04-21T19:00:00+01:00" : {
		"windSpeed" : 6.3,
		"windDir" : 177,
		"rain" : 1,
		"cloudbase" : 312.803,
		"flyability" : 0,
		"reason" : "windSpeed, windDir, rain",
		"timestamp" :1555866000
		},
	"2019-04-21T22:00:00+01:00" : {
		"windSpeed" : 7.5,
		"windDir" : 172,
		"rain" : 1,
		"cloudbase" : 291.30099999999,
		"flyability" : 0,
		"reason" : "windSpeed, windDir, rain",
		"timestamp" :1555876800
		},
	"2019-04-22T01:00:00+01:00" : {
		"windSpeed" : 8.1,
		"windDir" : 169,
		"rain" : 0,
		"cloudbase" : 715.66200000006,
		"flyability" : 0,
		"reason" : "windSpeed, windDir",
		"timestamp" :1555887600
		},
	"2019-04-22T04:00:00+01:00" : {
		"windSpeed" : 7.5,
		"windDir" : 160,
		"rain" : 0,
		"cloudbase" : 3011.8119999996,
		"flyability" : 0,
		"reason" : "windSpeed, windDir",
		"timestamp" :1555898400
		},
	"2019-04-22T07:00:00+01:00" : {
		"windSpeed" : 7.8,
		"windDir" : 157,
		"rain" : 0,
		"cloudbase" : 6768.03,
		"flyability" : 0,
		"reason" : "windSpeed, windDir",
		"timestamp" :1555909200
		},
	"2019-04-22T10:00:00+01:00" : {
		"windSpeed" : 7,
		"windDir" : 151,
		"rain" : 0,
		"cloudbase" : 5890.54,
		"flyability" : 0,
		"reason" : "windSpeed, windDir",
		"timestamp" :1555920000
		},
	"2019-04-22T13:00:00+01:00" : {
		"windSpeed" : 5.8,
		"windDir" : 163,
		"rain" : 0,
		"cloudbase" : 5821.93,
		"flyability" : 0,
		"reason" : "windSpeed, windDir",
		"timestamp" :1555930800
		},
	"2019-04-22T16:00:00+01:00" : {
		"windSpeed" : 6.3,
		"windDir" : 168,
		"rain" : 0,
		"cloudbase" : 6202.2,
		"flyability" : 0,
		"reason" : "windSpeed, windDir",
		"timestamp" :1555941600
		},
	"2019-04-22T19:00:00+01:00" : {
		"windSpeed" : 4.8,
		"windDir" : 149,
		"rain" : 0,
		"cloudbase" : 6763.86,
		"flyability" : 0,
		"reason" : "windDir",
		"timestamp" :1555952400
		},
	"2019-04-22T22:00:00+01:00" : {
		"windSpeed" : 6.3,
		"windDir" : 136,
		"rain" : 0,
		"cloudbase" : 3750,
		"flyability" : 0,
		"reason" : "windSpeed, windDir",
		"timestamp" :1555963200
		},
	"2019-04-23T01:00:00+01:00" : {
		"windSpeed" : 5.7,
		"windDir" : 159,
		"rain" : 0,
		"cloudbase" : 3464.055,
		"flyability" : 0,
		"reason" : "windSpeed, windDir",
		"timestamp" :1555974000
		},
	"2019-04-23T04:00:00+01:00" : {
		"windSpeed" : 4.3,
		"windDir" : 184,
		"rain" : 0,
		"cloudbase" : null,
		"flyability" : 0,
		"reason" : "windDir",
		"timestamp" :1555984800
		},
	"2019-04-23T07:00:00+01:00" : {
		"windSpeed" : 3.1,
		"windDir" : 235,
		"rain" : 0,
		"cloudbase" : null,
		"flyability" : 0,
		"reason" : "windDir",
		"timestamp" :1555995600
		},
	"2019-04-23T10:00:00+01:00" : {
		"windSpeed" : 2.7,
		"windDir" : 305,
		"rain" : 0,
		"cloudbase" : 2425.0050000002,
		"flyability" : 100,
		"reason" : "",
		"timestamp" :1556006400
		},
	"2019-04-23T13:00:00+01:00" : {
		"windSpeed" : 2.9,
		"windDir" : 340,
		"rain" : 0,
		"cloudbase" : 866.36500000007,
		"flyability" : 100,
		"reason" : "",
		"timestamp" :1556017200
		},
	"2019-04-23T16:00:00+01:00" : {
		"windSpeed" : 4.1,
		"windDir" : 354,
		"rain" : 1,
		"cloudbase" : 1155.445,
		"flyability" : 0,
		"reason" : "rain",
		"timestamp" :1556028000
		},
	"2019-04-23T19:00:00+01:00" : {
		"windSpeed" : 4,
		"windDir" : 15,
		"rain" : 0,
		"cloudbase" : 965.07699999999,
		"flyability" : 100,
		"reason" : "",
		"timestamp" :1556038800
		},
	"2019-04-23T22:00:00+01:00" : {
		"windSpeed" : 3,
		"windDir" : 35,
		"rain" : 1,
		"cloudbase" : 585.56,
		"flyability" : 0,
		"reason" : "rain",
		"timestamp" :1556049600
		},
	"2019-04-24T01:00:00+01:00" : {
		"windSpeed" : 1.6,
		"windDir" : 156,
		"rain" : 1,
		"cloudbase" : 2808.2450000001,
		"flyability" : 0,
		"reason" : "windDir, rain",
		"timestamp" :1556060400
		},
	"2019-04-24T04:00:00+01:00" : {
		"windSpeed" : 1.5,
		"windDir" : 171,
		"rain" : 1,
		"cloudbase" : 355.83,
		"flyability" : 0,
		"reason" : "windDir, rain",
		"timestamp" :1556071200
		},
	"2019-04-24T07:00:00+01:00" : {
		"windSpeed" : 2.7,
		"windDir" : 220,
		"rain" : 1,
		"cloudbase" : 356.49100000002,
		"flyability" : 0,
		"reason" : "windDir, rain",
		"timestamp" :1556082000
		},
	"2019-04-24T10:00:00+01:00" : {
		"windSpeed" : 1.7,
		"windDir" : 206,
		"rain" : 0,
		"cloudbase" : 443.59500000001,
		"flyability" : 0,
		"reason" : "windDir",
		"timestamp" :1556092800
		},
	"2019-04-24T13:00:00+01:00" : {
		"windSpeed" : 2,
		"windDir" : 172,
		"rain" : 1,
		"cloudbase" : 880,
		"flyability" : 0,
		"reason" : "windDir, rain",
		"timestamp" :1556103600
		},
	"2019-04-24T16:00:00+01:00" : {
		"windSpeed" : 2.7,
		"windDir" : 309,
		"rain" : 1,
		"cloudbase" : 915.32799999999,
		"flyability" : 0,
		"reason" : "rain",
		"timestamp" :1556114400
		},
	"2019-04-24T19:00:00+01:00" : {
		"windSpeed" : 2.6,
		"windDir" : 21,
		"rain" : 1,
		"cloudbase" : 785.39900000004,
		"flyability" : 0,
		"reason" : "rain",
		"timestamp" :1556125200
		},
	"2019-04-24T22:00:00+01:00" : {
		"windSpeed" : 2.7,
		"windDir" : 19,
		"rain" : 1,
		"cloudbase" : 763.77000000005,
		"flyability" : 0,
		"reason" : "rain",
		"timestamp" :1556136000
		},
	"2019-04-25T01:00:00+01:00" : {
		"windSpeed" : 1.8,
		"windDir" : 354,
		"rain" : 1,
		"cloudbase" : 2486.6250000001,
		"flyability" : 0,
		"reason" : "rain",
		"timestamp" :1556146800
		},
	"2019-04-25T04:00:00+01:00" : {
		"windSpeed" : 3.1,
		"windDir" : 46,
		"rain" : 1,
		"cloudbase" : 870.24599999997,
		"flyability" : 0,
		"reason" : "rain",
		"timestamp" :1556157600
		},
	"2019-04-25T07:00:00+01:00" : {
		"windSpeed" : 4.9,
		"windDir" : 68,
		"rain" : 1,
		"cloudbase" : 415.17,
		"flyability" : 0,
		"reason" : "windDir, rain",
		"timestamp" :1556168400
		},
	"2019-04-25T10:00:00+01:00" : {
		"windSpeed" : 8.6,
		"windDir" : 197,
		"rain" : 1,
		"cloudbase" : 560.08900000001,
		"flyability" : 0,
		"reason" : "windSpeed, windDir, rain",
		"timestamp" :1556179200
		},
	"2019-04-25T13:00:00+01:00" : {
		"windSpeed" : 11.3,
		"windDir" : 204,
		"rain" : 1,
		"cloudbase" : 1638.3169999999,
		"flyability" : 0,
		"reason" : "windSpeed, windDir, rain",
		"timestamp" :1556190000
		},
	"2019-04-25T16:00:00+01:00" : {
		"windSpeed" : 10,
		"windDir" : 239,
		"rain" : 1,
		"cloudbase" : 1555.158,
		"flyability" : 0,
		"reason" : "windSpeed, windDir, rain",
		"timestamp" :1556200800
		},
	"2019-04-25T19:00:00+01:00" : {
		"windSpeed" : 7.3,
		"windDir" : 238,
		"rain" : 1,
		"cloudbase" : 4556.855,
		"flyability" : 0,
		"reason" : "windSpeed, windDir, rain",
		"timestamp" :1556211600
		},
	"2019-04-25T22:00:00+01:00" : {
		"windSpeed" : 7.3,
		"windDir" : 225,
		"rain" : 1,
		"cloudbase" : 5526.68,
		"flyability" : 0,
		"reason" : "windSpeed, windDir, rain",
		"timestamp" :1556222400
		},
	"2019-04-26T01:00:00+01:00" : {
		"windSpeed" : 8,
		"windDir" : 254,
		"rain" : 1,
		"cloudbase" : 6259.46,
		"flyability" : 0,
		"reason" : "windSpeed, windDir, rain",
		"timestamp" :1556233200
		}
	}
}