{
"site" : "Torc",
"id" : 17445,
"orientations" : "22012002",
"forecasts" : { 
	"2019-04-20T04:00:00+01:00" : {
		"windSpeed" : 0.7,
		"windDir" : 316,
		"rain" : 0,
		"cloudbase" : 103.29150000011,
		"flyability" : 0,
		"reason" : "cloudbase",
		"timestamp" :1555725600
		},
	"2019-04-20T07:00:00+01:00" : {
		"windSpeed" : 0.7,
		"windDir" : 44,
		"rain" : 0,
		"cloudbase" : 30,
		"flyability" : 0,
		"reason" : "cloudbase",
		"timestamp" :1555736400
		},
	"2019-04-20T10:00:00+01:00" : {
		"windSpeed" : 1,
		"windDir" : 360,
		"rain" : 0,
		"cloudbase" : 2380.2142499998,
		"flyability" : 100,
		"reason" : "",
		"timestamp" :1555747200
		},
	"2019-04-20T13:00:00+01:00" : {
		"windSpeed" : 0.5,
		"windDir" : 13,
		"rain" : 0,
		"cloudbase" : 6632.674,
		"flyability" : 100,
		"reason" : "",
		"timestamp" :1555758000
		},
	"2019-04-20T16:00:00+01:00" : {
		"windSpeed" : 2.1,
		"windDir" : 194,
		"rain" : 0,
		"cloudbase" : 5115.9349999999,
		"flyability" : 100,
		"reason" : "",
		"timestamp" :1555768800
		},
	"2019-04-20T19:00:00+01:00" : {
		"windSpeed" : 1.5,
		"windDir" : 269,
		"rain" : 0,
		"cloudbase" : 9985.952,
		"flyability" : 0,
		"reason" : "windDir",
		"timestamp" :1555779600
		},
	"2019-04-20T22:00:00+01:00" : {
		"windSpeed" : 1.5,
		"windDir" : 356,
		"rain" : 0,
		"cloudbase" : 9900,
		"flyability" : 100,
		"reason" : "",
		"timestamp" :1555790400
		},
	"2019-04-21T01:00:00+01:00" : {
		"windSpeed" : 0.5,
		"windDir" : 179,
		"rain" : 0,
		"cloudbase" : 9388.2380000004,
		"flyability" : 100,
		"reason" : "",
		"timestamp" :1555801200
		},
	"2019-04-21T04:00:00+01:00" : {
		"windSpeed" : 0.8,
		"windDir" : 220,
		"rain" : 0,
		"cloudbase" : 30,
		"flyability" : 0,
		"reason" : "windDir, cloudbase",
		"timestamp" :1555812000
		},
	"2019-04-21T07:00:00+01:00" : {
		"windSpeed" : 1.7,
		"windDir" : 198,
		"rain" : 0,
		"cloudbase" : 30,
		"flyability" : 0,
		"reason" : "cloudbase",
		"timestamp" :1555822800
		},
	"2019-04-21T10:00:00+01:00" : {
		"windSpeed" : 2.9,
		"windDir" : 211,
		"rain" : 0,
		"cloudbase" : 110.8126,
		"flyability" : 0,
		"reason" : "windDir, cloudbase",
		"timestamp" :1555833600
		},
	"2019-04-21T13:00:00+01:00" : {
		"windSpeed" : 3.9,
		"windDir" : 201,
		"rain" : 1,
		"cloudbase" : 249.88259999999,
		"flyability" : 0,
		"reason" : "rain, cloudbase",
		"timestamp" :1555844400
		},
	"2019-04-21T16:00:00+01:00" : {
		"windSpeed" : 3.7,
		"windDir" : 194,
		"rain" : 1,
		"cloudbase" : 164.63935,
		"flyability" : 0,
		"reason" : "rain, cloudbase",
		"timestamp" :1555855200
		},
	"2019-04-21T19:00:00+01:00" : {
		"windSpeed" : 3.6,
		"windDir" : 180,
		"rain" : 1,
		"cloudbase" : 97.059349999997,
		"flyability" : 0,
		"reason" : "rain, cloudbase",
		"timestamp" :1555866000
		},
	"2019-04-21T22:00:00+01:00" : {
		"windSpeed" : 4.6,
		"windDir" : 167,
		"rain" : 1,
		"cloudbase" : 41.563049999998,
		"flyability" : 0,
		"reason" : "rain, cloudbase",
		"timestamp" :1555876800
		},
	"2019-04-22T01:00:00+01:00" : {
		"windSpeed" : 5.5,
		"windDir" : 160,
		"rain" : 1,
		"cloudbase" : 35.965650000001,
		"flyability" : 0,
		"reason" : "windSpeed, rain, cloudbase",
		"timestamp" :1555887600
		},
	"2019-04-22T04:00:00+01:00" : {
		"windSpeed" : 5.7,
		"windDir" : 166,
		"rain" : 0,
		"cloudbase" : 1551.2250499999,
		"flyability" : 0,
		"reason" : "windSpeed",
		"timestamp" :1555898400
		},
	"2019-04-22T07:00:00+01:00" : {
		"windSpeed" : 5.3,
		"windDir" : 159,
		"rain" : 0,
		"cloudbase" : 7415.543,
		"flyability" : 0,
		"reason" : "windSpeed",
		"timestamp" :1555909200
		},
	"2019-04-22T10:00:00+01:00" : {
		"windSpeed" : 6,
		"windDir" : 156,
		"rain" : 0,
		"cloudbase" : 7600,
		"flyability" : 0,
		"reason" : "windSpeed",
		"timestamp" :1555920000
		},
	"2019-04-22T13:00:00+01:00" : {
		"windSpeed" : 6.3,
		"windDir" : 162,
		"rain" : 0,
		"cloudbase" : 7853.4,
		"flyability" : 0,
		"reason" : "windSpeed",
		"timestamp" :1555930800
		},
	"2019-04-22T16:00:00+01:00" : {
		"windSpeed" : 6.1,
		"windDir" : 166,
		"rain" : 0,
		"cloudbase" : 7647.5219999998,
		"flyability" : 0,
		"reason" : "windSpeed",
		"timestamp" :1555941600
		},
	"2019-04-22T19:00:00+01:00" : {
		"windSpeed" : 4,
		"windDir" : 150,
		"rain" : 0,
		"cloudbase" : 8236.2225999996,
		"flyability" : 100,
		"reason" : "",
		"timestamp" :1555952400
		},
	"2019-04-22T22:00:00+01:00" : {
		"windSpeed" : 3.8,
		"windDir" : 141,
		"rain" : 0,
		"cloudbase" : 160.96065,
		"flyability" : 0,
		"reason" : "cloudbase",
		"timestamp" :1555963200
		},
	"2019-04-23T01:00:00+01:00" : {
		"windSpeed" : 3.6,
		"windDir" : 164,
		"rain" : 1,
		"cloudbase" : 124.9326,
		"flyability" : 0,
		"reason" : "rain, cloudbase",
		"timestamp" :1555974000
		},
	"2019-04-23T04:00:00+01:00" : {
		"windSpeed" : 2,
		"windDir" : 195,
		"rain" : 1,
		"cloudbase" : null,
		"flyability" : 0,
		"reason" : "rain",
		"timestamp" :1555984800
		},
	"2019-04-23T07:00:00+01:00" : {
		"windSpeed" : 0,
		"windDir" : 360,
		"rain" : 0,
		"cloudbase" : 3147.024,
		"flyability" : 100,
		"reason" : "",
		"timestamp" :1555995600
		},
	"2019-04-23T10:00:00+01:00" : {
		"windSpeed" : 1.5,
		"windDir" : 0,
		"rain" : 0,
		"cloudbase" : 1571.2241999998,
		"flyability" : 100,
		"reason" : "",
		"timestamp" :1556006400
		},
	"2019-04-23T13:00:00+01:00" : {
		"windSpeed" : 1.8,
		"windDir" : 34,
		"rain" : 1,
		"cloudbase" : 624.5826,
		"flyability" : 0,
		"reason" : "rain",
		"timestamp" :1556017200
		},
	"2019-04-23T16:00:00+01:00" : {
		"windSpeed" : 3,
		"windDir" : 351,
		"rain" : 1,
		"cloudbase" : 558.9974,
		"flyability" : 0,
		"reason" : "rain",
		"timestamp" :1556028000
		},
	"2019-04-23T19:00:00+01:00" : {
		"windSpeed" : 2,
		"windDir" : 6,
		"rain" : 1,
		"cloudbase" : null,
		"flyability" : 0,
		"reason" : "rain",
		"timestamp" :1556038800
		},
	"2019-04-23T22:00:00+01:00" : {
		"windSpeed" : 0.5,
		"windDir" : 79,
		"rain" : 1,
		"cloudbase" : 283.0148,
		"flyability" : 0,
		"reason" : "windDir, rain, cloudbase",
		"timestamp" :1556049600
		},
	"2019-04-24T01:00:00+01:00" : {
		"windSpeed" : 2.2,
		"windDir" : 153,
		"rain" : 1,
		"cloudbase" : 602.66519999999,
		"flyability" : 0,
		"reason" : "rain",
		"timestamp" :1556060400
		},
	"2019-04-24T04:00:00+01:00" : {
		"windSpeed" : 1.8,
		"windDir" : 149,
		"rain" : 1,
		"cloudbase" : 439.33619999995,
		"flyability" : 0,
		"reason" : "rain, cloudbase",
		"timestamp" :1556071200
		},
	"2019-04-24T07:00:00+01:00" : {
		"windSpeed" : 1.6,
		"windDir" : 166,
		"rain" : 1,
		"cloudbase" : 134.44675,
		"flyability" : 0,
		"reason" : "rain, cloudbase",
		"timestamp" :1556082000
		},
	"2019-04-24T10:00:00+01:00" : {
		"windSpeed" : 2,
		"windDir" : 172,
		"rain" : 0,
		"cloudbase" : 219.61349999999,
		"flyability" : 0,
		"reason" : "cloudbase",
		"timestamp" :1556092800
		},
	"2019-04-24T13:00:00+01:00" : {
		"windSpeed" : 4.5,
		"windDir" : 153,
		"rain" : 1,
		"cloudbase" : 559.3574,
		"flyability" : 0,
		"reason" : "rain",
		"timestamp" :1556103600
		},
	"2019-04-24T16:00:00+01:00" : {
		"windSpeed" : 4,
		"windDir" : 167,
		"rain" : 1,
		"cloudbase" : 959.15659999998,
		"flyability" : 0,
		"reason" : "rain",
		"timestamp" :1556114400
		},
	"2019-04-24T19:00:00+01:00" : {
		"windSpeed" : 2,
		"windDir" : 183,
		"rain" : 1,
		"cloudbase" : 1161.4565,
		"flyability" : 0,
		"reason" : "rain",
		"timestamp" :1556125200
		},
	"2019-04-24T22:00:00+01:00" : {
		"windSpeed" : 0.7,
		"windDir" : 224,
		"rain" : 1,
		"cloudbase" : 1004.1152,
		"flyability" : 0,
		"reason" : "windDir, rain",
		"timestamp" :1556136000
		},
	"2019-04-25T01:00:00+01:00" : {
		"windSpeed" : 0.9,
		"windDir" : 90,
		"rain" : 1,
		"cloudbase" : 1088.9023,
		"flyability" : 0,
		"reason" : "windDir, rain",
		"timestamp" :1556146800
		},
	"2019-04-25T04:00:00+01:00" : {
		"windSpeed" : 1.1,
		"windDir" : 332,
		"rain" : 1,
		"cloudbase" : 321.8809,
		"flyability" : 0,
		"reason" : "rain, cloudbase",
		"timestamp" :1556157600
		},
	"2019-04-25T07:00:00+01:00" : {
		"windSpeed" : 4,
		"windDir" : 174,
		"rain" : 1,
		"cloudbase" : 1042.1373,
		"flyability" : 0,
		"reason" : "rain",
		"timestamp" :1556168400
		},
	"2019-04-25T10:00:00+01:00" : {
		"windSpeed" : 5.1,
		"windDir" : 193,
		"rain" : 1,
		"cloudbase" : 1374.1995999998,
		"flyability" : 0,
		"reason" : "windSpeed, rain",
		"timestamp" :1556179200
		},
	"2019-04-25T13:00:00+01:00" : {
		"windSpeed" : 6,
		"windDir" : 201,
		"rain" : 1,
		"cloudbase" : 592.70580000008,
		"flyability" : 0,
		"reason" : "windSpeed, rain",
		"timestamp" :1556190000
		},
	"2019-04-25T16:00:00+01:00" : {
		"windSpeed" : 3.7,
		"windDir" : 215,
		"rain" : 1,
		"cloudbase" : 574.7244,
		"flyability" : 0,
		"reason" : "windDir, rain",
		"timestamp" :1556200800
		},
	"2019-04-25T19:00:00+01:00" : {
		"windSpeed" : 3.4,
		"windDir" : 242,
		"rain" : 1,
		"cloudbase" : 5902.439,
		"flyability" : 0,
		"reason" : "windDir, rain",
		"timestamp" :1556211600
		},
	"2019-04-25T22:00:00+01:00" : {
		"windSpeed" : 2.5,
		"windDir" : 217,
		"rain" : 1,
		"cloudbase" : 5420.087,
		"flyability" : 0,
		"reason" : "windDir, rain",
		"timestamp" :1556222400
		},
	"2019-04-26T01:00:00+01:00" : {
		"windSpeed" : 2.2,
		"windDir" : 244,
		"rain" : 0,
		"cloudbase" : 5800,
		"flyability" : 0,
		"reason" : "windDir",
		"timestamp" :1556233200
		}
	}
}