{
"site" : "Killeen",
"id" : 17442,
"orientations" : "00022120",
"forecasts" : { 
	"2019-04-20T04:00:00+01:00" : {
		"windSpeed" : 1.1,
		"windDir" : 249,
		"rain" : 0,
		"cloudbase" : 4046.4400499991,
		"flyability" : 100,
		"reason" : "",
		"timestamp" :1555725600
		},
	"2019-04-20T07:00:00+01:00" : {
		"windSpeed" : 0.6,
		"windDir" : 7,
		"rain" : 0,
		"cloudbase" : 583.2839999998,
		"flyability" : 0,
		"reason" : "windDir",
		"timestamp" :1555736400
		},
	"2019-04-20T10:00:00+01:00" : {
		"windSpeed" : 0.5,
		"windDir" : 360,
		"rain" : 0,
		"cloudbase" : 9447.0149999998,
		"flyability" : 0,
		"reason" : "windDir",
		"timestamp" :1555747200
		},
	"2019-04-20T13:00:00+01:00" : {
		"windSpeed" : 0.4,
		"windDir" : 95,
		"rain" : 0,
		"cloudbase" : 6964.7,
		"flyability" : 0,
		"reason" : "windDir",
		"timestamp" :1555758000
		},
	"2019-04-20T16:00:00+01:00" : {
		"windSpeed" : 2,
		"windDir" : 182,
		"rain" : 0,
		"cloudbase" : 5266.1715,
		"flyability" : 100,
		"reason" : "",
		"timestamp" :1555768800
		},
	"2019-04-20T19:00:00+01:00" : {
		"windSpeed" : 1.7,
		"windDir" : 237,
		"rain" : 0,
		"cloudbase" : 8826.2565000001,
		"flyability" : 100,
		"reason" : "",
		"timestamp" :1555779600
		},
	"2019-04-20T22:00:00+01:00" : {
		"windSpeed" : 1.5,
		"windDir" : 341,
		"rain" : 0,
		"cloudbase" : 6189.6680000009,
		"flyability" : 0,
		"reason" : "windDir",
		"timestamp" :1555790400
		},
	"2019-04-21T01:00:00+01:00" : {
		"windSpeed" : 0.9,
		"windDir" : 303,
		"rain" : 0,
		"cloudbase" : 4917.960250001,
		"flyability" : 0,
		"reason" : "windDir",
		"timestamp" :1555801200
		},
	"2019-04-21T04:00:00+01:00" : {
		"windSpeed" : 0.6,
		"windDir" : 231,
		"rain" : 0,
		"cloudbase" : 30,
		"flyability" : 0,
		"reason" : "cloudbase",
		"timestamp" :1555812000
		},
	"2019-04-21T07:00:00+01:00" : {
		"windSpeed" : 1.7,
		"windDir" : 215,
		"rain" : 0,
		"cloudbase" : 30,
		"flyability" : 0,
		"reason" : "cloudbase",
		"timestamp" :1555822800
		},
	"2019-04-21T10:00:00+01:00" : {
		"windSpeed" : 2.8,
		"windDir" : 223,
		"rain" : 0,
		"cloudbase" : 121.231425,
		"flyability" : 0,
		"reason" : "cloudbase",
		"timestamp" :1555833600
		},
	"2019-04-21T13:00:00+01:00" : {
		"windSpeed" : 3.6,
		"windDir" : 212,
		"rain" : 0,
		"cloudbase" : 347.00429999999,
		"flyability" : 100,
		"reason" : "",
		"timestamp" :1555844400
		},
	"2019-04-21T16:00:00+01:00" : {
		"windSpeed" : 3.6,
		"windDir" : 196,
		"rain" : 1,
		"cloudbase" : 225.47284999999,
		"flyability" : 0,
		"reason" : "rain, cloudbase",
		"timestamp" :1555855200
		},
	"2019-04-21T19:00:00+01:00" : {
		"windSpeed" : 3.5,
		"windDir" : 187,
		"rain" : 1,
		"cloudbase" : 112.37,
		"flyability" : 0,
		"reason" : "rain, cloudbase",
		"timestamp" :1555866000
		},
	"2019-04-21T22:00:00+01:00" : {
		"windSpeed" : 4.7,
		"windDir" : 162,
		"rain" : 1,
		"cloudbase" : 31.202850000002,
		"flyability" : 0,
		"reason" : "rain, cloudbase",
		"timestamp" :1555876800
		},
	"2019-04-22T01:00:00+01:00" : {
		"windSpeed" : 5.4,
		"windDir" : 158,
		"rain" : 1,
		"cloudbase" : 30.601425000001,
		"flyability" : 0,
		"reason" : "windSpeed, rain, cloudbase",
		"timestamp" :1555887600
		},
	"2019-04-22T04:00:00+01:00" : {
		"windSpeed" : 5.2,
		"windDir" : 163,
		"rain" : 0,
		"cloudbase" : 166.04017500015,
		"flyability" : 0,
		"reason" : "windSpeed, cloudbase",
		"timestamp" :1555898400
		},
	"2019-04-22T07:00:00+01:00" : {
		"windSpeed" : 5.2,
		"windDir" : 158,
		"rain" : 0,
		"cloudbase" : null,
		"flyability" : 0,
		"reason" : "windSpeed",
		"timestamp" :1555909200
		},
	"2019-04-22T10:00:00+01:00" : {
		"windSpeed" : 6.2,
		"windDir" : 152,
		"rain" : 0,
		"cloudbase" : 9600,
		"flyability" : 0,
		"reason" : "windSpeed",
		"timestamp" :1555920000
		},
	"2019-04-22T13:00:00+01:00" : {
		"windSpeed" : 6.3,
		"windDir" : 162,
		"rain" : 0,
		"cloudbase" : 9105.2999999997,
		"flyability" : 0,
		"reason" : "windSpeed",
		"timestamp" :1555930800
		},
	"2019-04-22T16:00:00+01:00" : {
		"windSpeed" : 6.3,
		"windDir" : 162,
		"rain" : 1,
		"cloudbase" : 9474.914,
		"flyability" : 0,
		"reason" : "windSpeed, rain",
		"timestamp" :1555941600
		},
	"2019-04-22T19:00:00+01:00" : {
		"windSpeed" : 4.3,
		"windDir" : 144,
		"rain" : 1,
		"cloudbase" : 8514.3402500002,
		"flyability" : 0,
		"reason" : "rain",
		"timestamp" :1555952400
		},
	"2019-04-22T22:00:00+01:00" : {
		"windSpeed" : 3.9,
		"windDir" : 130,
		"rain" : 0,
		"cloudbase" : 125.75285,
		"flyability" : 0,
		"reason" : "cloudbase",
		"timestamp" :1555963200
		},
	"2019-04-23T01:00:00+01:00" : {
		"windSpeed" : 4,
		"windDir" : 151,
		"rain" : 1,
		"cloudbase" : 58.890675000011,
		"flyability" : 0,
		"reason" : "rain, cloudbase",
		"timestamp" :1555974000
		},
	"2019-04-23T04:00:00+01:00" : {
		"windSpeed" : 2.4,
		"windDir" : 174,
		"rain" : 1,
		"cloudbase" : 72.199300000008,
		"flyability" : 0,
		"reason" : "rain, cloudbase",
		"timestamp" :1555984800
		},
	"2019-04-23T07:00:00+01:00" : {
		"windSpeed" : 1,
		"windDir" : 296,
		"rain" : 1,
		"cloudbase" : 1434.3927500004,
		"flyability" : 0,
		"reason" : "windDir, rain",
		"timestamp" :1555995600
		},
	"2019-04-23T10:00:00+01:00" : {
		"windSpeed" : 1.2,
		"windDir" : 25,
		"rain" : 0,
		"cloudbase" : 1383.0416500004,
		"flyability" : 0,
		"reason" : "windDir",
		"timestamp" :1556006400
		},
	"2019-04-23T13:00:00+01:00" : {
		"windSpeed" : 1.5,
		"windDir" : 46,
		"rain" : 1,
		"cloudbase" : 625.9514,
		"flyability" : 0,
		"reason" : "windDir, rain",
		"timestamp" :1556017200
		},
	"2019-04-23T16:00:00+01:00" : {
		"windSpeed" : 1.1,
		"windDir" : 55,
		"rain" : 1,
		"cloudbase" : 556.19139999999,
		"flyability" : 0,
		"reason" : "windDir, rain",
		"timestamp" :1556028000
		},
	"2019-04-23T19:00:00+01:00" : {
		"windSpeed" : 1.2,
		"windDir" : 339,
		"rain" : 1,
		"cloudbase" : null,
		"flyability" : 0,
		"reason" : "windDir, rain",
		"timestamp" :1556038800
		},
	"2019-04-23T22:00:00+01:00" : {
		"windSpeed" : 2.4,
		"windDir" : 125,
		"rain" : 1,
		"cloudbase" : 190.19140000001,
		"flyability" : 0,
		"reason" : "rain, cloudbase",
		"timestamp" :1556049600
		},
	"2019-04-24T01:00:00+01:00" : {
		"windSpeed" : 2.8,
		"windDir" : 149,
		"rain" : 1,
		"cloudbase" : 124.84695000005,
		"flyability" : 0,
		"reason" : "rain, cloudbase",
		"timestamp" :1556060400
		},
	"2019-04-24T04:00:00+01:00" : {
		"windSpeed" : 2.4,
		"windDir" : 144,
		"rain" : 1,
		"cloudbase" : 108.54840000005,
		"flyability" : 0,
		"reason" : "rain, cloudbase",
		"timestamp" :1556071200
		},
	"2019-04-24T07:00:00+01:00" : {
		"windSpeed" : 2.4,
		"windDir" : 145,
		"rain" : 1,
		"cloudbase" : 76.607825000015,
		"flyability" : 0,
		"reason" : "rain, cloudbase",
		"timestamp" :1556082000
		},
	"2019-04-24T10:00:00+01:00" : {
		"windSpeed" : 3.2,
		"windDir" : 154,
		"rain" : 1,
		"cloudbase" : 213.10000000002,
		"flyability" : 0,
		"reason" : "rain, cloudbase",
		"timestamp" :1556092800
		},
	"2019-04-24T13:00:00+01:00" : {
		"windSpeed" : 4.8,
		"windDir" : 155,
		"rain" : 1,
		"cloudbase" : 498.73145000002,
		"flyability" : 0,
		"reason" : "rain",
		"timestamp" :1556103600
		},
	"2019-04-24T16:00:00+01:00" : {
		"windSpeed" : 4.4,
		"windDir" : 155,
		"rain" : 1,
		"cloudbase" : 1373.5525,
		"flyability" : 0,
		"reason" : "rain",
		"timestamp" :1556114400
		},
	"2019-04-24T19:00:00+01:00" : {
		"windSpeed" : 1.6,
		"windDir" : 165,
		"rain" : 1,
		"cloudbase" : 1025.7,
		"flyability" : 0,
		"reason" : "rain",
		"timestamp" :1556125200
		},
	"2019-04-24T22:00:00+01:00" : {
		"windSpeed" : 0.7,
		"windDir" : 222,
		"rain" : 1,
		"cloudbase" : 994.23045000001,
		"flyability" : 0,
		"reason" : "rain",
		"timestamp" :1556136000
		},
	"2019-04-25T01:00:00+01:00" : {
		"windSpeed" : 1.5,
		"windDir" : 106,
		"rain" : 1,
		"cloudbase" : 618.90525000009,
		"flyability" : 0,
		"reason" : "windDir, rain",
		"timestamp" :1556146800
		},
	"2019-04-25T04:00:00+01:00" : {
		"windSpeed" : 1.6,
		"windDir" : 49,
		"rain" : 1,
		"cloudbase" : 237.46140000002,
		"flyability" : 0,
		"reason" : "windDir, rain, cloudbase",
		"timestamp" :1556157600
		},
	"2019-04-25T07:00:00+01:00" : {
		"windSpeed" : 4.5,
		"windDir" : 174,
		"rain" : 1,
		"cloudbase" : 441.27565000002,
		"flyability" : 0,
		"reason" : "rain",
		"timestamp" :1556168400
		},
	"2019-04-25T10:00:00+01:00" : {
		"windSpeed" : 4.5,
		"windDir" : 188,
		"rain" : 1,
		"cloudbase" : 497.48660000014,
		"flyability" : 0,
		"reason" : "rain",
		"timestamp" :1556179200
		},
	"2019-04-25T13:00:00+01:00" : {
		"windSpeed" : 5.2,
		"windDir" : 197,
		"rain" : 1,
		"cloudbase" : 560.97119999997,
		"flyability" : 0,
		"reason" : "windSpeed, rain",
		"timestamp" :1556190000
		},
	"2019-04-25T16:00:00+01:00" : {
		"windSpeed" : 4.2,
		"windDir" : 224,
		"rain" : 1,
		"cloudbase" : 3516.9043999994,
		"flyability" : 0,
		"reason" : "rain",
		"timestamp" :1556200800
		},
	"2019-04-25T19:00:00+01:00" : {
		"windSpeed" : 3.4,
		"windDir" : 243,
		"rain" : 1,
		"cloudbase" : 6196.2715,
		"flyability" : 0,
		"reason" : "rain",
		"timestamp" :1556211600
		},
	"2019-04-25T22:00:00+01:00" : {
		"windSpeed" : 2.8,
		"windDir" : 227,
		"rain" : 1,
		"cloudbase" : 5189.1,
		"flyability" : 0,
		"reason" : "rain",
		"timestamp" :1556222400
		},
	"2019-04-26T01:00:00+01:00" : {
		"windSpeed" : 2.7,
		"windDir" : 250,
		"rain" : 0,
		"cloudbase" : 5615.7570000001,
		"flyability" : 100,
		"reason" : "",
		"timestamp" :1556233200
		}
	}
}