{
"site" : "MTERBA",
"id" : 17496,
"orientations" : "20000022",
"forecasts" : { 
	"2019-04-05T04:00:00+01:00" : {
		"windSpeed" : 2.9,
		"windDir" : 262,
		"rain" : 1,
		"cloudbase" : 1250,
		"flyability" : 0,
		"reason" : "rain",
		"timestamp" :1554429600
		},
	"2019-04-05T07:00:00+01:00" : {
		"windSpeed" : 2.3,
		"windDir" : 215,
		"rain" : 0,
		"cloudbase" : 988.02660000002,
		"flyability" : 0,
		"reason" : "windDir, cloudbase",
		"timestamp" :1554440400
		},
	"2019-04-05T10:00:00+01:00" : {
		"windSpeed" : 4.8,
		"windDir" : 233,
		"rain" : 0,
		"cloudbase" : 1600,
		"flyability" : 0,
		"reason" : "windDir",
		"timestamp" :1554451200
		},
	"2019-04-05T13:00:00+01:00" : {
		"windSpeed" : 7.1,
		"windDir" : 250,
		"rain" : 0,
		"cloudbase" : null,
		"flyability" : 0,
		"reason" : "windSpeed",
		"timestamp" :1554462000
		},
	"2019-04-05T16:00:00+01:00" : {
		"windSpeed" : 6.9,
		"windDir" : 304,
		"rain" : 1,
		"cloudbase" : 1065.9919999999,
		"flyability" : 0,
		"reason" : "windSpeed, rain",
		"timestamp" :1554472800
		},
	"2019-04-05T19:00:00+01:00" : {
		"windSpeed" : 5.4,
		"windDir" : 273,
		"rain" : 1,
		"cloudbase" : 782.53496000006,
		"flyability" : 0,
		"reason" : "windSpeed, rain, cloudbase",
		"timestamp" :1554483600
		},
	"2019-04-05T22:00:00+01:00" : {
		"windSpeed" : 4.1,
		"windDir" : 253,
		"rain" : 1,
		"cloudbase" : 2400,
		"flyability" : 0,
		"reason" : "rain",
		"timestamp" :1554494400
		},
	"2019-04-06T01:00:00+01:00" : {
		"windSpeed" : 3.6,
		"windDir" : 250,
		"rain" : 1,
		"cloudbase" : null,
		"flyability" : 0,
		"reason" : "rain",
		"timestamp" :1554505200
		},
	"2019-04-06T04:00:00+01:00" : {
		"windSpeed" : 2.5,
		"windDir" : 227,
		"rain" : 0,
		"cloudbase" : null,
		"flyability" : 0,
		"reason" : "windDir",
		"timestamp" :1554516000
		},
	"2019-04-06T07:00:00+01:00" : {
		"windSpeed" : 3.1,
		"windDir" : 224,
		"rain" : 0,
		"cloudbase" : null,
		"flyability" : 0,
		"reason" : "windDir",
		"timestamp" :1554526800
		},
	"2019-04-06T10:00:00+01:00" : {
		"windSpeed" : 4.5,
		"windDir" : 258,
		"rain" : 0,
		"cloudbase" : null,
		"flyability" : 100,
		"reason" : "",
		"timestamp" :1554537600
		},
	"2019-04-06T13:00:00+01:00" : {
		"windSpeed" : 5.4,
		"windDir" : 257,
		"rain" : 1,
		"cloudbase" : 1259.6,
		"flyability" : 0,
		"reason" : "windSpeed, rain",
		"timestamp" :1554548400
		},
	"2019-04-06T16:00:00+01:00" : {
		"windSpeed" : 6.3,
		"windDir" : 259,
		"rain" : 0,
		"cloudbase" : 1277.132,
		"flyability" : 0,
		"reason" : "windSpeed",
		"timestamp" :1554559200
		},
	"2019-04-06T19:00:00+01:00" : {
		"windSpeed" : 4.7,
		"windDir" : 271,
		"rain" : 0,
		"cloudbase" : 837.95980000003,
		"flyability" : 0,
		"reason" : "cloudbase",
		"timestamp" :1554570000
		},
	"2019-04-06T22:00:00+01:00" : {
		"windSpeed" : 2.6,
		"windDir" : 272,
		"rain" : 0,
		"cloudbase" : 797.67192000007,
		"flyability" : 0,
		"reason" : "cloudbase",
		"timestamp" :1554580800
		},
	"2019-04-07T01:00:00+01:00" : {
		"windSpeed" : 2.4,
		"windDir" : 272,
		"rain" : 0,
		"cloudbase" : 490,
		"flyability" : 0,
		"reason" : "cloudbase",
		"timestamp" :1554591600
		},
	"2019-04-07T04:00:00+01:00" : {
		"windSpeed" : 2.7,
		"windDir" : 239,
		"rain" : 0,
		"cloudbase" : null,
		"flyability" : 0,
		"reason" : "windDir",
		"timestamp" :1554602400
		},
	"2019-04-07T07:00:00+01:00" : {
		"windSpeed" : 4.1,
		"windDir" : 229,
		"rain" : 0,
		"cloudbase" : null,
		"flyability" : 0,
		"reason" : "windDir",
		"timestamp" :1554613200
		},
	"2019-04-07T10:00:00+01:00" : {
		"windSpeed" : 4.3,
		"windDir" : 258,
		"rain" : 0,
		"cloudbase" : null,
		"flyability" : 100,
		"reason" : "",
		"timestamp" :1554624000
		},
	"2019-04-07T13:00:00+01:00" : {
		"windSpeed" : 4.5,
		"windDir" : 291,
		"rain" : 0,
		"cloudbase" : 1358.6532,
		"flyability" : 100,
		"reason" : "",
		"timestamp" :1554634800
		},
	"2019-04-07T16:00:00+01:00" : {
		"windSpeed" : 3.6,
		"windDir" : 322,
		"rain" : 0,
		"cloudbase" : 1550,
		"flyability" : 100,
		"reason" : "",
		"timestamp" :1554645600
		},
	"2019-04-07T19:00:00+01:00" : {
		"windSpeed" : 2,
		"windDir" : 331,
		"rain" : 0,
		"cloudbase" : null,
		"flyability" : 100,
		"reason" : "",
		"timestamp" :1554656400
		},
	"2019-04-07T22:00:00+01:00" : {
		"windSpeed" : 2.1,
		"windDir" : 194,
		"rain" : 0,
		"cloudbase" : null,
		"flyability" : 0,
		"reason" : "windDir",
		"timestamp" :1554667200
		},
	"2019-04-08T01:00:00+01:00" : {
		"windSpeed" : 2.1,
		"windDir" : 201,
		"rain" : 0,
		"cloudbase" : null,
		"flyability" : 0,
		"reason" : "windDir",
		"timestamp" :1554678000
		},
	"2019-04-08T04:00:00+01:00" : {
		"windSpeed" : 1.9,
		"windDir" : 205,
		"rain" : 0,
		"cloudbase" : null,
		"flyability" : 0,
		"reason" : "windDir",
		"timestamp" :1554688800
		},
	"2019-04-08T07:00:00+01:00" : {
		"windSpeed" : 2.1,
		"windDir" : 194,
		"rain" : 0,
		"cloudbase" : null,
		"flyability" : 0,
		"reason" : "windDir",
		"timestamp" :1554699600
		},
	"2019-04-08T10:00:00+01:00" : {
		"windSpeed" : 1.9,
		"windDir" : 323,
		"rain" : 0,
		"cloudbase" : 1150,
		"flyability" : 100,
		"reason" : "",
		"timestamp" :1554710400
		},
	"2019-04-08T13:00:00+01:00" : {
		"windSpeed" : 3.9,
		"windDir" : 317,
		"rain" : 0,
		"cloudbase" : 1950,
		"flyability" : 100,
		"reason" : "",
		"timestamp" :1554721200
		},
	"2019-04-08T16:00:00+01:00" : {
		"windSpeed" : 4.7,
		"windDir" : 308,
		"rain" : 1,
		"cloudbase" : null,
		"flyability" : 0,
		"reason" : "rain",
		"timestamp" :1554732000
		},
	"2019-04-08T19:00:00+01:00" : {
		"windSpeed" : 3,
		"windDir" : 340,
		"rain" : 0,
		"cloudbase" : 3200,
		"flyability" : 100,
		"reason" : "",
		"timestamp" :1554742800
		},
	"2019-04-08T22:00:00+01:00" : {
		"windSpeed" : 1.2,
		"windDir" : 260,
		"rain" : 1,
		"cloudbase" : 553.35172000002,
		"flyability" : 0,
		"reason" : "rain, cloudbase",
		"timestamp" :1554753600
		},
	"2019-04-09T01:00:00+01:00" : {
		"windSpeed" : 0.4,
		"windDir" : 323,
		"rain" : 0,
		"cloudbase" : 680,
		"flyability" : 0,
		"reason" : "cloudbase",
		"timestamp" :1554764400
		},
	"2019-04-09T04:00:00+01:00" : {
		"windSpeed" : 0.5,
		"windDir" : 180,
		"rain" : 0,
		"cloudbase" : null,
		"flyability" : 0,
		"reason" : "windDir",
		"timestamp" :1554775200
		},
	"2019-04-09T07:00:00+01:00" : {
		"windSpeed" : 0.5,
		"windDir" : 279,
		"rain" : 0,
		"cloudbase" : 4738.1951999998,
		"flyability" : 100,
		"reason" : "",
		"timestamp" :1554786000
		},
	"2019-04-09T10:00:00+01:00" : {
		"windSpeed" : 2.1,
		"windDir" : 318,
		"rain" : 0,
		"cloudbase" : 434.43871999999,
		"flyability" : 0,
		"reason" : "cloudbase",
		"timestamp" :1554796800
		},
	"2019-04-09T13:00:00+01:00" : {
		"windSpeed" : 3.5,
		"windDir" : 340,
		"rain" : 1,
		"cloudbase" : 330,
		"flyability" : 0,
		"reason" : "rain, cloudbase",
		"timestamp" :1554807600
		},
	"2019-04-09T16:00:00+01:00" : {
		"windSpeed" : 4.1,
		"windDir" : 317,
		"rain" : 0,
		"cloudbase" : 4592.2757999999,
		"flyability" : 100,
		"reason" : "",
		"timestamp" :1554818400
		},
	"2019-04-09T19:00:00+01:00" : {
		"windSpeed" : 2,
		"windDir" : 331,
		"rain" : 1,
		"cloudbase" : null,
		"flyability" : 0,
		"reason" : "rain",
		"timestamp" :1554829200
		},
	"2019-04-09T22:00:00+01:00" : {
		"windSpeed" : 2,
		"windDir" : 264,
		"rain" : 0,
		"cloudbase" : null,
		"flyability" : 100,
		"reason" : "",
		"timestamp" :1554840000
		},
	"2019-04-10T01:00:00+01:00" : {
		"windSpeed" : 1,
		"windDir" : 258,
		"rain" : 0,
		"cloudbase" : 340,
		"flyability" : 0,
		"reason" : "cloudbase",
		"timestamp" :1554850800
		},
	"2019-04-10T04:00:00+01:00" : {
		"windSpeed" : 0.5,
		"windDir" : 180,
		"rain" : 0,
		"cloudbase" : 420,
		"flyability" : 0,
		"reason" : "windDir, cloudbase",
		"timestamp" :1554861600
		},
	"2019-04-10T07:00:00+01:00" : {
		"windSpeed" : 0.5,
		"windDir" : 180,
		"rain" : 0,
		"cloudbase" : null,
		"flyability" : 0,
		"reason" : "windDir",
		"timestamp" :1554872400
		},
	"2019-04-10T10:00:00+01:00" : {
		"windSpeed" : 1.7,
		"windDir" : 9,
		"rain" : 0,
		"cloudbase" : null,
		"flyability" : 100,
		"reason" : "",
		"timestamp" :1554883200
		},
	"2019-04-10T13:00:00+01:00" : {
		"windSpeed" : 2.8,
		"windDir" : 350,
		"rain" : 0,
		"cloudbase" : null,
		"flyability" : 100,
		"reason" : "",
		"timestamp" :1554894000
		},
	"2019-04-10T16:00:00+01:00" : {
		"windSpeed" : 3.4,
		"windDir" : 343,
		"rain" : 0,
		"cloudbase" : null,
		"flyability" : 100,
		"reason" : "",
		"timestamp" :1554904800
		},
	"2019-04-10T19:00:00+01:00" : {
		"windSpeed" : 1.8,
		"windDir" : 326,
		"rain" : 0,
		"cloudbase" : null,
		"flyability" : 100,
		"reason" : "",
		"timestamp" :1554915600
		},
	"2019-04-10T22:00:00+01:00" : {
		"windSpeed" : 1.9,
		"windDir" : 219,
		"rain" : 0,
		"cloudbase" : null,
		"flyability" : 0,
		"reason" : "windDir",
		"timestamp" :1554926400
		},
	"2019-04-11T01:00:00+01:00" : {
		"windSpeed" : 2,
		"windDir" : 195,
		"rain" : 0,
		"cloudbase" : null,
		"flyability" : 0,
		"reason" : "windDir",
		"timestamp" :1554937200
		}
	}
}