{
"site" : "Gloucester Airfield",
"id" : 17886,
"orientations" : "00000000",
"forecasts" : { 
	"2019-04-18T01:00:00+10:00" : {
		"windSpeed" : 1,
		"windDir" : 270,
		"rain" : 0,
		"cloudbase" : null,
		"flyability" : -50,
		"reason" : "orientationsUnknown",
		"timestamp" :1555509600
		},
	"2019-04-18T04:00:00+10:00" : {
		"windSpeed" : 1.4,
		"windDir" : 277,
		"rain" : 0,
		"cloudbase" : null,
		"flyability" : -50,
		"reason" : "orientationsUnknown",
		"timestamp" :1555520400
		},
	"2019-04-18T07:00:00+10:00" : {
		"windSpeed" : 1.6,
		"windDir" : 277,
		"rain" : 0,
		"cloudbase" : null,
		"flyability" : -50,
		"reason" : "orientationsUnknown",
		"timestamp" :1555531200
		},
	"2019-04-18T10:00:00+10:00" : {
		"windSpeed" : 0.6,
		"windDir" : 65,
		"rain" : 0,
		"cloudbase" : null,
		"flyability" : -50,
		"reason" : "orientationsUnknown",
		"timestamp" :1555542000
		},
	"2019-04-18T13:00:00+10:00" : {
		"windSpeed" : 0.8,
		"windDir" : 86,
		"rain" : 1,
		"cloudbase" : 1400,
		"flyability" : -0,
		"reason" : "orientationsUnknown, rain",
		"timestamp" :1555552800
		},
	"2019-04-18T16:00:00+10:00" : {
		"windSpeed" : 2.4,
		"windDir" : 122,
		"rain" : 0,
		"cloudbase" : null,
		"flyability" : -50,
		"reason" : "orientationsUnknown",
		"timestamp" :1555563600
		},
	"2019-04-18T19:00:00+10:00" : {
		"windSpeed" : 1.3,
		"windDir" : 104,
		"rain" : 0,
		"cloudbase" : null,
		"flyability" : -50,
		"reason" : "orientationsUnknown",
		"timestamp" :1555574400
		},
	"2019-04-18T22:00:00+10:00" : {
		"windSpeed" : 0.8,
		"windDir" : 270,
		"rain" : 0,
		"cloudbase" : null,
		"flyability" : -50,
		"reason" : "orientationsUnknown",
		"timestamp" :1555585200
		},
	"2019-04-19T01:00:00+10:00" : {
		"windSpeed" : 1.5,
		"windDir" : 253,
		"rain" : 0,
		"cloudbase" : 720,
		"flyability" : -50,
		"reason" : "orientationsUnknown",
		"timestamp" :1555596000
		},
	"2019-04-19T04:00:00+10:00" : {
		"windSpeed" : 1.2,
		"windDir" : 233,
		"rain" : 0,
		"cloudbase" : 640,
		"flyability" : -50,
		"reason" : "orientationsUnknown",
		"timestamp" :1555606800
		},
	"2019-04-19T07:00:00+10:00" : {
		"windSpeed" : 1.5,
		"windDir" : 221,
		"rain" : 1,
		"cloudbase" : null,
		"flyability" : -0,
		"reason" : "orientationsUnknown, rain",
		"timestamp" :1555617600
		},
	"2019-04-19T10:00:00+10:00" : {
		"windSpeed" : 1.2,
		"windDir" : 133,
		"rain" : 1,
		"cloudbase" : null,
		"flyability" : -0,
		"reason" : "orientationsUnknown, rain",
		"timestamp" :1555628400
		},
	"2019-04-19T13:00:00+10:00" : {
		"windSpeed" : 2.2,
		"windDir" : 117,
		"rain" : 1,
		"cloudbase" : null,
		"flyability" : -0,
		"reason" : "orientationsUnknown, rain",
		"timestamp" :1555639200
		},
	"2019-04-19T16:00:00+10:00" : {
		"windSpeed" : 2.2,
		"windDir" : 90,
		"rain" : 1,
		"cloudbase" : null,
		"flyability" : -0,
		"reason" : "orientationsUnknown, rain",
		"timestamp" :1555650000
		},
	"2019-04-19T19:00:00+10:00" : {
		"windSpeed" : 1.7,
		"windDir" : 96,
		"rain" : 1,
		"cloudbase" : null,
		"flyability" : -0,
		"reason" : "orientationsUnknown, rain",
		"timestamp" :1555660800
		},
	"2019-04-19T22:00:00+10:00" : {
		"windSpeed" : 0.8,
		"windDir" : 53,
		"rain" : 1,
		"cloudbase" : 150,
		"flyability" : -0,
		"reason" : "orientationsUnknown, rain",
		"timestamp" :1555671600
		},
	"2019-04-20T01:00:00+10:00" : {
		"windSpeed" : 0.3,
		"windDir" : 207,
		"rain" : 1,
		"cloudbase" : 186.32200000001,
		"flyability" : -0,
		"reason" : "orientationsUnknown, rain",
		"timestamp" :1555682400
		},
	"2019-04-20T04:00:00+10:00" : {
		"windSpeed" : 0.8,
		"windDir" : 161,
		"rain" : 1,
		"cloudbase" : null,
		"flyability" : -0,
		"reason" : "orientationsUnknown, rain",
		"timestamp" :1555693200
		},
	"2019-04-20T07:00:00+10:00" : {
		"windSpeed" : 0.1,
		"windDir" : 180,
		"rain" : 0,
		"cloudbase" : 30,
		"flyability" : -0,
		"reason" : "orientationsUnknown, cloudbase",
		"timestamp" :1555704000
		},
	"2019-04-20T10:00:00+10:00" : {
		"windSpeed" : 1.1,
		"windDir" : 24,
		"rain" : 0,
		"cloudbase" : 500,
		"flyability" : -50,
		"reason" : "orientationsUnknown",
		"timestamp" :1555714800
		},
	"2019-04-20T13:00:00+10:00" : {
		"windSpeed" : 2.7,
		"windDir" : 66,
		"rain" : 1,
		"cloudbase" : null,
		"flyability" : -0,
		"reason" : "orientationsUnknown, rain",
		"timestamp" :1555725600
		},
	"2019-04-20T16:00:00+10:00" : {
		"windSpeed" : 2.9,
		"windDir" : 74,
		"rain" : 1,
		"cloudbase" : null,
		"flyability" : -0,
		"reason" : "orientationsUnknown, rain",
		"timestamp" :1555736400
		},
	"2019-04-20T19:00:00+10:00" : {
		"windSpeed" : 2.2,
		"windDir" : 61,
		"rain" : 1,
		"cloudbase" : null,
		"flyability" : -0,
		"reason" : "orientationsUnknown, rain",
		"timestamp" :1555747200
		},
	"2019-04-20T22:00:00+10:00" : {
		"windSpeed" : 1.1,
		"windDir" : 18,
		"rain" : 0,
		"cloudbase" : null,
		"flyability" : -50,
		"reason" : "orientationsUnknown",
		"timestamp" :1555758000
		},
	"2019-04-21T01:00:00+10:00" : {
		"windSpeed" : 0.8,
		"windDir" : 347,
		"rain" : 0,
		"cloudbase" : null,
		"flyability" : -50,
		"reason" : "orientationsUnknown",
		"timestamp" :1555768800
		},
	"2019-04-21T04:00:00+10:00" : {
		"windSpeed" : 0.9,
		"windDir" : 292,
		"rain" : 0,
		"cloudbase" : null,
		"flyability" : -50,
		"reason" : "orientationsUnknown",
		"timestamp" :1555779600
		},
	"2019-04-21T07:00:00+10:00" : {
		"windSpeed" : 0.8,
		"windDir" : 315,
		"rain" : 0,
		"cloudbase" : 30,
		"flyability" : -0,
		"reason" : "orientationsUnknown, cloudbase",
		"timestamp" :1555790400
		},
	"2019-04-21T10:00:00+10:00" : {
		"windSpeed" : 2.3,
		"windDir" : 41,
		"rain" : 0,
		"cloudbase" : null,
		"flyability" : -50,
		"reason" : "orientationsUnknown",
		"timestamp" :1555801200
		},
	"2019-04-21T13:00:00+10:00" : {
		"windSpeed" : 3.7,
		"windDir" : 52,
		"rain" : 1,
		"cloudbase" : 2900,
		"flyability" : -0,
		"reason" : "orientationsUnknown, rain",
		"timestamp" :1555812000
		},
	"2019-04-21T16:00:00+10:00" : {
		"windSpeed" : 3.5,
		"windDir" : 60,
		"rain" : 1,
		"cloudbase" : null,
		"flyability" : -0,
		"reason" : "orientationsUnknown, rain",
		"timestamp" :1555822800
		},
	"2019-04-21T19:00:00+10:00" : {
		"windSpeed" : 2.4,
		"windDir" : 65,
		"rain" : 0,
		"cloudbase" : null,
		"flyability" : -50,
		"reason" : "orientationsUnknown",
		"timestamp" :1555833600
		},
	"2019-04-21T22:00:00+10:00" : {
		"windSpeed" : 1.3,
		"windDir" : 6,
		"rain" : 0,
		"cloudbase" : 10679.74,
		"flyability" : -50,
		"reason" : "orientationsUnknown",
		"timestamp" :1555844400
		},
	"2019-04-22T01:00:00+10:00" : {
		"windSpeed" : 1.5,
		"windDir" : 326,
		"rain" : 0,
		"cloudbase" : 10173.104,
		"flyability" : -50,
		"reason" : "orientationsUnknown",
		"timestamp" :1555855200
		},
	"2019-04-22T04:00:00+10:00" : {
		"windSpeed" : 1.2,
		"windDir" : 330,
		"rain" : 0,
		"cloudbase" : null,
		"flyability" : -50,
		"reason" : "orientationsUnknown",
		"timestamp" :1555866000
		},
	"2019-04-22T07:00:00+10:00" : {
		"windSpeed" : 1.1,
		"windDir" : 312,
		"rain" : 0,
		"cloudbase" : 9435.948,
		"flyability" : -50,
		"reason" : "orientationsUnknown",
		"timestamp" :1555876800
		},
	"2019-04-22T10:00:00+10:00" : {
		"windSpeed" : 1.7,
		"windDir" : 30,
		"rain" : 0,
		"cloudbase" : 9135.948,
		"flyability" : -50,
		"reason" : "orientationsUnknown",
		"timestamp" :1555887600
		},
	"2019-04-22T13:00:00+10:00" : {
		"windSpeed" : 2.7,
		"windDir" : 49,
		"rain" : 1,
		"cloudbase" : 8835.948,
		"flyability" : -0,
		"reason" : "orientationsUnknown, rain",
		"timestamp" :1555898400
		},
	"2019-04-22T16:00:00+10:00" : {
		"windSpeed" : 2.5,
		"windDir" : 60,
		"rain" : 1,
		"cloudbase" : 8500,
		"flyability" : -0,
		"reason" : "orientationsUnknown, rain",
		"timestamp" :1555909200
		},
	"2019-04-22T19:00:00+10:00" : {
		"windSpeed" : 1.9,
		"windDir" : 49,
		"rain" : 0,
		"cloudbase" : null,
		"flyability" : -50,
		"reason" : "orientationsUnknown",
		"timestamp" :1555920000
		},
	"2019-04-22T22:00:00+10:00" : {
		"windSpeed" : 0.9,
		"windDir" : 352,
		"rain" : 0,
		"cloudbase" : 8140.6479999999,
		"flyability" : -50,
		"reason" : "orientationsUnknown",
		"timestamp" :1555930800
		},
	"2019-04-23T01:00:00+10:00" : {
		"windSpeed" : 0.9,
		"windDir" : 341,
		"rain" : 0,
		"cloudbase" : null,
		"flyability" : -50,
		"reason" : "orientationsUnknown",
		"timestamp" :1555941600
		},
	"2019-04-23T04:00:00+10:00" : {
		"windSpeed" : 1,
		"windDir" : 284,
		"rain" : 0,
		"cloudbase" : 30,
		"flyability" : -0,
		"reason" : "orientationsUnknown, cloudbase",
		"timestamp" :1555952400
		},
	"2019-04-23T07:00:00+10:00" : {
		"windSpeed" : 0.9,
		"windDir" : 288,
		"rain" : 0,
		"cloudbase" : 30,
		"flyability" : -0,
		"reason" : "orientationsUnknown, cloudbase",
		"timestamp" :1555963200
		},
	"2019-04-23T10:00:00+10:00" : {
		"windSpeed" : 0.6,
		"windDir" : 30,
		"rain" : 0,
		"cloudbase" : null,
		"flyability" : -50,
		"reason" : "orientationsUnknown",
		"timestamp" :1555974000
		},
	"2019-04-23T13:00:00+10:00" : {
		"windSpeed" : 1.4,
		"windDir" : 71,
		"rain" : 1,
		"cloudbase" : null,
		"flyability" : -0,
		"reason" : "orientationsUnknown, rain",
		"timestamp" :1555984800
		},
	"2019-04-23T16:00:00+10:00" : {
		"windSpeed" : 2.7,
		"windDir" : 112,
		"rain" : 1,
		"cloudbase" : null,
		"flyability" : -0,
		"reason" : "orientationsUnknown, rain",
		"timestamp" :1555995600
		},
	"2019-04-23T19:00:00+10:00" : {
		"windSpeed" : 1.7,
		"windDir" : 105,
		"rain" : 1,
		"cloudbase" : null,
		"flyability" : -0,
		"reason" : "orientationsUnknown, rain",
		"timestamp" :1556006400
		},
	"2019-04-23T22:00:00+10:00" : {
		"windSpeed" : 0.5,
		"windDir" : 302,
		"rain" : 0,
		"cloudbase" : null,
		"flyability" : -50,
		"reason" : "orientationsUnknown",
		"timestamp" :1556017200
		}
	}
}