{
"site" : "Mark's Launch",
"id" : 17896,
"orientations" : "00000000",
"forecasts" : { 
	"2019-04-18T08:00:00-07:00" : {
		"windSpeed" : 1.3,
		"windDir" : 157,
		"rain" : 0,
		"cloudbase" : null,
		"flyability" : -50,
		"reason" : "orientationsUnknown",
		"timestamp" :1555603200
		},
	"2019-04-18T11:00:00-07:00" : {
		"windSpeed" : 0.8,
		"windDir" : 210,
		"rain" : 0,
		"cloudbase" : null,
		"flyability" : -50,
		"reason" : "orientationsUnknown",
		"timestamp" :1555614000
		},
	"2019-04-18T14:00:00-07:00" : {
		"windSpeed" : 2.1,
		"windDir" : 203,
		"rain" : 0,
		"cloudbase" : 7400,
		"flyability" : -50,
		"reason" : "orientationsUnknown",
		"timestamp" :1555624800
		},
	"2019-04-18T17:00:00-07:00" : {
		"windSpeed" : 3,
		"windDir" : 192,
		"rain" : 0,
		"cloudbase" : null,
		"flyability" : -50,
		"reason" : "orientationsUnknown",
		"timestamp" :1555635600
		},
	"2019-04-18T20:00:00-07:00" : {
		"windSpeed" : 2.7,
		"windDir" : 165,
		"rain" : 0,
		"cloudbase" : null,
		"flyability" : -50,
		"reason" : "orientationsUnknown",
		"timestamp" :1555646400
		},
	"2019-04-18T23:00:00-07:00" : {
		"windSpeed" : 2.7,
		"windDir" : 171,
		"rain" : 0,
		"cloudbase" : null,
		"flyability" : -50,
		"reason" : "orientationsUnknown",
		"timestamp" :1555657200
		},
	"2019-04-19T02:00:00-07:00" : {
		"windSpeed" : 2.4,
		"windDir" : 170,
		"rain" : 0,
		"cloudbase" : null,
		"flyability" : -50,
		"reason" : "orientationsUnknown",
		"timestamp" :1555668000
		},
	"2019-04-19T05:00:00-07:00" : {
		"windSpeed" : 2.4,
		"windDir" : 174,
		"rain" : 0,
		"cloudbase" : null,
		"flyability" : -50,
		"reason" : "orientationsUnknown",
		"timestamp" :1555678800
		},
	"2019-04-19T08:00:00-07:00" : {
		"windSpeed" : 2.9,
		"windDir" : 181,
		"rain" : 0,
		"cloudbase" : null,
		"flyability" : -50,
		"reason" : "orientationsUnknown",
		"timestamp" :1555689600
		},
	"2019-04-19T11:00:00-07:00" : {
		"windSpeed" : 3.7,
		"windDir" : 197,
		"rain" : 0,
		"cloudbase" : null,
		"flyability" : -50,
		"reason" : "orientationsUnknown",
		"timestamp" :1555700400
		},
	"2019-04-19T14:00:00-07:00" : {
		"windSpeed" : 4.5,
		"windDir" : 202,
		"rain" : 0,
		"cloudbase" : 6529.654,
		"flyability" : -50,
		"reason" : "orientationsUnknown",
		"timestamp" :1555711200
		},
	"2019-04-19T17:00:00-07:00" : {
		"windSpeed" : 4.3,
		"windDir" : 233,
		"rain" : 0,
		"cloudbase" : 6946.1,
		"flyability" : -50,
		"reason" : "orientationsUnknown",
		"timestamp" :1555722000
		},
	"2019-04-19T20:00:00-07:00" : {
		"windSpeed" : 2.9,
		"windDir" : 200,
		"rain" : 0,
		"cloudbase" : 6346.1,
		"flyability" : -50,
		"reason" : "orientationsUnknown",
		"timestamp" :1555732800
		},
	"2019-04-19T23:00:00-07:00" : {
		"windSpeed" : 0.9,
		"windDir" : 256,
		"rain" : 1,
		"cloudbase" : 4288.4047999997,
		"flyability" : -0,
		"reason" : "orientationsUnknown, rain",
		"timestamp" :1555743600
		},
	"2019-04-20T02:00:00-07:00" : {
		"windSpeed" : 1.5,
		"windDir" : 197,
		"rain" : 1,
		"cloudbase" : 4438.2075999999,
		"flyability" : -0,
		"reason" : "orientationsUnknown, rain",
		"timestamp" :1555754400
		},
	"2019-04-20T05:00:00-07:00" : {
		"windSpeed" : 1.4,
		"windDir" : 257,
		"rain" : 1,
		"cloudbase" : 424.6339,
		"flyability" : -0,
		"reason" : "orientationsUnknown, rain, cloudbase",
		"timestamp" :1555765200
		},
	"2019-04-20T08:00:00-07:00" : {
		"windSpeed" : 0.7,
		"windDir" : 337,
		"rain" : 1,
		"cloudbase" : 277.14720000002,
		"flyability" : -0,
		"reason" : "orientationsUnknown, rain, cloudbase",
		"timestamp" :1555776000
		},
	"2019-04-20T11:00:00-07:00" : {
		"windSpeed" : 3.9,
		"windDir" : 316,
		"rain" : 1,
		"cloudbase" : 126.91460000001,
		"flyability" : -0,
		"reason" : "orientationsUnknown, rain, cloudbase",
		"timestamp" :1555786800
		},
	"2019-04-20T14:00:00-07:00" : {
		"windSpeed" : 3.3,
		"windDir" : 324,
		"rain" : 1,
		"cloudbase" : 84.407700000006,
		"flyability" : -0,
		"reason" : "orientationsUnknown, rain, cloudbase",
		"timestamp" :1555797600
		},
	"2019-04-20T17:00:00-07:00" : {
		"windSpeed" : 5.5,
		"windDir" : 336,
		"rain" : 1,
		"cloudbase" : 453.26920000001,
		"flyability" : -0,
		"reason" : "windSpeed, orientationsUnknown, rain, cloudbase",
		"timestamp" :1555808400
		},
	"2019-04-20T20:00:00-07:00" : {
		"windSpeed" : 3.9,
		"windDir" : 353,
		"rain" : 1,
		"cloudbase" : 1306.182,
		"flyability" : -0,
		"reason" : "orientationsUnknown, rain, cloudbase",
		"timestamp" :1555819200
		},
	"2019-04-20T23:00:00-07:00" : {
		"windSpeed" : 4,
		"windDir" : 349,
		"rain" : 1,
		"cloudbase" : null,
		"flyability" : -0,
		"reason" : "orientationsUnknown, rain",
		"timestamp" :1555830000
		},
	"2019-04-21T02:00:00-07:00" : {
		"windSpeed" : 3.5,
		"windDir" : 337,
		"rain" : 0,
		"cloudbase" : null,
		"flyability" : -50,
		"reason" : "orientationsUnknown",
		"timestamp" :1555840800
		},
	"2019-04-21T05:00:00-07:00" : {
		"windSpeed" : 2.5,
		"windDir" : 344,
		"rain" : 0,
		"cloudbase" : null,
		"flyability" : -50,
		"reason" : "orientationsUnknown",
		"timestamp" :1555851600
		},
	"2019-04-21T08:00:00-07:00" : {
		"windSpeed" : 2.5,
		"windDir" : 337,
		"rain" : 0,
		"cloudbase" : null,
		"flyability" : -50,
		"reason" : "orientationsUnknown",
		"timestamp" :1555862400
		},
	"2019-04-21T11:00:00-07:00" : {
		"windSpeed" : 3.2,
		"windDir" : 341,
		"rain" : 1,
		"cloudbase" : null,
		"flyability" : -0,
		"reason" : "orientationsUnknown, rain",
		"timestamp" :1555873200
		},
	"2019-04-21T14:00:00-07:00" : {
		"windSpeed" : 4.9,
		"windDir" : 335,
		"rain" : 0,
		"cloudbase" : null,
		"flyability" : -50,
		"reason" : "orientationsUnknown",
		"timestamp" :1555884000
		},
	"2019-04-21T17:00:00-07:00" : {
		"windSpeed" : 4.7,
		"windDir" : 343,
		"rain" : 0,
		"cloudbase" : null,
		"flyability" : -50,
		"reason" : "orientationsUnknown",
		"timestamp" :1555894800
		},
	"2019-04-21T20:00:00-07:00" : {
		"windSpeed" : 3.1,
		"windDir" : 355,
		"rain" : 0,
		"cloudbase" : null,
		"flyability" : -50,
		"reason" : "orientationsUnknown",
		"timestamp" :1555905600
		},
	"2019-04-21T23:00:00-07:00" : {
		"windSpeed" : 1.9,
		"windDir" : 351,
		"rain" : 0,
		"cloudbase" : 7150.423,
		"flyability" : -50,
		"reason" : "orientationsUnknown",
		"timestamp" :1555916400
		},
	"2019-04-22T02:00:00-07:00" : {
		"windSpeed" : 0.6,
		"windDir" : 325,
		"rain" : 0,
		"cloudbase" : null,
		"flyability" : -50,
		"reason" : "orientationsUnknown",
		"timestamp" :1555927200
		},
	"2019-04-22T05:00:00-07:00" : {
		"windSpeed" : 0.4,
		"windDir" : 170,
		"rain" : 0,
		"cloudbase" : null,
		"flyability" : -50,
		"reason" : "orientationsUnknown",
		"timestamp" :1555938000
		},
	"2019-04-22T08:00:00-07:00" : {
		"windSpeed" : 0.6,
		"windDir" : 223,
		"rain" : 0,
		"cloudbase" : 7200,
		"flyability" : -50,
		"reason" : "orientationsUnknown",
		"timestamp" :1555948800
		},
	"2019-04-22T11:00:00-07:00" : {
		"windSpeed" : 1.2,
		"windDir" : 9,
		"rain" : 0,
		"cloudbase" : null,
		"flyability" : -50,
		"reason" : "orientationsUnknown",
		"timestamp" :1555959600
		},
	"2019-04-22T14:00:00-07:00" : {
		"windSpeed" : 2.2,
		"windDir" : 356,
		"rain" : 0,
		"cloudbase" : 6858.223,
		"flyability" : -50,
		"reason" : "orientationsUnknown",
		"timestamp" :1555970400
		},
	"2019-04-22T17:00:00-07:00" : {
		"windSpeed" : 1.6,
		"windDir" : 7,
		"rain" : 0,
		"cloudbase" : 11208.885,
		"flyability" : -50,
		"reason" : "orientationsUnknown",
		"timestamp" :1555981200
		},
	"2019-04-22T20:00:00-07:00" : {
		"windSpeed" : 0.5,
		"windDir" : 166,
		"rain" : 0,
		"cloudbase" : 8497.523,
		"flyability" : -50,
		"reason" : "orientationsUnknown",
		"timestamp" :1555992000
		},
	"2019-04-22T23:00:00-07:00" : {
		"windSpeed" : 0.5,
		"windDir" : 316,
		"rain" : 0,
		"cloudbase" : null,
		"flyability" : -50,
		"reason" : "orientationsUnknown",
		"timestamp" :1556002800
		},
	"2019-04-23T02:00:00-07:00" : {
		"windSpeed" : 0.7,
		"windDir" : 218,
		"rain" : 0,
		"cloudbase" : null,
		"flyability" : -50,
		"reason" : "orientationsUnknown",
		"timestamp" :1556013600
		},
	"2019-04-23T05:00:00-07:00" : {
		"windSpeed" : 1.1,
		"windDir" : 159,
		"rain" : 0,
		"cloudbase" : null,
		"flyability" : -50,
		"reason" : "orientationsUnknown",
		"timestamp" :1556024400
		},
	"2019-04-23T08:00:00-07:00" : {
		"windSpeed" : 0.6,
		"windDir" : 186,
		"rain" : 0,
		"cloudbase" : null,
		"flyability" : -50,
		"reason" : "orientationsUnknown",
		"timestamp" :1556035200
		},
	"2019-04-23T11:00:00-07:00" : {
		"windSpeed" : 0.8,
		"windDir" : 38,
		"rain" : 0,
		"cloudbase" : null,
		"flyability" : -50,
		"reason" : "orientationsUnknown",
		"timestamp" :1556046000
		},
	"2019-04-23T14:00:00-07:00" : {
		"windSpeed" : 1.7,
		"windDir" : 1,
		"rain" : 0,
		"cloudbase" : 9359.2,
		"flyability" : -50,
		"reason" : "orientationsUnknown",
		"timestamp" :1556056800
		},
	"2019-04-23T17:00:00-07:00" : {
		"windSpeed" : 2.4,
		"windDir" : 17,
		"rain" : 0,
		"cloudbase" : 9646.1,
		"flyability" : -50,
		"reason" : "orientationsUnknown",
		"timestamp" :1556067600
		},
	"2019-04-23T20:00:00-07:00" : {
		"windSpeed" : 1.3,
		"windDir" : 131,
		"rain" : 0,
		"cloudbase" : 8587.877,
		"flyability" : -50,
		"reason" : "orientationsUnknown",
		"timestamp" :1556078400
		},
	"2019-04-23T23:00:00-07:00" : {
		"windSpeed" : 2.3,
		"windDir" : 157,
		"rain" : 0,
		"cloudbase" : null,
		"flyability" : -50,
		"reason" : "orientationsUnknown",
		"timestamp" :1556089200
		},
	"2019-04-24T02:00:00-07:00" : {
		"windSpeed" : 1.8,
		"windDir" : 152,
		"rain" : 0,
		"cloudbase" : null,
		"flyability" : -50,
		"reason" : "orientationsUnknown",
		"timestamp" :1556100000
		},
	"2019-04-24T05:00:00-07:00" : {
		"windSpeed" : 1.8,
		"windDir" : 149,
		"rain" : 0,
		"cloudbase" : null,
		"flyability" : -50,
		"reason" : "orientationsUnknown",
		"timestamp" :1556110800
		}
	}
}