{
"site" : "Petite neigette",
"id" : 17975,
"orientations" : "21000122",
"forecasts" : { 
	"2019-04-02T23:00:00-04:00" : {
		"windSpeed" : 4.5,
		"windDir" : 174,
		"rain" : 0,
		"cloudbase" : 5162.4,
		"flyability" : 0,
		"reason" : "windDir",
		"timestamp" :1554264000
		},
	"2019-04-03T02:00:00-04:00" : {
		"windSpeed" : 5.3,
		"windDir" : 172,
		"rain" : 0,
		"cloudbase" : 5075.2,
		"flyability" : 0,
		"reason" : "windSpeed, windDir",
		"timestamp" :1554274800
		},
	"2019-04-03T05:00:00-04:00" : {
		"windSpeed" : 5.8,
		"windDir" : 170,
		"rain" : 0,
		"cloudbase" : 4423.6472,
		"flyability" : 0,
		"reason" : "windSpeed, windDir",
		"timestamp" :1554285600
		},
	"2019-04-03T08:00:00-04:00" : {
		"windSpeed" : 5.7,
		"windDir" : 165,
		"rain" : 0,
		"cloudbase" : 4731.8028,
		"flyability" : 0,
		"reason" : "windSpeed, windDir",
		"timestamp" :1554296400
		},
	"2019-04-03T11:00:00-04:00" : {
		"windSpeed" : 4.9,
		"windDir" : 156,
		"rain" : 0,
		"cloudbase" : 4073.45,
		"flyability" : 0,
		"reason" : "windDir",
		"timestamp" :1554307200
		},
	"2019-04-03T14:00:00-04:00" : {
		"windSpeed" : 4.4,
		"windDir" : 137,
		"rain" : 0,
		"cloudbase" : 3373.6264,
		"flyability" : 0,
		"reason" : "windDir",
		"timestamp" :1554318000
		},
	"2019-04-03T17:00:00-04:00" : {
		"windSpeed" : 2.4,
		"windDir" : 123,
		"rain" : 0,
		"cloudbase" : 1476.7304,
		"flyability" : 0,
		"reason" : "windDir",
		"timestamp" :1554328800
		},
	"2019-04-03T20:00:00-04:00" : {
		"windSpeed" : 1.8,
		"windDir" : 100,
		"rain" : 0,
		"cloudbase" : 2807.7191999999,
		"flyability" : 0,
		"reason" : "windDir",
		"timestamp" :1554339600
		},
	"2019-04-03T23:00:00-04:00" : {
		"windSpeed" : 1.6,
		"windDir" : 259,
		"rain" : 0,
		"cloudbase" : 301.66248,
		"flyability" : 100,
		"reason" : "",
		"timestamp" :1554350400
		},
	"2019-04-04T02:00:00-04:00" : {
		"windSpeed" : 8.5,
		"windDir" : 274,
		"rain" : 0,
		"cloudbase" : 1921.0972,
		"flyability" : 0,
		"reason" : "windSpeed",
		"timestamp" :1554361200
		},
	"2019-04-04T05:00:00-04:00" : {
		"windSpeed" : 9.1,
		"windDir" : 261,
		"rain" : 0,
		"cloudbase" : 4302.9848,
		"flyability" : 0,
		"reason" : "windSpeed",
		"timestamp" :1554372000
		},
	"2019-04-04T08:00:00-04:00" : {
		"windSpeed" : 10.6,
		"windDir" : 261,
		"rain" : 0,
		"cloudbase" : 896.71416,
		"flyability" : 0,
		"reason" : "windSpeed",
		"timestamp" :1554382800
		},
	"2019-04-04T11:00:00-04:00" : {
		"windSpeed" : 9.7,
		"windDir" : 273,
		"rain" : 0,
		"cloudbase" : 1197.2264,
		"flyability" : 0,
		"reason" : "windSpeed",
		"timestamp" :1554393600
		},
	"2019-04-04T14:00:00-04:00" : {
		"windSpeed" : 10,
		"windDir" : 270,
		"rain" : 0,
		"cloudbase" : 1347.25,
		"flyability" : 0,
		"reason" : "windSpeed",
		"timestamp" :1554404400
		},
	"2019-04-04T17:00:00-04:00" : {
		"windSpeed" : 10,
		"windDir" : 273,
		"rain" : 0,
		"cloudbase" : 1497.7192,
		"flyability" : 0,
		"reason" : "windSpeed",
		"timestamp" :1554415200
		},
	"2019-04-04T20:00:00-04:00" : {
		"windSpeed" : 8.6,
		"windDir" : 278,
		"rain" : 0,
		"cloudbase" : 1515.418,
		"flyability" : 0,
		"reason" : "windSpeed",
		"timestamp" :1554426000
		},
	"2019-04-04T23:00:00-04:00" : {
		"windSpeed" : 7.3,
		"windDir" : 286,
		"rain" : 0,
		"cloudbase" : null,
		"flyability" : 0,
		"reason" : "windSpeed",
		"timestamp" :1554436800
		},
	"2019-04-05T02:00:00-04:00" : {
		"windSpeed" : 6.7,
		"windDir" : 285,
		"rain" : 0,
		"cloudbase" : null,
		"flyability" : 0,
		"reason" : "windSpeed",
		"timestamp" :1554447600
		},
	"2019-04-05T05:00:00-04:00" : {
		"windSpeed" : 6.2,
		"windDir" : 286,
		"rain" : 0,
		"cloudbase" : null,
		"flyability" : 0,
		"reason" : "windSpeed",
		"timestamp" :1554458400
		},
	"2019-04-05T08:00:00-04:00" : {
		"windSpeed" : 5.9,
		"windDir" : 282,
		"rain" : 0,
		"cloudbase" : null,
		"flyability" : 0,
		"reason" : "windSpeed",
		"timestamp" :1554469200
		},
	"2019-04-05T11:00:00-04:00" : {
		"windSpeed" : 5,
		"windDir" : 273,
		"rain" : 0,
		"cloudbase" : null,
		"flyability" : 100,
		"reason" : "",
		"timestamp" :1554480000
		},
	"2019-04-05T14:00:00-04:00" : {
		"windSpeed" : 4.6,
		"windDir" : 255,
		"rain" : 0,
		"cloudbase" : null,
		"flyability" : 100,
		"reason" : "",
		"timestamp" :1554490800
		},
	"2019-04-05T17:00:00-04:00" : {
		"windSpeed" : 3.3,
		"windDir" : 244,
		"rain" : 0,
		"cloudbase" : 7447.2528,
		"flyability" : 100,
		"reason" : "",
		"timestamp" :1554501600
		},
	"2019-04-05T20:00:00-04:00" : {
		"windSpeed" : 3.3,
		"windDir" : 180,
		"rain" : 0,
		"cloudbase" : 7372.2335999999,
		"flyability" : 0,
		"reason" : "windDir",
		"timestamp" :1554512400
		},
	"2019-04-05T23:00:00-04:00" : {
		"windSpeed" : 5.2,
		"windDir" : 194,
		"rain" : 0,
		"cloudbase" : 4973.6,
		"flyability" : 0,
		"reason" : "windSpeed, windDir",
		"timestamp" :1554523200
		},
	"2019-04-06T02:00:00-04:00" : {
		"windSpeed" : 4.7,
		"windDir" : 205,
		"rain" : 0,
		"cloudbase" : 2367.9236,
		"flyability" : 100,
		"reason" : "",
		"timestamp" :1554534000
		},
	"2019-04-06T05:00:00-04:00" : {
		"windSpeed" : 4,
		"windDir" : 198,
		"rain" : 0,
		"cloudbase" : 758.87056,
		"flyability" : 0,
		"reason" : "windDir",
		"timestamp" :1554544800
		},
	"2019-04-06T08:00:00-04:00" : {
		"windSpeed" : 3.9,
		"windDir" : 225,
		"rain" : 0,
		"cloudbase" : 1207.59216,
		"flyability" : 100,
		"reason" : "",
		"timestamp" :1554555600
		},
	"2019-04-06T11:00:00-04:00" : {
		"windSpeed" : 4.2,
		"windDir" : 267,
		"rain" : 0,
		"cloudbase" : 1427.9696,
		"flyability" : 100,
		"reason" : "",
		"timestamp" :1554566400
		},
	"2019-04-06T14:00:00-04:00" : {
		"windSpeed" : 5.5,
		"windDir" : 273,
		"rain" : 0,
		"cloudbase" : 1094.46272,
		"flyability" : 0,
		"reason" : "windSpeed",
		"timestamp" :1554577200
		},
	"2019-04-06T17:00:00-04:00" : {
		"windSpeed" : 4.5,
		"windDir" : 264,
		"rain" : 0,
		"cloudbase" : null,
		"flyability" : 100,
		"reason" : "",
		"timestamp" :1554588000
		},
	"2019-04-06T20:00:00-04:00" : {
		"windSpeed" : 3.1,
		"windDir" : 283,
		"rain" : 0,
		"cloudbase" : null,
		"flyability" : 100,
		"reason" : "",
		"timestamp" :1554598800
		},
	"2019-04-06T23:00:00-04:00" : {
		"windSpeed" : 4.2,
		"windDir" : 332,
		"rain" : 0,
		"cloudbase" : null,
		"flyability" : 100,
		"reason" : "",
		"timestamp" :1554609600
		},
	"2019-04-07T02:00:00-04:00" : {
		"windSpeed" : 2.6,
		"windDir" : 319,
		"rain" : 0,
		"cloudbase" : null,
		"flyability" : 100,
		"reason" : "",
		"timestamp" :1554620400
		},
	"2019-04-07T05:00:00-04:00" : {
		"windSpeed" : 2.6,
		"windDir" : 299,
		"rain" : 0,
		"cloudbase" : 4518.1056,
		"flyability" : 100,
		"reason" : "",
		"timestamp" :1554631200
		},
	"2019-04-07T08:00:00-04:00" : {
		"windSpeed" : 3,
		"windDir" : 312,
		"rain" : 0,
		"cloudbase" : null,
		"flyability" : 100,
		"reason" : "",
		"timestamp" :1554642000
		},
	"2019-04-07T11:00:00-04:00" : {
		"windSpeed" : 3.4,
		"windDir" : 318,
		"rain" : 0,
		"cloudbase" : 4994.3292,
		"flyability" : 100,
		"reason" : "",
		"timestamp" :1554652800
		},
	"2019-04-07T14:00:00-04:00" : {
		"windSpeed" : 1.7,
		"windDir" : 333,
		"rain" : 0,
		"cloudbase" : 3920.8472,
		"flyability" : 100,
		"reason" : "",
		"timestamp" :1554663600
		},
	"2019-04-07T17:00:00-04:00" : {
		"windSpeed" : 0.8,
		"windDir" : 70,
		"rain" : 0,
		"cloudbase" : 3710.936,
		"flyability" : 0,
		"reason" : "windDir",
		"timestamp" :1554674400
		},
	"2019-04-07T20:00:00-04:00" : {
		"windSpeed" : 1.8,
		"windDir" : 146,
		"rain" : 0,
		"cloudbase" : 2967.8972,
		"flyability" : 0,
		"reason" : "windDir",
		"timestamp" :1554685200
		},
	"2019-04-07T23:00:00-04:00" : {
		"windSpeed" : 2.4,
		"windDir" : 108,
		"rain" : 0,
		"cloudbase" : 1815.1528,
		"flyability" : 0,
		"reason" : "windDir",
		"timestamp" :1554696000
		},
	"2019-04-08T02:00:00-04:00" : {
		"windSpeed" : 2.5,
		"windDir" : 114,
		"rain" : 0,
		"cloudbase" : 1444.4,
		"flyability" : 0,
		"reason" : "windDir",
		"timestamp" :1554706800
		},
	"2019-04-08T05:00:00-04:00" : {
		"windSpeed" : 3.6,
		"windDir" : 102,
		"rain" : 0,
		"cloudbase" : 1218,
		"flyability" : 0,
		"reason" : "windDir",
		"timestamp" :1554717600
		},
	"2019-04-08T08:00:00-04:00" : {
		"windSpeed" : 3.6,
		"windDir" : 106,
		"rain" : 0,
		"cloudbase" : 1023.6,
		"flyability" : 0,
		"reason" : "windDir",
		"timestamp" :1554728400
		},
	"2019-04-08T11:00:00-04:00" : {
		"windSpeed" : 4.1,
		"windDir" : 102,
		"rain" : 0,
		"cloudbase" : 1199.95,
		"flyability" : 0,
		"reason" : "windDir",
		"timestamp" :1554739200
		},
	"2019-04-08T14:00:00-04:00" : {
		"windSpeed" : 3.7,
		"windDir" : 90,
		"rain" : 0,
		"cloudbase" : 919.99096000002,
		"flyability" : 0,
		"reason" : "windDir",
		"timestamp" :1554750000
		},
	"2019-04-08T17:00:00-04:00" : {
		"windSpeed" : 4,
		"windDir" : 98,
		"rain" : 1,
		"cloudbase" : 1147.15,
		"flyability" : 0,
		"reason" : "windDir, rain",
		"timestamp" :1554760800
		},
	"2019-04-08T20:00:00-04:00" : {
		"windSpeed" : 5,
		"windDir" : 108,
		"rain" : 1,
		"cloudbase" : 948.33056,
		"flyability" : 0,
		"reason" : "windDir, rain",
		"timestamp" :1554771600
		}
	}
}