{
"site" : "Fontanamare",
"id" : 18010,
"orientations" : "00002200",
"forecasts" : { 
	"2019-04-18T05:00:00+02:00" : {
		"windSpeed" : 5.7,
		"windDir" : 88,
		"rain" : 0,
		"cloudbase" : 10500,
		"flyability" : 0,
		"reason" : "windSpeed, windDir",
		"timestamp" :1555560000
		},
	"2019-04-18T08:00:00+02:00" : {
		"windSpeed" : 7.4,
		"windDir" : 85,
		"rain" : 0,
		"cloudbase" : 10030.5,
		"flyability" : 0,
		"reason" : "windSpeed, windDir",
		"timestamp" :1555570800
		},
	"2019-04-18T11:00:00+02:00" : {
		"windSpeed" : 8.3,
		"windDir" : 96,
		"rain" : 0,
		"cloudbase" : 9962.7217,
		"flyability" : 0,
		"reason" : "windSpeed, windDir",
		"timestamp" :1555581600
		},
	"2019-04-18T14:00:00+02:00" : {
		"windSpeed" : 8.9,
		"windDir" : 100,
		"rain" : 0,
		"cloudbase" : 9078.6,
		"flyability" : 0,
		"reason" : "windSpeed, windDir",
		"timestamp" :1555592400
		},
	"2019-04-18T17:00:00+02:00" : {
		"windSpeed" : 9.1,
		"windDir" : 98,
		"rain" : 0,
		"cloudbase" : 8762.7217,
		"flyability" : 0,
		"reason" : "windSpeed, windDir",
		"timestamp" :1555603200
		},
	"2019-04-18T20:00:00+02:00" : {
		"windSpeed" : 9.1,
		"windDir" : 92,
		"rain" : 0,
		"cloudbase" : 10570.5906,
		"flyability" : 0,
		"reason" : "windSpeed, windDir",
		"timestamp" :1555614000
		},
	"2019-04-18T23:00:00+02:00" : {
		"windSpeed" : 9.3,
		"windDir" : 91,
		"rain" : 0,
		"cloudbase" : null,
		"flyability" : 0,
		"reason" : "windSpeed, windDir",
		"timestamp" :1555624800
		},
	"2019-04-19T02:00:00+02:00" : {
		"windSpeed" : 9.1,
		"windDir" : 94,
		"rain" : 0,
		"cloudbase" : 9699.6348999999,
		"flyability" : 0,
		"reason" : "windSpeed, windDir",
		"timestamp" :1555635600
		},
	"2019-04-19T05:00:00+02:00" : {
		"windSpeed" : 9.6,
		"windDir" : 95,
		"rain" : 0,
		"cloudbase" : 6865.9433999999,
		"flyability" : 0,
		"reason" : "windSpeed, windDir",
		"timestamp" :1555646400
		},
	"2019-04-19T08:00:00+02:00" : {
		"windSpeed" : 9.1,
		"windDir" : 94,
		"rain" : 0,
		"cloudbase" : 5849.2651,
		"flyability" : 0,
		"reason" : "windSpeed, windDir",
		"timestamp" :1555657200
		},
	"2019-04-19T11:00:00+02:00" : {
		"windSpeed" : 9.8,
		"windDir" : 103,
		"rain" : 0,
		"cloudbase" : null,
		"flyability" : 0,
		"reason" : "windSpeed, windDir",
		"timestamp" :1555668000
		},
	"2019-04-19T14:00:00+02:00" : {
		"windSpeed" : 10.4,
		"windDir" : 105,
		"rain" : 0,
		"cloudbase" : 11500,
		"flyability" : 0,
		"reason" : "windSpeed, windDir",
		"timestamp" :1555678800
		},
	"2019-04-19T17:00:00+02:00" : {
		"windSpeed" : 10.1,
		"windDir" : 99,
		"rain" : 0,
		"cloudbase" : 11283.1085,
		"flyability" : 0,
		"reason" : "windSpeed, windDir",
		"timestamp" :1555689600
		},
	"2019-04-19T20:00:00+02:00" : {
		"windSpeed" : 9.3,
		"windDir" : 96,
		"rain" : 0,
		"cloudbase" : null,
		"flyability" : 0,
		"reason" : "windSpeed, windDir",
		"timestamp" :1555700400
		},
	"2019-04-19T23:00:00+02:00" : {
		"windSpeed" : 8.7,
		"windDir" : 99,
		"rain" : 0,
		"cloudbase" : 8155.3651,
		"flyability" : 0,
		"reason" : "windSpeed, windDir",
		"timestamp" :1555711200
		},
	"2019-04-20T02:00:00+02:00" : {
		"windSpeed" : 8.9,
		"windDir" : 99,
		"rain" : 0,
		"cloudbase" : 8654.6085000009,
		"flyability" : 0,
		"reason" : "windSpeed, windDir",
		"timestamp" :1555722000
		},
	"2019-04-20T05:00:00+02:00" : {
		"windSpeed" : 9.2,
		"windDir" : 99,
		"rain" : 0,
		"cloudbase" : 5937.2783,
		"flyability" : 0,
		"reason" : "windSpeed, windDir",
		"timestamp" :1555732800
		},
	"2019-04-20T08:00:00+02:00" : {
		"windSpeed" : 9.6,
		"windDir" : 97,
		"rain" : 0,
		"cloudbase" : 6515.8783,
		"flyability" : 0,
		"reason" : "windSpeed, windDir",
		"timestamp" :1555743600
		},
	"2019-04-20T11:00:00+02:00" : {
		"windSpeed" : 10.6,
		"windDir" : 99,
		"rain" : 0,
		"cloudbase" : 7275.9131999999,
		"flyability" : 0,
		"reason" : "windSpeed, windDir",
		"timestamp" :1555754400
		},
	"2019-04-20T14:00:00+02:00" : {
		"windSpeed" : 10.9,
		"windDir" : 101,
		"rain" : 0,
		"cloudbase" : 5337.6434,
		"flyability" : 0,
		"reason" : "windSpeed, windDir",
		"timestamp" :1555765200
		},
	"2019-04-20T17:00:00+02:00" : {
		"windSpeed" : 12.1,
		"windDir" : 98,
		"rain" : 0,
		"cloudbase" : 5712.2,
		"flyability" : 0,
		"reason" : "windSpeed, windDir",
		"timestamp" :1555776000
		},
	"2019-04-20T20:00:00+02:00" : {
		"windSpeed" : 10.6,
		"windDir" : 98,
		"rain" : 0,
		"cloudbase" : 6200,
		"flyability" : 0,
		"reason" : "windSpeed, windDir",
		"timestamp" :1555786800
		},
	"2019-04-20T23:00:00+02:00" : {
		"windSpeed" : 10.6,
		"windDir" : 104,
		"rain" : 0,
		"cloudbase" : 8162.7217,
		"flyability" : 0,
		"reason" : "windSpeed, windDir",
		"timestamp" :1555797600
		},
	"2019-04-21T02:00:00+02:00" : {
		"windSpeed" : 10.3,
		"windDir" : 101,
		"rain" : 0,
		"cloudbase" : 7862.7217,
		"flyability" : 0,
		"reason" : "windSpeed, windDir",
		"timestamp" :1555808400
		},
	"2019-04-21T05:00:00+02:00" : {
		"windSpeed" : 11.1,
		"windDir" : 96,
		"rain" : 0,
		"cloudbase" : 10453.9877,
		"flyability" : 0,
		"reason" : "windSpeed, windDir",
		"timestamp" :1555819200
		},
	"2019-04-21T08:00:00+02:00" : {
		"windSpeed" : 11.8,
		"windDir" : 100,
		"rain" : 0,
		"cloudbase" : 10000,
		"flyability" : 0,
		"reason" : "windSpeed, windDir",
		"timestamp" :1555830000
		},
	"2019-04-21T11:00:00+02:00" : {
		"windSpeed" : 12.9,
		"windDir" : 103,
		"rain" : 0,
		"cloudbase" : 10018.3915,
		"flyability" : 0,
		"reason" : "windSpeed, windDir",
		"timestamp" :1555840800
		},
	"2019-04-21T14:00:00+02:00" : {
		"windSpeed" : 13.4,
		"windDir" : 104,
		"rain" : 0,
		"cloudbase" : 10018.3915,
		"flyability" : 0,
		"reason" : "windSpeed, windDir",
		"timestamp" :1555851600
		},
	"2019-04-21T17:00:00+02:00" : {
		"windSpeed" : 12.8,
		"windDir" : 101,
		"rain" : 0,
		"cloudbase" : 9213.2434000001,
		"flyability" : 0,
		"reason" : "windSpeed, windDir",
		"timestamp" :1555862400
		},
	"2019-04-21T20:00:00+02:00" : {
		"windSpeed" : 10.9,
		"windDir" : 95,
		"rain" : 0,
		"cloudbase" : 7562.7217,
		"flyability" : 0,
		"reason" : "windSpeed, windDir",
		"timestamp" :1555873200
		},
	"2019-04-21T23:00:00+02:00" : {
		"windSpeed" : 11.2,
		"windDir" : 94,
		"rain" : 0,
		"cloudbase" : 9600,
		"flyability" : 0,
		"reason" : "windSpeed, windDir",
		"timestamp" :1555884000
		},
	"2019-04-22T02:00:00+02:00" : {
		"windSpeed" : 10.4,
		"windDir" : 97,
		"rain" : 0,
		"cloudbase" : null,
		"flyability" : 0,
		"reason" : "windSpeed, windDir",
		"timestamp" :1555894800
		},
	"2019-04-22T05:00:00+02:00" : {
		"windSpeed" : 11.6,
		"windDir" : 86,
		"rain" : 0,
		"cloudbase" : null,
		"flyability" : 0,
		"reason" : "windSpeed, windDir",
		"timestamp" :1555905600
		},
	"2019-04-22T08:00:00+02:00" : {
		"windSpeed" : 12.8,
		"windDir" : 86,
		"rain" : 0,
		"cloudbase" : null,
		"flyability" : 0,
		"reason" : "windSpeed, windDir",
		"timestamp" :1555916400
		},
	"2019-04-22T11:00:00+02:00" : {
		"windSpeed" : 12.7,
		"windDir" : 98,
		"rain" : 0,
		"cloudbase" : null,
		"flyability" : 0,
		"reason" : "windSpeed, windDir",
		"timestamp" :1555927200
		},
	"2019-04-22T14:00:00+02:00" : {
		"windSpeed" : 9.5,
		"windDir" : 104,
		"rain" : 0,
		"cloudbase" : null,
		"flyability" : 0,
		"reason" : "windSpeed, windDir",
		"timestamp" :1555938000
		},
	"2019-04-22T17:00:00+02:00" : {
		"windSpeed" : 5.8,
		"windDir" : 188,
		"rain" : 0,
		"cloudbase" : null,
		"flyability" : 0,
		"reason" : "windSpeed",
		"timestamp" :1555948800
		},
	"2019-04-22T20:00:00+02:00" : {
		"windSpeed" : 0.6,
		"windDir" : 167,
		"rain" : 0,
		"cloudbase" : null,
		"flyability" : 100,
		"reason" : "",
		"timestamp" :1555959600
		},
	"2019-04-22T23:00:00+02:00" : {
		"windSpeed" : 2.1,
		"windDir" : 174,
		"rain" : 1,
		"cloudbase" : 3847.7576600015,
		"flyability" : 0,
		"reason" : "rain",
		"timestamp" :1555970400
		},
	"2019-04-23T02:00:00+02:00" : {
		"windSpeed" : 3.3,
		"windDir" : 199,
		"rain" : 1,
		"cloudbase" : 240.08069500006,
		"flyability" : 0,
		"reason" : "rain",
		"timestamp" :1555981200
		},
	"2019-04-23T05:00:00+02:00" : {
		"windSpeed" : 3.7,
		"windDir" : 219,
		"rain" : 1,
		"cloudbase" : 500,
		"flyability" : 0,
		"reason" : "rain",
		"timestamp" :1555992000
		},
	"2019-04-23T08:00:00+02:00" : {
		"windSpeed" : 4.1,
		"windDir" : 222,
		"rain" : 1,
		"cloudbase" : null,
		"flyability" : 0,
		"reason" : "rain",
		"timestamp" :1556002800
		},
	"2019-04-23T11:00:00+02:00" : {
		"windSpeed" : 4.7,
		"windDir" : 220,
		"rain" : 1,
		"cloudbase" : null,
		"flyability" : 0,
		"reason" : "rain",
		"timestamp" :1556013600
		},
	"2019-04-23T14:00:00+02:00" : {
		"windSpeed" : 4.3,
		"windDir" : 229,
		"rain" : 1,
		"cloudbase" : null,
		"flyability" : 0,
		"reason" : "rain",
		"timestamp" :1556024400
		},
	"2019-04-23T17:00:00+02:00" : {
		"windSpeed" : 3.8,
		"windDir" : 210,
		"rain" : 1,
		"cloudbase" : null,
		"flyability" : 0,
		"reason" : "rain",
		"timestamp" :1556035200
		},
	"2019-04-23T20:00:00+02:00" : {
		"windSpeed" : 1.4,
		"windDir" : 155,
		"rain" : 1,
		"cloudbase" : null,
		"flyability" : 0,
		"reason" : "windDir, rain",
		"timestamp" :1556046000
		},
	"2019-04-23T23:00:00+02:00" : {
		"windSpeed" : 2.9,
		"windDir" : 81,
		"rain" : 0,
		"cloudbase" : null,
		"flyability" : 0,
		"reason" : "windDir",
		"timestamp" :1556056800
		},
	"2019-04-24T02:00:00+02:00" : {
		"windSpeed" : 3.3,
		"windDir" : 97,
		"rain" : 0,
		"cloudbase" : 9862.7217,
		"flyability" : 0,
		"reason" : "windDir",
		"timestamp" :1556067600
		}
	}
}