{
"site" : "Rocca Vautero (Roletto)",
"id" : 18218,
"orientations" : "00000000",
"forecasts" : { 
	"2019-04-18T05:00:00+02:00" : {
		"windSpeed" : 1.1,
		"windDir" : 297,
		"rain" : 0,
		"cloudbase" : 7971.4824999998,
		"flyability" : -50,
		"reason" : "orientationsUnknown",
		"timestamp" :1555560000
		},
	"2019-04-18T08:00:00+02:00" : {
		"windSpeed" : 0.6,
		"windDir" : 305,
		"rain" : 0,
		"cloudbase" : null,
		"flyability" : -50,
		"reason" : "orientationsUnknown",
		"timestamp" :1555570800
		},
	"2019-04-18T11:00:00+02:00" : {
		"windSpeed" : 1.4,
		"windDir" : 47,
		"rain" : 0,
		"cloudbase" : 1500,
		"flyability" : -50,
		"reason" : "orientationsUnknown",
		"timestamp" :1555581600
		},
	"2019-04-18T14:00:00+02:00" : {
		"windSpeed" : 2.1,
		"windDir" : 79,
		"rain" : 1,
		"cloudbase" : 5024.7349999991,
		"flyability" : -0,
		"reason" : "orientationsUnknown, rain",
		"timestamp" :1555592400
		},
	"2019-04-18T17:00:00+02:00" : {
		"windSpeed" : 1.4,
		"windDir" : 48,
		"rain" : 0,
		"cloudbase" : 8066.7849999996,
		"flyability" : -50,
		"reason" : "orientationsUnknown",
		"timestamp" :1555603200
		},
	"2019-04-18T20:00:00+02:00" : {
		"windSpeed" : 1,
		"windDir" : 27,
		"rain" : 0,
		"cloudbase" : 8100,
		"flyability" : -50,
		"reason" : "orientationsUnknown",
		"timestamp" :1555614000
		},
	"2019-04-18T23:00:00+02:00" : {
		"windSpeed" : 1.4,
		"windDir" : 309,
		"rain" : 1,
		"cloudbase" : 1582.09375,
		"flyability" : -0,
		"reason" : "orientationsUnknown, rain",
		"timestamp" :1555624800
		},
	"2019-04-19T02:00:00+02:00" : {
		"windSpeed" : 1.3,
		"windDir" : 318,
		"rain" : 1,
		"cloudbase" : 1477.7274999999,
		"flyability" : -0,
		"reason" : "orientationsUnknown, rain",
		"timestamp" :1555635600
		},
	"2019-04-19T05:00:00+02:00" : {
		"windSpeed" : 1.5,
		"windDir" : 294,
		"rain" : 1,
		"cloudbase" : 1990.7662499998,
		"flyability" : -0,
		"reason" : "orientationsUnknown, rain",
		"timestamp" :1555646400
		},
	"2019-04-19T08:00:00+02:00" : {
		"windSpeed" : 1.6,
		"windDir" : 295,
		"rain" : 0,
		"cloudbase" : 1300,
		"flyability" : -50,
		"reason" : "orientationsUnknown",
		"timestamp" :1555657200
		},
	"2019-04-19T11:00:00+02:00" : {
		"windSpeed" : 1.2,
		"windDir" : 87,
		"rain" : 1,
		"cloudbase" : 1200,
		"flyability" : -0,
		"reason" : "orientationsUnknown, rain",
		"timestamp" :1555668000
		},
	"2019-04-19T14:00:00+02:00" : {
		"windSpeed" : 1,
		"windDir" : 131,
		"rain" : 0,
		"cloudbase" : 1200,
		"flyability" : -50,
		"reason" : "orientationsUnknown",
		"timestamp" :1555678800
		},
	"2019-04-19T17:00:00+02:00" : {
		"windSpeed" : 1.1,
		"windDir" : 145,
		"rain" : 0,
		"cloudbase" : 1676.5712499999,
		"flyability" : -50,
		"reason" : "orientationsUnknown",
		"timestamp" :1555689600
		},
	"2019-04-19T20:00:00+02:00" : {
		"windSpeed" : 0.8,
		"windDir" : 166,
		"rain" : 0,
		"cloudbase" : null,
		"flyability" : -50,
		"reason" : "orientationsUnknown",
		"timestamp" :1555700400
		},
	"2019-04-19T23:00:00+02:00" : {
		"windSpeed" : 0.5,
		"windDir" : 291,
		"rain" : 0,
		"cloudbase" : null,
		"flyability" : -50,
		"reason" : "orientationsUnknown",
		"timestamp" :1555711200
		},
	"2019-04-20T02:00:00+02:00" : {
		"windSpeed" : 1.4,
		"windDir" : 293,
		"rain" : 0,
		"cloudbase" : null,
		"flyability" : -50,
		"reason" : "orientationsUnknown",
		"timestamp" :1555722000
		},
	"2019-04-20T05:00:00+02:00" : {
		"windSpeed" : 1.5,
		"windDir" : 289,
		"rain" : 0,
		"cloudbase" : null,
		"flyability" : -50,
		"reason" : "orientationsUnknown",
		"timestamp" :1555732800
		},
	"2019-04-20T08:00:00+02:00" : {
		"windSpeed" : 1.7,
		"windDir" : 287,
		"rain" : 0,
		"cloudbase" : null,
		"flyability" : -50,
		"reason" : "orientationsUnknown",
		"timestamp" :1555743600
		},
	"2019-04-20T11:00:00+02:00" : {
		"windSpeed" : 1.8,
		"windDir" : 55,
		"rain" : 0,
		"cloudbase" : null,
		"flyability" : -50,
		"reason" : "orientationsUnknown",
		"timestamp" :1555754400
		},
	"2019-04-20T14:00:00+02:00" : {
		"windSpeed" : 2.3,
		"windDir" : 57,
		"rain" : 0,
		"cloudbase" : null,
		"flyability" : -50,
		"reason" : "orientationsUnknown",
		"timestamp" :1555765200
		},
	"2019-04-20T17:00:00+02:00" : {
		"windSpeed" : 2,
		"windDir" : 39,
		"rain" : 0,
		"cloudbase" : 2400,
		"flyability" : -50,
		"reason" : "orientationsUnknown",
		"timestamp" :1555776000
		},
	"2019-04-20T20:00:00+02:00" : {
		"windSpeed" : 1.1,
		"windDir" : 356,
		"rain" : 0,
		"cloudbase" : null,
		"flyability" : -50,
		"reason" : "orientationsUnknown",
		"timestamp" :1555786800
		},
	"2019-04-20T23:00:00+02:00" : {
		"windSpeed" : 1.5,
		"windDir" : 326,
		"rain" : 0,
		"cloudbase" : 6369.7937500004,
		"flyability" : -50,
		"reason" : "orientationsUnknown",
		"timestamp" :1555797600
		},
	"2019-04-21T02:00:00+02:00" : {
		"windSpeed" : 1.1,
		"windDir" : 297,
		"rain" : 0,
		"cloudbase" : 7525.5024999999,
		"flyability" : -50,
		"reason" : "orientationsUnknown",
		"timestamp" :1555808400
		},
	"2019-04-21T05:00:00+02:00" : {
		"windSpeed" : 1.1,
		"windDir" : 297,
		"rain" : 0,
		"cloudbase" : 6275.4499999999,
		"flyability" : -50,
		"reason" : "orientationsUnknown",
		"timestamp" :1555819200
		},
	"2019-04-21T08:00:00+02:00" : {
		"windSpeed" : 1.2,
		"windDir" : 294,
		"rain" : 0,
		"cloudbase" : 5204.9474999999,
		"flyability" : -50,
		"reason" : "orientationsUnknown",
		"timestamp" :1555830000
		},
	"2019-04-21T11:00:00+02:00" : {
		"windSpeed" : 1.2,
		"windDir" : 69,
		"rain" : 0,
		"cloudbase" : 3926.8024999999,
		"flyability" : -50,
		"reason" : "orientationsUnknown",
		"timestamp" :1555840800
		},
	"2019-04-21T14:00:00+02:00" : {
		"windSpeed" : 1,
		"windDir" : 6,
		"rain" : 0,
		"cloudbase" : 3927.3737499999,
		"flyability" : -50,
		"reason" : "orientationsUnknown",
		"timestamp" :1555851600
		},
	"2019-04-21T17:00:00+02:00" : {
		"windSpeed" : 2.1,
		"windDir" : 26,
		"rain" : 0,
		"cloudbase" : 4328.9337500004,
		"flyability" : -50,
		"reason" : "orientationsUnknown",
		"timestamp" :1555862400
		},
	"2019-04-21T20:00:00+02:00" : {
		"windSpeed" : 1.3,
		"windDir" : 312,
		"rain" : 0,
		"cloudbase" : null,
		"flyability" : -50,
		"reason" : "orientationsUnknown",
		"timestamp" :1555873200
		},
	"2019-04-21T23:00:00+02:00" : {
		"windSpeed" : 1,
		"windDir" : 294,
		"rain" : 0,
		"cloudbase" : 9480.1524999999,
		"flyability" : -50,
		"reason" : "orientationsUnknown",
		"timestamp" :1555884000
		},
	"2019-04-22T02:00:00+02:00" : {
		"windSpeed" : 1.2,
		"windDir" : 315,
		"rain" : 0,
		"cloudbase" : 6008.1987500004,
		"flyability" : -50,
		"reason" : "orientationsUnknown",
		"timestamp" :1555894800
		},
	"2019-04-22T05:00:00+02:00" : {
		"windSpeed" : 1.3,
		"windDir" : 343,
		"rain" : 1,
		"cloudbase" : 2745.6462499996,
		"flyability" : -0,
		"reason" : "orientationsUnknown, rain",
		"timestamp" :1555905600
		},
	"2019-04-22T08:00:00+02:00" : {
		"windSpeed" : 0.9,
		"windDir" : 297,
		"rain" : 1,
		"cloudbase" : 1634.1362499999,
		"flyability" : -0,
		"reason" : "orientationsUnknown, rain",
		"timestamp" :1555916400
		},
	"2019-04-22T11:00:00+02:00" : {
		"windSpeed" : 1.6,
		"windDir" : 39,
		"rain" : 0,
		"cloudbase" : null,
		"flyability" : -50,
		"reason" : "orientationsUnknown",
		"timestamp" :1555927200
		},
	"2019-04-22T14:00:00+02:00" : {
		"windSpeed" : 2.9,
		"windDir" : 48,
		"rain" : 0,
		"cloudbase" : null,
		"flyability" : -50,
		"reason" : "orientationsUnknown",
		"timestamp" :1555938000
		},
	"2019-04-22T17:00:00+02:00" : {
		"windSpeed" : 3.6,
		"windDir" : 34,
		"rain" : 0,
		"cloudbase" : 2000,
		"flyability" : -50,
		"reason" : "orientationsUnknown",
		"timestamp" :1555948800
		},
	"2019-04-22T20:00:00+02:00" : {
		"windSpeed" : 1.6,
		"windDir" : 45,
		"rain" : 1,
		"cloudbase" : 5211.0525000002,
		"flyability" : -0,
		"reason" : "orientationsUnknown, rain",
		"timestamp" :1555959600
		},
	"2019-04-22T23:00:00+02:00" : {
		"windSpeed" : 2.9,
		"windDir" : 344,
		"rain" : 1,
		"cloudbase" : 2178.92625,
		"flyability" : -0,
		"reason" : "orientationsUnknown, rain",
		"timestamp" :1555970400
		},
	"2019-04-23T02:00:00+02:00" : {
		"windSpeed" : 2.2,
		"windDir" : 334,
		"rain" : 1,
		"cloudbase" : 1219.86125,
		"flyability" : -0,
		"reason" : "orientationsUnknown, rain",
		"timestamp" :1555981200
		},
	"2019-04-23T05:00:00+02:00" : {
		"windSpeed" : 2.7,
		"windDir" : 298,
		"rain" : 1,
		"cloudbase" : 811.05524999996,
		"flyability" : -0,
		"reason" : "orientationsUnknown, rain",
		"timestamp" :1555992000
		},
	"2019-04-23T08:00:00+02:00" : {
		"windSpeed" : 2.3,
		"windDir" : 299,
		"rain" : 1,
		"cloudbase" : 817.57349999995,
		"flyability" : -0,
		"reason" : "orientationsUnknown, rain",
		"timestamp" :1556002800
		},
	"2019-04-23T11:00:00+02:00" : {
		"windSpeed" : 2.3,
		"windDir" : 306,
		"rain" : 1,
		"cloudbase" : 825.63224999996,
		"flyability" : -0,
		"reason" : "orientationsUnknown, rain",
		"timestamp" :1556013600
		},
	"2019-04-23T14:00:00+02:00" : {
		"windSpeed" : 2.4,
		"windDir" : 322,
		"rain" : 1,
		"cloudbase" : 790.12949999997,
		"flyability" : -0,
		"reason" : "orientationsUnknown, rain, cloudbase",
		"timestamp" :1556024400
		},
	"2019-04-23T17:00:00+02:00" : {
		"windSpeed" : 1.9,
		"windDir" : 337,
		"rain" : 1,
		"cloudbase" : 937.82299999995,
		"flyability" : -0,
		"reason" : "orientationsUnknown, rain",
		"timestamp" :1556035200
		},
	"2019-04-23T20:00:00+02:00" : {
		"windSpeed" : 1.1,
		"windDir" : 280,
		"rain" : 1,
		"cloudbase" : 923.32449999996,
		"flyability" : -0,
		"reason" : "orientationsUnknown, rain",
		"timestamp" :1556046000
		},
	"2019-04-23T23:00:00+02:00" : {
		"windSpeed" : 1,
		"windDir" : 270,
		"rain" : 1,
		"cloudbase" : 846.49574999997,
		"flyability" : -0,
		"reason" : "orientationsUnknown, rain",
		"timestamp" :1556056800
		},
	"2019-04-24T02:00:00+02:00" : {
		"windSpeed" : 0.7,
		"windDir" : 315,
		"rain" : 1,
		"cloudbase" : 953.79749999996,
		"flyability" : -0,
		"reason" : "orientationsUnknown, rain",
		"timestamp" :1556067600
		}
	}
}