{
"site" : "North Stradbroke- Mainbeach",
"id" : 18220,
"orientations" : "00000000",
"forecasts" : { 
	"2019-04-21T13:00:00+10:00" : {
		"windSpeed" : 7.4,
		"windDir" : 120,
		"rain" : 1,
		"cloudbase" : null,
		"flyability" : -0,
		"reason" : "windSpeed, orientationsUnknown, rain",
		"timestamp" :1555812000
		},
	"2019-04-21T16:00:00+10:00" : {
		"windSpeed" : 8.2,
		"windDir" : 121,
		"rain" : 0,
		"cloudbase" : 2350,
		"flyability" : -0,
		"reason" : "windSpeed, orientationsUnknown",
		"timestamp" :1555822800
		},
	"2019-04-21T19:00:00+10:00" : {
		"windSpeed" : 7.1,
		"windDir" : 122,
		"rain" : 1,
		"cloudbase" : null,
		"flyability" : -0,
		"reason" : "windSpeed, orientationsUnknown, rain",
		"timestamp" :1555833600
		},
	"2019-04-21T22:00:00+10:00" : {
		"windSpeed" : 7.6,
		"windDir" : 120,
		"rain" : 1,
		"cloudbase" : null,
		"flyability" : -0,
		"reason" : "windSpeed, orientationsUnknown, rain",
		"timestamp" :1555844400
		},
	"2019-04-22T01:00:00+10:00" : {
		"windSpeed" : 6.8,
		"windDir" : 117,
		"rain" : 1,
		"cloudbase" : 2550,
		"flyability" : -0,
		"reason" : "windSpeed, orientationsUnknown, rain",
		"timestamp" :1555855200
		},
	"2019-04-22T04:00:00+10:00" : {
		"windSpeed" : 7,
		"windDir" : 107,
		"rain" : 1,
		"cloudbase" : 11000,
		"flyability" : -0,
		"reason" : "windSpeed, orientationsUnknown, rain",
		"timestamp" :1555866000
		},
	"2019-04-22T07:00:00+10:00" : {
		"windSpeed" : 7.5,
		"windDir" : 112,
		"rain" : 0,
		"cloudbase" : 11132.5,
		"flyability" : -0,
		"reason" : "windSpeed, orientationsUnknown",
		"timestamp" :1555876800
		},
	"2019-04-22T10:00:00+10:00" : {
		"windSpeed" : 7.2,
		"windDir" : 116,
		"rain" : 0,
		"cloudbase" : 10000,
		"flyability" : -0,
		"reason" : "windSpeed, orientationsUnknown",
		"timestamp" :1555887600
		},
	"2019-04-22T13:00:00+10:00" : {
		"windSpeed" : 7.2,
		"windDir" : 124,
		"rain" : 1,
		"cloudbase" : 10000,
		"flyability" : -0,
		"reason" : "windSpeed, orientationsUnknown, rain",
		"timestamp" :1555898400
		},
	"2019-04-22T16:00:00+10:00" : {
		"windSpeed" : 6.8,
		"windDir" : 118,
		"rain" : 1,
		"cloudbase" : 10070,
		"flyability" : -0,
		"reason" : "windSpeed, orientationsUnknown, rain",
		"timestamp" :1555909200
		},
	"2019-04-22T19:00:00+10:00" : {
		"windSpeed" : 6.4,
		"windDir" : 120,
		"rain" : 1,
		"cloudbase" : 3386.9999999976,
		"flyability" : -0,
		"reason" : "windSpeed, orientationsUnknown, rain",
		"timestamp" :1555920000
		},
	"2019-04-22T22:00:00+10:00" : {
		"windSpeed" : 6.4,
		"windDir" : 121,
		"rain" : 1,
		"cloudbase" : 9541.0000000003,
		"flyability" : -0,
		"reason" : "windSpeed, orientationsUnknown, rain",
		"timestamp" :1555930800
		},
	"2019-04-23T01:00:00+10:00" : {
		"windSpeed" : 6.2,
		"windDir" : 116,
		"rain" : 0,
		"cloudbase" : null,
		"flyability" : -0,
		"reason" : "windSpeed, orientationsUnknown",
		"timestamp" :1555941600
		},
	"2019-04-23T04:00:00+10:00" : {
		"windSpeed" : 6.3,
		"windDir" : 120,
		"rain" : 0,
		"cloudbase" : 7200,
		"flyability" : -0,
		"reason" : "windSpeed, orientationsUnknown",
		"timestamp" :1555952400
		},
	"2019-04-23T07:00:00+10:00" : {
		"windSpeed" : 6.7,
		"windDir" : 118,
		"rain" : 0,
		"cloudbase" : 8569.4999999999,
		"flyability" : -0,
		"reason" : "windSpeed, orientationsUnknown",
		"timestamp" :1555963200
		},
	"2019-04-23T10:00:00+10:00" : {
		"windSpeed" : 6.9,
		"windDir" : 122,
		"rain" : 0,
		"cloudbase" : 8726.4999999999,
		"flyability" : -0,
		"reason" : "windSpeed, orientationsUnknown",
		"timestamp" :1555974000
		},
	"2019-04-23T13:00:00+10:00" : {
		"windSpeed" : 6.2,
		"windDir" : 121,
		"rain" : 0,
		"cloudbase" : 8702,
		"flyability" : -0,
		"reason" : "windSpeed, orientationsUnknown",
		"timestamp" :1555984800
		},
	"2019-04-23T16:00:00+10:00" : {
		"windSpeed" : 6.2,
		"windDir" : 121,
		"rain" : 0,
		"cloudbase" : 7550.7500000011,
		"flyability" : -0,
		"reason" : "windSpeed, orientationsUnknown",
		"timestamp" :1555995600
		},
	"2019-04-23T19:00:00+10:00" : {
		"windSpeed" : 6.5,
		"windDir" : 130,
		"rain" : 1,
		"cloudbase" : 6015.5000000022,
		"flyability" : -0,
		"reason" : "windSpeed, orientationsUnknown, rain",
		"timestamp" :1556006400
		},
	"2019-04-23T22:00:00+10:00" : {
		"windSpeed" : 5.4,
		"windDir" : 134,
		"rain" : 1,
		"cloudbase" : 8700,
		"flyability" : -0,
		"reason" : "windSpeed, orientationsUnknown, rain",
		"timestamp" :1556017200
		},
	"2019-04-24T01:00:00+10:00" : {
		"windSpeed" : 6.1,
		"windDir" : 133,
		"rain" : 1,
		"cloudbase" : 2750,
		"flyability" : -0,
		"reason" : "windSpeed, orientationsUnknown, rain",
		"timestamp" :1556028000
		},
	"2019-04-24T04:00:00+10:00" : {
		"windSpeed" : 6.1,
		"windDir" : 127,
		"rain" : 1,
		"cloudbase" : 2950,
		"flyability" : -0,
		"reason" : "windSpeed, orientationsUnknown, rain",
		"timestamp" :1556038800
		},
	"2019-04-24T07:00:00+10:00" : {
		"windSpeed" : 5.6,
		"windDir" : 119,
		"rain" : 1,
		"cloudbase" : null,
		"flyability" : -0,
		"reason" : "windSpeed, orientationsUnknown, rain",
		"timestamp" :1556049600
		},
	"2019-04-24T10:00:00+10:00" : {
		"windSpeed" : 4.9,
		"windDir" : 127,
		"rain" : 1,
		"cloudbase" : null,
		"flyability" : -0,
		"reason" : "orientationsUnknown, rain",
		"timestamp" :1556060400
		},
	"2019-04-24T13:00:00+10:00" : {
		"windSpeed" : 4.2,
		"windDir" : 139,
		"rain" : 1,
		"cloudbase" : null,
		"flyability" : -0,
		"reason" : "orientationsUnknown, rain",
		"timestamp" :1556071200
		},
	"2019-04-24T16:00:00+10:00" : {
		"windSpeed" : 5.3,
		"windDir" : 135,
		"rain" : 0,
		"cloudbase" : null,
		"flyability" : -0,
		"reason" : "windSpeed, orientationsUnknown",
		"timestamp" :1556082000
		},
	"2019-04-24T19:00:00+10:00" : {
		"windSpeed" : 5.3,
		"windDir" : 141,
		"rain" : 0,
		"cloudbase" : 2750,
		"flyability" : -0,
		"reason" : "windSpeed, orientationsUnknown",
		"timestamp" :1556092800
		},
	"2019-04-24T22:00:00+10:00" : {
		"windSpeed" : 5.1,
		"windDir" : 148,
		"rain" : 0,
		"cloudbase" : null,
		"flyability" : -0,
		"reason" : "windSpeed, orientationsUnknown",
		"timestamp" :1556103600
		},
	"2019-04-25T01:00:00+10:00" : {
		"windSpeed" : 4.4,
		"windDir" : 136,
		"rain" : 0,
		"cloudbase" : null,
		"flyability" : -50,
		"reason" : "orientationsUnknown",
		"timestamp" :1556114400
		},
	"2019-04-25T04:00:00+10:00" : {
		"windSpeed" : 3.9,
		"windDir" : 153,
		"rain" : 1,
		"cloudbase" : 2700,
		"flyability" : -0,
		"reason" : "orientationsUnknown, rain",
		"timestamp" :1556125200
		},
	"2019-04-25T07:00:00+10:00" : {
		"windSpeed" : 4.6,
		"windDir" : 172,
		"rain" : 1,
		"cloudbase" : null,
		"flyability" : -0,
		"reason" : "orientationsUnknown, rain",
		"timestamp" :1556136000
		},
	"2019-04-25T10:00:00+10:00" : {
		"windSpeed" : 4.8,
		"windDir" : 156,
		"rain" : 1,
		"cloudbase" : null,
		"flyability" : -0,
		"reason" : "orientationsUnknown, rain",
		"timestamp" :1556146800
		},
	"2019-04-25T13:00:00+10:00" : {
		"windSpeed" : 4.5,
		"windDir" : 146,
		"rain" : 1,
		"cloudbase" : null,
		"flyability" : -0,
		"reason" : "orientationsUnknown, rain",
		"timestamp" :1556157600
		},
	"2019-04-25T16:00:00+10:00" : {
		"windSpeed" : 4.1,
		"windDir" : 131,
		"rain" : 1,
		"cloudbase" : null,
		"flyability" : -0,
		"reason" : "orientationsUnknown, rain",
		"timestamp" :1556168400
		},
	"2019-04-25T19:00:00+10:00" : {
		"windSpeed" : 4,
		"windDir" : 123,
		"rain" : 1,
		"cloudbase" : null,
		"flyability" : -0,
		"reason" : "orientationsUnknown, rain",
		"timestamp" :1556179200
		},
	"2019-04-25T22:00:00+10:00" : {
		"windSpeed" : 3.6,
		"windDir" : 127,
		"rain" : 0,
		"cloudbase" : 1250,
		"flyability" : -50,
		"reason" : "orientationsUnknown",
		"timestamp" :1556190000
		},
	"2019-04-26T01:00:00+10:00" : {
		"windSpeed" : 2.6,
		"windDir" : 103,
		"rain" : 0,
		"cloudbase" : 1350,
		"flyability" : -50,
		"reason" : "orientationsUnknown",
		"timestamp" :1556200800
		},
	"2019-04-26T04:00:00+10:00" : {
		"windSpeed" : 2.1,
		"windDir" : 178,
		"rain" : 0,
		"cloudbase" : 7654.9999999984,
		"flyability" : -50,
		"reason" : "orientationsUnknown",
		"timestamp" :1556211600
		},
	"2019-04-26T07:00:00+10:00" : {
		"windSpeed" : 2.8,
		"windDir" : 203,
		"rain" : 0,
		"cloudbase" : 10000,
		"flyability" : -50,
		"reason" : "orientationsUnknown",
		"timestamp" :1556222400
		},
	"2019-04-26T10:00:00+10:00" : {
		"windSpeed" : 1.7,
		"windDir" : 156,
		"rain" : 0,
		"cloudbase" : 3950,
		"flyability" : -50,
		"reason" : "orientationsUnknown",
		"timestamp" :1556233200
		},
	"2019-04-26T13:00:00+10:00" : {
		"windSpeed" : 1.4,
		"windDir" : 57,
		"rain" : 0,
		"cloudbase" : 10000,
		"flyability" : -50,
		"reason" : "orientationsUnknown",
		"timestamp" :1556244000
		},
	"2019-04-26T16:00:00+10:00" : {
		"windSpeed" : 3,
		"windDir" : 33,
		"rain" : 0,
		"cloudbase" : 10000,
		"flyability" : -50,
		"reason" : "orientationsUnknown",
		"timestamp" :1556254800
		},
	"2019-04-26T19:00:00+10:00" : {
		"windSpeed" : 4,
		"windDir" : 24,
		"rain" : 0,
		"cloudbase" : null,
		"flyability" : -50,
		"reason" : "orientationsUnknown",
		"timestamp" :1556265600
		},
	"2019-04-26T22:00:00+10:00" : {
		"windSpeed" : 3.2,
		"windDir" : 360,
		"rain" : 0,
		"cloudbase" : null,
		"flyability" : -50,
		"reason" : "orientationsUnknown",
		"timestamp" :1556276400
		},
	"2019-04-27T01:00:00+10:00" : {
		"windSpeed" : 2.7,
		"windDir" : 314,
		"rain" : 0,
		"cloudbase" : null,
		"flyability" : -50,
		"reason" : "orientationsUnknown",
		"timestamp" :1556287200
		},
	"2019-04-27T04:00:00+10:00" : {
		"windSpeed" : 2.1,
		"windDir" : 274,
		"rain" : 0,
		"cloudbase" : null,
		"flyability" : -50,
		"reason" : "orientationsUnknown",
		"timestamp" :1556298000
		},
	"2019-04-27T07:00:00+10:00" : {
		"windSpeed" : 2.1,
		"windDir" : 272,
		"rain" : 0,
		"cloudbase" : null,
		"flyability" : -50,
		"reason" : "orientationsUnknown",
		"timestamp" :1556308800
		},
	"2019-04-27T10:00:00+10:00" : {
		"windSpeed" : 2.3,
		"windDir" : 208,
		"rain" : 1,
		"cloudbase" : null,
		"flyability" : -0,
		"reason" : "orientationsUnknown, rain",
		"timestamp" :1556319600
		}
	}
}