{
"site" : "Pascal",
"id" : 18269,
"orientations" : "00000000",
"forecasts" : { 
	"2019-04-17T06:00:00+03:00" : {
		"windSpeed" : 1.4,
		"windDir" : 341,
		"rain" : 0,
		"cloudbase" : null,
		"flyability" : -50,
		"reason" : "orientationsUnknown",
		"timestamp" :1555470000
		},
	"2019-04-17T09:00:00+03:00" : {
		"windSpeed" : 2.1,
		"windDir" : 330,
		"rain" : 0,
		"cloudbase" : null,
		"flyability" : -50,
		"reason" : "orientationsUnknown",
		"timestamp" :1555480800
		},
	"2019-04-17T12:00:00+03:00" : {
		"windSpeed" : 2.9,
		"windDir" : 339,
		"rain" : 0,
		"cloudbase" : null,
		"flyability" : -50,
		"reason" : "orientationsUnknown",
		"timestamp" :1555491600
		},
	"2019-04-17T15:00:00+03:00" : {
		"windSpeed" : 3.4,
		"windDir" : 333,
		"rain" : 0,
		"cloudbase" : 2150,
		"flyability" : -50,
		"reason" : "orientationsUnknown",
		"timestamp" :1555502400
		},
	"2019-04-17T18:00:00+03:00" : {
		"windSpeed" : 2.9,
		"windDir" : 346,
		"rain" : 1,
		"cloudbase" : 1656.35,
		"flyability" : -0,
		"reason" : "orientationsUnknown, rain, cloudbase",
		"timestamp" :1555513200
		},
	"2019-04-17T21:00:00+03:00" : {
		"windSpeed" : 1,
		"windDir" : 27,
		"rain" : 1,
		"cloudbase" : 1740.7765,
		"flyability" : -0,
		"reason" : "orientationsUnknown, rain, cloudbase",
		"timestamp" :1555524000
		},
	"2019-04-18T00:00:00+03:00" : {
		"windSpeed" : 0.5,
		"windDir" : 104,
		"rain" : 1,
		"cloudbase" : 3222.5265000001,
		"flyability" : -0,
		"reason" : "orientationsUnknown, rain",
		"timestamp" :1555534800
		},
	"2019-04-18T03:00:00+03:00" : {
		"windSpeed" : 0.8,
		"windDir" : 114,
		"rain" : 0,
		"cloudbase" : 880.96290000001,
		"flyability" : -0,
		"reason" : "orientationsUnknown, cloudbase",
		"timestamp" :1555545600
		},
	"2019-04-18T06:00:00+03:00" : {
		"windSpeed" : 1.1,
		"windDir" : 43,
		"rain" : 0,
		"cloudbase" : null,
		"flyability" : -50,
		"reason" : "orientationsUnknown",
		"timestamp" :1555556400
		},
	"2019-04-18T09:00:00+03:00" : {
		"windSpeed" : 1.7,
		"windDir" : 11,
		"rain" : 1,
		"cloudbase" : 331.37265,
		"flyability" : -0,
		"reason" : "orientationsUnknown, rain, cloudbase",
		"timestamp" :1555567200
		},
	"2019-04-18T12:00:00+03:00" : {
		"windSpeed" : 2.8,
		"windDir" : 5,
		"rain" : 1,
		"cloudbase" : 2082.1948749999,
		"flyability" : -0,
		"reason" : "orientationsUnknown, rain",
		"timestamp" :1555578000
		},
	"2019-04-18T15:00:00+03:00" : {
		"windSpeed" : 3,
		"windDir" : 19,
		"rain" : 1,
		"cloudbase" : 2364.5076750001,
		"flyability" : -0,
		"reason" : "orientationsUnknown, rain",
		"timestamp" :1555588800
		},
	"2019-04-18T18:00:00+03:00" : {
		"windSpeed" : 3.3,
		"windDir" : 24,
		"rain" : 1,
		"cloudbase" : 827.45,
		"flyability" : -0,
		"reason" : "orientationsUnknown, rain, cloudbase",
		"timestamp" :1555599600
		},
	"2019-04-18T21:00:00+03:00" : {
		"windSpeed" : 1.8,
		"windDir" : 16,
		"rain" : 1,
		"cloudbase" : 667.0258,
		"flyability" : -0,
		"reason" : "orientationsUnknown, rain, cloudbase",
		"timestamp" :1555610400
		},
	"2019-04-19T00:00:00+03:00" : {
		"windSpeed" : 1.6,
		"windDir" : 2,
		"rain" : 1,
		"cloudbase" : 51.7294,
		"flyability" : -0,
		"reason" : "orientationsUnknown, rain, cloudbase",
		"timestamp" :1555621200
		},
	"2019-04-19T03:00:00+03:00" : {
		"windSpeed" : 1,
		"windDir" : 344,
		"rain" : 1,
		"cloudbase" : 30,
		"flyability" : -0,
		"reason" : "orientationsUnknown, rain, cloudbase",
		"timestamp" :1555632000
		},
	"2019-04-19T06:00:00+03:00" : {
		"windSpeed" : 1,
		"windDir" : 343,
		"rain" : 0,
		"cloudbase" : 30,
		"flyability" : -0,
		"reason" : "orientationsUnknown, cloudbase",
		"timestamp" :1555642800
		},
	"2019-04-19T09:00:00+03:00" : {
		"windSpeed" : 2.1,
		"windDir" : 346,
		"rain" : 0,
		"cloudbase" : 310,
		"flyability" : -0,
		"reason" : "orientationsUnknown, cloudbase",
		"timestamp" :1555653600
		},
	"2019-04-19T12:00:00+03:00" : {
		"windSpeed" : 3.2,
		"windDir" : 339,
		"rain" : 0,
		"cloudbase" : 1163.91325,
		"flyability" : -0,
		"reason" : "orientationsUnknown, cloudbase",
		"timestamp" :1555664400
		},
	"2019-04-19T15:00:00+03:00" : {
		"windSpeed" : 3.1,
		"windDir" : 330,
		"rain" : 1,
		"cloudbase" : 1250,
		"flyability" : -0,
		"reason" : "orientationsUnknown, rain, cloudbase",
		"timestamp" :1555675200
		},
	"2019-04-19T18:00:00+03:00" : {
		"windSpeed" : 3.5,
		"windDir" : 340,
		"rain" : 1,
		"cloudbase" : 3650,
		"flyability" : -0,
		"reason" : "orientationsUnknown, rain",
		"timestamp" :1555686000
		},
	"2019-04-19T21:00:00+03:00" : {
		"windSpeed" : 1.7,
		"windDir" : 28,
		"rain" : 1,
		"cloudbase" : 740,
		"flyability" : -0,
		"reason" : "orientationsUnknown, rain, cloudbase",
		"timestamp" :1555696800
		},
	"2019-04-20T00:00:00+03:00" : {
		"windSpeed" : 0.9,
		"windDir" : 36,
		"rain" : 1,
		"cloudbase" : 30,
		"flyability" : -0,
		"reason" : "orientationsUnknown, rain, cloudbase",
		"timestamp" :1555707600
		},
	"2019-04-20T03:00:00+03:00" : {
		"windSpeed" : 1.4,
		"windDir" : 21,
		"rain" : 0,
		"cloudbase" : null,
		"flyability" : -50,
		"reason" : "orientationsUnknown",
		"timestamp" :1555718400
		},
	"2019-04-20T06:00:00+03:00" : {
		"windSpeed" : 1.7,
		"windDir" : 7,
		"rain" : 0,
		"cloudbase" : 520,
		"flyability" : -0,
		"reason" : "orientationsUnknown, cloudbase",
		"timestamp" :1555729200
		},
	"2019-04-20T09:00:00+03:00" : {
		"windSpeed" : 1.8,
		"windDir" : 10,
		"rain" : 0,
		"cloudbase" : null,
		"flyability" : -50,
		"reason" : "orientationsUnknown",
		"timestamp" :1555740000
		},
	"2019-04-20T12:00:00+03:00" : {
		"windSpeed" : 2.7,
		"windDir" : 11,
		"rain" : 1,
		"cloudbase" : null,
		"flyability" : -0,
		"reason" : "orientationsUnknown, rain",
		"timestamp" :1555750800
		},
	"2019-04-20T15:00:00+03:00" : {
		"windSpeed" : 3.7,
		"windDir" : 20,
		"rain" : 1,
		"cloudbase" : 350,
		"flyability" : -0,
		"reason" : "orientationsUnknown, rain, cloudbase",
		"timestamp" :1555761600
		},
	"2019-04-20T18:00:00+03:00" : {
		"windSpeed" : 3.1,
		"windDir" : 15,
		"rain" : 0,
		"cloudbase" : 777.8147,
		"flyability" : -0,
		"reason" : "orientationsUnknown, cloudbase",
		"timestamp" :1555772400
		},
	"2019-04-20T21:00:00+03:00" : {
		"windSpeed" : 0.7,
		"windDir" : 67,
		"rain" : 0,
		"cloudbase" : null,
		"flyability" : -50,
		"reason" : "orientationsUnknown",
		"timestamp" :1555783200
		},
	"2019-04-21T00:00:00+03:00" : {
		"windSpeed" : 0.7,
		"windDir" : 100,
		"rain" : 0,
		"cloudbase" : null,
		"flyability" : -50,
		"reason" : "orientationsUnknown",
		"timestamp" :1555794000
		},
	"2019-04-21T03:00:00+03:00" : {
		"windSpeed" : 0.5,
		"windDir" : 104,
		"rain" : 0,
		"cloudbase" : null,
		"flyability" : -50,
		"reason" : "orientationsUnknown",
		"timestamp" :1555804800
		},
	"2019-04-21T06:00:00+03:00" : {
		"windSpeed" : 0.5,
		"windDir" : 103,
		"rain" : 0,
		"cloudbase" : null,
		"flyability" : -50,
		"reason" : "orientationsUnknown",
		"timestamp" :1555815600
		},
	"2019-04-21T09:00:00+03:00" : {
		"windSpeed" : 1.1,
		"windDir" : 226,
		"rain" : 0,
		"cloudbase" : 1450,
		"flyability" : -0,
		"reason" : "orientationsUnknown, cloudbase",
		"timestamp" :1555826400
		},
	"2019-04-21T12:00:00+03:00" : {
		"windSpeed" : 1.9,
		"windDir" : 321,
		"rain" : 0,
		"cloudbase" : 1365.68675,
		"flyability" : -0,
		"reason" : "orientationsUnknown, cloudbase",
		"timestamp" :1555837200
		},
	"2019-04-21T15:00:00+03:00" : {
		"windSpeed" : 2.6,
		"windDir" : 320,
		"rain" : 1,
		"cloudbase" : 1263.2235,
		"flyability" : -0,
		"reason" : "orientationsUnknown, rain, cloudbase",
		"timestamp" :1555848000
		},
	"2019-04-21T18:00:00+03:00" : {
		"windSpeed" : 1.8,
		"windDir" : 325,
		"rain" : 1,
		"cloudbase" : 1248.16025,
		"flyability" : -0,
		"reason" : "orientationsUnknown, rain, cloudbase",
		"timestamp" :1555858800
		},
	"2019-04-21T21:00:00+03:00" : {
		"windSpeed" : 0.6,
		"windDir" : 162,
		"rain" : 1,
		"cloudbase" : 1427.8765,
		"flyability" : -0,
		"reason" : "orientationsUnknown, rain, cloudbase",
		"timestamp" :1555869600
		},
	"2019-04-22T00:00:00+03:00" : {
		"windSpeed" : 0.9,
		"windDir" : 132,
		"rain" : 1,
		"cloudbase" : 1707.6235,
		"flyability" : -0,
		"reason" : "orientationsUnknown, rain, cloudbase",
		"timestamp" :1555880400
		},
	"2019-04-22T03:00:00+03:00" : {
		"windSpeed" : 0.7,
		"windDir" : 315,
		"rain" : 1,
		"cloudbase" : 1346.7,
		"flyability" : -0,
		"reason" : "orientationsUnknown, rain, cloudbase",
		"timestamp" :1555891200
		},
	"2019-04-22T06:00:00+03:00" : {
		"windSpeed" : 0.3,
		"windDir" : 77,
		"rain" : 1,
		"cloudbase" : 1278.82775,
		"flyability" : -0,
		"reason" : "orientationsUnknown, rain, cloudbase",
		"timestamp" :1555902000
		},
	"2019-04-22T09:00:00+03:00" : {
		"windSpeed" : 0,
		"windDir" : 45,
		"rain" : 1,
		"cloudbase" : 880,
		"flyability" : -0,
		"reason" : "orientationsUnknown, rain, cloudbase",
		"timestamp" :1555912800
		},
	"2019-04-22T12:00:00+03:00" : {
		"windSpeed" : 0.8,
		"windDir" : 286,
		"rain" : 1,
		"cloudbase" : 392.98325,
		"flyability" : -0,
		"reason" : "orientationsUnknown, rain, cloudbase",
		"timestamp" :1555923600
		},
	"2019-04-22T15:00:00+03:00" : {
		"windSpeed" : 1.4,
		"windDir" : 136,
		"rain" : 1,
		"cloudbase" : 835.97415000001,
		"flyability" : -0,
		"reason" : "orientationsUnknown, rain, cloudbase",
		"timestamp" :1555934400
		},
	"2019-04-22T18:00:00+03:00" : {
		"windSpeed" : 1.5,
		"windDir" : 153,
		"rain" : 1,
		"cloudbase" : 1667.7286,
		"flyability" : -0,
		"reason" : "orientationsUnknown, rain, cloudbase",
		"timestamp" :1555945200
		},
	"2019-04-22T21:00:00+03:00" : {
		"windSpeed" : 1.6,
		"windDir" : 146,
		"rain" : 1,
		"cloudbase" : 2538.1004000001,
		"flyability" : -0,
		"reason" : "orientationsUnknown, rain",
		"timestamp" :1555956000
		},
	"2019-04-23T00:00:00+03:00" : {
		"windSpeed" : 2.4,
		"windDir" : 144,
		"rain" : 1,
		"cloudbase" : 893.64337500002,
		"flyability" : -0,
		"reason" : "orientationsUnknown, rain, cloudbase",
		"timestamp" :1555966800
		},
	"2019-04-23T03:00:00+03:00" : {
		"windSpeed" : 2.5,
		"windDir" : 141,
		"rain" : 1,
		"cloudbase" : 1218.0158,
		"flyability" : -0,
		"reason" : "orientationsUnknown, rain, cloudbase",
		"timestamp" :1555977600
		}
	}
}