{
"site" : "Meyrik",
"id" : 18626,
"orientations" : "00000000",
"forecasts" : { 
	"2019-04-20T06:00:00+03:00" : {
		"windSpeed" : 1.2,
		"windDir" : 237,
		"rain" : 0,
		"cloudbase" : null,
		"flyability" : -50,
		"reason" : "orientationsUnknown",
		"timestamp" :1555729200
		},
	"2019-04-20T09:00:00+03:00" : {
		"windSpeed" : 2,
		"windDir" : 290,
		"rain" : 0,
		"cloudbase" : 3636.2284000001,
		"flyability" : -50,
		"reason" : "orientationsUnknown",
		"timestamp" :1555740000
		},
	"2019-04-20T12:00:00+03:00" : {
		"windSpeed" : 1.8,
		"windDir" : 303,
		"rain" : 0,
		"cloudbase" : 3401.9452,
		"flyability" : -50,
		"reason" : "orientationsUnknown",
		"timestamp" :1555750800
		},
	"2019-04-20T15:00:00+03:00" : {
		"windSpeed" : 2.6,
		"windDir" : 220,
		"rain" : 0,
		"cloudbase" : 3846.2112000007,
		"flyability" : -50,
		"reason" : "orientationsUnknown",
		"timestamp" :1555761600
		},
	"2019-04-20T18:00:00+03:00" : {
		"windSpeed" : 2.1,
		"windDir" : 252,
		"rain" : 1,
		"cloudbase" : null,
		"flyability" : -0,
		"reason" : "orientationsUnknown, rain",
		"timestamp" :1555772400
		},
	"2019-04-20T21:00:00+03:00" : {
		"windSpeed" : 1.5,
		"windDir" : 244,
		"rain" : 1,
		"cloudbase" : 5000,
		"flyability" : -0,
		"reason" : "orientationsUnknown, rain",
		"timestamp" :1555783200
		},
	"2019-04-21T00:00:00+03:00" : {
		"windSpeed" : 0.9,
		"windDir" : 203,
		"rain" : 0,
		"cloudbase" : 5453.1512,
		"flyability" : -50,
		"reason" : "orientationsUnknown",
		"timestamp" :1555794000
		},
	"2019-04-21T03:00:00+03:00" : {
		"windSpeed" : 0.2,
		"windDir" : 2,
		"rain" : 1,
		"cloudbase" : 877.55327999999,
		"flyability" : -0,
		"reason" : "orientationsUnknown, rain",
		"timestamp" :1555804800
		},
	"2019-04-21T06:00:00+03:00" : {
		"windSpeed" : 0.9,
		"windDir" : 54,
		"rain" : 1,
		"cloudbase" : 689.7846400001,
		"flyability" : -0,
		"reason" : "orientationsUnknown, rain, cloudbase",
		"timestamp" :1555815600
		},
	"2019-04-21T09:00:00+03:00" : {
		"windSpeed" : 1.9,
		"windDir" : 12,
		"rain" : 1,
		"cloudbase" : 152.37592000003,
		"flyability" : -0,
		"reason" : "orientationsUnknown, rain, cloudbase",
		"timestamp" :1555826400
		},
	"2019-04-21T12:00:00+03:00" : {
		"windSpeed" : 2.8,
		"windDir" : 46,
		"rain" : 1,
		"cloudbase" : 657.66400000003,
		"flyability" : -0,
		"reason" : "orientationsUnknown, rain, cloudbase",
		"timestamp" :1555837200
		},
	"2019-04-21T15:00:00+03:00" : {
		"windSpeed" : 2.8,
		"windDir" : 0,
		"rain" : 1,
		"cloudbase" : 4623.1103999998,
		"flyability" : -0,
		"reason" : "orientationsUnknown, rain",
		"timestamp" :1555848000
		},
	"2019-04-21T18:00:00+03:00" : {
		"windSpeed" : 2.2,
		"windDir" : 266,
		"rain" : 1,
		"cloudbase" : 4514.9452,
		"flyability" : -0,
		"reason" : "orientationsUnknown, rain",
		"timestamp" :1555858800
		},
	"2019-04-21T21:00:00+03:00" : {
		"windSpeed" : 3.8,
		"windDir" : 273,
		"rain" : 0,
		"cloudbase" : 2865.7988,
		"flyability" : -50,
		"reason" : "orientationsUnknown",
		"timestamp" :1555869600
		},
	"2019-04-22T00:00:00+03:00" : {
		"windSpeed" : 4.4,
		"windDir" : 281,
		"rain" : 0,
		"cloudbase" : 2222.0108000002,
		"flyability" : -50,
		"reason" : "orientationsUnknown",
		"timestamp" :1555880400
		},
	"2019-04-22T03:00:00+03:00" : {
		"windSpeed" : 3,
		"windDir" : 289,
		"rain" : 1,
		"cloudbase" : 5373.0840000002,
		"flyability" : -0,
		"reason" : "orientationsUnknown, rain",
		"timestamp" :1555891200
		},
	"2019-04-22T06:00:00+03:00" : {
		"windSpeed" : 1.6,
		"windDir" : 252,
		"rain" : 1,
		"cloudbase" : 3600,
		"flyability" : -0,
		"reason" : "orientationsUnknown, rain",
		"timestamp" :1555902000
		},
	"2019-04-22T09:00:00+03:00" : {
		"windSpeed" : 2.5,
		"windDir" : 281,
		"rain" : 1,
		"cloudbase" : null,
		"flyability" : -0,
		"reason" : "orientationsUnknown, rain",
		"timestamp" :1555912800
		},
	"2019-04-22T12:00:00+03:00" : {
		"windSpeed" : 4.2,
		"windDir" : 288,
		"rain" : 0,
		"cloudbase" : 4500,
		"flyability" : -50,
		"reason" : "orientationsUnknown",
		"timestamp" :1555923600
		},
	"2019-04-22T15:00:00+03:00" : {
		"windSpeed" : 5.2,
		"windDir" : 304,
		"rain" : 0,
		"cloudbase" : null,
		"flyability" : -0,
		"reason" : "windSpeed, orientationsUnknown",
		"timestamp" :1555934400
		},
	"2019-04-22T18:00:00+03:00" : {
		"windSpeed" : 4.9,
		"windDir" : 305,
		"rain" : 0,
		"cloudbase" : null,
		"flyability" : -50,
		"reason" : "orientationsUnknown",
		"timestamp" :1555945200
		},
	"2019-04-22T21:00:00+03:00" : {
		"windSpeed" : 2.5,
		"windDir" : 281,
		"rain" : 0,
		"cloudbase" : null,
		"flyability" : -50,
		"reason" : "orientationsUnknown",
		"timestamp" :1555956000
		},
	"2019-04-23T00:00:00+03:00" : {
		"windSpeed" : 2.1,
		"windDir" : 256,
		"rain" : 0,
		"cloudbase" : null,
		"flyability" : -50,
		"reason" : "orientationsUnknown",
		"timestamp" :1555966800
		},
	"2019-04-23T03:00:00+03:00" : {
		"windSpeed" : 1.7,
		"windDir" : 233,
		"rain" : 1,
		"cloudbase" : null,
		"flyability" : -0,
		"reason" : "orientationsUnknown, rain",
		"timestamp" :1555977600
		},
	"2019-04-23T06:00:00+03:00" : {
		"windSpeed" : 1.2,
		"windDir" : 214,
		"rain" : 1,
		"cloudbase" : null,
		"flyability" : -0,
		"reason" : "orientationsUnknown, rain",
		"timestamp" :1555988400
		},
	"2019-04-23T09:00:00+03:00" : {
		"windSpeed" : 2.4,
		"windDir" : 282,
		"rain" : 0,
		"cloudbase" : null,
		"flyability" : -50,
		"reason" : "orientationsUnknown",
		"timestamp" :1555999200
		},
	"2019-04-23T12:00:00+03:00" : {
		"windSpeed" : 1.8,
		"windDir" : 303,
		"rain" : 0,
		"cloudbase" : null,
		"flyability" : -50,
		"reason" : "orientationsUnknown",
		"timestamp" :1556010000
		},
	"2019-04-23T15:00:00+03:00" : {
		"windSpeed" : 2.3,
		"windDir" : 299,
		"rain" : 0,
		"cloudbase" : null,
		"flyability" : -50,
		"reason" : "orientationsUnknown",
		"timestamp" :1556020800
		},
	"2019-04-23T18:00:00+03:00" : {
		"windSpeed" : 2,
		"windDir" : 289,
		"rain" : 1,
		"cloudbase" : null,
		"flyability" : -0,
		"reason" : "orientationsUnknown, rain",
		"timestamp" :1556031600
		},
	"2019-04-23T21:00:00+03:00" : {
		"windSpeed" : 1.2,
		"windDir" : 255,
		"rain" : 0,
		"cloudbase" : null,
		"flyability" : -50,
		"reason" : "orientationsUnknown",
		"timestamp" :1556042400
		},
	"2019-04-24T00:00:00+03:00" : {
		"windSpeed" : 1.3,
		"windDir" : 231,
		"rain" : 0,
		"cloudbase" : null,
		"flyability" : -50,
		"reason" : "orientationsUnknown",
		"timestamp" :1556053200
		},
	"2019-04-24T03:00:00+03:00" : {
		"windSpeed" : 1.5,
		"windDir" : 258,
		"rain" : 0,
		"cloudbase" : null,
		"flyability" : -50,
		"reason" : "orientationsUnknown",
		"timestamp" :1556064000
		},
	"2019-04-24T06:00:00+03:00" : {
		"windSpeed" : 1.8,
		"windDir" : 249,
		"rain" : 0,
		"cloudbase" : null,
		"flyability" : -50,
		"reason" : "orientationsUnknown",
		"timestamp" :1556074800
		},
	"2019-04-24T09:00:00+03:00" : {
		"windSpeed" : 1.6,
		"windDir" : 302,
		"rain" : 0,
		"cloudbase" : null,
		"flyability" : -50,
		"reason" : "orientationsUnknown",
		"timestamp" :1556085600
		},
	"2019-04-24T12:00:00+03:00" : {
		"windSpeed" : 1.6,
		"windDir" : 341,
		"rain" : 0,
		"cloudbase" : null,
		"flyability" : -50,
		"reason" : "orientationsUnknown",
		"timestamp" :1556096400
		},
	"2019-04-24T15:00:00+03:00" : {
		"windSpeed" : 1.8,
		"windDir" : 326,
		"rain" : 0,
		"cloudbase" : null,
		"flyability" : -50,
		"reason" : "orientationsUnknown",
		"timestamp" :1556107200
		},
	"2019-04-24T18:00:00+03:00" : {
		"windSpeed" : 1,
		"windDir" : 278,
		"rain" : 0,
		"cloudbase" : null,
		"flyability" : -50,
		"reason" : "orientationsUnknown",
		"timestamp" :1556118000
		},
	"2019-04-24T21:00:00+03:00" : {
		"windSpeed" : 1.2,
		"windDir" : 189,
		"rain" : 0,
		"cloudbase" : null,
		"flyability" : -50,
		"reason" : "orientationsUnknown",
		"timestamp" :1556128800
		},
	"2019-04-25T00:00:00+03:00" : {
		"windSpeed" : 1.1,
		"windDir" : 246,
		"rain" : 0,
		"cloudbase" : null,
		"flyability" : -50,
		"reason" : "orientationsUnknown",
		"timestamp" :1556139600
		},
	"2019-04-25T03:00:00+03:00" : {
		"windSpeed" : 1,
		"windDir" : 272,
		"rain" : 0,
		"cloudbase" : null,
		"flyability" : -50,
		"reason" : "orientationsUnknown",
		"timestamp" :1556150400
		},
	"2019-04-25T06:00:00+03:00" : {
		"windSpeed" : 1.5,
		"windDir" : 221,
		"rain" : 0,
		"cloudbase" : null,
		"flyability" : -50,
		"reason" : "orientationsUnknown",
		"timestamp" :1556161200
		},
	"2019-04-25T09:00:00+03:00" : {
		"windSpeed" : 0.6,
		"windDir" : 304,
		"rain" : 0,
		"cloudbase" : null,
		"flyability" : -50,
		"reason" : "orientationsUnknown",
		"timestamp" :1556172000
		},
	"2019-04-25T12:00:00+03:00" : {
		"windSpeed" : 1.6,
		"windDir" : 19,
		"rain" : 0,
		"cloudbase" : null,
		"flyability" : -50,
		"reason" : "orientationsUnknown",
		"timestamp" :1556182800
		},
	"2019-04-25T15:00:00+03:00" : {
		"windSpeed" : 1.7,
		"windDir" : 344,
		"rain" : 1,
		"cloudbase" : null,
		"flyability" : -0,
		"reason" : "orientationsUnknown, rain",
		"timestamp" :1556193600
		},
	"2019-04-25T18:00:00+03:00" : {
		"windSpeed" : 0.4,
		"windDir" : 29,
		"rain" : 1,
		"cloudbase" : null,
		"flyability" : -0,
		"reason" : "orientationsUnknown, rain",
		"timestamp" :1556204400
		},
	"2019-04-25T21:00:00+03:00" : {
		"windSpeed" : 1.6,
		"windDir" : 161,
		"rain" : 0,
		"cloudbase" : null,
		"flyability" : -50,
		"reason" : "orientationsUnknown",
		"timestamp" :1556215200
		},
	"2019-04-26T00:00:00+03:00" : {
		"windSpeed" : 1,
		"windDir" : 170,
		"rain" : 1,
		"cloudbase" : null,
		"flyability" : -0,
		"reason" : "orientationsUnknown, rain",
		"timestamp" :1556226000
		},
	"2019-04-26T03:00:00+03:00" : {
		"windSpeed" : 1.3,
		"windDir" : 211,
		"rain" : 0,
		"cloudbase" : null,
		"flyability" : -50,
		"reason" : "orientationsUnknown",
		"timestamp" :1556236800
		}
	}
}