{
"site" : "Bonamanzi Lodge",
"id" : 18774,
"orientations" : "00220020",
"forecasts" : { 
	"2019-04-07T17:00:00+02:00" : {
		"windSpeed" : 2,
		"windDir" : 20,
		"rain" : 1,
		"cloudbase" : 1650,
		"flyability" : 0,
		"reason" : "windDir, rain",
		"timestamp" :1554652800
		},
	"2019-04-07T20:00:00+02:00" : {
		"windSpeed" : 1.4,
		"windDir" : 38,
		"rain" : 0,
		"cloudbase" : null,
		"flyability" : 0,
		"reason" : "windDir",
		"timestamp" :1554663600
		},
	"2019-04-07T23:00:00+02:00" : {
		"windSpeed" : 1.5,
		"windDir" : 48,
		"rain" : 0,
		"cloudbase" : null,
		"flyability" : 0,
		"reason" : "windDir",
		"timestamp" :1554674400
		},
	"2019-04-08T02:00:00+02:00" : {
		"windSpeed" : 1.6,
		"windDir" : 42,
		"rain" : 0,
		"cloudbase" : null,
		"flyability" : 0,
		"reason" : "windDir",
		"timestamp" :1554685200
		},
	"2019-04-08T05:00:00+02:00" : {
		"windSpeed" : 1.4,
		"windDir" : 43,
		"rain" : 0,
		"cloudbase" : 133.51375999999,
		"flyability" : 0,
		"reason" : "windDir, cloudbase",
		"timestamp" :1554696000
		},
	"2019-04-08T08:00:00+02:00" : {
		"windSpeed" : 2.3,
		"windDir" : 41,
		"rain" : 0,
		"cloudbase" : 131.35207999998,
		"flyability" : 0,
		"reason" : "windDir, cloudbase",
		"timestamp" :1554706800
		},
	"2019-04-08T11:00:00+02:00" : {
		"windSpeed" : 2.5,
		"windDir" : 350,
		"rain" : 0,
		"cloudbase" : 1250,
		"flyability" : 0,
		"reason" : "windDir, cloudbase",
		"timestamp" :1554717600
		},
	"2019-04-08T14:00:00+02:00" : {
		"windSpeed" : 2.9,
		"windDir" : 334,
		"rain" : 0,
		"cloudbase" : 9125.1896,
		"flyability" : 0,
		"reason" : "windDir",
		"timestamp" :1554728400
		},
	"2019-04-08T17:00:00+02:00" : {
		"windSpeed" : 1,
		"windDir" : 300,
		"rain" : 0,
		"cloudbase" : null,
		"flyability" : 0,
		"reason" : "windDir",
		"timestamp" :1554739200
		},
	"2019-04-08T20:00:00+02:00" : {
		"windSpeed" : 0.2,
		"windDir" : 97,
		"rain" : 1,
		"cloudbase" : null,
		"flyability" : 0,
		"reason" : "rain",
		"timestamp" :1554750000
		},
	"2019-04-08T23:00:00+02:00" : {
		"windSpeed" : 1.1,
		"windDir" : 37,
		"rain" : 0,
		"cloudbase" : null,
		"flyability" : 0,
		"reason" : "windDir",
		"timestamp" :1554760800
		},
	"2019-04-09T02:00:00+02:00" : {
		"windSpeed" : 0.8,
		"windDir" : 44,
		"rain" : 0,
		"cloudbase" : null,
		"flyability" : 0,
		"reason" : "windDir",
		"timestamp" :1554771600
		},
	"2019-04-09T05:00:00+02:00" : {
		"windSpeed" : 0.2,
		"windDir" : 105,
		"rain" : 0,
		"cloudbase" : 9200,
		"flyability" : 100,
		"reason" : "",
		"timestamp" :1554782400
		},
	"2019-04-09T08:00:00+02:00" : {
		"windSpeed" : 0.4,
		"windDir" : 52,
		"rain" : 0,
		"cloudbase" : null,
		"flyability" : 0,
		"reason" : "windDir",
		"timestamp" :1554793200
		},
	"2019-04-09T11:00:00+02:00" : {
		"windSpeed" : 2.4,
		"windDir" : 270,
		"rain" : 1,
		"cloudbase" : null,
		"flyability" : 0,
		"reason" : "rain",
		"timestamp" :1554804000
		},
	"2019-04-09T14:00:00+02:00" : {
		"windSpeed" : 1.6,
		"windDir" : 260,
		"rain" : 1,
		"cloudbase" : null,
		"flyability" : 0,
		"reason" : "rain",
		"timestamp" :1554814800
		},
	"2019-04-09T17:00:00+02:00" : {
		"windSpeed" : 3,
		"windDir" : 186,
		"rain" : 1,
		"cloudbase" : null,
		"flyability" : 0,
		"reason" : "windDir, rain",
		"timestamp" :1554825600
		},
	"2019-04-09T20:00:00+02:00" : {
		"windSpeed" : 1.1,
		"windDir" : 192,
		"rain" : 1,
		"cloudbase" : null,
		"flyability" : 0,
		"reason" : "windDir, rain",
		"timestamp" :1554836400
		},
	"2019-04-09T23:00:00+02:00" : {
		"windSpeed" : 1.2,
		"windDir" : 8,
		"rain" : 0,
		"cloudbase" : null,
		"flyability" : 0,
		"reason" : "windDir",
		"timestamp" :1554847200
		},
	"2019-04-10T02:00:00+02:00" : {
		"windSpeed" : 1.8,
		"windDir" : 39,
		"rain" : 0,
		"cloudbase" : null,
		"flyability" : 0,
		"reason" : "windDir",
		"timestamp" :1554858000
		},
	"2019-04-10T05:00:00+02:00" : {
		"windSpeed" : 1.8,
		"windDir" : 41,
		"rain" : 0,
		"cloudbase" : null,
		"flyability" : 0,
		"reason" : "windDir",
		"timestamp" :1554868800
		},
	"2019-04-10T08:00:00+02:00" : {
		"windSpeed" : 2.1,
		"windDir" : 46,
		"rain" : 0,
		"cloudbase" : 300,
		"flyability" : 0,
		"reason" : "windDir, cloudbase",
		"timestamp" :1554879600
		},
	"2019-04-10T11:00:00+02:00" : {
		"windSpeed" : 1,
		"windDir" : 344,
		"rain" : 1,
		"cloudbase" : null,
		"flyability" : 0,
		"reason" : "windDir, rain",
		"timestamp" :1554890400
		},
	"2019-04-10T14:00:00+02:00" : {
		"windSpeed" : 0.8,
		"windDir" : 344,
		"rain" : 1,
		"cloudbase" : null,
		"flyability" : 0,
		"reason" : "windDir, rain",
		"timestamp" :1554901200
		},
	"2019-04-10T17:00:00+02:00" : {
		"windSpeed" : 2.1,
		"windDir" : 64,
		"rain" : 0,
		"cloudbase" : 1750,
		"flyability" : 0,
		"reason" : "windDir",
		"timestamp" :1554912000
		},
	"2019-04-10T20:00:00+02:00" : {
		"windSpeed" : 1.4,
		"windDir" : 33,
		"rain" : 1,
		"cloudbase" : 7651.4792,
		"flyability" : 0,
		"reason" : "windDir, rain",
		"timestamp" :1554922800
		},
	"2019-04-10T23:00:00+02:00" : {
		"windSpeed" : 1.2,
		"windDir" : 21,
		"rain" : 0,
		"cloudbase" : 9916.0688,
		"flyability" : 0,
		"reason" : "windDir",
		"timestamp" :1554933600
		},
	"2019-04-11T02:00:00+02:00" : {
		"windSpeed" : 0.4,
		"windDir" : 309,
		"rain" : 0,
		"cloudbase" : 7879.1896,
		"flyability" : 0,
		"reason" : "windDir",
		"timestamp" :1554944400
		},
	"2019-04-11T05:00:00+02:00" : {
		"windSpeed" : 0.2,
		"windDir" : 110,
		"rain" : 0,
		"cloudbase" : 854.47319999973,
		"flyability" : 0,
		"reason" : "cloudbase",
		"timestamp" :1554955200
		},
	"2019-04-11T08:00:00+02:00" : {
		"windSpeed" : 1.6,
		"windDir" : 40,
		"rain" : 0,
		"cloudbase" : 5998.9687999999,
		"flyability" : 0,
		"reason" : "windDir",
		"timestamp" :1554966000
		},
	"2019-04-11T11:00:00+02:00" : {
		"windSpeed" : 1.7,
		"windDir" : 10,
		"rain" : 0,
		"cloudbase" : 2150.4696000001,
		"flyability" : 0,
		"reason" : "windDir",
		"timestamp" :1554976800
		},
	"2019-04-11T14:00:00+02:00" : {
		"windSpeed" : 1.5,
		"windDir" : 265,
		"rain" : 0,
		"cloudbase" : 6419.9764000003,
		"flyability" : 100,
		"reason" : "",
		"timestamp" :1554987600
		},
	"2019-04-11T17:00:00+02:00" : {
		"windSpeed" : 1.2,
		"windDir" : 197,
		"rain" : 0,
		"cloudbase" : 4912.3127999998,
		"flyability" : 0,
		"reason" : "windDir",
		"timestamp" :1554998400
		},
	"2019-04-11T20:00:00+02:00" : {
		"windSpeed" : 0.7,
		"windDir" : 18,
		"rain" : 1,
		"cloudbase" : 4928.2855999999,
		"flyability" : 0,
		"reason" : "windDir, rain",
		"timestamp" :1555009200
		},
	"2019-04-11T23:00:00+02:00" : {
		"windSpeed" : 0.7,
		"windDir" : 13,
		"rain" : 1,
		"cloudbase" : 5159.8935999996,
		"flyability" : 0,
		"reason" : "windDir, rain",
		"timestamp" :1555020000
		},
	"2019-04-12T02:00:00+02:00" : {
		"windSpeed" : 0.6,
		"windDir" : 172,
		"rain" : 1,
		"cloudbase" : 2108.424,
		"flyability" : 0,
		"reason" : "windDir, rain",
		"timestamp" :1555030800
		},
	"2019-04-12T05:00:00+02:00" : {
		"windSpeed" : 1.1,
		"windDir" : 173,
		"rain" : 1,
		"cloudbase" : 3279.7292000001,
		"flyability" : 0,
		"reason" : "windDir, rain",
		"timestamp" :1555041600
		},
	"2019-04-12T08:00:00+02:00" : {
		"windSpeed" : 1.5,
		"windDir" : 35,
		"rain" : 1,
		"cloudbase" : 4351.0284000004,
		"flyability" : 0,
		"reason" : "windDir, rain",
		"timestamp" :1555052400
		},
	"2019-04-12T11:00:00+02:00" : {
		"windSpeed" : 1.5,
		"windDir" : 11,
		"rain" : 1,
		"cloudbase" : 4270.3259199997,
		"flyability" : 0,
		"reason" : "windDir, rain",
		"timestamp" :1555063200
		},
	"2019-04-12T14:00:00+02:00" : {
		"windSpeed" : 1.4,
		"windDir" : 52,
		"rain" : 1,
		"cloudbase" : 4920.6495999994,
		"flyability" : 0,
		"reason" : "windDir, rain",
		"timestamp" :1555074000
		},
	"2019-04-12T17:00:00+02:00" : {
		"windSpeed" : 0.3,
		"windDir" : 15,
		"rain" : 1,
		"cloudbase" : null,
		"flyability" : 0,
		"reason" : "windDir, rain",
		"timestamp" :1555084800
		},
	"2019-04-12T20:00:00+02:00" : {
		"windSpeed" : 0.8,
		"windDir" : 52,
		"rain" : 1,
		"cloudbase" : null,
		"flyability" : 0,
		"reason" : "windDir, rain",
		"timestamp" :1555095600
		},
	"2019-04-12T23:00:00+02:00" : {
		"windSpeed" : 0.4,
		"windDir" : 53,
		"rain" : 0,
		"cloudbase" : null,
		"flyability" : 0,
		"reason" : "windDir",
		"timestamp" :1555106400
		},
	"2019-04-13T02:00:00+02:00" : {
		"windSpeed" : 0.4,
		"windDir" : 189,
		"rain" : 1,
		"cloudbase" : null,
		"flyability" : 0,
		"reason" : "windDir, rain",
		"timestamp" :1555117200
		},
	"2019-04-13T05:00:00+02:00" : {
		"windSpeed" : 0.8,
		"windDir" : 194,
		"rain" : 1,
		"cloudbase" : null,
		"flyability" : 0,
		"reason" : "windDir, rain",
		"timestamp" :1555128000
		},
	"2019-04-13T08:00:00+02:00" : {
		"windSpeed" : 1,
		"windDir" : 231,
		"rain" : 0,
		"cloudbase" : null,
		"flyability" : 0,
		"reason" : "windDir",
		"timestamp" :1555138800
		},
	"2019-04-13T11:00:00+02:00" : {
		"windSpeed" : 1.3,
		"windDir" : 254,
		"rain" : 1,
		"cloudbase" : null,
		"flyability" : 0,
		"reason" : "rain",
		"timestamp" :1555149600
		},
	"2019-04-13T14:00:00+02:00" : {
		"windSpeed" : 1.7,
		"windDir" : 272,
		"rain" : 0,
		"cloudbase" : null,
		"flyability" : 100,
		"reason" : "",
		"timestamp" :1555160400
		}
	}
}