{
"site" : "Pe\u00f1uelas",
"id" : 18843,
"orientations" : "00012100",
"forecasts" : { 
	"2019-04-16T23:00:00-04:00" : {
		"windSpeed" : 1.4,
		"windDir" : 22,
		"rain" : 0,
		"cloudbase" : null,
		"flyability" : 0,
		"reason" : "windDir",
		"timestamp" :1555473600
		},
	"2019-04-17T02:00:00-04:00" : {
		"windSpeed" : 1.6,
		"windDir" : 39,
		"rain" : 0,
		"cloudbase" : null,
		"flyability" : 0,
		"reason" : "windDir",
		"timestamp" :1555484400
		},
	"2019-04-17T05:00:00-04:00" : {
		"windSpeed" : 2.4,
		"windDir" : 68,
		"rain" : 0,
		"cloudbase" : null,
		"flyability" : 0,
		"reason" : "windDir",
		"timestamp" :1555495200
		},
	"2019-04-17T08:00:00-04:00" : {
		"windSpeed" : 3.8,
		"windDir" : 90,
		"rain" : 0,
		"cloudbase" : null,
		"flyability" : 0,
		"reason" : "windDir",
		"timestamp" :1555506000
		},
	"2019-04-17T11:00:00-04:00" : {
		"windSpeed" : 5.1,
		"windDir" : 121,
		"rain" : 0,
		"cloudbase" : 1663.3499999999,
		"flyability" : 0,
		"reason" : "windSpeed",
		"timestamp" :1555516800
		},
	"2019-04-17T14:00:00-04:00" : {
		"windSpeed" : 5.5,
		"windDir" : 125,
		"rain" : 1,
		"cloudbase" : 2750,
		"flyability" : 0,
		"reason" : "windSpeed, rain",
		"timestamp" :1555527600
		},
	"2019-04-17T17:00:00-04:00" : {
		"windSpeed" : 4.9,
		"windDir" : 124,
		"rain" : 1,
		"cloudbase" : null,
		"flyability" : 0,
		"reason" : "rain",
		"timestamp" :1555538400
		},
	"2019-04-17T20:00:00-04:00" : {
		"windSpeed" : 1.6,
		"windDir" : 76,
		"rain" : 1,
		"cloudbase" : null,
		"flyability" : 0,
		"reason" : "windDir, rain",
		"timestamp" :1555549200
		},
	"2019-04-17T23:00:00-04:00" : {
		"windSpeed" : 1.7,
		"windDir" : 33,
		"rain" : 0,
		"cloudbase" : null,
		"flyability" : 0,
		"reason" : "windDir",
		"timestamp" :1555560000
		},
	"2019-04-18T02:00:00-04:00" : {
		"windSpeed" : 2,
		"windDir" : 55,
		"rain" : 0,
		"cloudbase" : null,
		"flyability" : 0,
		"reason" : "windDir",
		"timestamp" :1555570800
		},
	"2019-04-18T05:00:00-04:00" : {
		"windSpeed" : 2.4,
		"windDir" : 65,
		"rain" : 0,
		"cloudbase" : null,
		"flyability" : 0,
		"reason" : "windDir",
		"timestamp" :1555581600
		},
	"2019-04-18T08:00:00-04:00" : {
		"windSpeed" : 3.2,
		"windDir" : 91,
		"rain" : 0,
		"cloudbase" : null,
		"flyability" : 0,
		"reason" : "windDir",
		"timestamp" :1555592400
		},
	"2019-04-18T11:00:00-04:00" : {
		"windSpeed" : 5.6,
		"windDir" : 118,
		"rain" : 0,
		"cloudbase" : 1500,
		"flyability" : 0,
		"reason" : "windSpeed",
		"timestamp" :1555603200
		},
	"2019-04-18T14:00:00-04:00" : {
		"windSpeed" : 5.9,
		"windDir" : 131,
		"rain" : 1,
		"cloudbase" : 2550,
		"flyability" : 0,
		"reason" : "windSpeed, rain",
		"timestamp" :1555614000
		},
	"2019-04-18T17:00:00-04:00" : {
		"windSpeed" : 5,
		"windDir" : 125,
		"rain" : 1,
		"cloudbase" : null,
		"flyability" : 0,
		"reason" : "rain",
		"timestamp" :1555624800
		},
	"2019-04-18T20:00:00-04:00" : {
		"windSpeed" : 2.1,
		"windDir" : 69,
		"rain" : 1,
		"cloudbase" : null,
		"flyability" : 0,
		"reason" : "windDir, rain",
		"timestamp" :1555635600
		},
	"2019-04-18T23:00:00-04:00" : {
		"windSpeed" : 2.5,
		"windDir" : 44,
		"rain" : 0,
		"cloudbase" : null,
		"flyability" : 0,
		"reason" : "windDir",
		"timestamp" :1555646400
		},
	"2019-04-19T02:00:00-04:00" : {
		"windSpeed" : 2.3,
		"windDir" : 57,
		"rain" : 0,
		"cloudbase" : null,
		"flyability" : 0,
		"reason" : "windDir",
		"timestamp" :1555657200
		},
	"2019-04-19T05:00:00-04:00" : {
		"windSpeed" : 2.7,
		"windDir" : 68,
		"rain" : 0,
		"cloudbase" : null,
		"flyability" : 0,
		"reason" : "windDir",
		"timestamp" :1555668000
		},
	"2019-04-19T08:00:00-04:00" : {
		"windSpeed" : 4.4,
		"windDir" : 83,
		"rain" : 0,
		"cloudbase" : null,
		"flyability" : 0,
		"reason" : "windDir",
		"timestamp" :1555678800
		},
	"2019-04-19T11:00:00-04:00" : {
		"windSpeed" : 6.1,
		"windDir" : 121,
		"rain" : 0,
		"cloudbase" : null,
		"flyability" : 0,
		"reason" : "windSpeed",
		"timestamp" :1555689600
		},
	"2019-04-19T14:00:00-04:00" : {
		"windSpeed" : 6.6,
		"windDir" : 130,
		"rain" : 0,
		"cloudbase" : null,
		"flyability" : 0,
		"reason" : "windSpeed",
		"timestamp" :1555700400
		},
	"2019-04-19T17:00:00-04:00" : {
		"windSpeed" : 5.9,
		"windDir" : 121,
		"rain" : 0,
		"cloudbase" : null,
		"flyability" : 0,
		"reason" : "windSpeed",
		"timestamp" :1555711200
		},
	"2019-04-19T20:00:00-04:00" : {
		"windSpeed" : 2.5,
		"windDir" : 82,
		"rain" : 0,
		"cloudbase" : null,
		"flyability" : 0,
		"reason" : "windDir",
		"timestamp" :1555722000
		},
	"2019-04-19T23:00:00-04:00" : {
		"windSpeed" : 2.4,
		"windDir" : 64,
		"rain" : 0,
		"cloudbase" : null,
		"flyability" : 0,
		"reason" : "windDir",
		"timestamp" :1555732800
		},
	"2019-04-20T02:00:00-04:00" : {
		"windSpeed" : 2.9,
		"windDir" : 77,
		"rain" : 0,
		"cloudbase" : null,
		"flyability" : 0,
		"reason" : "windDir",
		"timestamp" :1555743600
		},
	"2019-04-20T05:00:00-04:00" : {
		"windSpeed" : 2.6,
		"windDir" : 71,
		"rain" : 0,
		"cloudbase" : null,
		"flyability" : 0,
		"reason" : "windDir",
		"timestamp" :1555754400
		},
	"2019-04-20T08:00:00-04:00" : {
		"windSpeed" : 4.8,
		"windDir" : 96,
		"rain" : 0,
		"cloudbase" : null,
		"flyability" : 0,
		"reason" : "windDir",
		"timestamp" :1555765200
		},
	"2019-04-20T11:00:00-04:00" : {
		"windSpeed" : 6.1,
		"windDir" : 113,
		"rain" : 1,
		"cloudbase" : null,
		"flyability" : 0,
		"reason" : "windSpeed, rain",
		"timestamp" :1555776000
		},
	"2019-04-20T14:00:00-04:00" : {
		"windSpeed" : 5.6,
		"windDir" : 122,
		"rain" : 1,
		"cloudbase" : 1500,
		"flyability" : 0,
		"reason" : "windSpeed, rain",
		"timestamp" :1555786800
		},
	"2019-04-20T17:00:00-04:00" : {
		"windSpeed" : 5.1,
		"windDir" : 127,
		"rain" : 0,
		"cloudbase" : null,
		"flyability" : 0,
		"reason" : "windSpeed",
		"timestamp" :1555797600
		},
	"2019-04-20T20:00:00-04:00" : {
		"windSpeed" : 2.4,
		"windDir" : 70,
		"rain" : 0,
		"cloudbase" : null,
		"flyability" : 0,
		"reason" : "windDir",
		"timestamp" :1555808400
		},
	"2019-04-20T23:00:00-04:00" : {
		"windSpeed" : 2.2,
		"windDir" : 41,
		"rain" : 0,
		"cloudbase" : null,
		"flyability" : 0,
		"reason" : "windDir",
		"timestamp" :1555819200
		},
	"2019-04-21T02:00:00-04:00" : {
		"windSpeed" : 2.1,
		"windDir" : 52,
		"rain" : 0,
		"cloudbase" : null,
		"flyability" : 0,
		"reason" : "windDir",
		"timestamp" :1555830000
		},
	"2019-04-21T05:00:00-04:00" : {
		"windSpeed" : 2.5,
		"windDir" : 55,
		"rain" : 0,
		"cloudbase" : null,
		"flyability" : 0,
		"reason" : "windDir",
		"timestamp" :1555840800
		},
	"2019-04-21T08:00:00-04:00" : {
		"windSpeed" : 3.9,
		"windDir" : 84,
		"rain" : 0,
		"cloudbase" : null,
		"flyability" : 0,
		"reason" : "windDir",
		"timestamp" :1555851600
		},
	"2019-04-21T11:00:00-04:00" : {
		"windSpeed" : 5.7,
		"windDir" : 108,
		"rain" : 0,
		"cloudbase" : null,
		"flyability" : 0,
		"reason" : "windSpeed, windDir",
		"timestamp" :1555862400
		},
	"2019-04-21T14:00:00-04:00" : {
		"windSpeed" : 6.1,
		"windDir" : 123,
		"rain" : 1,
		"cloudbase" : 2100,
		"flyability" : 0,
		"reason" : "windSpeed, rain",
		"timestamp" :1555873200
		},
	"2019-04-21T17:00:00-04:00" : {
		"windSpeed" : 4,
		"windDir" : 118,
		"rain" : 1,
		"cloudbase" : null,
		"flyability" : 0,
		"reason" : "rain",
		"timestamp" :1555884000
		},
	"2019-04-21T20:00:00-04:00" : {
		"windSpeed" : 1.4,
		"windDir" : 30,
		"rain" : 1,
		"cloudbase" : null,
		"flyability" : 0,
		"reason" : "windDir, rain",
		"timestamp" :1555894800
		},
	"2019-04-21T23:00:00-04:00" : {
		"windSpeed" : 2.2,
		"windDir" : 36,
		"rain" : 0,
		"cloudbase" : null,
		"flyability" : 0,
		"reason" : "windDir",
		"timestamp" :1555905600
		},
	"2019-04-22T02:00:00-04:00" : {
		"windSpeed" : 1.8,
		"windDir" : 39,
		"rain" : 0,
		"cloudbase" : null,
		"flyability" : 0,
		"reason" : "windDir",
		"timestamp" :1555916400
		},
	"2019-04-22T05:00:00-04:00" : {
		"windSpeed" : 2.1,
		"windDir" : 28,
		"rain" : 0,
		"cloudbase" : null,
		"flyability" : 0,
		"reason" : "windDir",
		"timestamp" :1555927200
		},
	"2019-04-22T08:00:00-04:00" : {
		"windSpeed" : 3.7,
		"windDir" : 51,
		"rain" : 0,
		"cloudbase" : null,
		"flyability" : 0,
		"reason" : "windDir",
		"timestamp" :1555938000
		},
	"2019-04-22T11:00:00-04:00" : {
		"windSpeed" : 4,
		"windDir" : 72,
		"rain" : 0,
		"cloudbase" : 1783.4235,
		"flyability" : 0,
		"reason" : "windDir",
		"timestamp" :1555948800
		},
	"2019-04-22T14:00:00-04:00" : {
		"windSpeed" : 2,
		"windDir" : 94,
		"rain" : 1,
		"cloudbase" : null,
		"flyability" : 0,
		"reason" : "windDir, rain",
		"timestamp" :1555959600
		},
	"2019-04-22T17:00:00-04:00" : {
		"windSpeed" : 1.8,
		"windDir" : 272,
		"rain" : 1,
		"cloudbase" : null,
		"flyability" : 0,
		"reason" : "windDir, rain",
		"timestamp" :1555970400
		},
	"2019-04-22T20:00:00-04:00" : {
		"windSpeed" : 2.2,
		"windDir" : 23,
		"rain" : 0,
		"cloudbase" : null,
		"flyability" : 0,
		"reason" : "windDir",
		"timestamp" :1555981200
		}
	}
}