{
"site" : "Saint Pabu ",
"id" : 19191,
"orientations" : "22100000",
"forecasts" : { 
	"2019-04-07T05:00:00+02:00" : {
		"windSpeed" : 3.8,
		"windDir" : 82,
		"rain" : 1,
		"cloudbase" : null,
		"flyability" : 0,
		"reason" : "rain",
		"timestamp" :1554609600
		},
	"2019-04-07T08:00:00+02:00" : {
		"windSpeed" : 2.6,
		"windDir" : 66,
		"rain" : 0,
		"cloudbase" : 1050.06,
		"flyability" : 100,
		"reason" : "",
		"timestamp" :1554620400
		},
	"2019-04-07T11:00:00+02:00" : {
		"windSpeed" : 2.6,
		"windDir" : 140,
		"rain" : 0,
		"cloudbase" : 854.22000000009,
		"flyability" : 0,
		"reason" : "windDir",
		"timestamp" :1554631200
		},
	"2019-04-07T14:00:00+02:00" : {
		"windSpeed" : 4.8,
		"windDir" : 178,
		"rain" : 1,
		"cloudbase" : 1152.45,
		"flyability" : 0,
		"reason" : "windDir, rain",
		"timestamp" :1554642000
		},
	"2019-04-07T17:00:00+02:00" : {
		"windSpeed" : 4.7,
		"windDir" : 230,
		"rain" : 1,
		"cloudbase" : null,
		"flyability" : 0,
		"reason" : "windDir, rain",
		"timestamp" :1554652800
		},
	"2019-04-07T20:00:00+02:00" : {
		"windSpeed" : 4.3,
		"windDir" : 219,
		"rain" : 0,
		"cloudbase" : 700,
		"flyability" : 0,
		"reason" : "windDir",
		"timestamp" :1554663600
		},
	"2019-04-07T23:00:00+02:00" : {
		"windSpeed" : 2.4,
		"windDir" : 189,
		"rain" : 0,
		"cloudbase" : 8909.8,
		"flyability" : 0,
		"reason" : "windDir",
		"timestamp" :1554674400
		},
	"2019-04-08T02:00:00+02:00" : {
		"windSpeed" : 3.5,
		"windDir" : 144,
		"rain" : 0,
		"cloudbase" : 6086.1,
		"flyability" : 0,
		"reason" : "windDir",
		"timestamp" :1554685200
		},
	"2019-04-08T05:00:00+02:00" : {
		"windSpeed" : 4,
		"windDir" : 146,
		"rain" : 0,
		"cloudbase" : 7861,
		"flyability" : 0,
		"reason" : "windDir",
		"timestamp" :1554696000
		},
	"2019-04-08T08:00:00+02:00" : {
		"windSpeed" : 4.2,
		"windDir" : 143,
		"rain" : 0,
		"cloudbase" : 5065.2999999999,
		"flyability" : 0,
		"reason" : "windDir",
		"timestamp" :1554706800
		},
	"2019-04-08T11:00:00+02:00" : {
		"windSpeed" : 4.2,
		"windDir" : 143,
		"rain" : 1,
		"cloudbase" : 2148.25,
		"flyability" : 0,
		"reason" : "windDir, rain",
		"timestamp" :1554717600
		},
	"2019-04-08T14:00:00+02:00" : {
		"windSpeed" : 5.4,
		"windDir" : 153,
		"rain" : 1,
		"cloudbase" : 1577.35,
		"flyability" : 0,
		"reason" : "windSpeed, windDir, rain",
		"timestamp" :1554728400
		},
	"2019-04-08T17:00:00+02:00" : {
		"windSpeed" : 5.1,
		"windDir" : 163,
		"rain" : 1,
		"cloudbase" : 1675.9500000001,
		"flyability" : 0,
		"reason" : "windSpeed, windDir, rain",
		"timestamp" :1554739200
		},
	"2019-04-08T20:00:00+02:00" : {
		"windSpeed" : 3,
		"windDir" : 160,
		"rain" : 1,
		"cloudbase" : 4993.6500000004,
		"flyability" : 0,
		"reason" : "windDir, rain",
		"timestamp" :1554750000
		},
	"2019-04-08T23:00:00+02:00" : {
		"windSpeed" : 2.4,
		"windDir" : 140,
		"rain" : 0,
		"cloudbase" : 8122,
		"flyability" : 0,
		"reason" : "windDir",
		"timestamp" :1554760800
		},
	"2019-04-09T02:00:00+02:00" : {
		"windSpeed" : 2.4,
		"windDir" : 140,
		"rain" : 0,
		"cloudbase" : null,
		"flyability" : 0,
		"reason" : "windDir",
		"timestamp" :1554771600
		},
	"2019-04-09T05:00:00+02:00" : {
		"windSpeed" : 2.8,
		"windDir" : 146,
		"rain" : 0,
		"cloudbase" : null,
		"flyability" : 0,
		"reason" : "windDir",
		"timestamp" :1554782400
		},
	"2019-04-09T08:00:00+02:00" : {
		"windSpeed" : 2.9,
		"windDir" : 136,
		"rain" : 0,
		"cloudbase" : null,
		"flyability" : 0,
		"reason" : "windDir",
		"timestamp" :1554793200
		},
	"2019-04-09T11:00:00+02:00" : {
		"windSpeed" : 3.1,
		"windDir" : 150,
		"rain" : 0,
		"cloudbase" : null,
		"flyability" : 0,
		"reason" : "windDir",
		"timestamp" :1554804000
		},
	"2019-04-09T14:00:00+02:00" : {
		"windSpeed" : 1,
		"windDir" : 164,
		"rain" : 1,
		"cloudbase" : 780,
		"flyability" : 0,
		"reason" : "windDir, rain",
		"timestamp" :1554814800
		},
	"2019-04-09T17:00:00+02:00" : {
		"windSpeed" : 1.7,
		"windDir" : 48,
		"rain" : 0,
		"cloudbase" : 7700,
		"flyability" : 100,
		"reason" : "",
		"timestamp" :1554825600
		},
	"2019-04-09T20:00:00+02:00" : {
		"windSpeed" : 2.2,
		"windDir" : 77,
		"rain" : 1,
		"cloudbase" : 7416.7,
		"flyability" : 0,
		"reason" : "rain",
		"timestamp" :1554836400
		},
	"2019-04-09T23:00:00+02:00" : {
		"windSpeed" : 2,
		"windDir" : 76,
		"rain" : 0,
		"cloudbase" : null,
		"flyability" : 100,
		"reason" : "",
		"timestamp" :1554847200
		},
	"2019-04-10T02:00:00+02:00" : {
		"windSpeed" : 2.3,
		"windDir" : 59,
		"rain" : 0,
		"cloudbase" : null,
		"flyability" : 100,
		"reason" : "",
		"timestamp" :1554858000
		},
	"2019-04-10T05:00:00+02:00" : {
		"windSpeed" : 1.5,
		"windDir" : 2,
		"rain" : 0,
		"cloudbase" : 30,
		"flyability" : 100,
		"reason" : "",
		"timestamp" :1554868800
		},
	"2019-04-10T08:00:00+02:00" : {
		"windSpeed" : 1.9,
		"windDir" : 26,
		"rain" : 0,
		"cloudbase" : 30,
		"flyability" : 100,
		"reason" : "",
		"timestamp" :1554879600
		},
	"2019-04-10T11:00:00+02:00" : {
		"windSpeed" : 2.3,
		"windDir" : 360,
		"rain" : 0,
		"cloudbase" : null,
		"flyability" : 100,
		"reason" : "",
		"timestamp" :1554890400
		},
	"2019-04-10T14:00:00+02:00" : {
		"windSpeed" : 3,
		"windDir" : 356,
		"rain" : 1,
		"cloudbase" : null,
		"flyability" : 0,
		"reason" : "rain",
		"timestamp" :1554901200
		},
	"2019-04-10T17:00:00+02:00" : {
		"windSpeed" : 4.1,
		"windDir" : 9,
		"rain" : 0,
		"cloudbase" : null,
		"flyability" : 100,
		"reason" : "",
		"timestamp" :1554912000
		},
	"2019-04-10T20:00:00+02:00" : {
		"windSpeed" : 3.1,
		"windDir" : 26,
		"rain" : 0,
		"cloudbase" : null,
		"flyability" : 100,
		"reason" : "",
		"timestamp" :1554922800
		},
	"2019-04-10T23:00:00+02:00" : {
		"windSpeed" : 2,
		"windDir" : 31,
		"rain" : 0,
		"cloudbase" : null,
		"flyability" : 100,
		"reason" : "",
		"timestamp" :1554933600
		},
	"2019-04-11T02:00:00+02:00" : {
		"windSpeed" : 0.2,
		"windDir" : 346,
		"rain" : 0,
		"cloudbase" : 671.80000000001,
		"flyability" : 100,
		"reason" : "",
		"timestamp" :1554944400
		},
	"2019-04-11T05:00:00+02:00" : {
		"windSpeed" : 1.6,
		"windDir" : 53,
		"rain" : 0,
		"cloudbase" : 1550,
		"flyability" : 100,
		"reason" : "",
		"timestamp" :1554955200
		},
	"2019-04-11T08:00:00+02:00" : {
		"windSpeed" : 1.4,
		"windDir" : 21,
		"rain" : 0,
		"cloudbase" : null,
		"flyability" : 100,
		"reason" : "",
		"timestamp" :1554966000
		},
	"2019-04-11T11:00:00+02:00" : {
		"windSpeed" : 3.1,
		"windDir" : 43,
		"rain" : 1,
		"cloudbase" : 1076.05,
		"flyability" : 0,
		"reason" : "rain",
		"timestamp" :1554976800
		},
	"2019-04-11T14:00:00+02:00" : {
		"windSpeed" : 4.3,
		"windDir" : 43,
		"rain" : 0,
		"cloudbase" : 580,
		"flyability" : 100,
		"reason" : "",
		"timestamp" :1554987600
		},
	"2019-04-11T17:00:00+02:00" : {
		"windSpeed" : 4.1,
		"windDir" : 36,
		"rain" : 1,
		"cloudbase" : 1277.48,
		"flyability" : 0,
		"reason" : "rain",
		"timestamp" :1554998400
		},
	"2019-04-11T20:00:00+02:00" : {
		"windSpeed" : 4.1,
		"windDir" : 46,
		"rain" : 0,
		"cloudbase" : 1450,
		"flyability" : 100,
		"reason" : "",
		"timestamp" :1555009200
		},
	"2019-04-11T23:00:00+02:00" : {
		"windSpeed" : 3.8,
		"windDir" : 58,
		"rain" : 0,
		"cloudbase" : null,
		"flyability" : 100,
		"reason" : "",
		"timestamp" :1555020000
		},
	"2019-04-12T02:00:00+02:00" : {
		"windSpeed" : 2.3,
		"windDir" : 72,
		"rain" : 0,
		"cloudbase" : null,
		"flyability" : 100,
		"reason" : "",
		"timestamp" :1555030800
		},
	"2019-04-12T05:00:00+02:00" : {
		"windSpeed" : 2.9,
		"windDir" : 76,
		"rain" : 0,
		"cloudbase" : null,
		"flyability" : 100,
		"reason" : "",
		"timestamp" :1555041600
		},
	"2019-04-12T08:00:00+02:00" : {
		"windSpeed" : 3.9,
		"windDir" : 68,
		"rain" : 0,
		"cloudbase" : 780,
		"flyability" : 100,
		"reason" : "",
		"timestamp" :1555052400
		},
	"2019-04-12T11:00:00+02:00" : {
		"windSpeed" : 5.9,
		"windDir" : 69,
		"rain" : 0,
		"cloudbase" : 671.7,
		"flyability" : 0,
		"reason" : "windSpeed",
		"timestamp" :1555063200
		},
	"2019-04-12T14:00:00+02:00" : {
		"windSpeed" : 6,
		"windDir" : 53,
		"rain" : 0,
		"cloudbase" : 1100,
		"flyability" : 0,
		"reason" : "windSpeed",
		"timestamp" :1555074000
		},
	"2019-04-12T17:00:00+02:00" : {
		"windSpeed" : 7.6,
		"windDir" : 58,
		"rain" : 0,
		"cloudbase" : null,
		"flyability" : 0,
		"reason" : "windSpeed",
		"timestamp" :1555084800
		},
	"2019-04-12T20:00:00+02:00" : {
		"windSpeed" : 7,
		"windDir" : 64,
		"rain" : 1,
		"cloudbase" : null,
		"flyability" : 0,
		"reason" : "windSpeed, rain",
		"timestamp" :1555095600
		},
	"2019-04-12T23:00:00+02:00" : {
		"windSpeed" : 5.5,
		"windDir" : 74,
		"rain" : 0,
		"cloudbase" : null,
		"flyability" : 0,
		"reason" : "windSpeed",
		"timestamp" :1555106400
		},
	"2019-04-13T02:00:00+02:00" : {
		"windSpeed" : 4.7,
		"windDir" : 82,
		"rain" : 1,
		"cloudbase" : null,
		"flyability" : 0,
		"reason" : "rain",
		"timestamp" :1555117200
		}
	}
}