{
"site" : "Lago Seco San Marcos",
"id" : 19259,
"orientations" : "00001121",
"forecasts" : { 
	"2019-04-06T22:00:00-05:00" : {
		"windSpeed" : 1.4,
		"windDir" : 285,
		"rain" : 0,
		"cloudbase" : null,
		"flyability" : 100,
		"reason" : "",
		"timestamp" :1554602400
		},
	"2019-04-07T01:00:00-05:00" : {
		"windSpeed" : 1,
		"windDir" : 336,
		"rain" : 0,
		"cloudbase" : null,
		"flyability" : 100,
		"reason" : "",
		"timestamp" :1554613200
		},
	"2019-04-07T04:00:00-05:00" : {
		"windSpeed" : 0.9,
		"windDir" : 113,
		"rain" : 0,
		"cloudbase" : null,
		"flyability" : 0,
		"reason" : "windDir",
		"timestamp" :1554624000
		},
	"2019-04-07T07:00:00-05:00" : {
		"windSpeed" : 0.9,
		"windDir" : 123,
		"rain" : 0,
		"cloudbase" : null,
		"flyability" : 0,
		"reason" : "windDir",
		"timestamp" :1554634800
		},
	"2019-04-07T10:00:00-05:00" : {
		"windSpeed" : 1.6,
		"windDir" : 144,
		"rain" : 0,
		"cloudbase" : null,
		"flyability" : 0,
		"reason" : "windDir",
		"timestamp" :1554645600
		},
	"2019-04-07T13:00:00-05:00" : {
		"windSpeed" : 1.2,
		"windDir" : 264,
		"rain" : 0,
		"cloudbase" : null,
		"flyability" : 100,
		"reason" : "",
		"timestamp" :1554656400
		},
	"2019-04-07T16:00:00-05:00" : {
		"windSpeed" : 2.9,
		"windDir" : 274,
		"rain" : 0,
		"cloudbase" : null,
		"flyability" : 100,
		"reason" : "",
		"timestamp" :1554667200
		},
	"2019-04-07T19:00:00-05:00" : {
		"windSpeed" : 4.6,
		"windDir" : 253,
		"rain" : 0,
		"cloudbase" : null,
		"flyability" : 100,
		"reason" : "",
		"timestamp" :1554678000
		},
	"2019-04-07T22:00:00-05:00" : {
		"windSpeed" : 2.3,
		"windDir" : 288,
		"rain" : 0,
		"cloudbase" : null,
		"flyability" : 100,
		"reason" : "",
		"timestamp" :1554688800
		},
	"2019-04-08T01:00:00-05:00" : {
		"windSpeed" : 0.9,
		"windDir" : 324,
		"rain" : 0,
		"cloudbase" : null,
		"flyability" : 100,
		"reason" : "",
		"timestamp" :1554699600
		},
	"2019-04-08T04:00:00-05:00" : {
		"windSpeed" : 1,
		"windDir" : 137,
		"rain" : 0,
		"cloudbase" : null,
		"flyability" : 0,
		"reason" : "windDir",
		"timestamp" :1554710400
		},
	"2019-04-08T07:00:00-05:00" : {
		"windSpeed" : 0.8,
		"windDir" : 115,
		"rain" : 0,
		"cloudbase" : null,
		"flyability" : 0,
		"reason" : "windDir",
		"timestamp" :1554721200
		},
	"2019-04-08T10:00:00-05:00" : {
		"windSpeed" : 0.8,
		"windDir" : 155,
		"rain" : 0,
		"cloudbase" : null,
		"flyability" : 0,
		"reason" : "windDir",
		"timestamp" :1554732000
		},
	"2019-04-08T13:00:00-05:00" : {
		"windSpeed" : 0.3,
		"windDir" : 240,
		"rain" : 0,
		"cloudbase" : null,
		"flyability" : 100,
		"reason" : "",
		"timestamp" :1554742800
		},
	"2019-04-08T16:00:00-05:00" : {
		"windSpeed" : 1.6,
		"windDir" : 289,
		"rain" : 0,
		"cloudbase" : null,
		"flyability" : 100,
		"reason" : "",
		"timestamp" :1554753600
		},
	"2019-04-08T19:00:00-05:00" : {
		"windSpeed" : 3.1,
		"windDir" : 277,
		"rain" : 0,
		"cloudbase" : null,
		"flyability" : 100,
		"reason" : "",
		"timestamp" :1554764400
		},
	"2019-04-08T22:00:00-05:00" : {
		"windSpeed" : 1.2,
		"windDir" : 270,
		"rain" : 0,
		"cloudbase" : null,
		"flyability" : 100,
		"reason" : "",
		"timestamp" :1554775200
		},
	"2019-04-09T01:00:00-05:00" : {
		"windSpeed" : 0.5,
		"windDir" : 17,
		"rain" : 0,
		"cloudbase" : null,
		"flyability" : 0,
		"reason" : "windDir",
		"timestamp" :1554786000
		},
	"2019-04-09T04:00:00-05:00" : {
		"windSpeed" : 0.6,
		"windDir" : 64,
		"rain" : 0,
		"cloudbase" : null,
		"flyability" : 0,
		"reason" : "windDir",
		"timestamp" :1554796800
		},
	"2019-04-09T07:00:00-05:00" : {
		"windSpeed" : 1.1,
		"windDir" : 94,
		"rain" : 0,
		"cloudbase" : null,
		"flyability" : 0,
		"reason" : "windDir",
		"timestamp" :1554807600
		},
	"2019-04-09T10:00:00-05:00" : {
		"windSpeed" : 1.3,
		"windDir" : 94,
		"rain" : 0,
		"cloudbase" : null,
		"flyability" : 0,
		"reason" : "windDir",
		"timestamp" :1554818400
		},
	"2019-04-09T13:00:00-05:00" : {
		"windSpeed" : 1.4,
		"windDir" : 56,
		"rain" : 0,
		"cloudbase" : null,
		"flyability" : 0,
		"reason" : "windDir",
		"timestamp" :1554829200
		},
	"2019-04-09T16:00:00-05:00" : {
		"windSpeed" : 0.9,
		"windDir" : 342,
		"rain" : 0,
		"cloudbase" : null,
		"flyability" : 0,
		"reason" : "windDir",
		"timestamp" :1554840000
		},
	"2019-04-09T19:00:00-05:00" : {
		"windSpeed" : 1.6,
		"windDir" : 275,
		"rain" : 0,
		"cloudbase" : null,
		"flyability" : 100,
		"reason" : "",
		"timestamp" :1554850800
		},
	"2019-04-09T22:00:00-05:00" : {
		"windSpeed" : 2.4,
		"windDir" : 295,
		"rain" : 0,
		"cloudbase" : null,
		"flyability" : 100,
		"reason" : "",
		"timestamp" :1554861600
		},
	"2019-04-10T01:00:00-05:00" : {
		"windSpeed" : 1.2,
		"windDir" : 328,
		"rain" : 0,
		"cloudbase" : null,
		"flyability" : 100,
		"reason" : "",
		"timestamp" :1554872400
		},
	"2019-04-10T04:00:00-05:00" : {
		"windSpeed" : 0.8,
		"windDir" : 72,
		"rain" : 0,
		"cloudbase" : null,
		"flyability" : 0,
		"reason" : "windDir",
		"timestamp" :1554883200
		},
	"2019-04-10T07:00:00-05:00" : {
		"windSpeed" : 1.2,
		"windDir" : 122,
		"rain" : 0,
		"cloudbase" : null,
		"flyability" : 0,
		"reason" : "windDir",
		"timestamp" :1554894000
		},
	"2019-04-10T10:00:00-05:00" : {
		"windSpeed" : 0.6,
		"windDir" : 222,
		"rain" : 0,
		"cloudbase" : null,
		"flyability" : 100,
		"reason" : "",
		"timestamp" :1554904800
		},
	"2019-04-10T13:00:00-05:00" : {
		"windSpeed" : 2.9,
		"windDir" : 304,
		"rain" : 0,
		"cloudbase" : null,
		"flyability" : 100,
		"reason" : "",
		"timestamp" :1554915600
		},
	"2019-04-10T16:00:00-05:00" : {
		"windSpeed" : 3.7,
		"windDir" : 306,
		"rain" : 0,
		"cloudbase" : null,
		"flyability" : 100,
		"reason" : "",
		"timestamp" :1554926400
		},
	"2019-04-10T19:00:00-05:00" : {
		"windSpeed" : 5.4,
		"windDir" : 288,
		"rain" : 0,
		"cloudbase" : null,
		"flyability" : 0,
		"reason" : "windSpeed",
		"timestamp" :1554937200
		},
	"2019-04-10T22:00:00-05:00" : {
		"windSpeed" : 3.3,
		"windDir" : 291,
		"rain" : 0,
		"cloudbase" : null,
		"flyability" : 100,
		"reason" : "",
		"timestamp" :1554948000
		},
	"2019-04-11T01:00:00-05:00" : {
		"windSpeed" : 1.3,
		"windDir" : 297,
		"rain" : 0,
		"cloudbase" : null,
		"flyability" : 100,
		"reason" : "",
		"timestamp" :1554958800
		},
	"2019-04-11T04:00:00-05:00" : {
		"windSpeed" : 0.5,
		"windDir" : 18,
		"rain" : 0,
		"cloudbase" : null,
		"flyability" : 0,
		"reason" : "windDir",
		"timestamp" :1554969600
		},
	"2019-04-11T07:00:00-05:00" : {
		"windSpeed" : 0.4,
		"windDir" : 70,
		"rain" : 0,
		"cloudbase" : null,
		"flyability" : 0,
		"reason" : "windDir",
		"timestamp" :1554980400
		},
	"2019-04-11T10:00:00-05:00" : {
		"windSpeed" : 0.5,
		"windDir" : 281,
		"rain" : 0,
		"cloudbase" : null,
		"flyability" : 100,
		"reason" : "",
		"timestamp" :1554991200
		},
	"2019-04-11T13:00:00-05:00" : {
		"windSpeed" : 3.1,
		"windDir" : 309,
		"rain" : 0,
		"cloudbase" : null,
		"flyability" : 100,
		"reason" : "",
		"timestamp" :1555002000
		},
	"2019-04-11T16:00:00-05:00" : {
		"windSpeed" : 3.8,
		"windDir" : 290,
		"rain" : 0,
		"cloudbase" : null,
		"flyability" : 100,
		"reason" : "",
		"timestamp" :1555012800
		},
	"2019-04-11T19:00:00-05:00" : {
		"windSpeed" : 5.2,
		"windDir" : 289,
		"rain" : 0,
		"cloudbase" : null,
		"flyability" : 0,
		"reason" : "windSpeed",
		"timestamp" :1555023600
		},
	"2019-04-11T22:00:00-05:00" : {
		"windSpeed" : 2.6,
		"windDir" : 293,
		"rain" : 0,
		"cloudbase" : null,
		"flyability" : 100,
		"reason" : "",
		"timestamp" :1555034400
		},
	"2019-04-12T01:00:00-05:00" : {
		"windSpeed" : 1,
		"windDir" : 321,
		"rain" : 0,
		"cloudbase" : null,
		"flyability" : 100,
		"reason" : "",
		"timestamp" :1555045200
		},
	"2019-04-12T04:00:00-05:00" : {
		"windSpeed" : 1.1,
		"windDir" : 5,
		"rain" : 0,
		"cloudbase" : null,
		"flyability" : 0,
		"reason" : "windDir",
		"timestamp" :1555056000
		},
	"2019-04-12T07:00:00-05:00" : {
		"windSpeed" : 1,
		"windDir" : 129,
		"rain" : 0,
		"cloudbase" : null,
		"flyability" : 0,
		"reason" : "windDir",
		"timestamp" :1555066800
		},
	"2019-04-12T10:00:00-05:00" : {
		"windSpeed" : 0.3,
		"windDir" : 254,
		"rain" : 0,
		"cloudbase" : null,
		"flyability" : 100,
		"reason" : "",
		"timestamp" :1555077600
		},
	"2019-04-12T13:00:00-05:00" : {
		"windSpeed" : 2.7,
		"windDir" : 259,
		"rain" : 0,
		"cloudbase" : 11500,
		"flyability" : 100,
		"reason" : "",
		"timestamp" :1555088400
		},
	"2019-04-12T16:00:00-05:00" : {
		"windSpeed" : 5.1,
		"windDir" : 244,
		"rain" : 0,
		"cloudbase" : 11500,
		"flyability" : 0,
		"reason" : "windSpeed",
		"timestamp" :1555099200
		},
	"2019-04-12T19:00:00-05:00" : {
		"windSpeed" : 5.2,
		"windDir" : 258,
		"rain" : 0,
		"cloudbase" : 12000,
		"flyability" : 0,
		"reason" : "windSpeed",
		"timestamp" :1555110000
		}
	}
}