{
"site" : "Tognola",
"id" : 19265,
"orientations" : "11222101",
"forecasts" : { 
	"2019-04-20T05:00:00+02:00" : {
		"windSpeed" : 1,
		"windDir" : 354,
		"rain" : 0,
		"cloudbase" : null,
		"flyability" : 100,
		"reason" : "",
		"timestamp" :1555732800
		},
	"2019-04-20T08:00:00+02:00" : {
		"windSpeed" : 0.8,
		"windDir" : 350,
		"rain" : 0,
		"cloudbase" : null,
		"flyability" : 100,
		"reason" : "",
		"timestamp" :1555743600
		},
	"2019-04-20T11:00:00+02:00" : {
		"windSpeed" : 0.8,
		"windDir" : 115,
		"rain" : 0,
		"cloudbase" : null,
		"flyability" : 100,
		"reason" : "",
		"timestamp" :1555754400
		},
	"2019-04-20T14:00:00+02:00" : {
		"windSpeed" : 1.3,
		"windDir" : 129,
		"rain" : 0,
		"cloudbase" : null,
		"flyability" : 100,
		"reason" : "",
		"timestamp" :1555765200
		},
	"2019-04-20T17:00:00+02:00" : {
		"windSpeed" : 1.3,
		"windDir" : 147,
		"rain" : 0,
		"cloudbase" : null,
		"flyability" : 100,
		"reason" : "",
		"timestamp" :1555776000
		},
	"2019-04-20T20:00:00+02:00" : {
		"windSpeed" : 0.4,
		"windDir" : 328,
		"rain" : 0,
		"cloudbase" : null,
		"flyability" : 100,
		"reason" : "",
		"timestamp" :1555786800
		},
	"2019-04-20T23:00:00+02:00" : {
		"windSpeed" : 0.5,
		"windDir" : 5,
		"rain" : 0,
		"cloudbase" : null,
		"flyability" : 100,
		"reason" : "",
		"timestamp" :1555797600
		},
	"2019-04-21T02:00:00+02:00" : {
		"windSpeed" : 0.8,
		"windDir" : 350,
		"rain" : 0,
		"cloudbase" : 8271.9582,
		"flyability" : 100,
		"reason" : "",
		"timestamp" :1555808400
		},
	"2019-04-21T05:00:00+02:00" : {
		"windSpeed" : 0.6,
		"windDir" : 335,
		"rain" : 0,
		"cloudbase" : 8244.4746,
		"flyability" : 100,
		"reason" : "",
		"timestamp" :1555819200
		},
	"2019-04-21T08:00:00+02:00" : {
		"windSpeed" : 0.6,
		"windDir" : 346,
		"rain" : 0,
		"cloudbase" : 7355.6,
		"flyability" : 100,
		"reason" : "",
		"timestamp" :1555830000
		},
	"2019-04-21T11:00:00+02:00" : {
		"windSpeed" : 1,
		"windDir" : 191,
		"rain" : 0,
		"cloudbase" : null,
		"flyability" : 100,
		"reason" : "",
		"timestamp" :1555840800
		},
	"2019-04-21T14:00:00+02:00" : {
		"windSpeed" : 1.3,
		"windDir" : 167,
		"rain" : 0,
		"cloudbase" : null,
		"flyability" : 100,
		"reason" : "",
		"timestamp" :1555851600
		},
	"2019-04-21T17:00:00+02:00" : {
		"windSpeed" : 1.4,
		"windDir" : 164,
		"rain" : 0,
		"cloudbase" : null,
		"flyability" : 100,
		"reason" : "",
		"timestamp" :1555862400
		},
	"2019-04-21T20:00:00+02:00" : {
		"windSpeed" : 0.5,
		"windDir" : 213,
		"rain" : 0,
		"cloudbase" : null,
		"flyability" : 100,
		"reason" : "",
		"timestamp" :1555873200
		},
	"2019-04-21T23:00:00+02:00" : {
		"windSpeed" : 0.4,
		"windDir" : 340,
		"rain" : 0,
		"cloudbase" : null,
		"flyability" : 100,
		"reason" : "",
		"timestamp" :1555884000
		},
	"2019-04-22T02:00:00+02:00" : {
		"windSpeed" : 0.8,
		"windDir" : 350,
		"rain" : 0,
		"cloudbase" : 5396.7299999998,
		"flyability" : 100,
		"reason" : "",
		"timestamp" :1555894800
		},
	"2019-04-22T05:00:00+02:00" : {
		"windSpeed" : 0.8,
		"windDir" : 350,
		"rain" : 0,
		"cloudbase" : 8300,
		"flyability" : 100,
		"reason" : "",
		"timestamp" :1555905600
		},
	"2019-04-22T08:00:00+02:00" : {
		"windSpeed" : 0.5,
		"windDir" : 5,
		"rain" : 0,
		"cloudbase" : null,
		"flyability" : 100,
		"reason" : "",
		"timestamp" :1555916400
		},
	"2019-04-22T11:00:00+02:00" : {
		"windSpeed" : 1.1,
		"windDir" : 162,
		"rain" : 0,
		"cloudbase" : 7452.9836,
		"flyability" : 100,
		"reason" : "",
		"timestamp" :1555927200
		},
	"2019-04-22T14:00:00+02:00" : {
		"windSpeed" : 1.5,
		"windDir" : 157,
		"rain" : 0,
		"cloudbase" : 7347.6,
		"flyability" : 100,
		"reason" : "",
		"timestamp" :1555938000
		},
	"2019-04-22T17:00:00+02:00" : {
		"windSpeed" : 1.6,
		"windDir" : 148,
		"rain" : 0,
		"cloudbase" : 2974.8235200001,
		"flyability" : 100,
		"reason" : "",
		"timestamp" :1555948800
		},
	"2019-04-22T20:00:00+02:00" : {
		"windSpeed" : 1.2,
		"windDir" : 150,
		"rain" : 0,
		"cloudbase" : 1178.96427,
		"flyability" : 0,
		"reason" : "cloudbase",
		"timestamp" :1555959600
		},
	"2019-04-22T23:00:00+02:00" : {
		"windSpeed" : 0.9,
		"windDir" : 105,
		"rain" : 0,
		"cloudbase" : 465.37942000001,
		"flyability" : 0,
		"reason" : "cloudbase",
		"timestamp" :1555970400
		},
	"2019-04-23T02:00:00+02:00" : {
		"windSpeed" : 1.3,
		"windDir" : 88,
		"rain" : 1,
		"cloudbase" : 99.043729999997,
		"flyability" : 0,
		"reason" : "rain, cloudbase",
		"timestamp" :1555981200
		},
	"2019-04-23T05:00:00+02:00" : {
		"windSpeed" : 0.8,
		"windDir" : 72,
		"rain" : 1,
		"cloudbase" : 97.409099999997,
		"flyability" : 0,
		"reason" : "rain, cloudbase",
		"timestamp" :1555992000
		},
	"2019-04-23T08:00:00+02:00" : {
		"windSpeed" : 1.2,
		"windDir" : 102,
		"rain" : 1,
		"cloudbase" : 112.85492,
		"flyability" : 0,
		"reason" : "rain, cloudbase",
		"timestamp" :1556002800
		},
	"2019-04-23T11:00:00+02:00" : {
		"windSpeed" : 1.6,
		"windDir" : 101,
		"rain" : 1,
		"cloudbase" : 165.51132,
		"flyability" : 0,
		"reason" : "rain, cloudbase",
		"timestamp" :1556013600
		},
	"2019-04-23T14:00:00+02:00" : {
		"windSpeed" : 1.3,
		"windDir" : 81,
		"rain" : 1,
		"cloudbase" : 215.81402,
		"flyability" : 0,
		"reason" : "rain, cloudbase",
		"timestamp" :1556024400
		},
	"2019-04-23T17:00:00+02:00" : {
		"windSpeed" : 1.1,
		"windDir" : 80,
		"rain" : 1,
		"cloudbase" : 206.77148,
		"flyability" : 0,
		"reason" : "rain, cloudbase",
		"timestamp" :1556035200
		},
	"2019-04-23T20:00:00+02:00" : {
		"windSpeed" : 1,
		"windDir" : 17,
		"rain" : 1,
		"cloudbase" : 182.16901999999,
		"flyability" : 0,
		"reason" : "rain, cloudbase",
		"timestamp" :1556046000
		},
	"2019-04-23T23:00:00+02:00" : {
		"windSpeed" : 0.5,
		"windDir" : 14,
		"rain" : 1,
		"cloudbase" : 155.71619,
		"flyability" : 0,
		"reason" : "rain, cloudbase",
		"timestamp" :1556056800
		},
	"2019-04-24T02:00:00+02:00" : {
		"windSpeed" : 0.5,
		"windDir" : 21,
		"rain" : 1,
		"cloudbase" : 130.58664,
		"flyability" : 0,
		"reason" : "rain, cloudbase",
		"timestamp" :1556067600
		},
	"2019-04-24T05:00:00+02:00" : {
		"windSpeed" : 0.6,
		"windDir" : 78,
		"rain" : 0,
		"cloudbase" : 108.575,
		"flyability" : 0,
		"reason" : "cloudbase",
		"timestamp" :1556078400
		},
	"2019-04-24T08:00:00+02:00" : {
		"windSpeed" : 0.6,
		"windDir" : 78,
		"rain" : 1,
		"cloudbase" : 256.59909999999,
		"flyability" : 0,
		"reason" : "rain, cloudbase",
		"timestamp" :1556089200
		},
	"2019-04-24T11:00:00+02:00" : {
		"windSpeed" : 1.4,
		"windDir" : 158,
		"rain" : 1,
		"cloudbase" : null,
		"flyability" : 0,
		"reason" : "rain",
		"timestamp" :1556100000
		},
	"2019-04-24T14:00:00+02:00" : {
		"windSpeed" : 1.6,
		"windDir" : 159,
		"rain" : 1,
		"cloudbase" : 127.29746,
		"flyability" : 0,
		"reason" : "rain, cloudbase",
		"timestamp" :1556110800
		},
	"2019-04-24T17:00:00+02:00" : {
		"windSpeed" : 1.1,
		"windDir" : 152,
		"rain" : 1,
		"cloudbase" : 190,
		"flyability" : 0,
		"reason" : "rain, cloudbase",
		"timestamp" :1556121600
		},
	"2019-04-24T20:00:00+02:00" : {
		"windSpeed" : 1.1,
		"windDir" : 111,
		"rain" : 1,
		"cloudbase" : 1634.2079799999,
		"flyability" : 0,
		"reason" : "rain, cloudbase",
		"timestamp" :1556132400
		},
	"2019-04-24T23:00:00+02:00" : {
		"windSpeed" : 0.9,
		"windDir" : 30,
		"rain" : 0,
		"cloudbase" : 954.63743999998,
		"flyability" : 0,
		"reason" : "cloudbase",
		"timestamp" :1556143200
		},
	"2019-04-25T02:00:00+02:00" : {
		"windSpeed" : 0.9,
		"windDir" : 30,
		"rain" : 0,
		"cloudbase" : 58.894919999999,
		"flyability" : 0,
		"reason" : "cloudbase",
		"timestamp" :1556154000
		},
	"2019-04-25T05:00:00+02:00" : {
		"windSpeed" : 1,
		"windDir" : 42,
		"rain" : 1,
		"cloudbase" : 76.243279999998,
		"flyability" : 0,
		"reason" : "rain, cloudbase",
		"timestamp" :1556164800
		},
	"2019-04-25T08:00:00+02:00" : {
		"windSpeed" : 1.6,
		"windDir" : 108,
		"rain" : 1,
		"cloudbase" : 93.591639999997,
		"flyability" : 0,
		"reason" : "rain, cloudbase",
		"timestamp" :1556175600
		},
	"2019-04-25T11:00:00+02:00" : {
		"windSpeed" : 1.9,
		"windDir" : 108,
		"rain" : 1,
		"cloudbase" : 178.34537,
		"flyability" : 0,
		"reason" : "rain, cloudbase",
		"timestamp" :1556186400
		},
	"2019-04-25T14:00:00+02:00" : {
		"windSpeed" : 1.6,
		"windDir" : 135,
		"rain" : 1,
		"cloudbase" : 75.050820000001,
		"flyability" : 0,
		"reason" : "rain, cloudbase",
		"timestamp" :1556197200
		},
	"2019-04-25T17:00:00+02:00" : {
		"windSpeed" : 1.5,
		"windDir" : 124,
		"rain" : 1,
		"cloudbase" : 52.93365,
		"flyability" : 0,
		"reason" : "rain, cloudbase",
		"timestamp" :1556208000
		},
	"2019-04-25T20:00:00+02:00" : {
		"windSpeed" : 1.5,
		"windDir" : 137,
		"rain" : 1,
		"cloudbase" : 40.312539999999,
		"flyability" : 0,
		"reason" : "rain, cloudbase",
		"timestamp" :1556218800
		},
	"2019-04-25T23:00:00+02:00" : {
		"windSpeed" : 1.5,
		"windDir" : 121,
		"rain" : 1,
		"cloudbase" : 30,
		"flyability" : 0,
		"reason" : "rain, cloudbase",
		"timestamp" :1556229600
		},
	"2019-04-26T02:00:00+02:00" : {
		"windSpeed" : 1.3,
		"windDir" : 140,
		"rain" : 1,
		"cloudbase" : 30,
		"flyability" : 0,
		"reason" : "rain, cloudbase",
		"timestamp" :1556240400
		}
	}
}