{
"site" : "Gavorrano",
"id" : 19423,
"orientations" : "00000122",
"forecasts" : { 
	"2019-04-20T17:00:00+02:00" : {
		"windSpeed" : 3,
		"windDir" : 229,
		"rain" : 0,
		"cloudbase" : 9854.7,
		"flyability" : 100,
		"reason" : "",
		"timestamp" :1555776000
		},
	"2019-04-20T20:00:00+02:00" : {
		"windSpeed" : 1.2,
		"windDir" : 329,
		"rain" : 0,
		"cloudbase" : 7418.4,
		"flyability" : 100,
		"reason" : "",
		"timestamp" :1555786800
		},
	"2019-04-20T23:00:00+02:00" : {
		"windSpeed" : 0.8,
		"windDir" : 52,
		"rain" : 0,
		"cloudbase" : 8740,
		"flyability" : 0,
		"reason" : "windDir",
		"timestamp" :1555797600
		},
	"2019-04-21T02:00:00+02:00" : {
		"windSpeed" : 2.4,
		"windDir" : 63,
		"rain" : 0,
		"cloudbase" : 5933.1,
		"flyability" : 0,
		"reason" : "windDir",
		"timestamp" :1555808400
		},
	"2019-04-21T05:00:00+02:00" : {
		"windSpeed" : 1.9,
		"windDir" : 55,
		"rain" : 0,
		"cloudbase" : 4809.1,
		"flyability" : 0,
		"reason" : "windDir",
		"timestamp" :1555819200
		},
	"2019-04-21T08:00:00+02:00" : {
		"windSpeed" : 1.6,
		"windDir" : 66,
		"rain" : 1,
		"cloudbase" : 3804.15,
		"flyability" : 0,
		"reason" : "windDir, rain",
		"timestamp" :1555830000
		},
	"2019-04-21T11:00:00+02:00" : {
		"windSpeed" : 2.1,
		"windDir" : 78,
		"rain" : 0,
		"cloudbase" : 5758.3000000005,
		"flyability" : 0,
		"reason" : "windDir",
		"timestamp" :1555840800
		},
	"2019-04-21T14:00:00+02:00" : {
		"windSpeed" : 1.5,
		"windDir" : 132,
		"rain" : 0,
		"cloudbase" : 10425,
		"flyability" : 0,
		"reason" : "windDir",
		"timestamp" :1555851600
		},
	"2019-04-21T17:00:00+02:00" : {
		"windSpeed" : 2.9,
		"windDir" : 226,
		"rain" : 0,
		"cloudbase" : 10457.500000001,
		"flyability" : 100,
		"reason" : "",
		"timestamp" :1555862400
		},
	"2019-04-21T20:00:00+02:00" : {
		"windSpeed" : 1,
		"windDir" : 212,
		"rain" : 0,
		"cloudbase" : 10500,
		"flyability" : 100,
		"reason" : "",
		"timestamp" :1555873200
		},
	"2019-04-21T23:00:00+02:00" : {
		"windSpeed" : 0.7,
		"windDir" : 44,
		"rain" : 0,
		"cloudbase" : 7271.8,
		"flyability" : 0,
		"reason" : "windDir",
		"timestamp" :1555884000
		},
	"2019-04-22T02:00:00+02:00" : {
		"windSpeed" : 1.8,
		"windDir" : 35,
		"rain" : 0,
		"cloudbase" : 5918.7,
		"flyability" : 0,
		"reason" : "windDir",
		"timestamp" :1555894800
		},
	"2019-04-22T05:00:00+02:00" : {
		"windSpeed" : 2.4,
		"windDir" : 61,
		"rain" : 1,
		"cloudbase" : 6934.6000000001,
		"flyability" : 0,
		"reason" : "windDir, rain",
		"timestamp" :1555905600
		},
	"2019-04-22T08:00:00+02:00" : {
		"windSpeed" : 3.6,
		"windDir" : 62,
		"rain" : 0,
		"cloudbase" : 9585,
		"flyability" : 0,
		"reason" : "windDir",
		"timestamp" :1555916400
		},
	"2019-04-22T11:00:00+02:00" : {
		"windSpeed" : 3.2,
		"windDir" : 72,
		"rain" : 0,
		"cloudbase" : 9585,
		"flyability" : 0,
		"reason" : "windDir",
		"timestamp" :1555927200
		},
	"2019-04-22T14:00:00+02:00" : {
		"windSpeed" : 2.2,
		"windDir" : 142,
		"rain" : 0,
		"cloudbase" : 7300,
		"flyability" : 0,
		"reason" : "windDir",
		"timestamp" :1555938000
		},
	"2019-04-22T17:00:00+02:00" : {
		"windSpeed" : 4.5,
		"windDir" : 164,
		"rain" : 1,
		"cloudbase" : 5729.4,
		"flyability" : 0,
		"reason" : "windDir, rain",
		"timestamp" :1555948800
		},
	"2019-04-22T20:00:00+02:00" : {
		"windSpeed" : 1.8,
		"windDir" : 54,
		"rain" : 1,
		"cloudbase" : 4842.9999999999,
		"flyability" : 0,
		"reason" : "windDir, rain",
		"timestamp" :1555959600
		},
	"2019-04-22T23:00:00+02:00" : {
		"windSpeed" : 2.1,
		"windDir" : 74,
		"rain" : 1,
		"cloudbase" : 1296,
		"flyability" : 0,
		"reason" : "windDir, rain",
		"timestamp" :1555970400
		},
	"2019-04-23T02:00:00+02:00" : {
		"windSpeed" : 3,
		"windDir" : 60,
		"rain" : 0,
		"cloudbase" : 1653.7,
		"flyability" : 0,
		"reason" : "windDir",
		"timestamp" :1555981200
		},
	"2019-04-23T05:00:00+02:00" : {
		"windSpeed" : 3.6,
		"windDir" : 82,
		"rain" : 1,
		"cloudbase" : 8766.3,
		"flyability" : 0,
		"reason" : "windDir, rain",
		"timestamp" :1555992000
		},
	"2019-04-23T08:00:00+02:00" : {
		"windSpeed" : 3.6,
		"windDir" : 91,
		"rain" : 1,
		"cloudbase" : 970.88,
		"flyability" : 0,
		"reason" : "windDir, rain",
		"timestamp" :1556002800
		},
	"2019-04-23T11:00:00+02:00" : {
		"windSpeed" : 6.1,
		"windDir" : 144,
		"rain" : 1,
		"cloudbase" : 617.75999999997,
		"flyability" : 0,
		"reason" : "windSpeed, windDir, rain",
		"timestamp" :1556013600
		},
	"2019-04-23T14:00:00+02:00" : {
		"windSpeed" : 5.2,
		"windDir" : 159,
		"rain" : 1,
		"cloudbase" : 321.76000000001,
		"flyability" : 0,
		"reason" : "windSpeed, windDir, rain, cloudbase",
		"timestamp" :1556024400
		},
	"2019-04-23T17:00:00+02:00" : {
		"windSpeed" : 4.6,
		"windDir" : 168,
		"rain" : 1,
		"cloudbase" : null,
		"flyability" : 0,
		"reason" : "windDir, rain",
		"timestamp" :1556035200
		},
	"2019-04-23T20:00:00+02:00" : {
		"windSpeed" : 3.6,
		"windDir" : 145,
		"rain" : 1,
		"cloudbase" : null,
		"flyability" : 0,
		"reason" : "windDir, rain",
		"timestamp" :1556046000
		},
	"2019-04-23T23:00:00+02:00" : {
		"windSpeed" : 3.2,
		"windDir" : 129,
		"rain" : 1,
		"cloudbase" : 8599.7,
		"flyability" : 0,
		"reason" : "windDir, rain",
		"timestamp" :1556056800
		},
	"2019-04-24T02:00:00+02:00" : {
		"windSpeed" : 2.8,
		"windDir" : 133,
		"rain" : 0,
		"cloudbase" : null,
		"flyability" : 0,
		"reason" : "windDir",
		"timestamp" :1556067600
		},
	"2019-04-24T05:00:00+02:00" : {
		"windSpeed" : 2.4,
		"windDir" : 116,
		"rain" : 0,
		"cloudbase" : 195.03,
		"flyability" : 0,
		"reason" : "windDir, cloudbase",
		"timestamp" :1556078400
		},
	"2019-04-24T08:00:00+02:00" : {
		"windSpeed" : 3.7,
		"windDir" : 124,
		"rain" : 1,
		"cloudbase" : 182.13,
		"flyability" : 0,
		"reason" : "windDir, rain, cloudbase",
		"timestamp" :1556089200
		},
	"2019-04-24T11:00:00+02:00" : {
		"windSpeed" : 2.7,
		"windDir" : 158,
		"rain" : 1,
		"cloudbase" : 7081.1000000005,
		"flyability" : 0,
		"reason" : "windDir, rain",
		"timestamp" :1556100000
		},
	"2019-04-24T14:00:00+02:00" : {
		"windSpeed" : 3,
		"windDir" : 170,
		"rain" : 0,
		"cloudbase" : null,
		"flyability" : 0,
		"reason" : "windDir",
		"timestamp" :1556110800
		},
	"2019-04-24T17:00:00+02:00" : {
		"windSpeed" : 2.1,
		"windDir" : 194,
		"rain" : 0,
		"cloudbase" : 10500,
		"flyability" : 0,
		"reason" : "windDir",
		"timestamp" :1556121600
		},
	"2019-04-24T20:00:00+02:00" : {
		"windSpeed" : 1.1,
		"windDir" : 154,
		"rain" : 1,
		"cloudbase" : 9000.3,
		"flyability" : 0,
		"reason" : "windDir, rain",
		"timestamp" :1556132400
		},
	"2019-04-24T23:00:00+02:00" : {
		"windSpeed" : 1.6,
		"windDir" : 109,
		"rain" : 1,
		"cloudbase" : 5517,
		"flyability" : 0,
		"reason" : "windDir, rain",
		"timestamp" :1556143200
		},
	"2019-04-25T02:00:00+02:00" : {
		"windSpeed" : 1,
		"windDir" : 90,
		"rain" : 0,
		"cloudbase" : null,
		"flyability" : 0,
		"reason" : "windDir",
		"timestamp" :1556154000
		},
	"2019-04-25T05:00:00+02:00" : {
		"windSpeed" : 0.1,
		"windDir" : 353,
		"rain" : 1,
		"cloudbase" : 389.63999999998,
		"flyability" : 0,
		"reason" : "windDir, rain, cloudbase",
		"timestamp" :1556164800
		},
	"2019-04-25T08:00:00+02:00" : {
		"windSpeed" : 1.6,
		"windDir" : 3,
		"rain" : 1,
		"cloudbase" : 679.92000000004,
		"flyability" : 0,
		"reason" : "windDir, rain",
		"timestamp" :1556175600
		},
	"2019-04-25T11:00:00+02:00" : {
		"windSpeed" : 1.5,
		"windDir" : 137,
		"rain" : 0,
		"cloudbase" : 1051,
		"flyability" : 0,
		"reason" : "windDir",
		"timestamp" :1556186400
		},
	"2019-04-25T14:00:00+02:00" : {
		"windSpeed" : 3.1,
		"windDir" : 197,
		"rain" : 0,
		"cloudbase" : null,
		"flyability" : 0,
		"reason" : "windDir",
		"timestamp" :1556197200
		},
	"2019-04-25T17:00:00+02:00" : {
		"windSpeed" : 2.2,
		"windDir" : 191,
		"rain" : 1,
		"cloudbase" : 10925,
		"flyability" : 0,
		"reason" : "windDir, rain",
		"timestamp" :1556208000
		},
	"2019-04-25T20:00:00+02:00" : {
		"windSpeed" : 1,
		"windDir" : 265,
		"rain" : 1,
		"cloudbase" : 9169.0000000001,
		"flyability" : 0,
		"reason" : "rain",
		"timestamp" :1556218800
		},
	"2019-04-25T23:00:00+02:00" : {
		"windSpeed" : 0.7,
		"windDir" : 45,
		"rain" : 1,
		"cloudbase" : 8785,
		"flyability" : 0,
		"reason" : "windDir, rain",
		"timestamp" :1556229600
		},
	"2019-04-26T02:00:00+02:00" : {
		"windSpeed" : 1,
		"windDir" : 90,
		"rain" : 1,
		"cloudbase" : 8700,
		"flyability" : 0,
		"reason" : "windDir, rain",
		"timestamp" :1556240400
		},
	"2019-04-26T05:00:00+02:00" : {
		"windSpeed" : 1.6,
		"windDir" : 105,
		"rain" : 1,
		"cloudbase" : 30,
		"flyability" : 0,
		"reason" : "windDir, rain, cloudbase",
		"timestamp" :1556251200
		},
	"2019-04-26T08:00:00+02:00" : {
		"windSpeed" : 2.2,
		"windDir" : 115,
		"rain" : 1,
		"cloudbase" : null,
		"flyability" : 0,
		"reason" : "windDir, rain",
		"timestamp" :1556262000
		},
	"2019-04-26T11:00:00+02:00" : {
		"windSpeed" : 5,
		"windDir" : 175,
		"rain" : 1,
		"cloudbase" : null,
		"flyability" : 0,
		"reason" : "windDir, rain",
		"timestamp" :1556272800
		},
	"2019-04-26T14:00:00+02:00" : {
		"windSpeed" : 5.6,
		"windDir" : 191,
		"rain" : 1,
		"cloudbase" : 3302.95,
		"flyability" : 0,
		"reason" : "windSpeed, windDir, rain",
		"timestamp" :1556283600
		}
	}
}