{
"site" : "pente ecole Marennes",
"id" : 19576,
"orientations" : "22000002",
"forecasts" : { 
	"2019-04-18T05:00:00+02:00" : {
		"windSpeed" : 4.4,
		"windDir" : 167,
		"rain" : 0,
		"cloudbase" : 8533.9600000002,
		"flyability" : 0,
		"reason" : "windDir",
		"timestamp" :1555560000
		},
	"2019-04-18T08:00:00+02:00" : {
		"windSpeed" : 3.9,
		"windDir" : 165,
		"rain" : 0,
		"cloudbase" : 9701,
		"flyability" : 0,
		"reason" : "windDir",
		"timestamp" :1555570800
		},
	"2019-04-18T11:00:00+02:00" : {
		"windSpeed" : 5.6,
		"windDir" : 165,
		"rain" : 0,
		"cloudbase" : null,
		"flyability" : 0,
		"reason" : "windSpeed, windDir",
		"timestamp" :1555581600
		},
	"2019-04-18T14:00:00+02:00" : {
		"windSpeed" : 5.5,
		"windDir" : 174,
		"rain" : 0,
		"cloudbase" : 10500,
		"flyability" : 0,
		"reason" : "windSpeed, windDir",
		"timestamp" :1555592400
		},
	"2019-04-18T17:00:00+02:00" : {
		"windSpeed" : 5,
		"windDir" : 174,
		"rain" : 0,
		"cloudbase" : 10900.9,
		"flyability" : 0,
		"reason" : "windDir",
		"timestamp" :1555603200
		},
	"2019-04-18T20:00:00+02:00" : {
		"windSpeed" : 3.2,
		"windDir" : 152,
		"rain" : 0,
		"cloudbase" : null,
		"flyability" : 0,
		"reason" : "windDir",
		"timestamp" :1555614000
		},
	"2019-04-18T23:00:00+02:00" : {
		"windSpeed" : 3.5,
		"windDir" : 181,
		"rain" : 0,
		"cloudbase" : 9335.18,
		"flyability" : 0,
		"reason" : "windDir",
		"timestamp" :1555624800
		},
	"2019-04-19T02:00:00+02:00" : {
		"windSpeed" : 3.3,
		"windDir" : 180,
		"rain" : 0,
		"cloudbase" : 9200,
		"flyability" : 0,
		"reason" : "windDir",
		"timestamp" :1555635600
		},
	"2019-04-19T05:00:00+02:00" : {
		"windSpeed" : 2.9,
		"windDir" : 180,
		"rain" : 0,
		"cloudbase" : 8765.6400000001,
		"flyability" : 0,
		"reason" : "windDir",
		"timestamp" :1555646400
		},
	"2019-04-19T08:00:00+02:00" : {
		"windSpeed" : 2.3,
		"windDir" : 178,
		"rain" : 0,
		"cloudbase" : null,
		"flyability" : 0,
		"reason" : "windDir",
		"timestamp" :1555657200
		},
	"2019-04-19T11:00:00+02:00" : {
		"windSpeed" : 2.5,
		"windDir" : 189,
		"rain" : 0,
		"cloudbase" : null,
		"flyability" : 0,
		"reason" : "windDir",
		"timestamp" :1555668000
		},
	"2019-04-19T14:00:00+02:00" : {
		"windSpeed" : 1,
		"windDir" : 175,
		"rain" : 0,
		"cloudbase" : null,
		"flyability" : 0,
		"reason" : "windDir",
		"timestamp" :1555678800
		},
	"2019-04-19T17:00:00+02:00" : {
		"windSpeed" : 1.2,
		"windDir" : 149,
		"rain" : 0,
		"cloudbase" : null,
		"flyability" : 0,
		"reason" : "windDir",
		"timestamp" :1555689600
		},
	"2019-04-19T20:00:00+02:00" : {
		"windSpeed" : 2,
		"windDir" : 163,
		"rain" : 0,
		"cloudbase" : null,
		"flyability" : 0,
		"reason" : "windDir",
		"timestamp" :1555700400
		},
	"2019-04-19T23:00:00+02:00" : {
		"windSpeed" : 2.8,
		"windDir" : 176,
		"rain" : 0,
		"cloudbase" : 2850,
		"flyability" : 0,
		"reason" : "windDir",
		"timestamp" :1555711200
		},
	"2019-04-20T02:00:00+02:00" : {
		"windSpeed" : 2.2,
		"windDir" : 202,
		"rain" : 0,
		"cloudbase" : null,
		"flyability" : 0,
		"reason" : "windDir",
		"timestamp" :1555722000
		},
	"2019-04-20T05:00:00+02:00" : {
		"windSpeed" : 1.6,
		"windDir" : 342,
		"rain" : 0,
		"cloudbase" : null,
		"flyability" : 100,
		"reason" : "",
		"timestamp" :1555732800
		},
	"2019-04-20T08:00:00+02:00" : {
		"windSpeed" : 1,
		"windDir" : 211,
		"rain" : 0,
		"cloudbase" : 7100,
		"flyability" : 0,
		"reason" : "windDir",
		"timestamp" :1555743600
		},
	"2019-04-20T11:00:00+02:00" : {
		"windSpeed" : 0.6,
		"windDir" : 303,
		"rain" : 1,
		"cloudbase" : null,
		"flyability" : 0,
		"reason" : "rain",
		"timestamp" :1555754400
		},
	"2019-04-20T14:00:00+02:00" : {
		"windSpeed" : 2.4,
		"windDir" : 38,
		"rain" : 0,
		"cloudbase" : null,
		"flyability" : 100,
		"reason" : "",
		"timestamp" :1555765200
		},
	"2019-04-20T17:00:00+02:00" : {
		"windSpeed" : 3.5,
		"windDir" : 45,
		"rain" : 0,
		"cloudbase" : null,
		"flyability" : 100,
		"reason" : "",
		"timestamp" :1555776000
		},
	"2019-04-20T20:00:00+02:00" : {
		"windSpeed" : 1.6,
		"windDir" : 18,
		"rain" : 0,
		"cloudbase" : null,
		"flyability" : 100,
		"reason" : "",
		"timestamp" :1555786800
		},
	"2019-04-20T23:00:00+02:00" : {
		"windSpeed" : 1.5,
		"windDir" : 353,
		"rain" : 0,
		"cloudbase" : null,
		"flyability" : 100,
		"reason" : "",
		"timestamp" :1555797600
		},
	"2019-04-21T02:00:00+02:00" : {
		"windSpeed" : 0.8,
		"windDir" : 320,
		"rain" : 0,
		"cloudbase" : null,
		"flyability" : 100,
		"reason" : "",
		"timestamp" :1555808400
		},
	"2019-04-21T05:00:00+02:00" : {
		"windSpeed" : 1.4,
		"windDir" : 0,
		"rain" : 0,
		"cloudbase" : 3523.6800000001,
		"flyability" : 100,
		"reason" : "",
		"timestamp" :1555819200
		},
	"2019-04-21T08:00:00+02:00" : {
		"windSpeed" : 1.7,
		"windDir" : 327,
		"rain" : 0,
		"cloudbase" : 39.9,
		"flyability" : 0,
		"reason" : "cloudbase",
		"timestamp" :1555830000
		},
	"2019-04-21T11:00:00+02:00" : {
		"windSpeed" : 0.9,
		"windDir" : 0,
		"rain" : 0,
		"cloudbase" : 6600,
		"flyability" : 100,
		"reason" : "",
		"timestamp" :1555840800
		},
	"2019-04-21T14:00:00+02:00" : {
		"windSpeed" : 1.4,
		"windDir" : 50,
		"rain" : 0,
		"cloudbase" : 8300,
		"flyability" : 100,
		"reason" : "",
		"timestamp" :1555851600
		},
	"2019-04-21T17:00:00+02:00" : {
		"windSpeed" : 3.7,
		"windDir" : 193,
		"rain" : 0,
		"cloudbase" : 4720.0700000001,
		"flyability" : 0,
		"reason" : "windDir",
		"timestamp" :1555862400
		},
	"2019-04-21T20:00:00+02:00" : {
		"windSpeed" : 2,
		"windDir" : 171,
		"rain" : 0,
		"cloudbase" : 8457.64,
		"flyability" : 0,
		"reason" : "windDir",
		"timestamp" :1555873200
		},
	"2019-04-21T23:00:00+02:00" : {
		"windSpeed" : 1.2,
		"windDir" : 210,
		"rain" : 1,
		"cloudbase" : null,
		"flyability" : 0,
		"reason" : "windDir, rain",
		"timestamp" :1555884000
		},
	"2019-04-22T02:00:00+02:00" : {
		"windSpeed" : 0.5,
		"windDir" : 190,
		"rain" : 0,
		"cloudbase" : 9400,
		"flyability" : 0,
		"reason" : "windDir",
		"timestamp" :1555894800
		},
	"2019-04-22T05:00:00+02:00" : {
		"windSpeed" : 1.8,
		"windDir" : 322,
		"rain" : 1,
		"cloudbase" : 6818,
		"flyability" : 0,
		"reason" : "rain",
		"timestamp" :1555905600
		},
	"2019-04-22T08:00:00+02:00" : {
		"windSpeed" : 1.9,
		"windDir" : 0,
		"rain" : 1,
		"cloudbase" : 6201,
		"flyability" : 0,
		"reason" : "rain",
		"timestamp" :1555916400
		},
	"2019-04-22T11:00:00+02:00" : {
		"windSpeed" : 2.4,
		"windDir" : 360,
		"rain" : 0,
		"cloudbase" : 6893.54,
		"flyability" : 100,
		"reason" : "",
		"timestamp" :1555927200
		},
	"2019-04-22T14:00:00+02:00" : {
		"windSpeed" : 1.9,
		"windDir" : 357,
		"rain" : 0,
		"cloudbase" : 7962.4399999999,
		"flyability" : 100,
		"reason" : "",
		"timestamp" :1555938000
		},
	"2019-04-22T17:00:00+02:00" : {
		"windSpeed" : 1.5,
		"windDir" : 23,
		"rain" : 0,
		"cloudbase" : 10410,
		"flyability" : 100,
		"reason" : "",
		"timestamp" :1555948800
		},
	"2019-04-22T20:00:00+02:00" : {
		"windSpeed" : 1.6,
		"windDir" : 22,
		"rain" : 0,
		"cloudbase" : 4050,
		"flyability" : 100,
		"reason" : "",
		"timestamp" :1555959600
		},
	"2019-04-22T23:00:00+02:00" : {
		"windSpeed" : 1.6,
		"windDir" : 25,
		"rain" : 0,
		"cloudbase" : 7454,
		"flyability" : 100,
		"reason" : "",
		"timestamp" :1555970400
		},
	"2019-04-23T02:00:00+02:00" : {
		"windSpeed" : 2.6,
		"windDir" : 97,
		"rain" : 1,
		"cloudbase" : 4195.08,
		"flyability" : 0,
		"reason" : "windDir, rain",
		"timestamp" :1555981200
		},
	"2019-04-23T05:00:00+02:00" : {
		"windSpeed" : 1.2,
		"windDir" : 31,
		"rain" : 1,
		"cloudbase" : 6558.9799999999,
		"flyability" : 0,
		"reason" : "rain",
		"timestamp" :1555992000
		},
	"2019-04-23T08:00:00+02:00" : {
		"windSpeed" : 0.9,
		"windDir" : 311,
		"rain" : 0,
		"cloudbase" : null,
		"flyability" : 100,
		"reason" : "",
		"timestamp" :1556002800
		},
	"2019-04-23T11:00:00+02:00" : {
		"windSpeed" : 1.4,
		"windDir" : 50,
		"rain" : 0,
		"cloudbase" : null,
		"flyability" : 100,
		"reason" : "",
		"timestamp" :1556013600
		},
	"2019-04-23T14:00:00+02:00" : {
		"windSpeed" : 0.9,
		"windDir" : 175,
		"rain" : 0,
		"cloudbase" : null,
		"flyability" : 0,
		"reason" : "windDir",
		"timestamp" :1556024400
		},
	"2019-04-23T17:00:00+02:00" : {
		"windSpeed" : 4.7,
		"windDir" : 192,
		"rain" : 1,
		"cloudbase" : 3582.59,
		"flyability" : 0,
		"reason" : "windDir, rain",
		"timestamp" :1556035200
		},
	"2019-04-23T20:00:00+02:00" : {
		"windSpeed" : 3,
		"windDir" : 172,
		"rain" : 1,
		"cloudbase" : null,
		"flyability" : 0,
		"reason" : "windDir, rain",
		"timestamp" :1556046000
		},
	"2019-04-23T23:00:00+02:00" : {
		"windSpeed" : 3.4,
		"windDir" : 170,
		"rain" : 1,
		"cloudbase" : null,
		"flyability" : 0,
		"reason" : "windDir, rain",
		"timestamp" :1556056800
		},
	"2019-04-24T02:00:00+02:00" : {
		"windSpeed" : 4.6,
		"windDir" : 181,
		"rain" : 0,
		"cloudbase" : null,
		"flyability" : 0,
		"reason" : "windDir",
		"timestamp" :1556067600
		}
	}
}