{
"site" : "Shakespear Regional South",
"id" : 19591,
"orientations" : "00002200",
"forecasts" : { 
	"2019-04-21T03:00:00+12:00" : {
		"windSpeed" : 2.8,
		"windDir" : 285,
		"rain" : 1,
		"cloudbase" : null,
		"flyability" : 0,
		"reason" : "windDir, rain",
		"timestamp" :1555772400
		},
	"2019-04-21T06:00:00+12:00" : {
		"windSpeed" : 2,
		"windDir" : 328,
		"rain" : 0,
		"cloudbase" : null,
		"flyability" : 0,
		"reason" : "windDir",
		"timestamp" :1555783200
		},
	"2019-04-21T09:00:00+12:00" : {
		"windSpeed" : 3.6,
		"windDir" : 332,
		"rain" : 0,
		"cloudbase" : null,
		"flyability" : 0,
		"reason" : "windDir",
		"timestamp" :1555794000
		},
	"2019-04-21T12:00:00+12:00" : {
		"windSpeed" : 6.2,
		"windDir" : 354,
		"rain" : 1,
		"cloudbase" : null,
		"flyability" : 0,
		"reason" : "windSpeed, windDir, rain",
		"timestamp" :1555804800
		},
	"2019-04-21T15:00:00+12:00" : {
		"windSpeed" : 6.7,
		"windDir" : 353,
		"rain" : 1,
		"cloudbase" : 3150,
		"flyability" : 0,
		"reason" : "windSpeed, windDir, rain",
		"timestamp" :1555815600
		},
	"2019-04-21T18:00:00+12:00" : {
		"windSpeed" : 6.9,
		"windDir" : 351,
		"rain" : 1,
		"cloudbase" : null,
		"flyability" : 0,
		"reason" : "windSpeed, windDir, rain",
		"timestamp" :1555826400
		},
	"2019-04-21T21:00:00+12:00" : {
		"windSpeed" : 7.9,
		"windDir" : 355,
		"rain" : 1,
		"cloudbase" : 2945.54,
		"flyability" : 0,
		"reason" : "windSpeed, windDir, rain",
		"timestamp" :1555837200
		},
	"2019-04-22T00:00:00+12:00" : {
		"windSpeed" : 6.7,
		"windDir" : 345,
		"rain" : 1,
		"cloudbase" : null,
		"flyability" : 0,
		"reason" : "windSpeed, windDir, rain",
		"timestamp" :1555848000
		},
	"2019-04-22T03:00:00+12:00" : {
		"windSpeed" : 6.4,
		"windDir" : 349,
		"rain" : 1,
		"cloudbase" : null,
		"flyability" : 0,
		"reason" : "windSpeed, windDir, rain",
		"timestamp" :1555858800
		},
	"2019-04-22T06:00:00+12:00" : {
		"windSpeed" : 5.7,
		"windDir" : 337,
		"rain" : 1,
		"cloudbase" : 4437.932,
		"flyability" : 0,
		"reason" : "windSpeed, windDir, rain",
		"timestamp" :1555869600
		},
	"2019-04-22T09:00:00+12:00" : {
		"windSpeed" : 4.8,
		"windDir" : 326,
		"rain" : 1,
		"cloudbase" : null,
		"flyability" : 0,
		"reason" : "windDir, rain",
		"timestamp" :1555880400
		},
	"2019-04-22T12:00:00+12:00" : {
		"windSpeed" : 4.2,
		"windDir" : 313,
		"rain" : 1,
		"cloudbase" : 580,
		"flyability" : 0,
		"reason" : "windDir, rain",
		"timestamp" :1555891200
		},
	"2019-04-22T15:00:00+12:00" : {
		"windSpeed" : 3,
		"windDir" : 271,
		"rain" : 1,
		"cloudbase" : 5800,
		"flyability" : 0,
		"reason" : "windDir, rain",
		"timestamp" :1555902000
		},
	"2019-04-22T18:00:00+12:00" : {
		"windSpeed" : 2,
		"windDir" : 238,
		"rain" : 1,
		"cloudbase" : 3299.6639999998,
		"flyability" : 0,
		"reason" : "rain",
		"timestamp" :1555912800
		},
	"2019-04-22T21:00:00+12:00" : {
		"windSpeed" : 2.6,
		"windDir" : 305,
		"rain" : 1,
		"cloudbase" : null,
		"flyability" : 0,
		"reason" : "windDir, rain",
		"timestamp" :1555923600
		},
	"2019-04-23T00:00:00+12:00" : {
		"windSpeed" : 4,
		"windDir" : 292,
		"rain" : 1,
		"cloudbase" : null,
		"flyability" : 0,
		"reason" : "windDir, rain",
		"timestamp" :1555934400
		},
	"2019-04-23T03:00:00+12:00" : {
		"windSpeed" : 3.4,
		"windDir" : 293,
		"rain" : 0,
		"cloudbase" : null,
		"flyability" : 0,
		"reason" : "windDir",
		"timestamp" :1555945200
		},
	"2019-04-23T06:00:00+12:00" : {
		"windSpeed" : 3.1,
		"windDir" : 299,
		"rain" : 1,
		"cloudbase" : null,
		"flyability" : 0,
		"reason" : "windDir, rain",
		"timestamp" :1555956000
		},
	"2019-04-23T09:00:00+12:00" : {
		"windSpeed" : 1.1,
		"windDir" : 34,
		"rain" : 1,
		"cloudbase" : null,
		"flyability" : 0,
		"reason" : "windDir, rain",
		"timestamp" :1555966800
		},
	"2019-04-23T12:00:00+12:00" : {
		"windSpeed" : 1.4,
		"windDir" : 108,
		"rain" : 1,
		"cloudbase" : null,
		"flyability" : 0,
		"reason" : "windDir, rain",
		"timestamp" :1555977600
		},
	"2019-04-23T15:00:00+12:00" : {
		"windSpeed" : 1,
		"windDir" : 191,
		"rain" : 0,
		"cloudbase" : null,
		"flyability" : 100,
		"reason" : "",
		"timestamp" :1555988400
		},
	"2019-04-23T18:00:00+12:00" : {
		"windSpeed" : 5.1,
		"windDir" : 198,
		"rain" : 1,
		"cloudbase" : null,
		"flyability" : 0,
		"reason" : "windSpeed, rain",
		"timestamp" :1555999200
		},
	"2019-04-23T21:00:00+12:00" : {
		"windSpeed" : 4.9,
		"windDir" : 189,
		"rain" : 1,
		"cloudbase" : null,
		"flyability" : 0,
		"reason" : "rain",
		"timestamp" :1556010000
		},
	"2019-04-24T00:00:00+12:00" : {
		"windSpeed" : 4,
		"windDir" : 224,
		"rain" : 0,
		"cloudbase" : null,
		"flyability" : 100,
		"reason" : "",
		"timestamp" :1556020800
		},
	"2019-04-24T03:00:00+12:00" : {
		"windSpeed" : 4.2,
		"windDir" : 216,
		"rain" : 0,
		"cloudbase" : null,
		"flyability" : 100,
		"reason" : "",
		"timestamp" :1556031600
		},
	"2019-04-24T06:00:00+12:00" : {
		"windSpeed" : 5.1,
		"windDir" : 191,
		"rain" : 1,
		"cloudbase" : null,
		"flyability" : 0,
		"reason" : "windSpeed, rain",
		"timestamp" :1556042400
		},
	"2019-04-24T09:00:00+12:00" : {
		"windSpeed" : 5.8,
		"windDir" : 190,
		"rain" : 0,
		"cloudbase" : null,
		"flyability" : 0,
		"reason" : "windSpeed",
		"timestamp" :1556053200
		},
	"2019-04-24T12:00:00+12:00" : {
		"windSpeed" : 6.7,
		"windDir" : 199,
		"rain" : 0,
		"cloudbase" : null,
		"flyability" : 0,
		"reason" : "windSpeed",
		"timestamp" :1556064000
		},
	"2019-04-24T15:00:00+12:00" : {
		"windSpeed" : 6,
		"windDir" : 205,
		"rain" : 0,
		"cloudbase" : null,
		"flyability" : 0,
		"reason" : "windSpeed",
		"timestamp" :1556074800
		},
	"2019-04-24T18:00:00+12:00" : {
		"windSpeed" : 6.3,
		"windDir" : 216,
		"rain" : 0,
		"cloudbase" : null,
		"flyability" : 0,
		"reason" : "windSpeed",
		"timestamp" :1556085600
		},
	"2019-04-24T21:00:00+12:00" : {
		"windSpeed" : 6.7,
		"windDir" : 206,
		"rain" : 0,
		"cloudbase" : null,
		"flyability" : 0,
		"reason" : "windSpeed",
		"timestamp" :1556096400
		},
	"2019-04-25T00:00:00+12:00" : {
		"windSpeed" : 6.5,
		"windDir" : 202,
		"rain" : 0,
		"cloudbase" : null,
		"flyability" : 0,
		"reason" : "windSpeed",
		"timestamp" :1556107200
		},
	"2019-04-25T03:00:00+12:00" : {
		"windSpeed" : 5.2,
		"windDir" : 185,
		"rain" : 0,
		"cloudbase" : null,
		"flyability" : 0,
		"reason" : "windSpeed",
		"timestamp" :1556118000
		},
	"2019-04-25T06:00:00+12:00" : {
		"windSpeed" : 5.2,
		"windDir" : 196,
		"rain" : 0,
		"cloudbase" : null,
		"flyability" : 0,
		"reason" : "windSpeed",
		"timestamp" :1556128800
		},
	"2019-04-25T09:00:00+12:00" : {
		"windSpeed" : 4.4,
		"windDir" : 214,
		"rain" : 1,
		"cloudbase" : null,
		"flyability" : 0,
		"reason" : "rain",
		"timestamp" :1556139600
		},
	"2019-04-25T12:00:00+12:00" : {
		"windSpeed" : 4.9,
		"windDir" : 198,
		"rain" : 0,
		"cloudbase" : null,
		"flyability" : 100,
		"reason" : "",
		"timestamp" :1556150400
		},
	"2019-04-25T15:00:00+12:00" : {
		"windSpeed" : 6.6,
		"windDir" : 217,
		"rain" : 0,
		"cloudbase" : 1300,
		"flyability" : 0,
		"reason" : "windSpeed",
		"timestamp" :1556161200
		},
	"2019-04-25T18:00:00+12:00" : {
		"windSpeed" : 6.9,
		"windDir" : 223,
		"rain" : 0,
		"cloudbase" : null,
		"flyability" : 0,
		"reason" : "windSpeed",
		"timestamp" :1556172000
		},
	"2019-04-25T21:00:00+12:00" : {
		"windSpeed" : 5.2,
		"windDir" : 227,
		"rain" : 1,
		"cloudbase" : null,
		"flyability" : 0,
		"reason" : "windSpeed, rain",
		"timestamp" :1556182800
		},
	"2019-04-26T00:00:00+12:00" : {
		"windSpeed" : 5.3,
		"windDir" : 231,
		"rain" : 0,
		"cloudbase" : 900,
		"flyability" : 0,
		"reason" : "windSpeed",
		"timestamp" :1556193600
		},
	"2019-04-26T03:00:00+12:00" : {
		"windSpeed" : 5,
		"windDir" : 237,
		"rain" : 0,
		"cloudbase" : null,
		"flyability" : 100,
		"reason" : "",
		"timestamp" :1556204400
		},
	"2019-04-26T06:00:00+12:00" : {
		"windSpeed" : 5.4,
		"windDir" : 240,
		"rain" : 0,
		"cloudbase" : null,
		"flyability" : 0,
		"reason" : "windSpeed",
		"timestamp" :1556215200
		},
	"2019-04-26T09:00:00+12:00" : {
		"windSpeed" : 4.5,
		"windDir" : 248,
		"rain" : 1,
		"cloudbase" : null,
		"flyability" : 0,
		"reason" : "windDir, rain",
		"timestamp" :1556226000
		},
	"2019-04-26T12:00:00+12:00" : {
		"windSpeed" : 5.7,
		"windDir" : 242,
		"rain" : 1,
		"cloudbase" : null,
		"flyability" : 0,
		"reason" : "windSpeed, rain",
		"timestamp" :1556236800
		},
	"2019-04-26T15:00:00+12:00" : {
		"windSpeed" : 6.4,
		"windDir" : 242,
		"rain" : 0,
		"cloudbase" : 1100,
		"flyability" : 0,
		"reason" : "windSpeed",
		"timestamp" :1556247600
		},
	"2019-04-26T18:00:00+12:00" : {
		"windSpeed" : 4.5,
		"windDir" : 234,
		"rain" : 0,
		"cloudbase" : 1000,
		"flyability" : 100,
		"reason" : "",
		"timestamp" :1556258400
		},
	"2019-04-26T21:00:00+12:00" : {
		"windSpeed" : 2.7,
		"windDir" : 277,
		"rain" : 0,
		"cloudbase" : null,
		"flyability" : 0,
		"reason" : "windDir",
		"timestamp" :1556269200
		},
	"2019-04-27T00:00:00+12:00" : {
		"windSpeed" : 3.8,
		"windDir" : 285,
		"rain" : 1,
		"cloudbase" : null,
		"flyability" : 0,
		"reason" : "windDir, rain",
		"timestamp" :1556280000
		}
	}
}