{
"site" : "Urue\u00f1a",
"id" : 19695,
"orientations" : "00000021",
"forecasts" : { 
	"2019-04-05T05:00:00+02:00" : {
		"windSpeed" : 5.8,
		"windDir" : 211,
		"rain" : 1,
		"cloudbase" : 409.952326,
		"flyability" : 0,
		"reason" : "windSpeed, windDir, rain, cloudbase",
		"timestamp" :1554436800
		},
	"2019-04-05T08:00:00+02:00" : {
		"windSpeed" : 4.2,
		"windDir" : 225,
		"rain" : 1,
		"cloudbase" : 201.899,
		"flyability" : 0,
		"reason" : "windDir, rain, cloudbase",
		"timestamp" :1554447600
		},
	"2019-04-05T11:00:00+02:00" : {
		"windSpeed" : 4.1,
		"windDir" : 230,
		"rain" : 1,
		"cloudbase" : 3346.001685,
		"flyability" : 0,
		"reason" : "windDir, rain",
		"timestamp" :1554458400
		},
	"2019-04-05T14:00:00+02:00" : {
		"windSpeed" : 4.6,
		"windDir" : 229,
		"rain" : 1,
		"cloudbase" : 5021.610055,
		"flyability" : 0,
		"reason" : "windDir, rain",
		"timestamp" :1554469200
		},
	"2019-04-05T17:00:00+02:00" : {
		"windSpeed" : 4.8,
		"windDir" : 250,
		"rain" : 0,
		"cloudbase" : null,
		"flyability" : 100,
		"reason" : "",
		"timestamp" :1554480000
		},
	"2019-04-05T20:00:00+02:00" : {
		"windSpeed" : 6,
		"windDir" : 260,
		"rain" : 1,
		"cloudbase" : null,
		"flyability" : 0,
		"reason" : "windSpeed, rain",
		"timestamp" :1554490800
		},
	"2019-04-05T23:00:00+02:00" : {
		"windSpeed" : 3.9,
		"windDir" : 251,
		"rain" : 0,
		"cloudbase" : null,
		"flyability" : 100,
		"reason" : "",
		"timestamp" :1554501600
		},
	"2019-04-06T02:00:00+02:00" : {
		"windSpeed" : 4,
		"windDir" : 238,
		"rain" : 0,
		"cloudbase" : null,
		"flyability" : 0,
		"reason" : "windDir",
		"timestamp" :1554512400
		},
	"2019-04-06T05:00:00+02:00" : {
		"windSpeed" : 4.9,
		"windDir" : 224,
		"rain" : 1,
		"cloudbase" : 198.091663,
		"flyability" : 0,
		"reason" : "windDir, rain, cloudbase",
		"timestamp" :1554523200
		},
	"2019-04-06T08:00:00+02:00" : {
		"windSpeed" : 5.1,
		"windDir" : 218,
		"rain" : 1,
		"cloudbase" : 365.099791,
		"flyability" : 0,
		"reason" : "windSpeed, windDir, rain, cloudbase",
		"timestamp" :1554534000
		},
	"2019-04-06T11:00:00+02:00" : {
		"windSpeed" : 6.6,
		"windDir" : 221,
		"rain" : 1,
		"cloudbase" : 5803.16857,
		"flyability" : 0,
		"reason" : "windSpeed, windDir, rain",
		"timestamp" :1554544800
		},
	"2019-04-06T14:00:00+02:00" : {
		"windSpeed" : 6.5,
		"windDir" : 238,
		"rain" : 1,
		"cloudbase" : 370.772663,
		"flyability" : 0,
		"reason" : "windSpeed, windDir, rain, cloudbase",
		"timestamp" :1554555600
		},
	"2019-04-06T17:00:00+02:00" : {
		"windSpeed" : 7.1,
		"windDir" : 276,
		"rain" : 0,
		"cloudbase" : null,
		"flyability" : 0,
		"reason" : "windSpeed",
		"timestamp" :1554566400
		},
	"2019-04-06T20:00:00+02:00" : {
		"windSpeed" : 6.1,
		"windDir" : 296,
		"rain" : 1,
		"cloudbase" : 5938.74,
		"flyability" : 0,
		"reason" : "windSpeed, rain",
		"timestamp" :1554577200
		},
	"2019-04-06T23:00:00+02:00" : {
		"windSpeed" : 4.7,
		"windDir" : 268,
		"rain" : 1,
		"cloudbase" : null,
		"flyability" : 0,
		"reason" : "rain",
		"timestamp" :1554588000
		},
	"2019-04-07T02:00:00+02:00" : {
		"windSpeed" : 4.2,
		"windDir" : 247,
		"rain" : 0,
		"cloudbase" : 760,
		"flyability" : 0,
		"reason" : "windDir, cloudbase",
		"timestamp" :1554598800
		},
	"2019-04-07T05:00:00+02:00" : {
		"windSpeed" : 4.9,
		"windDir" : 246,
		"rain" : 0,
		"cloudbase" : 308.322652,
		"flyability" : 0,
		"reason" : "windDir, cloudbase",
		"timestamp" :1554609600
		},
	"2019-04-07T08:00:00+02:00" : {
		"windSpeed" : 3.3,
		"windDir" : 247,
		"rain" : 0,
		"cloudbase" : 240,
		"flyability" : 0,
		"reason" : "windDir, cloudbase",
		"timestamp" :1554620400
		},
	"2019-04-07T11:00:00+02:00" : {
		"windSpeed" : 3.8,
		"windDir" : 247,
		"rain" : 1,
		"cloudbase" : 907.290359,
		"flyability" : 0,
		"reason" : "windDir, rain",
		"timestamp" :1554631200
		},
	"2019-04-07T14:00:00+02:00" : {
		"windSpeed" : 5,
		"windDir" : 233,
		"rain" : 0,
		"cloudbase" : 1051.735707,
		"flyability" : 0,
		"reason" : "windDir",
		"timestamp" :1554642000
		},
	"2019-04-07T17:00:00+02:00" : {
		"windSpeed" : 4.8,
		"windDir" : 213,
		"rain" : 1,
		"cloudbase" : 697.882,
		"flyability" : 0,
		"reason" : "windDir, rain, cloudbase",
		"timestamp" :1554652800
		},
	"2019-04-07T20:00:00+02:00" : {
		"windSpeed" : 4,
		"windDir" : 173,
		"rain" : 1,
		"cloudbase" : 621.297348,
		"flyability" : 0,
		"reason" : "windDir, rain, cloudbase",
		"timestamp" :1554663600
		},
	"2019-04-07T23:00:00+02:00" : {
		"windSpeed" : 4.8,
		"windDir" : 192,
		"rain" : 1,
		"cloudbase" : 522.003348,
		"flyability" : 0,
		"reason" : "windDir, rain, cloudbase",
		"timestamp" :1554674400
		},
	"2019-04-08T02:00:00+02:00" : {
		"windSpeed" : 5.8,
		"windDir" : 217,
		"rain" : 1,
		"cloudbase" : 1357.4737,
		"flyability" : 0,
		"reason" : "windSpeed, windDir, rain",
		"timestamp" :1554685200
		},
	"2019-04-08T05:00:00+02:00" : {
		"windSpeed" : 5.5,
		"windDir" : 242,
		"rain" : 1,
		"cloudbase" : 1050,
		"flyability" : 0,
		"reason" : "windSpeed, windDir, rain",
		"timestamp" :1554696000
		},
	"2019-04-08T08:00:00+02:00" : {
		"windSpeed" : 4,
		"windDir" : 240,
		"rain" : 0,
		"cloudbase" : null,
		"flyability" : 0,
		"reason" : "windDir",
		"timestamp" :1554706800
		},
	"2019-04-08T11:00:00+02:00" : {
		"windSpeed" : 4.8,
		"windDir" : 237,
		"rain" : 1,
		"cloudbase" : null,
		"flyability" : 0,
		"reason" : "windDir, rain",
		"timestamp" :1554717600
		},
	"2019-04-08T14:00:00+02:00" : {
		"windSpeed" : 7.3,
		"windDir" : 250,
		"rain" : 1,
		"cloudbase" : null,
		"flyability" : 0,
		"reason" : "windSpeed, rain",
		"timestamp" :1554728400
		},
	"2019-04-08T17:00:00+02:00" : {
		"windSpeed" : 7.5,
		"windDir" : 245,
		"rain" : 1,
		"cloudbase" : null,
		"flyability" : 0,
		"reason" : "windSpeed, windDir, rain",
		"timestamp" :1554739200
		},
	"2019-04-08T20:00:00+02:00" : {
		"windSpeed" : 6.5,
		"windDir" : 238,
		"rain" : 1,
		"cloudbase" : null,
		"flyability" : 0,
		"reason" : "windSpeed, windDir, rain",
		"timestamp" :1554750000
		},
	"2019-04-08T23:00:00+02:00" : {
		"windSpeed" : 5,
		"windDir" : 217,
		"rain" : 0,
		"cloudbase" : null,
		"flyability" : 0,
		"reason" : "windDir",
		"timestamp" :1554760800
		},
	"2019-04-09T02:00:00+02:00" : {
		"windSpeed" : 5.3,
		"windDir" : 213,
		"rain" : 0,
		"cloudbase" : null,
		"flyability" : 0,
		"reason" : "windSpeed, windDir",
		"timestamp" :1554771600
		},
	"2019-04-09T05:00:00+02:00" : {
		"windSpeed" : 4.9,
		"windDir" : 204,
		"rain" : 0,
		"cloudbase" : 5671.96337,
		"flyability" : 0,
		"reason" : "windDir",
		"timestamp" :1554782400
		},
	"2019-04-09T08:00:00+02:00" : {
		"windSpeed" : 5.8,
		"windDir" : 217,
		"rain" : 0,
		"cloudbase" : 470.992989,
		"flyability" : 0,
		"reason" : "windSpeed, windDir, cloudbase",
		"timestamp" :1554793200
		},
	"2019-04-09T11:00:00+02:00" : {
		"windSpeed" : 7.1,
		"windDir" : 225,
		"rain" : 1,
		"cloudbase" : 1340.258535,
		"flyability" : 0,
		"reason" : "windSpeed, windDir, rain",
		"timestamp" :1554804000
		},
	"2019-04-09T14:00:00+02:00" : {
		"windSpeed" : 7.4,
		"windDir" : 248,
		"rain" : 0,
		"cloudbase" : null,
		"flyability" : 0,
		"reason" : "windSpeed",
		"timestamp" :1554814800
		},
	"2019-04-09T17:00:00+02:00" : {
		"windSpeed" : 9,
		"windDir" : 271,
		"rain" : 0,
		"cloudbase" : 5285.196135,
		"flyability" : 0,
		"reason" : "windSpeed",
		"timestamp" :1554825600
		},
	"2019-04-09T20:00:00+02:00" : {
		"windSpeed" : 6.8,
		"windDir" : 265,
		"rain" : 1,
		"cloudbase" : 1461.785,
		"flyability" : 0,
		"reason" : "windSpeed, rain",
		"timestamp" :1554836400
		},
	"2019-04-09T23:00:00+02:00" : {
		"windSpeed" : 5.4,
		"windDir" : 248,
		"rain" : 1,
		"cloudbase" : null,
		"flyability" : 0,
		"reason" : "windSpeed, rain",
		"timestamp" :1554847200
		},
	"2019-04-10T02:00:00+02:00" : {
		"windSpeed" : 5.3,
		"windDir" : 252,
		"rain" : 0,
		"cloudbase" : null,
		"flyability" : 0,
		"reason" : "windSpeed",
		"timestamp" :1554858000
		},
	"2019-04-10T05:00:00+02:00" : {
		"windSpeed" : 5,
		"windDir" : 257,
		"rain" : 0,
		"cloudbase" : null,
		"flyability" : 100,
		"reason" : "",
		"timestamp" :1554868800
		},
	"2019-04-10T08:00:00+02:00" : {
		"windSpeed" : 4.5,
		"windDir" : 254,
		"rain" : 0,
		"cloudbase" : null,
		"flyability" : 100,
		"reason" : "",
		"timestamp" :1554879600
		},
	"2019-04-10T11:00:00+02:00" : {
		"windSpeed" : 5.1,
		"windDir" : 251,
		"rain" : 0,
		"cloudbase" : 3612.455,
		"flyability" : 0,
		"reason" : "windSpeed",
		"timestamp" :1554890400
		},
	"2019-04-10T14:00:00+02:00" : {
		"windSpeed" : 5.5,
		"windDir" : 265,
		"rain" : 0,
		"cloudbase" : 1649.048205,
		"flyability" : 0,
		"reason" : "windSpeed",
		"timestamp" :1554901200
		},
	"2019-04-10T17:00:00+02:00" : {
		"windSpeed" : 4.4,
		"windDir" : 277,
		"rain" : 0,
		"cloudbase" : 2000.339945,
		"flyability" : 100,
		"reason" : "",
		"timestamp" :1554912000
		},
	"2019-04-10T20:00:00+02:00" : {
		"windSpeed" : 4.7,
		"windDir" : 293,
		"rain" : 0,
		"cloudbase" : 1950,
		"flyability" : 100,
		"reason" : "",
		"timestamp" :1554922800
		},
	"2019-04-10T23:00:00+02:00" : {
		"windSpeed" : 3,
		"windDir" : 293,
		"rain" : 0,
		"cloudbase" : 1693.22337,
		"flyability" : 100,
		"reason" : "",
		"timestamp" :1554933600
		},
	"2019-04-11T02:00:00+02:00" : {
		"windSpeed" : 1.9,
		"windDir" : 265,
		"rain" : 0,
		"cloudbase" : 7000,
		"flyability" : 100,
		"reason" : "",
		"timestamp" :1554944400
		}
	}
}