{
"site" : "STR",
"id" : 19708,
"orientations" : "22000000",
"forecasts" : { 
	"2019-04-04T06:00:00+03:00" : {
		"windSpeed" : 0.1,
		"windDir" : 29,
		"rain" : 0,
		"cloudbase" : 7379.2064,
		"flyability" : 100,
		"reason" : "",
		"timestamp" :1554346800
		},
	"2019-04-04T09:00:00+03:00" : {
		"windSpeed" : 0.1,
		"windDir" : 156,
		"rain" : 0,
		"cloudbase" : 6879.2064,
		"flyability" : 0,
		"reason" : "windDir",
		"timestamp" :1554357600
		},
	"2019-04-04T12:00:00+03:00" : {
		"windSpeed" : 1.3,
		"windDir" : 230,
		"rain" : 0,
		"cloudbase" : 6164.9328,
		"flyability" : 0,
		"reason" : "windDir",
		"timestamp" :1554368400
		},
	"2019-04-04T15:00:00+03:00" : {
		"windSpeed" : 2.5,
		"windDir" : 203,
		"rain" : 0,
		"cloudbase" : null,
		"flyability" : 0,
		"reason" : "windDir",
		"timestamp" :1554379200
		},
	"2019-04-04T18:00:00+03:00" : {
		"windSpeed" : 1.8,
		"windDir" : 178,
		"rain" : 0,
		"cloudbase" : null,
		"flyability" : 0,
		"reason" : "windDir",
		"timestamp" :1554390000
		},
	"2019-04-04T21:00:00+03:00" : {
		"windSpeed" : 0.8,
		"windDir" : 145,
		"rain" : 0,
		"cloudbase" : null,
		"flyability" : 0,
		"reason" : "windDir",
		"timestamp" :1554400800
		},
	"2019-04-05T00:00:00+03:00" : {
		"windSpeed" : 0.6,
		"windDir" : 110,
		"rain" : 0,
		"cloudbase" : null,
		"flyability" : 0,
		"reason" : "windDir",
		"timestamp" :1554411600
		},
	"2019-04-05T03:00:00+03:00" : {
		"windSpeed" : 0.5,
		"windDir" : 142,
		"rain" : 0,
		"cloudbase" : null,
		"flyability" : 0,
		"reason" : "windDir",
		"timestamp" :1554422400
		},
	"2019-04-05T06:00:00+03:00" : {
		"windSpeed" : 0.4,
		"windDir" : 176,
		"rain" : 0,
		"cloudbase" : null,
		"flyability" : 0,
		"reason" : "windDir",
		"timestamp" :1554433200
		},
	"2019-04-05T09:00:00+03:00" : {
		"windSpeed" : 0.5,
		"windDir" : 90,
		"rain" : 0,
		"cloudbase" : null,
		"flyability" : 0,
		"reason" : "windDir",
		"timestamp" :1554444000
		},
	"2019-04-05T12:00:00+03:00" : {
		"windSpeed" : 1.5,
		"windDir" : 182,
		"rain" : 0,
		"cloudbase" : null,
		"flyability" : 0,
		"reason" : "windDir",
		"timestamp" :1554454800
		},
	"2019-04-05T15:00:00+03:00" : {
		"windSpeed" : 2.3,
		"windDir" : 173,
		"rain" : 0,
		"cloudbase" : null,
		"flyability" : 0,
		"reason" : "windDir",
		"timestamp" :1554465600
		},
	"2019-04-05T18:00:00+03:00" : {
		"windSpeed" : 2,
		"windDir" : 150,
		"rain" : 0,
		"cloudbase" : null,
		"flyability" : 0,
		"reason" : "windDir",
		"timestamp" :1554476400
		},
	"2019-04-05T21:00:00+03:00" : {
		"windSpeed" : 0.8,
		"windDir" : 119,
		"rain" : 0,
		"cloudbase" : null,
		"flyability" : 0,
		"reason" : "windDir",
		"timestamp" :1554487200
		},
	"2019-04-06T00:00:00+03:00" : {
		"windSpeed" : 1.5,
		"windDir" : 95,
		"rain" : 0,
		"cloudbase" : null,
		"flyability" : 0,
		"reason" : "windDir",
		"timestamp" :1554498000
		},
	"2019-04-06T03:00:00+03:00" : {
		"windSpeed" : 1.3,
		"windDir" : 72,
		"rain" : 0,
		"cloudbase" : 9355.8,
		"flyability" : 0,
		"reason" : "windDir",
		"timestamp" :1554508800
		},
	"2019-04-06T06:00:00+03:00" : {
		"windSpeed" : 1.4,
		"windDir" : 50,
		"rain" : 0,
		"cloudbase" : 8800,
		"flyability" : 100,
		"reason" : "",
		"timestamp" :1554519600
		},
	"2019-04-06T09:00:00+03:00" : {
		"windSpeed" : 1.4,
		"windDir" : 76,
		"rain" : 0,
		"cloudbase" : 5458.4064,
		"flyability" : 0,
		"reason" : "windDir",
		"timestamp" :1554530400
		},
	"2019-04-06T12:00:00+03:00" : {
		"windSpeed" : 2.8,
		"windDir" : 105,
		"rain" : 0,
		"cloudbase" : 4459.4048,
		"flyability" : 0,
		"reason" : "windDir",
		"timestamp" :1554541200
		},
	"2019-04-06T15:00:00+03:00" : {
		"windSpeed" : 2.7,
		"windDir" : 124,
		"rain" : 0,
		"cloudbase" : 3964.0016,
		"flyability" : 0,
		"reason" : "windDir",
		"timestamp" :1554552000
		},
	"2019-04-06T18:00:00+03:00" : {
		"windSpeed" : 1.1,
		"windDir" : 155,
		"rain" : 0,
		"cloudbase" : 3126.3048,
		"flyability" : 0,
		"reason" : "windDir",
		"timestamp" :1554562800
		},
	"2019-04-06T21:00:00+03:00" : {
		"windSpeed" : 0.5,
		"windDir" : 145,
		"rain" : 0,
		"cloudbase" : 3009.4048,
		"flyability" : 0,
		"reason" : "windDir",
		"timestamp" :1554573600
		},
	"2019-04-07T00:00:00+03:00" : {
		"windSpeed" : 0.8,
		"windDir" : 82,
		"rain" : 0,
		"cloudbase" : 2338.9968,
		"flyability" : 0,
		"reason" : "windDir",
		"timestamp" :1554584400
		},
	"2019-04-07T03:00:00+03:00" : {
		"windSpeed" : 0.3,
		"windDir" : 5,
		"rain" : 0,
		"cloudbase" : null,
		"flyability" : 100,
		"reason" : "",
		"timestamp" :1554595200
		},
	"2019-04-07T06:00:00+03:00" : {
		"windSpeed" : 0.3,
		"windDir" : 14,
		"rain" : 0,
		"cloudbase" : null,
		"flyability" : 100,
		"reason" : "",
		"timestamp" :1554606000
		},
	"2019-04-07T09:00:00+03:00" : {
		"windSpeed" : 0.5,
		"windDir" : 171,
		"rain" : 0,
		"cloudbase" : 1950,
		"flyability" : 0,
		"reason" : "windDir",
		"timestamp" :1554616800
		},
	"2019-04-07T12:00:00+03:00" : {
		"windSpeed" : 1.4,
		"windDir" : 115,
		"rain" : 0,
		"cloudbase" : 2100,
		"flyability" : 0,
		"reason" : "windDir",
		"timestamp" :1554627600
		},
	"2019-04-07T15:00:00+03:00" : {
		"windSpeed" : 1.6,
		"windDir" : 172,
		"rain" : 0,
		"cloudbase" : 2294.8,
		"flyability" : 0,
		"reason" : "windDir",
		"timestamp" :1554638400
		},
	"2019-04-07T18:00:00+03:00" : {
		"windSpeed" : 0.9,
		"windDir" : 179,
		"rain" : 1,
		"cloudbase" : 2706.1048,
		"flyability" : 0,
		"reason" : "windDir, rain",
		"timestamp" :1554649200
		},
	"2019-04-07T21:00:00+03:00" : {
		"windSpeed" : 0.7,
		"windDir" : 127,
		"rain" : 1,
		"cloudbase" : 2350,
		"flyability" : 0,
		"reason" : "windDir, rain",
		"timestamp" :1554660000
		},
	"2019-04-08T00:00:00+03:00" : {
		"windSpeed" : 1,
		"windDir" : 98,
		"rain" : 1,
		"cloudbase" : 649.17968000005,
		"flyability" : 0,
		"reason" : "windDir, rain, cloudbase",
		"timestamp" :1554670800
		},
	"2019-04-08T03:00:00+03:00" : {
		"windSpeed" : 0.9,
		"windDir" : 66,
		"rain" : 1,
		"cloudbase" : 368.95584000006,
		"flyability" : 0,
		"reason" : "rain, cloudbase",
		"timestamp" :1554681600
		},
	"2019-04-08T06:00:00+03:00" : {
		"windSpeed" : 0.8,
		"windDir" : 83,
		"rain" : 1,
		"cloudbase" : 665.50160000007,
		"flyability" : 0,
		"reason" : "windDir, rain, cloudbase",
		"timestamp" :1554692400
		},
	"2019-04-08T09:00:00+03:00" : {
		"windSpeed" : 0.6,
		"windDir" : 88,
		"rain" : 1,
		"cloudbase" : 863.36160000007,
		"flyability" : 0,
		"reason" : "windDir, rain, cloudbase",
		"timestamp" :1554703200
		},
	"2019-04-08T12:00:00+03:00" : {
		"windSpeed" : 1.3,
		"windDir" : 106,
		"rain" : 1,
		"cloudbase" : 254.85384000004,
		"flyability" : 0,
		"reason" : "windDir, rain, cloudbase",
		"timestamp" :1554714000
		},
	"2019-04-08T15:00:00+03:00" : {
		"windSpeed" : 2.2,
		"windDir" : 147,
		"rain" : 1,
		"cloudbase" : 4947.3000000002,
		"flyability" : 0,
		"reason" : "windDir, rain",
		"timestamp" :1554724800
		},
	"2019-04-08T18:00:00+03:00" : {
		"windSpeed" : 1.5,
		"windDir" : 136,
		"rain" : 1,
		"cloudbase" : 4500,
		"flyability" : 0,
		"reason" : "windDir, rain",
		"timestamp" :1554735600
		},
	"2019-04-08T21:00:00+03:00" : {
		"windSpeed" : 1,
		"windDir" : 100,
		"rain" : 1,
		"cloudbase" : 310,
		"flyability" : 0,
		"reason" : "windDir, rain, cloudbase",
		"timestamp" :1554746400
		},
	"2019-04-09T00:00:00+03:00" : {
		"windSpeed" : 1.3,
		"windDir" : 52,
		"rain" : 1,
		"cloudbase" : 30,
		"flyability" : 0,
		"reason" : "rain, cloudbase",
		"timestamp" :1554757200
		},
	"2019-04-09T03:00:00+03:00" : {
		"windSpeed" : 1.3,
		"windDir" : 38,
		"rain" : 1,
		"cloudbase" : 110,
		"flyability" : 0,
		"reason" : "rain, cloudbase",
		"timestamp" :1554768000
		},
	"2019-04-09T06:00:00+03:00" : {
		"windSpeed" : 1,
		"windDir" : 36,
		"rain" : 0,
		"cloudbase" : 190,
		"flyability" : 0,
		"reason" : "cloudbase",
		"timestamp" :1554778800
		},
	"2019-04-09T09:00:00+03:00" : {
		"windSpeed" : 0.6,
		"windDir" : 31,
		"rain" : 0,
		"cloudbase" : 3443.3088000007,
		"flyability" : 100,
		"reason" : "",
		"timestamp" :1554789600
		},
	"2019-04-09T12:00:00+03:00" : {
		"windSpeed" : 0.5,
		"windDir" : 264,
		"rain" : 1,
		"cloudbase" : 4267.5368000002,
		"flyability" : 0,
		"reason" : "windDir, rain",
		"timestamp" :1554800400
		},
	"2019-04-09T15:00:00+03:00" : {
		"windSpeed" : 1.6,
		"windDir" : 190,
		"rain" : 1,
		"cloudbase" : 7413.9839999999,
		"flyability" : 0,
		"reason" : "windDir, rain",
		"timestamp" :1554811200
		},
	"2019-04-09T18:00:00+03:00" : {
		"windSpeed" : 1.4,
		"windDir" : 169,
		"rain" : 1,
		"cloudbase" : 2568.5016,
		"flyability" : 0,
		"reason" : "windDir, rain",
		"timestamp" :1554822000
		},
	"2019-04-09T21:00:00+03:00" : {
		"windSpeed" : 0.8,
		"windDir" : 196,
		"rain" : 1,
		"cloudbase" : 1836.7473600003,
		"flyability" : 0,
		"reason" : "windDir, rain",
		"timestamp" :1554832800
		},
	"2019-04-10T00:00:00+03:00" : {
		"windSpeed" : 0.5,
		"windDir" : 90,
		"rain" : 1,
		"cloudbase" : 983.30351999999,
		"flyability" : 0,
		"reason" : "windDir, rain, cloudbase",
		"timestamp" :1554843600
		},
	"2019-04-10T03:00:00+03:00" : {
		"windSpeed" : 0.5,
		"windDir" : 199,
		"rain" : 1,
		"cloudbase" : 680,
		"flyability" : 0,
		"reason" : "windDir, rain, cloudbase",
		"timestamp" :1554854400
		}
	}
}