{
"site" : "Flyranch ",
"id" : 19716,
"orientations" : "02220000",
"forecasts" : { 
	"2019-04-12T12:00:00-03:00" : {
		"windSpeed" : 1.5,
		"windDir" : 2,
		"rain" : 0,
		"cloudbase" : null,
		"flyability" : 0,
		"reason" : "windDir",
		"timestamp" :1555081200
		},
	"2019-04-12T15:00:00-03:00" : {
		"windSpeed" : 2.8,
		"windDir" : 341,
		"rain" : 0,
		"cloudbase" : null,
		"flyability" : 0,
		"reason" : "windDir",
		"timestamp" :1555092000
		},
	"2019-04-12T18:00:00-03:00" : {
		"windSpeed" : 3.5,
		"windDir" : 352,
		"rain" : 0,
		"cloudbase" : null,
		"flyability" : 0,
		"reason" : "windDir",
		"timestamp" :1555102800
		},
	"2019-04-12T21:00:00-03:00" : {
		"windSpeed" : 2.9,
		"windDir" : 10,
		"rain" : 0,
		"cloudbase" : null,
		"flyability" : 0,
		"reason" : "windDir",
		"timestamp" :1555113600
		},
	"2019-04-13T00:00:00-03:00" : {
		"windSpeed" : 3.1,
		"windDir" : 360,
		"rain" : 0,
		"cloudbase" : null,
		"flyability" : 0,
		"reason" : "windDir",
		"timestamp" :1555124400
		},
	"2019-04-13T03:00:00-03:00" : {
		"windSpeed" : 3,
		"windDir" : 352,
		"rain" : 0,
		"cloudbase" : null,
		"flyability" : 0,
		"reason" : "windDir",
		"timestamp" :1555135200
		},
	"2019-04-13T06:00:00-03:00" : {
		"windSpeed" : 3.1,
		"windDir" : 341,
		"rain" : 0,
		"cloudbase" : null,
		"flyability" : 0,
		"reason" : "windDir",
		"timestamp" :1555146000
		},
	"2019-04-13T09:00:00-03:00" : {
		"windSpeed" : 4.2,
		"windDir" : 340,
		"rain" : 0,
		"cloudbase" : null,
		"flyability" : 0,
		"reason" : "windDir",
		"timestamp" :1555156800
		},
	"2019-04-13T12:00:00-03:00" : {
		"windSpeed" : 4.8,
		"windDir" : 342,
		"rain" : 0,
		"cloudbase" : null,
		"flyability" : 0,
		"reason" : "windDir",
		"timestamp" :1555167600
		},
	"2019-04-13T15:00:00-03:00" : {
		"windSpeed" : 4.5,
		"windDir" : 353,
		"rain" : 0,
		"cloudbase" : null,
		"flyability" : 0,
		"reason" : "windDir",
		"timestamp" :1555178400
		},
	"2019-04-13T18:00:00-03:00" : {
		"windSpeed" : 1.6,
		"windDir" : 18,
		"rain" : 0,
		"cloudbase" : null,
		"flyability" : 0,
		"reason" : "windDir",
		"timestamp" :1555189200
		},
	"2019-04-13T21:00:00-03:00" : {
		"windSpeed" : 2.3,
		"windDir" : 27,
		"rain" : 0,
		"cloudbase" : 9200,
		"flyability" : 100,
		"reason" : "",
		"timestamp" :1555200000
		},
	"2019-04-14T00:00:00-03:00" : {
		"windSpeed" : 3.5,
		"windDir" : 8,
		"rain" : 0,
		"cloudbase" : 8300,
		"flyability" : 0,
		"reason" : "windDir",
		"timestamp" :1555210800
		},
	"2019-04-14T03:00:00-03:00" : {
		"windSpeed" : 4,
		"windDir" : 7,
		"rain" : 0,
		"cloudbase" : 7400,
		"flyability" : 0,
		"reason" : "windDir",
		"timestamp" :1555221600
		},
	"2019-04-14T06:00:00-03:00" : {
		"windSpeed" : 2.6,
		"windDir" : 338,
		"rain" : 1,
		"cloudbase" : null,
		"flyability" : 0,
		"reason" : "windDir, rain",
		"timestamp" :1555232400
		},
	"2019-04-14T09:00:00-03:00" : {
		"windSpeed" : 3.2,
		"windDir" : 288,
		"rain" : 0,
		"cloudbase" : 2309.5744,
		"flyability" : 0,
		"reason" : "windDir",
		"timestamp" :1555243200
		},
	"2019-04-14T12:00:00-03:00" : {
		"windSpeed" : 2.5,
		"windDir" : 324,
		"rain" : 0,
		"cloudbase" : 8925.4272,
		"flyability" : 0,
		"reason" : "windDir",
		"timestamp" :1555254000
		},
	"2019-04-14T15:00:00-03:00" : {
		"windSpeed" : 3.1,
		"windDir" : 280,
		"rain" : 0,
		"cloudbase" : 1157.1136,
		"flyability" : 0,
		"reason" : "windDir",
		"timestamp" :1555264800
		},
	"2019-04-14T18:00:00-03:00" : {
		"windSpeed" : 2.9,
		"windDir" : 212,
		"rain" : 0,
		"cloudbase" : null,
		"flyability" : 0,
		"reason" : "windDir",
		"timestamp" :1555275600
		},
	"2019-04-14T21:00:00-03:00" : {
		"windSpeed" : 2.5,
		"windDir" : 179,
		"rain" : 0,
		"cloudbase" : null,
		"flyability" : 0,
		"reason" : "windDir",
		"timestamp" :1555286400
		},
	"2019-04-15T00:00:00-03:00" : {
		"windSpeed" : 2.5,
		"windDir" : 129,
		"rain" : 0,
		"cloudbase" : null,
		"flyability" : 100,
		"reason" : "",
		"timestamp" :1555297200
		},
	"2019-04-15T03:00:00-03:00" : {
		"windSpeed" : 3.9,
		"windDir" : 140,
		"rain" : 0,
		"cloudbase" : 7234.9136,
		"flyability" : 100,
		"reason" : "",
		"timestamp" :1555308000
		},
	"2019-04-15T06:00:00-03:00" : {
		"windSpeed" : 4.1,
		"windDir" : 167,
		"rain" : 0,
		"cloudbase" : 5300,
		"flyability" : 0,
		"reason" : "windDir",
		"timestamp" :1555318800
		},
	"2019-04-15T09:00:00-03:00" : {
		"windSpeed" : 4.6,
		"windDir" : 140,
		"rain" : 1,
		"cloudbase" : 5482.4,
		"flyability" : 0,
		"reason" : "rain",
		"timestamp" :1555329600
		},
	"2019-04-15T12:00:00-03:00" : {
		"windSpeed" : 4.7,
		"windDir" : 122,
		"rain" : 0,
		"cloudbase" : 3664.0568,
		"flyability" : 100,
		"reason" : "",
		"timestamp" :1555340400
		},
	"2019-04-15T15:00:00-03:00" : {
		"windSpeed" : 5.4,
		"windDir" : 113,
		"rain" : 0,
		"cloudbase" : 10000,
		"flyability" : 0,
		"reason" : "windSpeed",
		"timestamp" :1555351200
		},
	"2019-04-15T18:00:00-03:00" : {
		"windSpeed" : 4.7,
		"windDir" : 108,
		"rain" : 0,
		"cloudbase" : null,
		"flyability" : 100,
		"reason" : "",
		"timestamp" :1555362000
		},
	"2019-04-15T21:00:00-03:00" : {
		"windSpeed" : 3.6,
		"windDir" : 106,
		"rain" : 0,
		"cloudbase" : null,
		"flyability" : 100,
		"reason" : "",
		"timestamp" :1555372800
		},
	"2019-04-16T00:00:00-03:00" : {
		"windSpeed" : 2.9,
		"windDir" : 100,
		"rain" : 0,
		"cloudbase" : null,
		"flyability" : 100,
		"reason" : "",
		"timestamp" :1555383600
		},
	"2019-04-16T03:00:00-03:00" : {
		"windSpeed" : 2.1,
		"windDir" : 104,
		"rain" : 0,
		"cloudbase" : null,
		"flyability" : 100,
		"reason" : "",
		"timestamp" :1555394400
		},
	"2019-04-16T06:00:00-03:00" : {
		"windSpeed" : 1.7,
		"windDir" : 108,
		"rain" : 0,
		"cloudbase" : null,
		"flyability" : 100,
		"reason" : "",
		"timestamp" :1555405200
		},
	"2019-04-16T09:00:00-03:00" : {
		"windSpeed" : 2.9,
		"windDir" : 59,
		"rain" : 0,
		"cloudbase" : null,
		"flyability" : 100,
		"reason" : "",
		"timestamp" :1555416000
		},
	"2019-04-16T12:00:00-03:00" : {
		"windSpeed" : 5,
		"windDir" : 37,
		"rain" : 0,
		"cloudbase" : null,
		"flyability" : 100,
		"reason" : "",
		"timestamp" :1555426800
		},
	"2019-04-16T15:00:00-03:00" : {
		"windSpeed" : 4.3,
		"windDir" : 36,
		"rain" : 0,
		"cloudbase" : null,
		"flyability" : 100,
		"reason" : "",
		"timestamp" :1555437600
		},
	"2019-04-16T18:00:00-03:00" : {
		"windSpeed" : 2.4,
		"windDir" : 52,
		"rain" : 0,
		"cloudbase" : null,
		"flyability" : 100,
		"reason" : "",
		"timestamp" :1555448400
		},
	"2019-04-16T21:00:00-03:00" : {
		"windSpeed" : 3.5,
		"windDir" : 45,
		"rain" : 0,
		"cloudbase" : null,
		"flyability" : 100,
		"reason" : "",
		"timestamp" :1555459200
		},
	"2019-04-17T00:00:00-03:00" : {
		"windSpeed" : 3.6,
		"windDir" : 16,
		"rain" : 0,
		"cloudbase" : null,
		"flyability" : 0,
		"reason" : "windDir",
		"timestamp" :1555470000
		},
	"2019-04-17T03:00:00-03:00" : {
		"windSpeed" : 3.5,
		"windDir" : 2,
		"rain" : 0,
		"cloudbase" : null,
		"flyability" : 0,
		"reason" : "windDir",
		"timestamp" :1555480800
		},
	"2019-04-17T06:00:00-03:00" : {
		"windSpeed" : 3.6,
		"windDir" : 360,
		"rain" : 0,
		"cloudbase" : null,
		"flyability" : 0,
		"reason" : "windDir",
		"timestamp" :1555491600
		},
	"2019-04-17T09:00:00-03:00" : {
		"windSpeed" : 4.5,
		"windDir" : 354,
		"rain" : 0,
		"cloudbase" : 11978,
		"flyability" : 0,
		"reason" : "windDir",
		"timestamp" :1555502400
		},
	"2019-04-17T12:00:00-03:00" : {
		"windSpeed" : 5.9,
		"windDir" : 340,
		"rain" : 0,
		"cloudbase" : 11000,
		"flyability" : 0,
		"reason" : "windSpeed, windDir",
		"timestamp" :1555513200
		},
	"2019-04-17T15:00:00-03:00" : {
		"windSpeed" : 4.6,
		"windDir" : 328,
		"rain" : 0,
		"cloudbase" : null,
		"flyability" : 0,
		"reason" : "windDir",
		"timestamp" :1555524000
		},
	"2019-04-17T18:00:00-03:00" : {
		"windSpeed" : 3.1,
		"windDir" : 17,
		"rain" : 0,
		"cloudbase" : null,
		"flyability" : 0,
		"reason" : "windDir",
		"timestamp" :1555534800
		},
	"2019-04-17T21:00:00-03:00" : {
		"windSpeed" : 3,
		"windDir" : 10,
		"rain" : 1,
		"cloudbase" : 12000,
		"flyability" : 0,
		"reason" : "windDir, rain",
		"timestamp" :1555545600
		},
	"2019-04-18T00:00:00-03:00" : {
		"windSpeed" : 4.4,
		"windDir" : 360,
		"rain" : 0,
		"cloudbase" : 1964.7768,
		"flyability" : 0,
		"reason" : "windDir",
		"timestamp" :1555556400
		},
	"2019-04-18T03:00:00-03:00" : {
		"windSpeed" : 4.7,
		"windDir" : 341,
		"rain" : 0,
		"cloudbase" : 1500.6864,
		"flyability" : 0,
		"reason" : "windDir",
		"timestamp" :1555567200
		},
	"2019-04-18T06:00:00-03:00" : {
		"windSpeed" : 3.9,
		"windDir" : 352,
		"rain" : 0,
		"cloudbase" : 1500,
		"flyability" : 0,
		"reason" : "windDir",
		"timestamp" :1555578000
		},
	"2019-04-18T09:00:00-03:00" : {
		"windSpeed" : 4.1,
		"windDir" : 347,
		"rain" : 0,
		"cloudbase" : 12205.199999999,
		"flyability" : 0,
		"reason" : "windDir",
		"timestamp" :1555588800
		}
	}
}