{
"site" : "Tinto (alternative N'ly t\/o)",
"id" : 19812,
"orientations" : "21000002",
"forecasts" : { 
	"2019-04-14T04:00:00+01:00" : {
		"windSpeed" : 3.8,
		"windDir" : 113,
		"rain" : 0,
		"cloudbase" : 7105.0976,
		"flyability" : 0,
		"reason" : "windDir",
		"timestamp" :1555207200
		},
	"2019-04-14T07:00:00+01:00" : {
		"windSpeed" : 3.6,
		"windDir" : 123,
		"rain" : 0,
		"cloudbase" : 6343.7024,
		"flyability" : 0,
		"reason" : "windDir",
		"timestamp" :1555218000
		},
	"2019-04-14T10:00:00+01:00" : {
		"windSpeed" : 6.7,
		"windDir" : 132,
		"rain" : 0,
		"cloudbase" : 6377.6015999999,
		"flyability" : 0,
		"reason" : "windSpeed, windDir",
		"timestamp" :1555228800
		},
	"2019-04-14T13:00:00+01:00" : {
		"windSpeed" : 6.3,
		"windDir" : 119,
		"rain" : 0,
		"cloudbase" : 1098.2,
		"flyability" : 0,
		"reason" : "windSpeed, windDir",
		"timestamp" :1555239600
		},
	"2019-04-14T16:00:00+01:00" : {
		"windSpeed" : 5.6,
		"windDir" : 117,
		"rain" : 0,
		"cloudbase" : 1317.256,
		"flyability" : 0,
		"reason" : "windSpeed, windDir",
		"timestamp" :1555250400
		},
	"2019-04-14T19:00:00+01:00" : {
		"windSpeed" : 4.9,
		"windDir" : 114,
		"rain" : 0,
		"cloudbase" : 1050,
		"flyability" : 0,
		"reason" : "windDir",
		"timestamp" :1555261200
		},
	"2019-04-14T22:00:00+01:00" : {
		"windSpeed" : 4.3,
		"windDir" : 111,
		"rain" : 0,
		"cloudbase" : 7348.5215999999,
		"flyability" : 0,
		"reason" : "windDir",
		"timestamp" :1555272000
		},
	"2019-04-15T01:00:00+01:00" : {
		"windSpeed" : 3.7,
		"windDir" : 109,
		"rain" : 0,
		"cloudbase" : null,
		"flyability" : 0,
		"reason" : "windDir",
		"timestamp" :1555282800
		},
	"2019-04-15T04:00:00+01:00" : {
		"windSpeed" : 4.3,
		"windDir" : 111,
		"rain" : 0,
		"cloudbase" : null,
		"flyability" : 0,
		"reason" : "windDir",
		"timestamp" :1555293600
		},
	"2019-04-15T07:00:00+01:00" : {
		"windSpeed" : 4.8,
		"windDir" : 108,
		"rain" : 0,
		"cloudbase" : 8354.5024,
		"flyability" : 0,
		"reason" : "windDir",
		"timestamp" :1555304400
		},
	"2019-04-15T10:00:00+01:00" : {
		"windSpeed" : 6.8,
		"windDir" : 118,
		"rain" : 0,
		"cloudbase" : 10500,
		"flyability" : 0,
		"reason" : "windSpeed, windDir",
		"timestamp" :1555315200
		},
	"2019-04-15T13:00:00+01:00" : {
		"windSpeed" : 7.4,
		"windDir" : 118,
		"rain" : 0,
		"cloudbase" : 8106.2768,
		"flyability" : 0,
		"reason" : "windSpeed, windDir",
		"timestamp" :1555326000
		},
	"2019-04-15T16:00:00+01:00" : {
		"windSpeed" : 7.3,
		"windDir" : 117,
		"rain" : 0,
		"cloudbase" : null,
		"flyability" : 0,
		"reason" : "windSpeed, windDir",
		"timestamp" :1555336800
		},
	"2019-04-15T19:00:00+01:00" : {
		"windSpeed" : 6.7,
		"windDir" : 117,
		"rain" : 0,
		"cloudbase" : 2320.9635200002,
		"flyability" : 0,
		"reason" : "windSpeed, windDir",
		"timestamp" :1555347600
		},
	"2019-04-15T22:00:00+01:00" : {
		"windSpeed" : 4.9,
		"windDir" : 114,
		"rain" : 0,
		"cloudbase" : 371.71072,
		"flyability" : 0,
		"reason" : "windDir, cloudbase",
		"timestamp" :1555358400
		},
	"2019-04-16T01:00:00+01:00" : {
		"windSpeed" : 4.5,
		"windDir" : 117,
		"rain" : 0,
		"cloudbase" : 2163.6892800002,
		"flyability" : 0,
		"reason" : "windDir",
		"timestamp" :1555369200
		},
	"2019-04-16T04:00:00+01:00" : {
		"windSpeed" : 3.6,
		"windDir" : 98,
		"rain" : 0,
		"cloudbase" : 210.82048,
		"flyability" : 0,
		"reason" : "windDir, cloudbase",
		"timestamp" :1555380000
		},
	"2019-04-16T07:00:00+01:00" : {
		"windSpeed" : 4,
		"windDir" : 97,
		"rain" : 0,
		"cloudbase" : 8000,
		"flyability" : 0,
		"reason" : "windDir",
		"timestamp" :1555390800
		},
	"2019-04-16T10:00:00+01:00" : {
		"windSpeed" : 4.9,
		"windDir" : 104,
		"rain" : 0,
		"cloudbase" : 4784.7488000001,
		"flyability" : 0,
		"reason" : "windDir",
		"timestamp" :1555401600
		},
	"2019-04-16T13:00:00+01:00" : {
		"windSpeed" : 4.8,
		"windDir" : 102,
		"rain" : 0,
		"cloudbase" : 1773.3488,
		"flyability" : 0,
		"reason" : "windDir",
		"timestamp" :1555412400
		},
	"2019-04-16T16:00:00+01:00" : {
		"windSpeed" : 4.6,
		"windDir" : 103,
		"rain" : 0,
		"cloudbase" : 4045.5072000001,
		"flyability" : 0,
		"reason" : "windDir",
		"timestamp" :1555423200
		},
	"2019-04-16T19:00:00+01:00" : {
		"windSpeed" : 4.2,
		"windDir" : 97,
		"rain" : 0,
		"cloudbase" : 4227.2512,
		"flyability" : 0,
		"reason" : "windDir",
		"timestamp" :1555434000
		},
	"2019-04-16T22:00:00+01:00" : {
		"windSpeed" : 4.1,
		"windDir" : 100,
		"rain" : 0,
		"cloudbase" : 2391.2,
		"flyability" : 0,
		"reason" : "windDir",
		"timestamp" :1555444800
		},
	"2019-04-17T01:00:00+01:00" : {
		"windSpeed" : 3.8,
		"windDir" : 100,
		"rain" : 0,
		"cloudbase" : null,
		"flyability" : 0,
		"reason" : "windDir",
		"timestamp" :1555455600
		},
	"2019-04-17T04:00:00+01:00" : {
		"windSpeed" : 3.5,
		"windDir" : 93,
		"rain" : 0,
		"cloudbase" : null,
		"flyability" : 0,
		"reason" : "windDir",
		"timestamp" :1555466400
		},
	"2019-04-17T07:00:00+01:00" : {
		"windSpeed" : 3.7,
		"windDir" : 85,
		"rain" : 0,
		"cloudbase" : 196.92,
		"flyability" : 0,
		"reason" : "windDir, cloudbase",
		"timestamp" :1555477200
		},
	"2019-04-17T10:00:00+01:00" : {
		"windSpeed" : 4.5,
		"windDir" : 93,
		"rain" : 0,
		"cloudbase" : null,
		"flyability" : 0,
		"reason" : "windDir",
		"timestamp" :1555488000
		},
	"2019-04-17T13:00:00+01:00" : {
		"windSpeed" : 3.6,
		"windDir" : 98,
		"rain" : 0,
		"cloudbase" : null,
		"flyability" : 0,
		"reason" : "windDir",
		"timestamp" :1555498800
		},
	"2019-04-17T16:00:00+01:00" : {
		"windSpeed" : 3.3,
		"windDir" : 113,
		"rain" : 0,
		"cloudbase" : 1365.2976,
		"flyability" : 0,
		"reason" : "windDir",
		"timestamp" :1555509600
		},
	"2019-04-17T19:00:00+01:00" : {
		"windSpeed" : 3,
		"windDir" : 98,
		"rain" : 0,
		"cloudbase" : null,
		"flyability" : 0,
		"reason" : "windDir",
		"timestamp" :1555520400
		},
	"2019-04-17T22:00:00+01:00" : {
		"windSpeed" : 3.2,
		"windDir" : 93,
		"rain" : 0,
		"cloudbase" : 8004.8096,
		"flyability" : 0,
		"reason" : "windDir",
		"timestamp" :1555531200
		},
	"2019-04-18T01:00:00+01:00" : {
		"windSpeed" : 2.8,
		"windDir" : 100,
		"rain" : 0,
		"cloudbase" : 7045.8048,
		"flyability" : 0,
		"reason" : "windDir",
		"timestamp" :1555542000
		},
	"2019-04-18T04:00:00+01:00" : {
		"windSpeed" : 2.2,
		"windDir" : 94,
		"rain" : 0,
		"cloudbase" : 4900.3760000001,
		"flyability" : 0,
		"reason" : "windDir",
		"timestamp" :1555552800
		},
	"2019-04-18T07:00:00+01:00" : {
		"windSpeed" : 3.1,
		"windDir" : 119,
		"rain" : 0,
		"cloudbase" : 72.18512,
		"flyability" : 0,
		"reason" : "windDir, cloudbase",
		"timestamp" :1555563600
		},
	"2019-04-18T10:00:00+01:00" : {
		"windSpeed" : 3.3,
		"windDir" : 116,
		"rain" : 0,
		"cloudbase" : 6213.1456,
		"flyability" : 0,
		"reason" : "windDir",
		"timestamp" :1555574400
		},
	"2019-04-18T13:00:00+01:00" : {
		"windSpeed" : 3.9,
		"windDir" : 130,
		"rain" : 0,
		"cloudbase" : 4262.57952,
		"flyability" : 0,
		"reason" : "windDir",
		"timestamp" :1555585200
		},
	"2019-04-18T16:00:00+01:00" : {
		"windSpeed" : 3.7,
		"windDir" : 144,
		"rain" : 0,
		"cloudbase" : 1352.8512,
		"flyability" : 0,
		"reason" : "windDir",
		"timestamp" :1555596000
		},
	"2019-04-18T19:00:00+01:00" : {
		"windSpeed" : 2.1,
		"windDir" : 134,
		"rain" : 0,
		"cloudbase" : 6000,
		"flyability" : 0,
		"reason" : "windDir",
		"timestamp" :1555606800
		},
	"2019-04-18T22:00:00+01:00" : {
		"windSpeed" : 2.9,
		"windDir" : 121,
		"rain" : 0,
		"cloudbase" : 11500,
		"flyability" : 0,
		"reason" : "windDir",
		"timestamp" :1555617600
		},
	"2019-04-19T01:00:00+01:00" : {
		"windSpeed" : 2.1,
		"windDir" : 135,
		"rain" : 0,
		"cloudbase" : 9241.6,
		"flyability" : 0,
		"reason" : "windDir",
		"timestamp" :1555628400
		},
	"2019-04-19T04:00:00+01:00" : {
		"windSpeed" : 2.1,
		"windDir" : 160,
		"rain" : 0,
		"cloudbase" : 6965.6,
		"flyability" : 0,
		"reason" : "windDir",
		"timestamp" :1555639200
		},
	"2019-04-19T07:00:00+01:00" : {
		"windSpeed" : 2.2,
		"windDir" : 153,
		"rain" : 1,
		"cloudbase" : null,
		"flyability" : 0,
		"reason" : "windDir, rain",
		"timestamp" :1555650000
		},
	"2019-04-19T10:00:00+01:00" : {
		"windSpeed" : 1.8,
		"windDir" : 146,
		"rain" : 1,
		"cloudbase" : 9556.2976,
		"flyability" : 0,
		"reason" : "windDir, rain",
		"timestamp" :1555660800
		},
	"2019-04-19T13:00:00+01:00" : {
		"windSpeed" : 3,
		"windDir" : 180,
		"rain" : 0,
		"cloudbase" : null,
		"flyability" : 0,
		"reason" : "windDir",
		"timestamp" :1555671600
		},
	"2019-04-19T16:00:00+01:00" : {
		"windSpeed" : 3.2,
		"windDir" : 199,
		"rain" : 0,
		"cloudbase" : null,
		"flyability" : 0,
		"reason" : "windDir",
		"timestamp" :1555682400
		},
	"2019-04-19T19:00:00+01:00" : {
		"windSpeed" : 2.2,
		"windDir" : 214,
		"rain" : 0,
		"cloudbase" : 9203.6,
		"flyability" : 0,
		"reason" : "windDir",
		"timestamp" :1555693200
		},
	"2019-04-19T22:00:00+01:00" : {
		"windSpeed" : 2.5,
		"windDir" : 175,
		"rain" : 0,
		"cloudbase" : null,
		"flyability" : 0,
		"reason" : "windDir",
		"timestamp" :1555704000
		},
	"2019-04-20T01:00:00+01:00" : {
		"windSpeed" : 2.7,
		"windDir" : 180,
		"rain" : 0,
		"cloudbase" : 11700.512,
		"flyability" : 0,
		"reason" : "windDir",
		"timestamp" :1555714800
		}
	}
}