{
"site" : "Mansilla",
"id" : 19814,
"orientations" : "00121000",
"forecasts" : { 
	"2019-04-05T05:00:00+02:00" : {
		"windSpeed" : 3.5,
		"windDir" : 180,
		"rain" : 1,
		"cloudbase" : 79.256290000012,
		"flyability" : 0,
		"reason" : "rain, cloudbase",
		"timestamp" :1554436800
		},
	"2019-04-05T08:00:00+02:00" : {
		"windSpeed" : 4.2,
		"windDir" : 215,
		"rain" : 1,
		"cloudbase" : 561.85098000014,
		"flyability" : 0,
		"reason" : "windDir, rain, cloudbase",
		"timestamp" :1554447600
		},
	"2019-04-05T11:00:00+02:00" : {
		"windSpeed" : 4,
		"windDir" : 228,
		"rain" : 1,
		"cloudbase" : 3809.62715,
		"flyability" : 0,
		"reason" : "windDir, rain",
		"timestamp" :1554458400
		},
	"2019-04-05T14:00:00+02:00" : {
		"windSpeed" : 4.9,
		"windDir" : 229,
		"rain" : 1,
		"cloudbase" : 4470.35,
		"flyability" : 0,
		"reason" : "windDir, rain",
		"timestamp" :1554469200
		},
	"2019-04-05T17:00:00+02:00" : {
		"windSpeed" : 3.7,
		"windDir" : 243,
		"rain" : 1,
		"cloudbase" : null,
		"flyability" : 0,
		"reason" : "windDir, rain",
		"timestamp" :1554480000
		},
	"2019-04-05T20:00:00+02:00" : {
		"windSpeed" : 3.6,
		"windDir" : 267,
		"rain" : 1,
		"cloudbase" : null,
		"flyability" : 0,
		"reason" : "windDir, rain",
		"timestamp" :1554490800
		},
	"2019-04-05T23:00:00+02:00" : {
		"windSpeed" : 3.1,
		"windDir" : 269,
		"rain" : 0,
		"cloudbase" : null,
		"flyability" : 0,
		"reason" : "windDir",
		"timestamp" :1554501600
		},
	"2019-04-06T02:00:00+02:00" : {
		"windSpeed" : 1.9,
		"windDir" : 246,
		"rain" : 0,
		"cloudbase" : null,
		"flyability" : 0,
		"reason" : "windDir",
		"timestamp" :1554512400
		},
	"2019-04-06T05:00:00+02:00" : {
		"windSpeed" : 2.5,
		"windDir" : 203,
		"rain" : 0,
		"cloudbase" : 157.18629000002,
		"flyability" : 0,
		"reason" : "windDir, cloudbase",
		"timestamp" :1554523200
		},
	"2019-04-06T08:00:00+02:00" : {
		"windSpeed" : 3.8,
		"windDir" : 208,
		"rain" : 1,
		"cloudbase" : 82.619005000011,
		"flyability" : 0,
		"reason" : "windDir, rain, cloudbase",
		"timestamp" :1554534000
		},
	"2019-04-06T11:00:00+02:00" : {
		"windSpeed" : 5.2,
		"windDir" : 219,
		"rain" : 1,
		"cloudbase" : 4534.4981500003,
		"flyability" : 0,
		"reason" : "windSpeed, windDir, rain",
		"timestamp" :1554544800
		},
	"2019-04-06T14:00:00+02:00" : {
		"windSpeed" : 2.9,
		"windDir" : 237,
		"rain" : 1,
		"cloudbase" : 1263.8621399999,
		"flyability" : 0,
		"reason" : "windDir, rain",
		"timestamp" :1554555600
		},
	"2019-04-06T17:00:00+02:00" : {
		"windSpeed" : 4.3,
		"windDir" : 268,
		"rain" : 0,
		"cloudbase" : 5900,
		"flyability" : 0,
		"reason" : "windDir",
		"timestamp" :1554566400
		},
	"2019-04-06T20:00:00+02:00" : {
		"windSpeed" : 3.6,
		"windDir" : 293,
		"rain" : 1,
		"cloudbase" : 5853.9,
		"flyability" : 0,
		"reason" : "windDir, rain",
		"timestamp" :1554577200
		},
	"2019-04-06T23:00:00+02:00" : {
		"windSpeed" : 3.7,
		"windDir" : 262,
		"rain" : 0,
		"cloudbase" : null,
		"flyability" : 0,
		"reason" : "windDir",
		"timestamp" :1554588000
		},
	"2019-04-07T02:00:00+02:00" : {
		"windSpeed" : 3.1,
		"windDir" : 268,
		"rain" : 0,
		"cloudbase" : null,
		"flyability" : 0,
		"reason" : "windDir",
		"timestamp" :1554598800
		},
	"2019-04-07T05:00:00+02:00" : {
		"windSpeed" : 1.5,
		"windDir" : 233,
		"rain" : 0,
		"cloudbase" : 751.42,
		"flyability" : 0,
		"reason" : "windDir, cloudbase",
		"timestamp" :1554609600
		},
	"2019-04-07T08:00:00+02:00" : {
		"windSpeed" : 2.6,
		"windDir" : 225,
		"rain" : 0,
		"cloudbase" : 431.87258000001,
		"flyability" : 0,
		"reason" : "windDir, cloudbase",
		"timestamp" :1554620400
		},
	"2019-04-07T11:00:00+02:00" : {
		"windSpeed" : 3.9,
		"windDir" : 255,
		"rain" : 0,
		"cloudbase" : 706.94741999999,
		"flyability" : 0,
		"reason" : "windDir, cloudbase",
		"timestamp" :1554631200
		},
	"2019-04-07T14:00:00+02:00" : {
		"windSpeed" : 3.4,
		"windDir" : 225,
		"rain" : 0,
		"cloudbase" : 1242.32715,
		"flyability" : 0,
		"reason" : "windDir",
		"timestamp" :1554642000
		},
	"2019-04-07T17:00:00+02:00" : {
		"windSpeed" : 5.3,
		"windDir" : 221,
		"rain" : 1,
		"cloudbase" : 1046.6043,
		"flyability" : 0,
		"reason" : "windSpeed, windDir, rain",
		"timestamp" :1554652800
		},
	"2019-04-07T20:00:00+02:00" : {
		"windSpeed" : 3.3,
		"windDir" : 191,
		"rain" : 1,
		"cloudbase" : 408.53172,
		"flyability" : 0,
		"reason" : "rain, cloudbase",
		"timestamp" :1554663600
		},
	"2019-04-07T23:00:00+02:00" : {
		"windSpeed" : 3.4,
		"windDir" : 176,
		"rain" : 1,
		"cloudbase" : 219.96543000001,
		"flyability" : 0,
		"reason" : "rain, cloudbase",
		"timestamp" :1554674400
		},
	"2019-04-08T02:00:00+02:00" : {
		"windSpeed" : 4.4,
		"windDir" : 217,
		"rain" : 1,
		"cloudbase" : 425.24914000002,
		"flyability" : 0,
		"reason" : "windDir, rain, cloudbase",
		"timestamp" :1554685200
		},
	"2019-04-08T05:00:00+02:00" : {
		"windSpeed" : 4.8,
		"windDir" : 226,
		"rain" : 0,
		"cloudbase" : null,
		"flyability" : 0,
		"reason" : "windDir",
		"timestamp" :1554696000
		},
	"2019-04-08T08:00:00+02:00" : {
		"windSpeed" : 2.8,
		"windDir" : 223,
		"rain" : 1,
		"cloudbase" : 520,
		"flyability" : 0,
		"reason" : "windDir, rain, cloudbase",
		"timestamp" :1554706800
		},
	"2019-04-08T11:00:00+02:00" : {
		"windSpeed" : 5,
		"windDir" : 229,
		"rain" : 1,
		"cloudbase" : null,
		"flyability" : 0,
		"reason" : "windDir, rain",
		"timestamp" :1554717600
		},
	"2019-04-08T14:00:00+02:00" : {
		"windSpeed" : 6.5,
		"windDir" : 234,
		"rain" : 0,
		"cloudbase" : 1746.8086,
		"flyability" : 0,
		"reason" : "windSpeed, windDir",
		"timestamp" :1554728400
		},
	"2019-04-08T17:00:00+02:00" : {
		"windSpeed" : 8,
		"windDir" : 230,
		"rain" : 1,
		"cloudbase" : null,
		"flyability" : 0,
		"reason" : "windSpeed, windDir, rain",
		"timestamp" :1554739200
		},
	"2019-04-08T20:00:00+02:00" : {
		"windSpeed" : 6.4,
		"windDir" : 221,
		"rain" : 1,
		"cloudbase" : null,
		"flyability" : 0,
		"reason" : "windSpeed, windDir, rain",
		"timestamp" :1554750000
		},
	"2019-04-08T23:00:00+02:00" : {
		"windSpeed" : 5.2,
		"windDir" : 206,
		"rain" : 0,
		"cloudbase" : null,
		"flyability" : 0,
		"reason" : "windSpeed, windDir",
		"timestamp" :1554760800
		},
	"2019-04-09T02:00:00+02:00" : {
		"windSpeed" : 4.6,
		"windDir" : 196,
		"rain" : 0,
		"cloudbase" : 329.46000000001,
		"flyability" : 0,
		"reason" : "cloudbase",
		"timestamp" :1554771600
		},
	"2019-04-09T05:00:00+02:00" : {
		"windSpeed" : 5.2,
		"windDir" : 196,
		"rain" : 1,
		"cloudbase" : 274.32629,
		"flyability" : 0,
		"reason" : "windSpeed, rain, cloudbase",
		"timestamp" :1554782400
		},
	"2019-04-09T08:00:00+02:00" : {
		"windSpeed" : 5.3,
		"windDir" : 207,
		"rain" : 0,
		"cloudbase" : 377.62543000002,
		"flyability" : 0,
		"reason" : "windSpeed, windDir, cloudbase",
		"timestamp" :1554793200
		},
	"2019-04-09T11:00:00+02:00" : {
		"windSpeed" : 7.8,
		"windDir" : 212,
		"rain" : 1,
		"cloudbase" : 862.59553000003,
		"flyability" : 0,
		"reason" : "windSpeed, windDir, rain",
		"timestamp" :1554804000
		},
	"2019-04-09T14:00:00+02:00" : {
		"windSpeed" : 5.7,
		"windDir" : 253,
		"rain" : 1,
		"cloudbase" : 680,
		"flyability" : 0,
		"reason" : "windSpeed, windDir, rain, cloudbase",
		"timestamp" :1554814800
		},
	"2019-04-09T17:00:00+02:00" : {
		"windSpeed" : 8.5,
		"windDir" : 275,
		"rain" : 1,
		"cloudbase" : 4494.13575,
		"flyability" : 0,
		"reason" : "windSpeed, windDir, rain",
		"timestamp" :1554825600
		},
	"2019-04-09T20:00:00+02:00" : {
		"windSpeed" : 5.9,
		"windDir" : 276,
		"rain" : 0,
		"cloudbase" : 2830.0040500001,
		"flyability" : 0,
		"reason" : "windSpeed, windDir",
		"timestamp" :1554836400
		},
	"2019-04-09T23:00:00+02:00" : {
		"windSpeed" : 4,
		"windDir" : 263,
		"rain" : 1,
		"cloudbase" : 3950,
		"flyability" : 0,
		"reason" : "windDir, rain",
		"timestamp" :1554847200
		},
	"2019-04-10T02:00:00+02:00" : {
		"windSpeed" : 4.1,
		"windDir" : 249,
		"rain" : 0,
		"cloudbase" : 598.01601999999,
		"flyability" : 0,
		"reason" : "windDir, cloudbase",
		"timestamp" :1554858000
		},
	"2019-04-10T05:00:00+02:00" : {
		"windSpeed" : 4.2,
		"windDir" : 256,
		"rain" : 0,
		"cloudbase" : null,
		"flyability" : 0,
		"reason" : "windDir",
		"timestamp" :1554868800
		},
	"2019-04-10T08:00:00+02:00" : {
		"windSpeed" : 3.2,
		"windDir" : 253,
		"rain" : 0,
		"cloudbase" : null,
		"flyability" : 0,
		"reason" : "windDir",
		"timestamp" :1554879600
		},
	"2019-04-10T11:00:00+02:00" : {
		"windSpeed" : 5.8,
		"windDir" : 290,
		"rain" : 0,
		"cloudbase" : 1176.33145,
		"flyability" : 0,
		"reason" : "windSpeed, windDir",
		"timestamp" :1554890400
		},
	"2019-04-10T14:00:00+02:00" : {
		"windSpeed" : 6.2,
		"windDir" : 298,
		"rain" : 0,
		"cloudbase" : 1950,
		"flyability" : 0,
		"reason" : "windSpeed, windDir",
		"timestamp" :1554901200
		},
	"2019-04-10T17:00:00+02:00" : {
		"windSpeed" : 5.9,
		"windDir" : 286,
		"rain" : 1,
		"cloudbase" : 2050,
		"flyability" : 0,
		"reason" : "windSpeed, windDir, rain",
		"timestamp" :1554912000
		},
	"2019-04-10T20:00:00+02:00" : {
		"windSpeed" : 4,
		"windDir" : 289,
		"rain" : 1,
		"cloudbase" : null,
		"flyability" : 0,
		"reason" : "windDir, rain",
		"timestamp" :1554922800
		},
	"2019-04-10T23:00:00+02:00" : {
		"windSpeed" : 3.6,
		"windDir" : 278,
		"rain" : 0,
		"cloudbase" : null,
		"flyability" : 0,
		"reason" : "windDir",
		"timestamp" :1554933600
		},
	"2019-04-11T02:00:00+02:00" : {
		"windSpeed" : 1.3,
		"windDir" : 280,
		"rain" : 0,
		"cloudbase" : null,
		"flyability" : 0,
		"reason" : "windDir",
		"timestamp" :1554944400
		}
	}
}