{
"site" : "CATALINA DEAL NW",
"id" : 19831,
"orientations" : "22000001",
"forecasts" : { 
	"2019-04-17T06:00:00+03:00" : {
		"windSpeed" : 4.4,
		"windDir" : 326,
		"rain" : 1,
		"cloudbase" : 362.63029999999,
		"flyability" : 0,
		"reason" : "rain, cloudbase",
		"timestamp" :1555470000
		},
	"2019-04-17T09:00:00+03:00" : {
		"windSpeed" : 3.1,
		"windDir" : 341,
		"rain" : 1,
		"cloudbase" : 374.36043999997,
		"flyability" : 0,
		"reason" : "rain, cloudbase",
		"timestamp" :1555480800
		},
	"2019-04-17T12:00:00+03:00" : {
		"windSpeed" : 3.1,
		"windDir" : 29,
		"rain" : 1,
		"cloudbase" : 639.92019999999,
		"flyability" : 0,
		"reason" : "rain",
		"timestamp" :1555491600
		},
	"2019-04-17T15:00:00+03:00" : {
		"windSpeed" : 2.8,
		"windDir" : 45,
		"rain" : 1,
		"cloudbase" : 751.53948000001,
		"flyability" : 0,
		"reason" : "rain",
		"timestamp" :1555502400
		},
	"2019-04-17T18:00:00+03:00" : {
		"windSpeed" : 1.2,
		"windDir" : 92,
		"rain" : 1,
		"cloudbase" : 1737.8002,
		"flyability" : 0,
		"reason" : "windDir, rain",
		"timestamp" :1555513200
		},
	"2019-04-17T21:00:00+03:00" : {
		"windSpeed" : 2.9,
		"windDir" : 347,
		"rain" : 1,
		"cloudbase" : 1154.7002,
		"flyability" : 0,
		"reason" : "rain",
		"timestamp" :1555524000
		},
	"2019-04-18T00:00:00+03:00" : {
		"windSpeed" : 2.7,
		"windDir" : 3,
		"rain" : 1,
		"cloudbase" : 230.24001999999,
		"flyability" : 0,
		"reason" : "rain, cloudbase",
		"timestamp" :1555534800
		},
	"2019-04-18T03:00:00+03:00" : {
		"windSpeed" : 3.3,
		"windDir" : 26,
		"rain" : 1,
		"cloudbase" : 189.76009999998,
		"flyability" : 0,
		"reason" : "rain, cloudbase",
		"timestamp" :1555545600
		},
	"2019-04-18T06:00:00+03:00" : {
		"windSpeed" : 3.9,
		"windDir" : 25,
		"rain" : 1,
		"cloudbase" : 410.85001999999,
		"flyability" : 0,
		"reason" : "rain",
		"timestamp" :1555556400
		},
	"2019-04-18T09:00:00+03:00" : {
		"windSpeed" : 3.7,
		"windDir" : 32,
		"rain" : 1,
		"cloudbase" : 3300,
		"flyability" : 0,
		"reason" : "rain",
		"timestamp" :1555567200
		},
	"2019-04-18T12:00:00+03:00" : {
		"windSpeed" : 3.4,
		"windDir" : 47,
		"rain" : 0,
		"cloudbase" : 1360.4002,
		"flyability" : 100,
		"reason" : "",
		"timestamp" :1555578000
		},
	"2019-04-18T15:00:00+03:00" : {
		"windSpeed" : 4.2,
		"windDir" : 9,
		"rain" : 1,
		"cloudbase" : 1554.7499,
		"flyability" : 0,
		"reason" : "rain",
		"timestamp" :1555588800
		},
	"2019-04-18T18:00:00+03:00" : {
		"windSpeed" : 3.7,
		"windDir" : 354,
		"rain" : 0,
		"cloudbase" : 1854.7499,
		"flyability" : 100,
		"reason" : "",
		"timestamp" :1555599600
		},
	"2019-04-18T21:00:00+03:00" : {
		"windSpeed" : 2.6,
		"windDir" : 310,
		"rain" : 0,
		"cloudbase" : 8200,
		"flyability" : 100,
		"reason" : "",
		"timestamp" :1555610400
		},
	"2019-04-19T00:00:00+03:00" : {
		"windSpeed" : 2.9,
		"windDir" : 329,
		"rain" : 0,
		"cloudbase" : 3796.4530999998,
		"flyability" : 100,
		"reason" : "",
		"timestamp" :1555621200
		},
	"2019-04-19T03:00:00+03:00" : {
		"windSpeed" : 3.2,
		"windDir" : 308,
		"rain" : 0,
		"cloudbase" : 1528.7002,
		"flyability" : 100,
		"reason" : "",
		"timestamp" :1555632000
		},
	"2019-04-19T06:00:00+03:00" : {
		"windSpeed" : 3.2,
		"windDir" : 322,
		"rain" : 0,
		"cloudbase" : null,
		"flyability" : 100,
		"reason" : "",
		"timestamp" :1555642800
		},
	"2019-04-19T09:00:00+03:00" : {
		"windSpeed" : 4.4,
		"windDir" : 335,
		"rain" : 1,
		"cloudbase" : null,
		"flyability" : 0,
		"reason" : "rain",
		"timestamp" :1555653600
		},
	"2019-04-19T12:00:00+03:00" : {
		"windSpeed" : 5,
		"windDir" : 6,
		"rain" : 1,
		"cloudbase" : 1050,
		"flyability" : 0,
		"reason" : "rain",
		"timestamp" :1555664400
		},
	"2019-04-19T15:00:00+03:00" : {
		"windSpeed" : 5.5,
		"windDir" : 13,
		"rain" : 1,
		"cloudbase" : 3350,
		"flyability" : 0,
		"reason" : "windSpeed, rain",
		"timestamp" :1555675200
		},
	"2019-04-19T18:00:00+03:00" : {
		"windSpeed" : 4.1,
		"windDir" : 6,
		"rain" : 1,
		"cloudbase" : 1450,
		"flyability" : 0,
		"reason" : "rain",
		"timestamp" :1555686000
		},
	"2019-04-19T21:00:00+03:00" : {
		"windSpeed" : 2.8,
		"windDir" : 343,
		"rain" : 1,
		"cloudbase" : 2393.75,
		"flyability" : 0,
		"reason" : "rain",
		"timestamp" :1555696800
		},
	"2019-04-20T00:00:00+03:00" : {
		"windSpeed" : 2.8,
		"windDir" : 328,
		"rain" : 0,
		"cloudbase" : null,
		"flyability" : 100,
		"reason" : "",
		"timestamp" :1555707600
		},
	"2019-04-20T03:00:00+03:00" : {
		"windSpeed" : 2,
		"windDir" : 336,
		"rain" : 0,
		"cloudbase" : 2147.9503,
		"flyability" : 100,
		"reason" : "",
		"timestamp" :1555718400
		},
	"2019-04-20T06:00:00+03:00" : {
		"windSpeed" : 2.5,
		"windDir" : 328,
		"rain" : 0,
		"cloudbase" : 2018.0999,
		"flyability" : 100,
		"reason" : "",
		"timestamp" :1555729200
		},
	"2019-04-20T09:00:00+03:00" : {
		"windSpeed" : 2.5,
		"windDir" : 353,
		"rain" : 0,
		"cloudbase" : 2250,
		"flyability" : 100,
		"reason" : "",
		"timestamp" :1555740000
		},
	"2019-04-20T12:00:00+03:00" : {
		"windSpeed" : 3.7,
		"windDir" : 18,
		"rain" : 0,
		"cloudbase" : 1517.7003,
		"flyability" : 100,
		"reason" : "",
		"timestamp" :1555750800
		},
	"2019-04-20T15:00:00+03:00" : {
		"windSpeed" : 3.6,
		"windDir" : 11,
		"rain" : 0,
		"cloudbase" : 1856.6001,
		"flyability" : 100,
		"reason" : "",
		"timestamp" :1555761600
		},
	"2019-04-20T18:00:00+03:00" : {
		"windSpeed" : 3.2,
		"windDir" : 9,
		"rain" : 0,
		"cloudbase" : 1891.3999,
		"flyability" : 100,
		"reason" : "",
		"timestamp" :1555772400
		},
	"2019-04-20T21:00:00+03:00" : {
		"windSpeed" : 1.3,
		"windDir" : 320,
		"rain" : 0,
		"cloudbase" : 2004.0002,
		"flyability" : 100,
		"reason" : "",
		"timestamp" :1555783200
		},
	"2019-04-21T00:00:00+03:00" : {
		"windSpeed" : 1.5,
		"windDir" : 333,
		"rain" : 0,
		"cloudbase" : 1911.4998,
		"flyability" : 100,
		"reason" : "",
		"timestamp" :1555794000
		},
	"2019-04-21T03:00:00+03:00" : {
		"windSpeed" : 1.8,
		"windDir" : 286,
		"rain" : 0,
		"cloudbase" : 4511.8967000001,
		"flyability" : 0,
		"reason" : "windDir",
		"timestamp" :1555804800
		},
	"2019-04-21T06:00:00+03:00" : {
		"windSpeed" : 1.4,
		"windDir" : 307,
		"rain" : 0,
		"cloudbase" : 1938.5002,
		"flyability" : 100,
		"reason" : "",
		"timestamp" :1555815600
		},
	"2019-04-21T09:00:00+03:00" : {
		"windSpeed" : 0.3,
		"windDir" : 4,
		"rain" : 1,
		"cloudbase" : 1753.0501,
		"flyability" : 0,
		"reason" : "rain",
		"timestamp" :1555826400
		},
	"2019-04-21T12:00:00+03:00" : {
		"windSpeed" : 1.5,
		"windDir" : 84,
		"rain" : 1,
		"cloudbase" : 1738.9504,
		"flyability" : 0,
		"reason" : "windDir, rain",
		"timestamp" :1555837200
		},
	"2019-04-21T15:00:00+03:00" : {
		"windSpeed" : 1.2,
		"windDir" : 46,
		"rain" : 1,
		"cloudbase" : 1622.8001,
		"flyability" : 0,
		"reason" : "rain",
		"timestamp" :1555848000
		},
	"2019-04-21T18:00:00+03:00" : {
		"windSpeed" : 1,
		"windDir" : 101,
		"rain" : 0,
		"cloudbase" : 1880.0996,
		"flyability" : 0,
		"reason" : "windDir",
		"timestamp" :1555858800
		},
	"2019-04-21T21:00:00+03:00" : {
		"windSpeed" : 2,
		"windDir" : 180,
		"rain" : 0,
		"cloudbase" : 7000,
		"flyability" : 0,
		"reason" : "windDir",
		"timestamp" :1555869600
		},
	"2019-04-22T00:00:00+03:00" : {
		"windSpeed" : 1.8,
		"windDir" : 213,
		"rain" : 1,
		"cloudbase" : 6907.1,
		"flyability" : 0,
		"reason" : "windDir, rain",
		"timestamp" :1555880400
		},
	"2019-04-22T03:00:00+03:00" : {
		"windSpeed" : 1.6,
		"windDir" : 200,
		"rain" : 0,
		"cloudbase" : 6900,
		"flyability" : 0,
		"reason" : "windDir",
		"timestamp" :1555891200
		},
	"2019-04-22T06:00:00+03:00" : {
		"windSpeed" : 1.6,
		"windDir" : 133,
		"rain" : 0,
		"cloudbase" : 2200,
		"flyability" : 0,
		"reason" : "windDir",
		"timestamp" :1555902000
		},
	"2019-04-22T09:00:00+03:00" : {
		"windSpeed" : 1.6,
		"windDir" : 108,
		"rain" : 0,
		"cloudbase" : null,
		"flyability" : 0,
		"reason" : "windDir",
		"timestamp" :1555912800
		},
	"2019-04-22T12:00:00+03:00" : {
		"windSpeed" : 3.9,
		"windDir" : 129,
		"rain" : 0,
		"cloudbase" : 1709.4501,
		"flyability" : 0,
		"reason" : "windDir",
		"timestamp" :1555923600
		},
	"2019-04-22T15:00:00+03:00" : {
		"windSpeed" : 2.9,
		"windDir" : 130,
		"rain" : 0,
		"cloudbase" : 1997.6002,
		"flyability" : 0,
		"reason" : "windDir",
		"timestamp" :1555934400
		},
	"2019-04-22T18:00:00+03:00" : {
		"windSpeed" : 2.5,
		"windDir" : 119,
		"rain" : 0,
		"cloudbase" : 2003.55,
		"flyability" : 0,
		"reason" : "windDir",
		"timestamp" :1555945200
		},
	"2019-04-22T21:00:00+03:00" : {
		"windSpeed" : 2.9,
		"windDir" : 111,
		"rain" : 0,
		"cloudbase" : 2125.1999,
		"flyability" : 0,
		"reason" : "windDir",
		"timestamp" :1555956000
		},
	"2019-04-23T00:00:00+03:00" : {
		"windSpeed" : 1.9,
		"windDir" : 165,
		"rain" : 0,
		"cloudbase" : 2555.9498,
		"flyability" : 0,
		"reason" : "windDir",
		"timestamp" :1555966800
		},
	"2019-04-23T03:00:00+03:00" : {
		"windSpeed" : 1.3,
		"windDir" : 230,
		"rain" : 0,
		"cloudbase" : 2555.9498,
		"flyability" : 0,
		"reason" : "windDir",
		"timestamp" :1555977600
		}
	}
}