{
"site" : "Sumas Mountain",
"id" : 19869,
"orientations" : "00000000",
"forecasts" : { 
	"2019-04-10T08:00:00-07:00" : {
		"windSpeed" : 3,
		"windDir" : 201,
		"rain" : 1,
		"cloudbase" : 672.92359999998,
		"flyability" : -0,
		"reason" : "orientationsUnknown, rain, cloudbase",
		"timestamp" :1554912000
		},
	"2019-04-10T11:00:00-07:00" : {
		"windSpeed" : 2.4,
		"windDir" : 221,
		"rain" : 1,
		"cloudbase" : 1825.2647999999,
		"flyability" : -0,
		"reason" : "orientationsUnknown, rain",
		"timestamp" :1554922800
		},
	"2019-04-10T14:00:00-07:00" : {
		"windSpeed" : 2.6,
		"windDir" : 225,
		"rain" : 1,
		"cloudbase" : 1104.3783999999,
		"flyability" : -0,
		"reason" : "orientationsUnknown, rain",
		"timestamp" :1554933600
		},
	"2019-04-10T17:00:00-07:00" : {
		"windSpeed" : 3,
		"windDir" : 208,
		"rain" : 1,
		"cloudbase" : 823.59479999999,
		"flyability" : -0,
		"reason" : "orientationsUnknown, rain",
		"timestamp" :1554944400
		},
	"2019-04-10T20:00:00-07:00" : {
		"windSpeed" : 1.7,
		"windDir" : 215,
		"rain" : 1,
		"cloudbase" : null,
		"flyability" : -0,
		"reason" : "orientationsUnknown, rain",
		"timestamp" :1554955200
		},
	"2019-04-10T23:00:00-07:00" : {
		"windSpeed" : 0.8,
		"windDir" : 192,
		"rain" : 1,
		"cloudbase" : null,
		"flyability" : -0,
		"reason" : "orientationsUnknown, rain",
		"timestamp" :1554966000
		},
	"2019-04-11T02:00:00-07:00" : {
		"windSpeed" : 0.4,
		"windDir" : 57,
		"rain" : 1,
		"cloudbase" : 3648.0425999997,
		"flyability" : -0,
		"reason" : "orientationsUnknown, rain",
		"timestamp" :1554976800
		},
	"2019-04-11T05:00:00-07:00" : {
		"windSpeed" : 0.1,
		"windDir" : 19,
		"rain" : 1,
		"cloudbase" : 752.84619999997,
		"flyability" : -0,
		"reason" : "orientationsUnknown, rain, cloudbase",
		"timestamp" :1554987600
		},
	"2019-04-11T08:00:00-07:00" : {
		"windSpeed" : 0.5,
		"windDir" : 47,
		"rain" : 1,
		"cloudbase" : 2592.3997999999,
		"flyability" : -0,
		"reason" : "orientationsUnknown, rain",
		"timestamp" :1554998400
		},
	"2019-04-11T11:00:00-07:00" : {
		"windSpeed" : 0.9,
		"windDir" : 281,
		"rain" : 1,
		"cloudbase" : 2100,
		"flyability" : -0,
		"reason" : "orientationsUnknown, rain",
		"timestamp" :1555009200
		},
	"2019-04-11T14:00:00-07:00" : {
		"windSpeed" : 1.1,
		"windDir" : 288,
		"rain" : 1,
		"cloudbase" : 1325.309,
		"flyability" : -0,
		"reason" : "orientationsUnknown, rain",
		"timestamp" :1555020000
		},
	"2019-04-11T17:00:00-07:00" : {
		"windSpeed" : 0.6,
		"windDir" : 322,
		"rain" : 1,
		"cloudbase" : 738.02559999999,
		"flyability" : -0,
		"reason" : "orientationsUnknown, rain, cloudbase",
		"timestamp" :1555030800
		},
	"2019-04-11T20:00:00-07:00" : {
		"windSpeed" : 1,
		"windDir" : 6,
		"rain" : 1,
		"cloudbase" : 875.57360000001,
		"flyability" : -0,
		"reason" : "orientationsUnknown, rain",
		"timestamp" :1555041600
		},
	"2019-04-11T23:00:00-07:00" : {
		"windSpeed" : 0.7,
		"windDir" : 328,
		"rain" : 1,
		"cloudbase" : 1050,
		"flyability" : -0,
		"reason" : "orientationsUnknown, rain",
		"timestamp" :1555052400
		},
	"2019-04-12T02:00:00-07:00" : {
		"windSpeed" : 0.6,
		"windDir" : 149,
		"rain" : 0,
		"cloudbase" : null,
		"flyability" : -50,
		"reason" : "orientationsUnknown",
		"timestamp" :1555063200
		},
	"2019-04-12T05:00:00-07:00" : {
		"windSpeed" : 0.4,
		"windDir" : 77,
		"rain" : 0,
		"cloudbase" : 11000,
		"flyability" : -50,
		"reason" : "orientationsUnknown",
		"timestamp" :1555074000
		},
	"2019-04-12T08:00:00-07:00" : {
		"windSpeed" : 0.3,
		"windDir" : 180,
		"rain" : 1,
		"cloudbase" : null,
		"flyability" : -0,
		"reason" : "orientationsUnknown, rain",
		"timestamp" :1555084800
		},
	"2019-04-12T11:00:00-07:00" : {
		"windSpeed" : 1.3,
		"windDir" : 279,
		"rain" : 0,
		"cloudbase" : null,
		"flyability" : -50,
		"reason" : "orientationsUnknown",
		"timestamp" :1555095600
		},
	"2019-04-12T14:00:00-07:00" : {
		"windSpeed" : 2.5,
		"windDir" : 257,
		"rain" : 1,
		"cloudbase" : 8600,
		"flyability" : -0,
		"reason" : "orientationsUnknown, rain",
		"timestamp" :1555106400
		},
	"2019-04-12T17:00:00-07:00" : {
		"windSpeed" : 3.5,
		"windDir" : 250,
		"rain" : 1,
		"cloudbase" : 7352.214,
		"flyability" : -0,
		"reason" : "orientationsUnknown, rain",
		"timestamp" :1555117200
		},
	"2019-04-12T20:00:00-07:00" : {
		"windSpeed" : 2,
		"windDir" : 276,
		"rain" : 0,
		"cloudbase" : 7394.982,
		"flyability" : -50,
		"reason" : "orientationsUnknown",
		"timestamp" :1555128000
		},
	"2019-04-12T23:00:00-07:00" : {
		"windSpeed" : 0.4,
		"windDir" : 77,
		"rain" : 0,
		"cloudbase" : null,
		"flyability" : -50,
		"reason" : "orientationsUnknown",
		"timestamp" :1555138800
		},
	"2019-04-13T02:00:00-07:00" : {
		"windSpeed" : 0.7,
		"windDir" : 45,
		"rain" : 1,
		"cloudbase" : 6757.2343999997,
		"flyability" : -0,
		"reason" : "orientationsUnknown, rain",
		"timestamp" :1555149600
		},
	"2019-04-13T05:00:00-07:00" : {
		"windSpeed" : 0.3,
		"windDir" : 197,
		"rain" : 1,
		"cloudbase" : 3296.2033999997,
		"flyability" : -0,
		"reason" : "orientationsUnknown, rain",
		"timestamp" :1555160400
		},
	"2019-04-13T08:00:00-07:00" : {
		"windSpeed" : 1.1,
		"windDir" : 298,
		"rain" : 1,
		"cloudbase" : 2847.765,
		"flyability" : -0,
		"reason" : "orientationsUnknown, rain",
		"timestamp" :1555171200
		},
	"2019-04-13T11:00:00-07:00" : {
		"windSpeed" : 0.8,
		"windDir" : 328,
		"rain" : 1,
		"cloudbase" : 1834.891,
		"flyability" : -0,
		"reason" : "orientationsUnknown, rain",
		"timestamp" :1555182000
		},
	"2019-04-13T14:00:00-07:00" : {
		"windSpeed" : 1.6,
		"windDir" : 356,
		"rain" : 1,
		"cloudbase" : 1601.296,
		"flyability" : -0,
		"reason" : "orientationsUnknown, rain",
		"timestamp" :1555192800
		},
	"2019-04-13T17:00:00-07:00" : {
		"windSpeed" : 3.5,
		"windDir" : 204,
		"rain" : 1,
		"cloudbase" : 2230.8831999999,
		"flyability" : -0,
		"reason" : "orientationsUnknown, rain",
		"timestamp" :1555203600
		},
	"2019-04-13T20:00:00-07:00" : {
		"windSpeed" : 3.6,
		"windDir" : 199,
		"rain" : 1,
		"cloudbase" : null,
		"flyability" : -0,
		"reason" : "orientationsUnknown, rain",
		"timestamp" :1555214400
		},
	"2019-04-13T23:00:00-07:00" : {
		"windSpeed" : 3,
		"windDir" : 203,
		"rain" : 1,
		"cloudbase" : 2950,
		"flyability" : -0,
		"reason" : "orientationsUnknown, rain",
		"timestamp" :1555225200
		},
	"2019-04-14T02:00:00-07:00" : {
		"windSpeed" : 2.4,
		"windDir" : 218,
		"rain" : 1,
		"cloudbase" : null,
		"flyability" : -0,
		"reason" : "orientationsUnknown, rain",
		"timestamp" :1555236000
		},
	"2019-04-14T05:00:00-07:00" : {
		"windSpeed" : 2.2,
		"windDir" : 207,
		"rain" : 1,
		"cloudbase" : 1680.1996000002,
		"flyability" : -0,
		"reason" : "orientationsUnknown, rain",
		"timestamp" :1555246800
		},
	"2019-04-14T08:00:00-07:00" : {
		"windSpeed" : 2.5,
		"windDir" : 203,
		"rain" : 1,
		"cloudbase" : null,
		"flyability" : -0,
		"reason" : "orientationsUnknown, rain",
		"timestamp" :1555257600
		},
	"2019-04-14T11:00:00-07:00" : {
		"windSpeed" : 2.9,
		"windDir" : 198,
		"rain" : 1,
		"cloudbase" : 2874.7919999997,
		"flyability" : -0,
		"reason" : "orientationsUnknown, rain",
		"timestamp" :1555268400
		},
	"2019-04-14T14:00:00-07:00" : {
		"windSpeed" : 4.1,
		"windDir" : 202,
		"rain" : 1,
		"cloudbase" : null,
		"flyability" : -0,
		"reason" : "orientationsUnknown, rain",
		"timestamp" :1555279200
		},
	"2019-04-14T17:00:00-07:00" : {
		"windSpeed" : 3.2,
		"windDir" : 205,
		"rain" : 1,
		"cloudbase" : 2972.2980000003,
		"flyability" : -0,
		"reason" : "orientationsUnknown, rain",
		"timestamp" :1555290000
		},
	"2019-04-14T20:00:00-07:00" : {
		"windSpeed" : 0.9,
		"windDir" : 176,
		"rain" : 1,
		"cloudbase" : null,
		"flyability" : -0,
		"reason" : "orientationsUnknown, rain",
		"timestamp" :1555300800
		},
	"2019-04-14T23:00:00-07:00" : {
		"windSpeed" : 0.7,
		"windDir" : 185,
		"rain" : 1,
		"cloudbase" : 1150,
		"flyability" : -0,
		"reason" : "orientationsUnknown, rain",
		"timestamp" :1555311600
		},
	"2019-04-15T02:00:00-07:00" : {
		"windSpeed" : 0.8,
		"windDir" : 176,
		"rain" : 1,
		"cloudbase" : 610.54199999998,
		"flyability" : -0,
		"reason" : "orientationsUnknown, rain, cloudbase",
		"timestamp" :1555322400
		},
	"2019-04-15T05:00:00-07:00" : {
		"windSpeed" : 1.1,
		"windDir" : 223,
		"rain" : 1,
		"cloudbase" : 452.82179999998,
		"flyability" : -0,
		"reason" : "orientationsUnknown, rain, cloudbase",
		"timestamp" :1555333200
		},
	"2019-04-15T08:00:00-07:00" : {
		"windSpeed" : 0.6,
		"windDir" : 360,
		"rain" : 0,
		"cloudbase" : 556.15459999997,
		"flyability" : -0,
		"reason" : "orientationsUnknown, cloudbase",
		"timestamp" :1555344000
		},
	"2019-04-15T11:00:00-07:00" : {
		"windSpeed" : 0.7,
		"windDir" : 298,
		"rain" : 0,
		"cloudbase" : 106.39500000002,
		"flyability" : -0,
		"reason" : "orientationsUnknown, cloudbase",
		"timestamp" :1555354800
		},
	"2019-04-15T14:00:00-07:00" : {
		"windSpeed" : 1.2,
		"windDir" : 297,
		"rain" : 1,
		"cloudbase" : 380,
		"flyability" : -0,
		"reason" : "orientationsUnknown, rain, cloudbase",
		"timestamp" :1555365600
		},
	"2019-04-15T17:00:00-07:00" : {
		"windSpeed" : 1.5,
		"windDir" : 264,
		"rain" : 1,
		"cloudbase" : 7077.1200000001,
		"flyability" : -0,
		"reason" : "orientationsUnknown, rain",
		"timestamp" :1555376400
		},
	"2019-04-15T20:00:00-07:00" : {
		"windSpeed" : 1.1,
		"windDir" : 319,
		"rain" : 0,
		"cloudbase" : null,
		"flyability" : -50,
		"reason" : "orientationsUnknown",
		"timestamp" :1555387200
		},
	"2019-04-15T23:00:00-07:00" : {
		"windSpeed" : 0.4,
		"windDir" : 77,
		"rain" : 0,
		"cloudbase" : null,
		"flyability" : -50,
		"reason" : "orientationsUnknown",
		"timestamp" :1555398000
		},
	"2019-04-16T02:00:00-07:00" : {
		"windSpeed" : 1.2,
		"windDir" : 36,
		"rain" : 0,
		"cloudbase" : null,
		"flyability" : -50,
		"reason" : "orientationsUnknown",
		"timestamp" :1555408800
		},
	"2019-04-16T05:00:00-07:00" : {
		"windSpeed" : 1,
		"windDir" : 72,
		"rain" : 0,
		"cloudbase" : 6130.7939999995,
		"flyability" : -50,
		"reason" : "orientationsUnknown",
		"timestamp" :1555419600
		}
	}
}