{
"site" : "Matsuda_Yamazaki",
"id" : 20829,
"orientations" : "00002200",
"forecasts" : { 
	"2019-04-13T12:00:00+09:00" : {
		"windSpeed" : 2.9,
		"windDir" : 121,
		"rain" : 0,
		"cloudbase" : null,
		"flyability" : 0,
		"reason" : "windDir",
		"timestamp" :1555124400
		},
	"2019-04-13T15:00:00+09:00" : {
		"windSpeed" : 2.8,
		"windDir" : 149,
		"rain" : 0,
		"cloudbase" : null,
		"flyability" : 0,
		"reason" : "windDir",
		"timestamp" :1555135200
		},
	"2019-04-13T18:00:00+09:00" : {
		"windSpeed" : 1.3,
		"windDir" : 178,
		"rain" : 0,
		"cloudbase" : 6998.68,
		"flyability" : 100,
		"reason" : "",
		"timestamp" :1555146000
		},
	"2019-04-13T21:00:00+09:00" : {
		"windSpeed" : 1.5,
		"windDir" : 205,
		"rain" : 0,
		"cloudbase" : 5648.32,
		"flyability" : 100,
		"reason" : "",
		"timestamp" :1555156800
		},
	"2019-04-14T00:00:00+09:00" : {
		"windSpeed" : 0.5,
		"windDir" : 213,
		"rain" : 0,
		"cloudbase" : 4329,
		"flyability" : 100,
		"reason" : "",
		"timestamp" :1555167600
		},
	"2019-04-14T03:00:00+09:00" : {
		"windSpeed" : 1,
		"windDir" : 296,
		"rain" : 0,
		"cloudbase" : 3750,
		"flyability" : 0,
		"reason" : "windDir",
		"timestamp" :1555178400
		},
	"2019-04-14T06:00:00+09:00" : {
		"windSpeed" : 1.2,
		"windDir" : 301,
		"rain" : 0,
		"cloudbase" : null,
		"flyability" : 0,
		"reason" : "windDir",
		"timestamp" :1555189200
		},
	"2019-04-14T09:00:00+09:00" : {
		"windSpeed" : 3.2,
		"windDir" : 214,
		"rain" : 0,
		"cloudbase" : 9765.59,
		"flyability" : 100,
		"reason" : "",
		"timestamp" :1555200000
		},
	"2019-04-14T12:00:00+09:00" : {
		"windSpeed" : 4.6,
		"windDir" : 218,
		"rain" : 0,
		"cloudbase" : 9893.41,
		"flyability" : 100,
		"reason" : "",
		"timestamp" :1555210800
		},
	"2019-04-14T15:00:00+09:00" : {
		"windSpeed" : 4,
		"windDir" : 210,
		"rain" : 0,
		"cloudbase" : 5200.56,
		"flyability" : 100,
		"reason" : "",
		"timestamp" :1555221600
		},
	"2019-04-14T18:00:00+09:00" : {
		"windSpeed" : 2.3,
		"windDir" : 192,
		"rain" : 1,
		"cloudbase" : 1548.5200000002,
		"flyability" : 0,
		"reason" : "rain",
		"timestamp" :1555232400
		},
	"2019-04-14T21:00:00+09:00" : {
		"windSpeed" : 2.9,
		"windDir" : 194,
		"rain" : 1,
		"cloudbase" : 1342.41,
		"flyability" : 0,
		"reason" : "rain",
		"timestamp" :1555243200
		},
	"2019-04-15T00:00:00+09:00" : {
		"windSpeed" : 4.4,
		"windDir" : 207,
		"rain" : 1,
		"cloudbase" : 2432.0450000001,
		"flyability" : 0,
		"reason" : "rain",
		"timestamp" :1555254000
		},
	"2019-04-15T03:00:00+09:00" : {
		"windSpeed" : 3.9,
		"windDir" : 203,
		"rain" : 1,
		"cloudbase" : 1757.8450000001,
		"flyability" : 0,
		"reason" : "rain",
		"timestamp" :1555264800
		},
	"2019-04-15T06:00:00+09:00" : {
		"windSpeed" : 3.5,
		"windDir" : 241,
		"rain" : 1,
		"cloudbase" : 3008.2000000006,
		"flyability" : 0,
		"reason" : "rain",
		"timestamp" :1555275600
		},
	"2019-04-15T09:00:00+09:00" : {
		"windSpeed" : 2.4,
		"windDir" : 234,
		"rain" : 0,
		"cloudbase" : 7500,
		"flyability" : 100,
		"reason" : "",
		"timestamp" :1555286400
		},
	"2019-04-15T12:00:00+09:00" : {
		"windSpeed" : 1.4,
		"windDir" : 350,
		"rain" : 0,
		"cloudbase" : null,
		"flyability" : 0,
		"reason" : "windDir",
		"timestamp" :1555297200
		},
	"2019-04-15T15:00:00+09:00" : {
		"windSpeed" : 0.5,
		"windDir" : 88,
		"rain" : 1,
		"cloudbase" : null,
		"flyability" : 0,
		"reason" : "windDir, rain",
		"timestamp" :1555308000
		},
	"2019-04-15T18:00:00+09:00" : {
		"windSpeed" : 2.6,
		"windDir" : 332,
		"rain" : 1,
		"cloudbase" : null,
		"flyability" : 0,
		"reason" : "windDir, rain",
		"timestamp" :1555318800
		},
	"2019-04-15T21:00:00+09:00" : {
		"windSpeed" : 2.5,
		"windDir" : 313,
		"rain" : 0,
		"cloudbase" : null,
		"flyability" : 0,
		"reason" : "windDir",
		"timestamp" :1555329600
		},
	"2019-04-16T00:00:00+09:00" : {
		"windSpeed" : 2.6,
		"windDir" : 311,
		"rain" : 0,
		"cloudbase" : null,
		"flyability" : 0,
		"reason" : "windDir",
		"timestamp" :1555340400
		},
	"2019-04-16T03:00:00+09:00" : {
		"windSpeed" : 2.1,
		"windDir" : 308,
		"rain" : 0,
		"cloudbase" : null,
		"flyability" : 0,
		"reason" : "windDir",
		"timestamp" :1555351200
		},
	"2019-04-16T06:00:00+09:00" : {
		"windSpeed" : 2,
		"windDir" : 305,
		"rain" : 0,
		"cloudbase" : null,
		"flyability" : 0,
		"reason" : "windDir",
		"timestamp" :1555362000
		},
	"2019-04-16T09:00:00+09:00" : {
		"windSpeed" : 1.8,
		"windDir" : 144,
		"rain" : 0,
		"cloudbase" : null,
		"flyability" : 0,
		"reason" : "windDir",
		"timestamp" :1555372800
		},
	"2019-04-16T12:00:00+09:00" : {
		"windSpeed" : 3,
		"windDir" : 153,
		"rain" : 0,
		"cloudbase" : null,
		"flyability" : 0,
		"reason" : "windDir",
		"timestamp" :1555383600
		},
	"2019-04-16T15:00:00+09:00" : {
		"windSpeed" : 3.7,
		"windDir" : 156,
		"rain" : 0,
		"cloudbase" : null,
		"flyability" : 100,
		"reason" : "",
		"timestamp" :1555394400
		},
	"2019-04-16T18:00:00+09:00" : {
		"windSpeed" : 2.3,
		"windDir" : 157,
		"rain" : 0,
		"cloudbase" : 8261.4100000001,
		"flyability" : 100,
		"reason" : "",
		"timestamp" :1555405200
		},
	"2019-04-16T21:00:00+09:00" : {
		"windSpeed" : 1.2,
		"windDir" : 202,
		"rain" : 0,
		"cloudbase" : 7727.41,
		"flyability" : 100,
		"reason" : "",
		"timestamp" :1555416000
		},
	"2019-04-17T00:00:00+09:00" : {
		"windSpeed" : 1.1,
		"windDir" : 276,
		"rain" : 0,
		"cloudbase" : 7441.68,
		"flyability" : 0,
		"reason" : "windDir",
		"timestamp" :1555426800
		},
	"2019-04-17T03:00:00+09:00" : {
		"windSpeed" : 0.9,
		"windDir" : 303,
		"rain" : 0,
		"cloudbase" : 6940.96,
		"flyability" : 0,
		"reason" : "windDir",
		"timestamp" :1555437600
		},
	"2019-04-17T06:00:00+09:00" : {
		"windSpeed" : 0.7,
		"windDir" : 311,
		"rain" : 0,
		"cloudbase" : 8861.4100000001,
		"flyability" : 0,
		"reason" : "windDir",
		"timestamp" :1555448400
		},
	"2019-04-17T09:00:00+09:00" : {
		"windSpeed" : 1.6,
		"windDir" : 185,
		"rain" : 0,
		"cloudbase" : 8327.41,
		"flyability" : 100,
		"reason" : "",
		"timestamp" :1555459200
		},
	"2019-04-17T12:00:00+09:00" : {
		"windSpeed" : 3.4,
		"windDir" : 179,
		"rain" : 0,
		"cloudbase" : 7601.1600000002,
		"flyability" : 100,
		"reason" : "",
		"timestamp" :1555470000
		},
	"2019-04-17T15:00:00+09:00" : {
		"windSpeed" : 3.1,
		"windDir" : 186,
		"rain" : 0,
		"cloudbase" : 4899.295,
		"flyability" : 100,
		"reason" : "",
		"timestamp" :1555480800
		},
	"2019-04-17T18:00:00+09:00" : {
		"windSpeed" : 1.5,
		"windDir" : 180,
		"rain" : 0,
		"cloudbase" : 4486.635,
		"flyability" : 100,
		"reason" : "",
		"timestamp" :1555491600
		},
	"2019-04-17T21:00:00+09:00" : {
		"windSpeed" : 0.9,
		"windDir" : 286,
		"rain" : 0,
		"cloudbase" : 4606.975,
		"flyability" : 0,
		"reason" : "windDir",
		"timestamp" :1555502400
		},
	"2019-04-18T00:00:00+09:00" : {
		"windSpeed" : 0.9,
		"windDir" : 303,
		"rain" : 0,
		"cloudbase" : 6215.18,
		"flyability" : 0,
		"reason" : "windDir",
		"timestamp" :1555513200
		},
	"2019-04-18T03:00:00+09:00" : {
		"windSpeed" : 1.4,
		"windDir" : 310,
		"rain" : 0,
		"cloudbase" : null,
		"flyability" : 0,
		"reason" : "windDir",
		"timestamp" :1555524000
		},
	"2019-04-18T06:00:00+09:00" : {
		"windSpeed" : 0.8,
		"windDir" : 312,
		"rain" : 0,
		"cloudbase" : null,
		"flyability" : 0,
		"reason" : "windDir",
		"timestamp" :1555534800
		},
	"2019-04-18T09:00:00+09:00" : {
		"windSpeed" : 1.8,
		"windDir" : 159,
		"rain" : 0,
		"cloudbase" : null,
		"flyability" : 100,
		"reason" : "",
		"timestamp" :1555545600
		},
	"2019-04-18T12:00:00+09:00" : {
		"windSpeed" : 3.6,
		"windDir" : 163,
		"rain" : 1,
		"cloudbase" : null,
		"flyability" : 0,
		"reason" : "rain",
		"timestamp" :1555556400
		},
	"2019-04-18T15:00:00+09:00" : {
		"windSpeed" : 3.5,
		"windDir" : 205,
		"rain" : 1,
		"cloudbase" : 9416.7800000001,
		"flyability" : 0,
		"reason" : "rain",
		"timestamp" :1555567200
		},
	"2019-04-18T18:00:00+09:00" : {
		"windSpeed" : 1.9,
		"windDir" : 239,
		"rain" : 1,
		"cloudbase" : 7900,
		"flyability" : 0,
		"reason" : "rain",
		"timestamp" :1555578000
		},
	"2019-04-18T21:00:00+09:00" : {
		"windSpeed" : 2.7,
		"windDir" : 289,
		"rain" : 0,
		"cloudbase" : 8808.5600000002,
		"flyability" : 0,
		"reason" : "windDir",
		"timestamp" :1555588800
		},
	"2019-04-19T00:00:00+09:00" : {
		"windSpeed" : 2.4,
		"windDir" : 299,
		"rain" : 0,
		"cloudbase" : null,
		"flyability" : 0,
		"reason" : "windDir",
		"timestamp" :1555599600
		},
	"2019-04-19T03:00:00+09:00" : {
		"windSpeed" : 2.2,
		"windDir" : 310,
		"rain" : 0,
		"cloudbase" : null,
		"flyability" : 0,
		"reason" : "windDir",
		"timestamp" :1555610400
		},
	"2019-04-19T06:00:00+09:00" : {
		"windSpeed" : 2.7,
		"windDir" : 306,
		"rain" : 0,
		"cloudbase" : null,
		"flyability" : 0,
		"reason" : "windDir",
		"timestamp" :1555621200
		},
	"2019-04-19T09:00:00+09:00" : {
		"windSpeed" : 0.7,
		"windDir" : 143,
		"rain" : 0,
		"cloudbase" : 10297.05,
		"flyability" : 0,
		"reason" : "windDir",
		"timestamp" :1555632000
		}
	}
}