{
"site" : "John G. Mine",
"id" : 21289,
"orientations" : "00200002",
"forecasts" : { 
	"2019-04-20T21:00:00-06:00" : {
		"windSpeed" : 3.1,
		"windDir" : 346,
		"rain" : 1,
		"cloudbase" : 532.95599999994,
		"flyability" : 0,
		"reason" : "windDir, rain, cloudbase",
		"timestamp" :1555815600
		},
	"2019-04-21T00:00:00-06:00" : {
		"windSpeed" : 3.6,
		"windDir" : 340,
		"rain" : 1,
		"cloudbase" : 369.00399999996,
		"flyability" : 0,
		"reason" : "windDir, rain, cloudbase",
		"timestamp" :1555826400
		},
	"2019-04-21T03:00:00-06:00" : {
		"windSpeed" : 4,
		"windDir" : 342,
		"rain" : 1,
		"cloudbase" : 749.10999999997,
		"flyability" : 0,
		"reason" : "windDir, rain, cloudbase",
		"timestamp" :1555837200
		},
	"2019-04-21T06:00:00-06:00" : {
		"windSpeed" : 3.7,
		"windDir" : 340,
		"rain" : 1,
		"cloudbase" : 380.26399999994,
		"flyability" : 0,
		"reason" : "windDir, rain, cloudbase",
		"timestamp" :1555848000
		},
	"2019-04-21T09:00:00-06:00" : {
		"windSpeed" : 4.9,
		"windDir" : 351,
		"rain" : 1,
		"cloudbase" : 998.77999999999,
		"flyability" : 0,
		"reason" : "windDir, rain, cloudbase",
		"timestamp" :1555858800
		},
	"2019-04-21T12:00:00-06:00" : {
		"windSpeed" : 4.9,
		"windDir" : 5,
		"rain" : 1,
		"cloudbase" : 499.86799999999,
		"flyability" : 0,
		"reason" : "windDir, rain, cloudbase",
		"timestamp" :1555869600
		},
	"2019-04-21T15:00:00-06:00" : {
		"windSpeed" : 4.4,
		"windDir" : 10,
		"rain" : 0,
		"cloudbase" : 699.736,
		"flyability" : 0,
		"reason" : "windDir, cloudbase",
		"timestamp" :1555880400
		},
	"2019-04-21T18:00:00-06:00" : {
		"windSpeed" : 3,
		"windDir" : 17,
		"rain" : 0,
		"cloudbase" : 1086.188,
		"flyability" : 0,
		"reason" : "windDir, cloudbase",
		"timestamp" :1555891200
		},
	"2019-04-21T21:00:00-06:00" : {
		"windSpeed" : 2.1,
		"windDir" : 331,
		"rain" : 0,
		"cloudbase" : 1190,
		"flyability" : 0,
		"reason" : "cloudbase",
		"timestamp" :1555902000
		},
	"2019-04-22T00:00:00-06:00" : {
		"windSpeed" : 1,
		"windDir" : 298,
		"rain" : 0,
		"cloudbase" : null,
		"flyability" : 100,
		"reason" : "",
		"timestamp" :1555912800
		},
	"2019-04-22T03:00:00-06:00" : {
		"windSpeed" : 0.4,
		"windDir" : 255,
		"rain" : 0,
		"cloudbase" : null,
		"flyability" : 0,
		"reason" : "windDir",
		"timestamp" :1555923600
		},
	"2019-04-22T06:00:00-06:00" : {
		"windSpeed" : 1.4,
		"windDir" : 247,
		"rain" : 0,
		"cloudbase" : null,
		"flyability" : 0,
		"reason" : "windDir",
		"timestamp" :1555934400
		},
	"2019-04-22T09:00:00-06:00" : {
		"windSpeed" : 1,
		"windDir" : 142,
		"rain" : 0,
		"cloudbase" : null,
		"flyability" : 0,
		"reason" : "windDir",
		"timestamp" :1555945200
		},
	"2019-04-22T12:00:00-06:00" : {
		"windSpeed" : 2.2,
		"windDir" : 130,
		"rain" : 0,
		"cloudbase" : null,
		"flyability" : 0,
		"reason" : "windDir",
		"timestamp" :1555956000
		},
	"2019-04-22T15:00:00-06:00" : {
		"windSpeed" : 1.8,
		"windDir" : 165,
		"rain" : 0,
		"cloudbase" : null,
		"flyability" : 0,
		"reason" : "windDir",
		"timestamp" :1555966800
		},
	"2019-04-22T18:00:00-06:00" : {
		"windSpeed" : 1.9,
		"windDir" : 191,
		"rain" : 0,
		"cloudbase" : 11500,
		"flyability" : 0,
		"reason" : "windDir",
		"timestamp" :1555977600
		},
	"2019-04-22T21:00:00-06:00" : {
		"windSpeed" : 2.2,
		"windDir" : 226,
		"rain" : 0,
		"cloudbase" : null,
		"flyability" : 0,
		"reason" : "windDir",
		"timestamp" :1555988400
		},
	"2019-04-23T00:00:00-06:00" : {
		"windSpeed" : 2.5,
		"windDir" : 237,
		"rain" : 0,
		"cloudbase" : 9754.98,
		"flyability" : 0,
		"reason" : "windDir",
		"timestamp" :1555999200
		},
	"2019-04-23T03:00:00-06:00" : {
		"windSpeed" : 2,
		"windDir" : 205,
		"rain" : 0,
		"cloudbase" : 7176.46,
		"flyability" : 0,
		"reason" : "windDir",
		"timestamp" :1556010000
		},
	"2019-04-23T06:00:00-06:00" : {
		"windSpeed" : 1.9,
		"windDir" : 193,
		"rain" : 0,
		"cloudbase" : 4754.65,
		"flyability" : 0,
		"reason" : "windDir",
		"timestamp" :1556020800
		},
	"2019-04-23T09:00:00-06:00" : {
		"windSpeed" : 0.8,
		"windDir" : 120,
		"rain" : 1,
		"cloudbase" : 4501.44,
		"flyability" : 0,
		"reason" : "windDir, rain",
		"timestamp" :1556031600
		},
	"2019-04-23T12:00:00-06:00" : {
		"windSpeed" : 0.9,
		"windDir" : 155,
		"rain" : 1,
		"cloudbase" : 1893.25,
		"flyability" : 0,
		"reason" : "windDir, rain",
		"timestamp" :1556042400
		},
	"2019-04-23T15:00:00-06:00" : {
		"windSpeed" : 7,
		"windDir" : 264,
		"rain" : 0,
		"cloudbase" : 4125.6999999997,
		"flyability" : 0,
		"reason" : "windSpeed, windDir",
		"timestamp" :1556053200
		},
	"2019-04-23T18:00:00-06:00" : {
		"windSpeed" : 4,
		"windDir" : 252,
		"rain" : 0,
		"cloudbase" : 8280.3200000002,
		"flyability" : 0,
		"reason" : "windDir",
		"timestamp" :1556064000
		},
	"2019-04-23T21:00:00-06:00" : {
		"windSpeed" : 1.8,
		"windDir" : 232,
		"rain" : 0,
		"cloudbase" : 10042.8,
		"flyability" : 0,
		"reason" : "windDir",
		"timestamp" :1556074800
		},
	"2019-04-24T00:00:00-06:00" : {
		"windSpeed" : 2.1,
		"windDir" : 255,
		"rain" : 0,
		"cloudbase" : 8400,
		"flyability" : 0,
		"reason" : "windDir",
		"timestamp" :1556085600
		},
	"2019-04-24T03:00:00-06:00" : {
		"windSpeed" : 2,
		"windDir" : 255,
		"rain" : 0,
		"cloudbase" : 10500,
		"flyability" : 0,
		"reason" : "windDir",
		"timestamp" :1556096400
		},
	"2019-04-24T06:00:00-06:00" : {
		"windSpeed" : 1.9,
		"windDir" : 250,
		"rain" : 0,
		"cloudbase" : null,
		"flyability" : 0,
		"reason" : "windDir",
		"timestamp" :1556107200
		},
	"2019-04-24T09:00:00-06:00" : {
		"windSpeed" : 1.4,
		"windDir" : 256,
		"rain" : 0,
		"cloudbase" : null,
		"flyability" : 0,
		"reason" : "windDir",
		"timestamp" :1556118000
		},
	"2019-04-24T12:00:00-06:00" : {
		"windSpeed" : 5.1,
		"windDir" : 265,
		"rain" : 0,
		"cloudbase" : null,
		"flyability" : 0,
		"reason" : "windSpeed, windDir",
		"timestamp" :1556128800
		},
	"2019-04-24T15:00:00-06:00" : {
		"windSpeed" : 5.1,
		"windDir" : 276,
		"rain" : 0,
		"cloudbase" : null,
		"flyability" : 0,
		"reason" : "windSpeed, windDir",
		"timestamp" :1556139600
		},
	"2019-04-24T18:00:00-06:00" : {
		"windSpeed" : 4.6,
		"windDir" : 283,
		"rain" : 0,
		"cloudbase" : null,
		"flyability" : 0,
		"reason" : "windDir",
		"timestamp" :1556150400
		},
	"2019-04-24T21:00:00-06:00" : {
		"windSpeed" : 2,
		"windDir" : 257,
		"rain" : 0,
		"cloudbase" : null,
		"flyability" : 0,
		"reason" : "windDir",
		"timestamp" :1556161200
		},
	"2019-04-25T00:00:00-06:00" : {
		"windSpeed" : 2.9,
		"windDir" : 259,
		"rain" : 0,
		"cloudbase" : null,
		"flyability" : 0,
		"reason" : "windDir",
		"timestamp" :1556172000
		},
	"2019-04-25T03:00:00-06:00" : {
		"windSpeed" : 2.3,
		"windDir" : 257,
		"rain" : 1,
		"cloudbase" : 7300,
		"flyability" : 0,
		"reason" : "windDir, rain",
		"timestamp" :1556182800
		},
	"2019-04-25T06:00:00-06:00" : {
		"windSpeed" : 1.3,
		"windDir" : 261,
		"rain" : 0,
		"cloudbase" : null,
		"flyability" : 0,
		"reason" : "windDir",
		"timestamp" :1556193600
		},
	"2019-04-25T09:00:00-06:00" : {
		"windSpeed" : 2.8,
		"windDir" : 358,
		"rain" : 0,
		"cloudbase" : null,
		"flyability" : 0,
		"reason" : "windDir",
		"timestamp" :1556204400
		},
	"2019-04-25T12:00:00-06:00" : {
		"windSpeed" : 1.7,
		"windDir" : 30,
		"rain" : 0,
		"cloudbase" : 7229.3,
		"flyability" : 0,
		"reason" : "windDir",
		"timestamp" :1556215200
		},
	"2019-04-25T15:00:00-06:00" : {
		"windSpeed" : 1,
		"windDir" : 84,
		"rain" : 0,
		"cloudbase" : 5500,
		"flyability" : 100,
		"reason" : "",
		"timestamp" :1556226000
		},
	"2019-04-25T18:00:00-06:00" : {
		"windSpeed" : 2.3,
		"windDir" : 124,
		"rain" : 0,
		"cloudbase" : 8516.38,
		"flyability" : 0,
		"reason" : "windDir",
		"timestamp" :1556236800
		},
	"2019-04-25T21:00:00-06:00" : {
		"windSpeed" : 1,
		"windDir" : 337,
		"rain" : 0,
		"cloudbase" : 8305.52,
		"flyability" : 100,
		"reason" : "",
		"timestamp" :1556247600
		},
	"2019-04-26T00:00:00-06:00" : {
		"windSpeed" : 1.4,
		"windDir" : 285,
		"rain" : 0,
		"cloudbase" : 9700,
		"flyability" : 0,
		"reason" : "windDir",
		"timestamp" :1556258400
		},
	"2019-04-26T03:00:00-06:00" : {
		"windSpeed" : 1.5,
		"windDir" : 246,
		"rain" : 0,
		"cloudbase" : 8977.12,
		"flyability" : 0,
		"reason" : "windDir",
		"timestamp" :1556269200
		},
	"2019-04-26T06:00:00-06:00" : {
		"windSpeed" : 1.5,
		"windDir" : 252,
		"rain" : 0,
		"cloudbase" : 6900,
		"flyability" : 0,
		"reason" : "windDir",
		"timestamp" :1556280000
		},
	"2019-04-26T09:00:00-06:00" : {
		"windSpeed" : 1.2,
		"windDir" : 80,
		"rain" : 0,
		"cloudbase" : null,
		"flyability" : 100,
		"reason" : "",
		"timestamp" :1556290800
		},
	"2019-04-26T12:00:00-06:00" : {
		"windSpeed" : 5.9,
		"windDir" : 266,
		"rain" : 0,
		"cloudbase" : 3000,
		"flyability" : 0,
		"reason" : "windSpeed, windDir",
		"timestamp" :1556301600
		},
	"2019-04-26T15:00:00-06:00" : {
		"windSpeed" : 8.4,
		"windDir" : 267,
		"rain" : 0,
		"cloudbase" : null,
		"flyability" : 0,
		"reason" : "windSpeed, windDir",
		"timestamp" :1556312400
		},
	"2019-04-26T18:00:00-06:00" : {
		"windSpeed" : 8.4,
		"windDir" : 270,
		"rain" : 0,
		"cloudbase" : null,
		"flyability" : 0,
		"reason" : "windSpeed, windDir",
		"timestamp" :1556323200
		}
	}
}