{
"site" : "Piz Uccello",
"id" : 21385,
"orientations" : "00011100",
"forecasts" : { 
	"2019-04-17T05:00:00+02:00" : {
		"windSpeed" : 0.5,
		"windDir" : 1,
		"rain" : 0,
		"cloudbase" : 1450,
		"flyability" : 0,
		"reason" : "windDir, cloudbase",
		"timestamp" :1555473600
		},
	"2019-04-17T08:00:00+02:00" : {
		"windSpeed" : 0,
		"windDir" : 22,
		"rain" : 0,
		"cloudbase" : 1350,
		"flyability" : 0,
		"reason" : "windDir, cloudbase",
		"timestamp" :1555484400
		},
	"2019-04-17T11:00:00+02:00" : {
		"windSpeed" : 1.6,
		"windDir" : 198,
		"rain" : 0,
		"cloudbase" : null,
		"flyability" : 100,
		"reason" : "",
		"timestamp" :1555495200
		},
	"2019-04-17T14:00:00+02:00" : {
		"windSpeed" : 1.6,
		"windDir" : 198,
		"rain" : 0,
		"cloudbase" : 1350,
		"flyability" : 0,
		"reason" : "cloudbase",
		"timestamp" :1555506000
		},
	"2019-04-17T17:00:00+02:00" : {
		"windSpeed" : 1.8,
		"windDir" : 214,
		"rain" : 0,
		"cloudbase" : 1150,
		"flyability" : 0,
		"reason" : "cloudbase",
		"timestamp" :1555516800
		},
	"2019-04-17T20:00:00+02:00" : {
		"windSpeed" : 1.5,
		"windDir" : 180,
		"rain" : 0,
		"cloudbase" : 880,
		"flyability" : 0,
		"reason" : "cloudbase",
		"timestamp" :1555527600
		},
	"2019-04-17T23:00:00+02:00" : {
		"windSpeed" : 0.5,
		"windDir" : 1,
		"rain" : 0,
		"cloudbase" : null,
		"flyability" : 0,
		"reason" : "windDir",
		"timestamp" :1555538400
		},
	"2019-04-18T02:00:00+02:00" : {
		"windSpeed" : 1.5,
		"windDir" : 198,
		"rain" : 0,
		"cloudbase" : null,
		"flyability" : 100,
		"reason" : "",
		"timestamp" :1555549200
		},
	"2019-04-18T05:00:00+02:00" : {
		"windSpeed" : 1.5,
		"windDir" : 198,
		"rain" : 0,
		"cloudbase" : null,
		"flyability" : 100,
		"reason" : "",
		"timestamp" :1555560000
		},
	"2019-04-18T08:00:00+02:00" : {
		"windSpeed" : 1.1,
		"windDir" : 206,
		"rain" : 0,
		"cloudbase" : null,
		"flyability" : 100,
		"reason" : "",
		"timestamp" :1555570800
		},
	"2019-04-18T11:00:00+02:00" : {
		"windSpeed" : 2.2,
		"windDir" : 207,
		"rain" : 0,
		"cloudbase" : 491.20923199998,
		"flyability" : 0,
		"reason" : "cloudbase",
		"timestamp" :1555581600
		},
	"2019-04-18T14:00:00+02:00" : {
		"windSpeed" : 2,
		"windDir" : 194,
		"rain" : 0,
		"cloudbase" : 246.11008800002,
		"flyability" : 0,
		"reason" : "cloudbase",
		"timestamp" :1555592400
		},
	"2019-04-18T17:00:00+02:00" : {
		"windSpeed" : 2,
		"windDir" : 194,
		"rain" : 0,
		"cloudbase" : 107.82016400004,
		"flyability" : 0,
		"reason" : "cloudbase",
		"timestamp" :1555603200
		},
	"2019-04-18T20:00:00+02:00" : {
		"windSpeed" : 1.6,
		"windDir" : 198,
		"rain" : 0,
		"cloudbase" : 35.062188000013,
		"flyability" : 0,
		"reason" : "cloudbase",
		"timestamp" :1555614000
		},
	"2019-04-18T23:00:00+02:00" : {
		"windSpeed" : 2,
		"windDir" : 194,
		"rain" : 0,
		"cloudbase" : 38.272956000017,
		"flyability" : 0,
		"reason" : "cloudbase",
		"timestamp" :1555624800
		},
	"2019-04-19T02:00:00+02:00" : {
		"windSpeed" : 2.2,
		"windDir" : 207,
		"rain" : 0,
		"cloudbase" : 33.62636400001,
		"flyability" : 0,
		"reason" : "cloudbase",
		"timestamp" :1555635600
		},
	"2019-04-19T05:00:00+02:00" : {
		"windSpeed" : 1.8,
		"windDir" : 214,
		"rain" : 0,
		"cloudbase" : 31.448352000003,
		"flyability" : 0,
		"reason" : "cloudbase",
		"timestamp" :1555646400
		},
	"2019-04-19T08:00:00+02:00" : {
		"windSpeed" : 2.2,
		"windDir" : 207,
		"rain" : 0,
		"cloudbase" : 30.548352000001,
		"flyability" : 0,
		"reason" : "cloudbase",
		"timestamp" :1555657200
		},
	"2019-04-19T11:00:00+02:00" : {
		"windSpeed" : 2,
		"windDir" : 194,
		"rain" : 0,
		"cloudbase" : 380,
		"flyability" : 0,
		"reason" : "cloudbase",
		"timestamp" :1555668000
		},
	"2019-04-19T14:00:00+02:00" : {
		"windSpeed" : 2,
		"windDir" : 194,
		"rain" : 0,
		"cloudbase" : 1200,
		"flyability" : 0,
		"reason" : "cloudbase",
		"timestamp" :1555678800
		},
	"2019-04-19T17:00:00+02:00" : {
		"windSpeed" : 1.6,
		"windDir" : 198,
		"rain" : 0,
		"cloudbase" : null,
		"flyability" : 100,
		"reason" : "",
		"timestamp" :1555689600
		},
	"2019-04-19T20:00:00+02:00" : {
		"windSpeed" : 1.1,
		"windDir" : 153,
		"rain" : 0,
		"cloudbase" : 4407.85044,
		"flyability" : 100,
		"reason" : "",
		"timestamp" :1555700400
		},
	"2019-04-19T23:00:00+02:00" : {
		"windSpeed" : 0.5,
		"windDir" : 1,
		"rain" : 0,
		"cloudbase" : 5400,
		"flyability" : 0,
		"reason" : "windDir",
		"timestamp" :1555711200
		},
	"2019-04-20T02:00:00+02:00" : {
		"windSpeed" : 0.5,
		"windDir" : 272,
		"rain" : 0,
		"cloudbase" : 4000,
		"flyability" : 0,
		"reason" : "windDir",
		"timestamp" :1555722000
		},
	"2019-04-20T05:00:00+02:00" : {
		"windSpeed" : 0.5,
		"windDir" : 273,
		"rain" : 0,
		"cloudbase" : 3750,
		"flyability" : 0,
		"reason" : "windDir",
		"timestamp" :1555732800
		},
	"2019-04-20T08:00:00+02:00" : {
		"windSpeed" : 0.5,
		"windDir" : 179,
		"rain" : 0,
		"cloudbase" : null,
		"flyability" : 100,
		"reason" : "",
		"timestamp" :1555743600
		},
	"2019-04-20T11:00:00+02:00" : {
		"windSpeed" : 1.6,
		"windDir" : 198,
		"rain" : 0,
		"cloudbase" : null,
		"flyability" : 100,
		"reason" : "",
		"timestamp" :1555754400
		},
	"2019-04-20T14:00:00+02:00" : {
		"windSpeed" : 1.5,
		"windDir" : 180,
		"rain" : 0,
		"cloudbase" : null,
		"flyability" : 100,
		"reason" : "",
		"timestamp" :1555765200
		},
	"2019-04-20T17:00:00+02:00" : {
		"windSpeed" : 1.5,
		"windDir" : 181,
		"rain" : 0,
		"cloudbase" : null,
		"flyability" : 100,
		"reason" : "",
		"timestamp" :1555776000
		},
	"2019-04-20T20:00:00+02:00" : {
		"windSpeed" : 1.5,
		"windDir" : 180,
		"rain" : 0,
		"cloudbase" : null,
		"flyability" : 100,
		"reason" : "",
		"timestamp" :1555786800
		},
	"2019-04-20T23:00:00+02:00" : {
		"windSpeed" : 0.5,
		"windDir" : 272,
		"rain" : 0,
		"cloudbase" : null,
		"flyability" : 0,
		"reason" : "windDir",
		"timestamp" :1555797600
		},
	"2019-04-21T02:00:00+02:00" : {
		"windSpeed" : 0.7,
		"windDir" : 226,
		"rain" : 0,
		"cloudbase" : null,
		"flyability" : 100,
		"reason" : "",
		"timestamp" :1555808400
		},
	"2019-04-21T05:00:00+02:00" : {
		"windSpeed" : 0.7,
		"windDir" : 225,
		"rain" : 0,
		"cloudbase" : null,
		"flyability" : 100,
		"reason" : "",
		"timestamp" :1555819200
		},
	"2019-04-21T08:00:00+02:00" : {
		"windSpeed" : 1.1,
		"windDir" : 206,
		"rain" : 0,
		"cloudbase" : 7111.98088,
		"flyability" : 100,
		"reason" : "",
		"timestamp" :1555830000
		},
	"2019-04-21T11:00:00+02:00" : {
		"windSpeed" : 2.2,
		"windDir" : 206,
		"rain" : 0,
		"cloudbase" : 6921.9582400002,
		"flyability" : 100,
		"reason" : "",
		"timestamp" :1555840800
		},
	"2019-04-21T14:00:00+02:00" : {
		"windSpeed" : 2.5,
		"windDir" : 191,
		"rain" : 0,
		"cloudbase" : null,
		"flyability" : 100,
		"reason" : "",
		"timestamp" :1555851600
		},
	"2019-04-21T17:00:00+02:00" : {
		"windSpeed" : 2,
		"windDir" : 194,
		"rain" : 0,
		"cloudbase" : null,
		"flyability" : 100,
		"reason" : "",
		"timestamp" :1555862400
		},
	"2019-04-21T20:00:00+02:00" : {
		"windSpeed" : 2,
		"windDir" : 194,
		"rain" : 0,
		"cloudbase" : null,
		"flyability" : 100,
		"reason" : "",
		"timestamp" :1555873200
		},
	"2019-04-21T23:00:00+02:00" : {
		"windSpeed" : 2,
		"windDir" : 194,
		"rain" : 0,
		"cloudbase" : 7808.36,
		"flyability" : 100,
		"reason" : "",
		"timestamp" :1555884000
		},
	"2019-04-22T02:00:00+02:00" : {
		"windSpeed" : 1.5,
		"windDir" : 198,
		"rain" : 0,
		"cloudbase" : null,
		"flyability" : 100,
		"reason" : "",
		"timestamp" :1555894800
		},
	"2019-04-22T05:00:00+02:00" : {
		"windSpeed" : 2.5,
		"windDir" : 191,
		"rain" : 0,
		"cloudbase" : null,
		"flyability" : 100,
		"reason" : "",
		"timestamp" :1555905600
		},
	"2019-04-22T08:00:00+02:00" : {
		"windSpeed" : 1.4,
		"windDir" : 180,
		"rain" : 0,
		"cloudbase" : null,
		"flyability" : 100,
		"reason" : "",
		"timestamp" :1555916400
		},
	"2019-04-22T11:00:00+02:00" : {
		"windSpeed" : 2.5,
		"windDir" : 191,
		"rain" : 0,
		"cloudbase" : 6900,
		"flyability" : 100,
		"reason" : "",
		"timestamp" :1555927200
		},
	"2019-04-22T14:00:00+02:00" : {
		"windSpeed" : 3.5,
		"windDir" : 188,
		"rain" : 0,
		"cloudbase" : 6806.08176,
		"flyability" : 100,
		"reason" : "",
		"timestamp" :1555938000
		},
	"2019-04-22T17:00:00+02:00" : {
		"windSpeed" : 3,
		"windDir" : 189,
		"rain" : 0,
		"cloudbase" : 6610.18088,
		"flyability" : 100,
		"reason" : "",
		"timestamp" :1555948800
		},
	"2019-04-22T20:00:00+02:00" : {
		"windSpeed" : 2.7,
		"windDir" : 202,
		"rain" : 0,
		"cloudbase" : 213.90435200001,
		"flyability" : 0,
		"reason" : "cloudbase",
		"timestamp" :1555959600
		},
	"2019-04-22T23:00:00+02:00" : {
		"windSpeed" : 4.2,
		"windDir" : 201,
		"rain" : 0,
		"cloudbase" : 404.43845200009,
		"flyability" : 0,
		"reason" : "cloudbase",
		"timestamp" :1555970400
		},
	"2019-04-23T02:00:00+02:00" : {
		"windSpeed" : 3.6,
		"windDir" : 196,
		"rain" : 0,
		"cloudbase" : 406.49086400006,
		"flyability" : 0,
		"reason" : "cloudbase",
		"timestamp" :1555981200
		}
	}
}