{
"site" : "Amedzofe southwest",
"id" : 21405,
"orientations" : "00000000",
"forecasts" : { 
	"2019-04-08T15:00:00Z" : {
		"windSpeed" : 1.2,
		"windDir" : 230,
		"rain" : 0,
		"cloudbase" : 8215.05638525,
		"flyability" : -50,
		"reason" : "orientationsUnknown",
		"timestamp" :1554735600
		},
	"2019-04-08T18:00:00Z" : {
		"windSpeed" : 0.5,
		"windDir" : 103,
		"rain" : 0,
		"cloudbase" : 10581.2199575,
		"flyability" : -50,
		"reason" : "orientationsUnknown",
		"timestamp" :1554746400
		},
	"2019-04-08T21:00:00Z" : {
		"windSpeed" : 1.7,
		"windDir" : 133,
		"rain" : 0,
		"cloudbase" : 11874.0598725,
		"flyability" : -50,
		"reason" : "orientationsUnknown",
		"timestamp" :1554757200
		},
	"2019-04-09T00:00:00Z" : {
		"windSpeed" : 1.7,
		"windDir" : 138,
		"rain" : 0,
		"cloudbase" : 12500,
		"flyability" : -50,
		"reason" : "orientationsUnknown",
		"timestamp" :1554768000
		},
	"2019-04-09T03:00:00Z" : {
		"windSpeed" : 1.2,
		"windDir" : 166,
		"rain" : 0,
		"cloudbase" : 14500,
		"flyability" : -50,
		"reason" : "orientationsUnknown",
		"timestamp" :1554778800
		},
	"2019-04-09T06:00:00Z" : {
		"windSpeed" : 1,
		"windDir" : 160,
		"rain" : 0,
		"cloudbase" : 13000,
		"flyability" : -50,
		"reason" : "orientationsUnknown",
		"timestamp" :1554789600
		},
	"2019-04-09T09:00:00Z" : {
		"windSpeed" : 0.8,
		"windDir" : 233,
		"rain" : 0,
		"cloudbase" : null,
		"flyability" : -50,
		"reason" : "orientationsUnknown",
		"timestamp" :1554800400
		},
	"2019-04-09T12:00:00Z" : {
		"windSpeed" : 1.5,
		"windDir" : 155,
		"rain" : 0,
		"cloudbase" : 12500,
		"flyability" : -50,
		"reason" : "orientationsUnknown",
		"timestamp" :1554811200
		},
	"2019-04-09T15:00:00Z" : {
		"windSpeed" : 1.7,
		"windDir" : 39,
		"rain" : 0,
		"cloudbase" : 10189.372898,
		"flyability" : -50,
		"reason" : "orientationsUnknown",
		"timestamp" :1554822000
		},
	"2019-04-09T18:00:00Z" : {
		"windSpeed" : 1,
		"windDir" : 156,
		"rain" : 0,
		"cloudbase" : 9469.53,
		"flyability" : -50,
		"reason" : "orientationsUnknown",
		"timestamp" :1554832800
		},
	"2019-04-09T21:00:00Z" : {
		"windSpeed" : 2,
		"windDir" : 154,
		"rain" : 0,
		"cloudbase" : 9900,
		"flyability" : -50,
		"reason" : "orientationsUnknown",
		"timestamp" :1554843600
		},
	"2019-04-10T00:00:00Z" : {
		"windSpeed" : 2.4,
		"windDir" : 151,
		"rain" : 0,
		"cloudbase" : 10500,
		"flyability" : -50,
		"reason" : "orientationsUnknown",
		"timestamp" :1554854400
		},
	"2019-04-10T03:00:00Z" : {
		"windSpeed" : 2.7,
		"windDir" : 163,
		"rain" : 0,
		"cloudbase" : 5702.0258108247,
		"flyability" : -50,
		"reason" : "orientationsUnknown",
		"timestamp" :1554865200
		},
	"2019-04-10T06:00:00Z" : {
		"windSpeed" : 2.2,
		"windDir" : 170,
		"rain" : 0,
		"cloudbase" : 5731.8118436748,
		"flyability" : -50,
		"reason" : "orientationsUnknown",
		"timestamp" :1554876000
		},
	"2019-04-10T09:00:00Z" : {
		"windSpeed" : 2.9,
		"windDir" : 173,
		"rain" : 0,
		"cloudbase" : 7934.5360935002,
		"flyability" : -50,
		"reason" : "orientationsUnknown",
		"timestamp" :1554886800
		},
	"2019-04-10T12:00:00Z" : {
		"windSpeed" : 1.9,
		"windDir" : 143,
		"rain" : 0,
		"cloudbase" : 1500,
		"flyability" : -50,
		"reason" : "orientationsUnknown",
		"timestamp" :1554897600
		},
	"2019-04-10T15:00:00Z" : {
		"windSpeed" : 1.9,
		"windDir" : 162,
		"rain" : 0,
		"cloudbase" : 1150,
		"flyability" : -50,
		"reason" : "orientationsUnknown",
		"timestamp" :1554908400
		},
	"2019-04-10T18:00:00Z" : {
		"windSpeed" : 2.6,
		"windDir" : 168,
		"rain" : 0,
		"cloudbase" : 13500,
		"flyability" : -50,
		"reason" : "orientationsUnknown",
		"timestamp" :1554919200
		},
	"2019-04-10T21:00:00Z" : {
		"windSpeed" : 2.5,
		"windDir" : 162,
		"rain" : 0,
		"cloudbase" : 13595.7949575,
		"flyability" : -50,
		"reason" : "orientationsUnknown",
		"timestamp" :1554930000
		},
	"2019-04-11T00:00:00Z" : {
		"windSpeed" : 2.4,
		"windDir" : 174,
		"rain" : 0,
		"cloudbase" : 4165.8898725007,
		"flyability" : -50,
		"reason" : "orientationsUnknown",
		"timestamp" :1554940800
		},
	"2019-04-11T03:00:00Z" : {
		"windSpeed" : 2.5,
		"windDir" : 191,
		"rain" : 0,
		"cloudbase" : 120,
		"flyability" : -0,
		"reason" : "orientationsUnknown, cloudbase",
		"timestamp" :1554951600
		},
	"2019-04-11T06:00:00Z" : {
		"windSpeed" : 1.6,
		"windDir" : 166,
		"rain" : 1,
		"cloudbase" : 225.89280042499,
		"flyability" : -0,
		"reason" : "orientationsUnknown, rain, cloudbase",
		"timestamp" :1554962400
		},
	"2019-04-11T09:00:00Z" : {
		"windSpeed" : 2.2,
		"windDir" : 196,
		"rain" : 1,
		"cloudbase" : 723.35739489999,
		"flyability" : -0,
		"reason" : "orientationsUnknown, rain, cloudbase",
		"timestamp" :1554973200
		},
	"2019-04-11T12:00:00Z" : {
		"windSpeed" : 1.6,
		"windDir" : 228,
		"rain" : 0,
		"cloudbase" : 1400,
		"flyability" : -50,
		"reason" : "orientationsUnknown",
		"timestamp" :1554984000
		},
	"2019-04-11T15:00:00Z" : {
		"windSpeed" : 1,
		"windDir" : 252,
		"rain" : 0,
		"cloudbase" : 14500,
		"flyability" : -50,
		"reason" : "orientationsUnknown",
		"timestamp" :1554994800
		},
	"2019-04-11T18:00:00Z" : {
		"windSpeed" : 1.3,
		"windDir" : 122,
		"rain" : 0,
		"cloudbase" : 12751.8550425,
		"flyability" : -50,
		"reason" : "orientationsUnknown",
		"timestamp" :1555005600
		},
	"2019-04-11T21:00:00Z" : {
		"windSpeed" : 1.7,
		"windDir" : 153,
		"rain" : 0,
		"cloudbase" : 13362.225,
		"flyability" : -50,
		"reason" : "orientationsUnknown",
		"timestamp" :1555016400
		},
	"2019-04-12T00:00:00Z" : {
		"windSpeed" : 2,
		"windDir" : 162,
		"rain" : 1,
		"cloudbase" : 11904.2050425,
		"flyability" : -0,
		"reason" : "orientationsUnknown, rain",
		"timestamp" :1555027200
		},
	"2019-04-12T03:00:00Z" : {
		"windSpeed" : 1.4,
		"windDir" : 175,
		"rain" : 0,
		"cloudbase" : 12514.575,
		"flyability" : -50,
		"reason" : "orientationsUnknown",
		"timestamp" :1555038000
		},
	"2019-04-12T06:00:00Z" : {
		"windSpeed" : 2,
		"windDir" : 144,
		"rain" : 0,
		"cloudbase" : 12083.960085,
		"flyability" : -50,
		"reason" : "orientationsUnknown",
		"timestamp" :1555048800
		},
	"2019-04-12T09:00:00Z" : {
		"windSpeed" : 2.5,
		"windDir" : 194,
		"rain" : 0,
		"cloudbase" : 7883.1440764991,
		"flyability" : -50,
		"reason" : "orientationsUnknown",
		"timestamp" :1555059600
		},
	"2019-04-12T12:00:00Z" : {
		"windSpeed" : 2.7,
		"windDir" : 243,
		"rain" : 0,
		"cloudbase" : 5342.6676740008,
		"flyability" : -50,
		"reason" : "orientationsUnknown",
		"timestamp" :1555070400
		},
	"2019-04-12T15:00:00Z" : {
		"windSpeed" : 1.4,
		"windDir" : 224,
		"rain" : 0,
		"cloudbase" : 15833.075,
		"flyability" : -50,
		"reason" : "orientationsUnknown",
		"timestamp" :1555081200
		},
	"2019-04-12T18:00:00Z" : {
		"windSpeed" : 2.7,
		"windDir" : 164,
		"rain" : 0,
		"cloudbase" : 8279.5599999999,
		"flyability" : -50,
		"reason" : "orientationsUnknown",
		"timestamp" :1555092000
		},
	"2019-04-12T21:00:00Z" : {
		"windSpeed" : 2.1,
		"windDir" : 196,
		"rain" : 0,
		"cloudbase" : 9673.6721019997,
		"flyability" : -50,
		"reason" : "orientationsUnknown",
		"timestamp" :1555102800
		},
	"2019-04-13T00:00:00Z" : {
		"windSpeed" : 1.5,
		"windDir" : 204,
		"rain" : 0,
		"cloudbase" : 7369.8750000001,
		"flyability" : -50,
		"reason" : "orientationsUnknown",
		"timestamp" :1555113600
		},
	"2019-04-13T03:00:00Z" : {
		"windSpeed" : 0.9,
		"windDir" : 188,
		"rain" : 0,
		"cloudbase" : 6088.2711727506,
		"flyability" : -50,
		"reason" : "orientationsUnknown",
		"timestamp" :1555124400
		},
	"2019-04-13T06:00:00Z" : {
		"windSpeed" : 0.2,
		"windDir" : 90,
		"rain" : 0,
		"cloudbase" : 7849.080966,
		"flyability" : -50,
		"reason" : "orientationsUnknown",
		"timestamp" :1555135200
		},
	"2019-04-13T09:00:00Z" : {
		"windSpeed" : 1,
		"windDir" : 195,
		"rain" : 0,
		"cloudbase" : 11595.7949575,
		"flyability" : -50,
		"reason" : "orientationsUnknown",
		"timestamp" :1555146000
		},
	"2019-04-13T12:00:00Z" : {
		"windSpeed" : 2,
		"windDir" : 223,
		"rain" : 0,
		"cloudbase" : null,
		"flyability" : -50,
		"reason" : "orientationsUnknown",
		"timestamp" :1555156800
		},
	"2019-04-13T15:00:00Z" : {
		"windSpeed" : 1.8,
		"windDir" : 171,
		"rain" : 0,
		"cloudbase" : 11610.3699575,
		"flyability" : -50,
		"reason" : "orientationsUnknown",
		"timestamp" :1555167600
		},
	"2019-04-13T18:00:00Z" : {
		"windSpeed" : 2.7,
		"windDir" : 122,
		"rain" : 0,
		"cloudbase" : 12177.789915,
		"flyability" : -50,
		"reason" : "orientationsUnknown",
		"timestamp" :1555178400
		},
	"2019-04-13T21:00:00Z" : {
		"windSpeed" : 1.9,
		"windDir" : 138,
		"rain" : 0,
		"cloudbase" : 6254.1321445001,
		"flyability" : -50,
		"reason" : "orientationsUnknown",
		"timestamp" :1555189200
		},
	"2019-04-14T00:00:00Z" : {
		"windSpeed" : 1.8,
		"windDir" : 176,
		"rain" : 0,
		"cloudbase" : 4885.5763181748,
		"flyability" : -50,
		"reason" : "orientationsUnknown",
		"timestamp" :1555200000
		},
	"2019-04-14T03:00:00Z" : {
		"windSpeed" : 1.4,
		"windDir" : 185,
		"rain" : 0,
		"cloudbase" : 2099.4643042759,
		"flyability" : -50,
		"reason" : "orientationsUnknown",
		"timestamp" :1555210800
		},
	"2019-04-14T06:00:00Z" : {
		"windSpeed" : 1.6,
		"windDir" : 157,
		"rain" : 0,
		"cloudbase" : 80,
		"flyability" : -0,
		"reason" : "orientationsUnknown, cloudbase",
		"timestamp" :1555221600
		},
	"2019-04-14T09:00:00Z" : {
		"windSpeed" : 2.2,
		"windDir" : 193,
		"rain" : 0,
		"cloudbase" : null,
		"flyability" : -50,
		"reason" : "orientationsUnknown",
		"timestamp" :1555232400
		},
	"2019-04-14T12:00:00Z" : {
		"windSpeed" : 1.8,
		"windDir" : 219,
		"rain" : 0,
		"cloudbase" : 10000,
		"flyability" : -50,
		"reason" : "orientationsUnknown",
		"timestamp" :1555243200
		}
	}
}