{
"site" : "Amedzofe north (east launch)",
"id" : 21407,
"orientations" : "00000000",
"forecasts" : { 
	"2019-04-08T15:00:00Z" : {
		"windSpeed" : 1.3,
		"windDir" : 227,
		"rain" : 0,
		"cloudbase" : 8571.6907439008,
		"flyability" : -50,
		"reason" : "orientationsUnknown",
		"timestamp" :1554735600
		},
	"2019-04-08T18:00:00Z" : {
		"windSpeed" : 0.5,
		"windDir" : 110,
		"rain" : 0,
		"cloudbase" : 10464.016757,
		"flyability" : -50,
		"reason" : "orientationsUnknown",
		"timestamp" :1554746400
		},
	"2019-04-08T21:00:00Z" : {
		"windSpeed" : 1.7,
		"windDir" : 138,
		"rain" : 0,
		"cloudbase" : 11722.220271,
		"flyability" : -50,
		"reason" : "orientationsUnknown",
		"timestamp" :1554757200
		},
	"2019-04-09T00:00:00Z" : {
		"windSpeed" : 1.8,
		"windDir" : 144,
		"rain" : 0,
		"cloudbase" : 12500,
		"flyability" : -50,
		"reason" : "orientationsUnknown",
		"timestamp" :1554768000
		},
	"2019-04-09T03:00:00Z" : {
		"windSpeed" : 1.3,
		"windDir" : 164,
		"rain" : 0,
		"cloudbase" : 14500,
		"flyability" : -50,
		"reason" : "orientationsUnknown",
		"timestamp" :1554778800
		},
	"2019-04-09T06:00:00Z" : {
		"windSpeed" : 1,
		"windDir" : 159,
		"rain" : 0,
		"cloudbase" : 12000,
		"flyability" : -50,
		"reason" : "orientationsUnknown",
		"timestamp" :1554789600
		},
	"2019-04-09T09:00:00Z" : {
		"windSpeed" : 0.9,
		"windDir" : 237,
		"rain" : 0,
		"cloudbase" : null,
		"flyability" : -50,
		"reason" : "orientationsUnknown",
		"timestamp" :1554800400
		},
	"2019-04-09T12:00:00Z" : {
		"windSpeed" : 1.4,
		"windDir" : 151,
		"rain" : 0,
		"cloudbase" : 12500,
		"flyability" : -50,
		"reason" : "orientationsUnknown",
		"timestamp" :1554811200
		},
	"2019-04-09T15:00:00Z" : {
		"windSpeed" : 1.7,
		"windDir" : 48,
		"rain" : 0,
		"cloudbase" : 10222.0312168,
		"flyability" : -50,
		"reason" : "orientationsUnknown",
		"timestamp" :1554822000
		},
	"2019-04-09T18:00:00Z" : {
		"windSpeed" : 1,
		"windDir" : 155,
		"rain" : 0,
		"cloudbase" : 9444.54,
		"flyability" : -50,
		"reason" : "orientationsUnknown",
		"timestamp" :1554832800
		},
	"2019-04-09T21:00:00Z" : {
		"windSpeed" : 2.1,
		"windDir" : 157,
		"rain" : 0,
		"cloudbase" : 12500,
		"flyability" : -50,
		"reason" : "orientationsUnknown",
		"timestamp" :1554843600
		},
	"2019-04-10T00:00:00Z" : {
		"windSpeed" : 2.5,
		"windDir" : 154,
		"rain" : 0,
		"cloudbase" : 9900,
		"flyability" : -50,
		"reason" : "orientationsUnknown",
		"timestamp" :1554854400
		},
	"2019-04-10T03:00:00Z" : {
		"windSpeed" : 2.8,
		"windDir" : 164,
		"rain" : 0,
		"cloudbase" : 5678.0876830708,
		"flyability" : -50,
		"reason" : "orientationsUnknown",
		"timestamp" :1554865200
		},
	"2019-04-10T06:00:00Z" : {
		"windSpeed" : 2.3,
		"windDir" : 169,
		"rain" : 0,
		"cloudbase" : 5838.9132591308,
		"flyability" : -50,
		"reason" : "orientationsUnknown",
		"timestamp" :1554876000
		},
	"2019-04-10T09:00:00Z" : {
		"windSpeed" : 2.8,
		"windDir" : 173,
		"rain" : 0,
		"cloudbase" : 8542.0931346005,
		"flyability" : -50,
		"reason" : "orientationsUnknown",
		"timestamp" :1554886800
		},
	"2019-04-10T12:00:00Z" : {
		"windSpeed" : 1.9,
		"windDir" : 142,
		"rain" : 0,
		"cloudbase" : 1500,
		"flyability" : -50,
		"reason" : "orientationsUnknown",
		"timestamp" :1554897600
		},
	"2019-04-10T15:00:00Z" : {
		"windSpeed" : 1.8,
		"windDir" : 162,
		"rain" : 0,
		"cloudbase" : 1150,
		"flyability" : -50,
		"reason" : "orientationsUnknown",
		"timestamp" :1554908400
		},
	"2019-04-10T18:00:00Z" : {
		"windSpeed" : 2.6,
		"windDir" : 167,
		"rain" : 0,
		"cloudbase" : 13500,
		"flyability" : -50,
		"reason" : "orientationsUnknown",
		"timestamp" :1554919200
		},
	"2019-04-10T21:00:00Z" : {
		"windSpeed" : 2.5,
		"windDir" : 163,
		"rain" : 0,
		"cloudbase" : 13574.361757,
		"flyability" : -50,
		"reason" : "orientationsUnknown",
		"timestamp" :1554930000
		},
	"2019-04-11T00:00:00Z" : {
		"windSpeed" : 2.4,
		"windDir" : 174,
		"rain" : 0,
		"cloudbase" : 5624.9322710002,
		"flyability" : -50,
		"reason" : "orientationsUnknown",
		"timestamp" :1554940800
		},
	"2019-04-11T03:00:00Z" : {
		"windSpeed" : 2.5,
		"windDir" : 189,
		"rain" : 0,
		"cloudbase" : 90,
		"flyability" : -50,
		"reason" : "orientationsUnknown",
		"timestamp" :1554951600
		},
	"2019-04-11T06:00:00Z" : {
		"windSpeed" : 1.7,
		"windDir" : 164,
		"rain" : 1,
		"cloudbase" : 218.55773243004,
		"flyability" : -0,
		"reason" : "orientationsUnknown, rain",
		"timestamp" :1554962400
		},
	"2019-04-11T09:00:00Z" : {
		"windSpeed" : 2.2,
		"windDir" : 195,
		"rain" : 1,
		"cloudbase" : 711.11861084001,
		"flyability" : -0,
		"reason" : "orientationsUnknown, rain",
		"timestamp" :1554973200
		},
	"2019-04-11T12:00:00Z" : {
		"windSpeed" : 1.6,
		"windDir" : 227,
		"rain" : 0,
		"cloudbase" : 1300,
		"flyability" : -50,
		"reason" : "orientationsUnknown",
		"timestamp" :1554984000
		},
	"2019-04-11T15:00:00Z" : {
		"windSpeed" : 0.9,
		"windDir" : 255,
		"rain" : 0,
		"cloudbase" : 14500,
		"flyability" : -50,
		"reason" : "orientationsUnknown",
		"timestamp" :1554994800
		},
	"2019-04-11T18:00:00Z" : {
		"windSpeed" : 1.5,
		"windDir" : 126,
		"rain" : 0,
		"cloudbase" : 12648.338243,
		"flyability" : -50,
		"reason" : "orientationsUnknown",
		"timestamp" :1555005600
		},
	"2019-04-11T21:00:00Z" : {
		"windSpeed" : 1.8,
		"windDir" : 155,
		"rain" : 0,
		"cloudbase" : 13333.045,
		"flyability" : -50,
		"reason" : "orientationsUnknown",
		"timestamp" :1555016400
		},
	"2019-04-12T00:00:00Z" : {
		"windSpeed" : 2,
		"windDir" : 163,
		"rain" : 1,
		"cloudbase" : 11925.638243,
		"flyability" : -0,
		"reason" : "orientationsUnknown, rain",
		"timestamp" :1555027200
		},
	"2019-04-12T03:00:00Z" : {
		"windSpeed" : 1.4,
		"windDir" : 176,
		"rain" : 0,
		"cloudbase" : 12610.345,
		"flyability" : -50,
		"reason" : "orientationsUnknown",
		"timestamp" :1555038000
		},
	"2019-04-12T06:00:00Z" : {
		"windSpeed" : 2,
		"windDir" : 147,
		"rain" : 0,
		"cloudbase" : 12185.186486,
		"flyability" : -50,
		"reason" : "orientationsUnknown",
		"timestamp" :1555048800
		},
	"2019-04-12T09:00:00Z" : {
		"windSpeed" : 2.4,
		"windDir" : 194,
		"rain" : 0,
		"cloudbase" : 6797.6218374015,
		"flyability" : -50,
		"reason" : "orientationsUnknown",
		"timestamp" :1555059600
		},
	"2019-04-12T12:00:00Z" : {
		"windSpeed" : 2.7,
		"windDir" : 242,
		"rain" : 0,
		"cloudbase" : 6210.6118183995,
		"flyability" : -50,
		"reason" : "orientationsUnknown",
		"timestamp" :1555070400
		},
	"2019-04-12T15:00:00Z" : {
		"windSpeed" : 1.4,
		"windDir" : 219,
		"rain" : 0,
		"cloudbase" : 15612.355,
		"flyability" : -50,
		"reason" : "orientationsUnknown",
		"timestamp" :1555081200
		},
	"2019-04-12T18:00:00Z" : {
		"windSpeed" : 2.7,
		"windDir" : 166,
		"rain" : 0,
		"cloudbase" : 8232.8720000001,
		"flyability" : -50,
		"reason" : "orientationsUnknown",
		"timestamp" :1555092000
		},
	"2019-04-12T21:00:00Z" : {
		"windSpeed" : 2.2,
		"windDir" : 192,
		"rain" : 0,
		"cloudbase" : 9135.3777832001,
		"flyability" : -50,
		"reason" : "orientationsUnknown",
		"timestamp" :1555102800
		},
	"2019-04-13T00:00:00Z" : {
		"windSpeed" : 1.5,
		"windDir" : 201,
		"rain" : 0,
		"cloudbase" : 7522.3589999998,
		"flyability" : -50,
		"reason" : "orientationsUnknown",
		"timestamp" :1555113600
		},
	"2019-04-13T03:00:00Z" : {
		"windSpeed" : 0.9,
		"windDir" : 183,
		"rain" : 0,
		"cloudbase" : 6891.1865288995,
		"flyability" : -50,
		"reason" : "orientationsUnknown",
		"timestamp" :1555124400
		},
	"2019-04-13T06:00:00Z" : {
		"windSpeed" : 0.2,
		"windDir" : 90,
		"rain" : 0,
		"cloudbase" : 7826.0984056,
		"flyability" : -50,
		"reason" : "orientationsUnknown",
		"timestamp" :1555135200
		},
	"2019-04-13T09:00:00Z" : {
		"windSpeed" : 1,
		"windDir" : 201,
		"rain" : 0,
		"cloudbase" : 11574.361757,
		"flyability" : -50,
		"reason" : "orientationsUnknown",
		"timestamp" :1555146000
		},
	"2019-04-13T12:00:00Z" : {
		"windSpeed" : 1.9,
		"windDir" : 223,
		"rain" : 0,
		"cloudbase" : 13500,
		"flyability" : -50,
		"reason" : "orientationsUnknown",
		"timestamp" :1555156800
		},
	"2019-04-13T15:00:00Z" : {
		"windSpeed" : 2,
		"windDir" : 173,
		"rain" : 0,
		"cloudbase" : 11684.706757,
		"flyability" : -50,
		"reason" : "orientationsUnknown",
		"timestamp" :1555167600
		},
	"2019-04-13T18:00:00Z" : {
		"windSpeed" : 2.6,
		"windDir" : 126,
		"rain" : 0,
		"cloudbase" : 12701.313514,
		"flyability" : -50,
		"reason" : "orientationsUnknown",
		"timestamp" :1555178400
		},
	"2019-04-13T21:00:00Z" : {
		"windSpeed" : 2,
		"windDir" : 141,
		"rain" : 0,
		"cloudbase" : 6632.5710262005,
		"flyability" : -50,
		"reason" : "orientationsUnknown",
		"timestamp" :1555189200
		},
	"2019-04-14T00:00:00Z" : {
		"windSpeed" : 1.9,
		"windDir" : 177,
		"rain" : 0,
		"cloudbase" : 4867.8118133307,
		"flyability" : -50,
		"reason" : "orientationsUnknown",
		"timestamp" :1555200000
		},
	"2019-04-14T03:00:00Z" : {
		"windSpeed" : 1.4,
		"windDir" : 182,
		"rain" : 0,
		"cloudbase" : 3670.0828220895,
		"flyability" : -50,
		"reason" : "orientationsUnknown",
		"timestamp" :1555210800
		},
	"2019-04-14T06:00:00Z" : {
		"windSpeed" : 1.6,
		"windDir" : 158,
		"rain" : 0,
		"cloudbase" : 45,
		"flyability" : -50,
		"reason" : "orientationsUnknown",
		"timestamp" :1555221600
		},
	"2019-04-14T09:00:00Z" : {
		"windSpeed" : 2.1,
		"windDir" : 191,
		"rain" : 0,
		"cloudbase" : null,
		"flyability" : -50,
		"reason" : "orientationsUnknown",
		"timestamp" :1555232400
		},
	"2019-04-14T12:00:00Z" : {
		"windSpeed" : 1.8,
		"windDir" : 222,
		"rain" : 0,
		"cloudbase" : 10000,
		"flyability" : -50,
		"reason" : "orientationsUnknown",
		"timestamp" :1555243200
		}
	}
}