{
"site" : "Coon Hill",
"id" : 21472,
"orientations" : "00000000",
"forecasts" : { 
	"2019-04-06T21:00:00-06:00" : {
		"windSpeed" : 2.2,
		"windDir" : 298,
		"rain" : 0,
		"cloudbase" : 640,
		"flyability" : -0,
		"reason" : "orientationsUnknown, cloudbase",
		"timestamp" :1554606000
		},
	"2019-04-07T00:00:00-06:00" : {
		"windSpeed" : 2.8,
		"windDir" : 307,
		"rain" : 0,
		"cloudbase" : 73.486399999998,
		"flyability" : -0,
		"reason" : "orientationsUnknown, cloudbase",
		"timestamp" :1554616800
		},
	"2019-04-07T03:00:00-06:00" : {
		"windSpeed" : 1.7,
		"windDir" : 295,
		"rain" : 0,
		"cloudbase" : null,
		"flyability" : -50,
		"reason" : "orientationsUnknown",
		"timestamp" :1554627600
		},
	"2019-04-07T06:00:00-06:00" : {
		"windSpeed" : 1,
		"windDir" : 270,
		"rain" : 0,
		"cloudbase" : null,
		"flyability" : -50,
		"reason" : "orientationsUnknown",
		"timestamp" :1554638400
		},
	"2019-04-07T09:00:00-06:00" : {
		"windSpeed" : 1,
		"windDir" : 236,
		"rain" : 0,
		"cloudbase" : null,
		"flyability" : -50,
		"reason" : "orientationsUnknown",
		"timestamp" :1554649200
		},
	"2019-04-07T12:00:00-06:00" : {
		"windSpeed" : 2.3,
		"windDir" : 282,
		"rain" : 0,
		"cloudbase" : null,
		"flyability" : -50,
		"reason" : "orientationsUnknown",
		"timestamp" :1554660000
		},
	"2019-04-07T15:00:00-06:00" : {
		"windSpeed" : 3.6,
		"windDir" : 271,
		"rain" : 0,
		"cloudbase" : 4337.3679999999,
		"flyability" : -50,
		"reason" : "orientationsUnknown",
		"timestamp" :1554670800
		},
	"2019-04-07T18:00:00-06:00" : {
		"windSpeed" : 3.3,
		"windDir" : 266,
		"rain" : 0,
		"cloudbase" : 4851.072,
		"flyability" : -50,
		"reason" : "orientationsUnknown",
		"timestamp" :1554681600
		},
	"2019-04-07T21:00:00-06:00" : {
		"windSpeed" : 3,
		"windDir" : 275,
		"rain" : 0,
		"cloudbase" : null,
		"flyability" : -50,
		"reason" : "orientationsUnknown",
		"timestamp" :1554692400
		},
	"2019-04-08T00:00:00-06:00" : {
		"windSpeed" : 1.4,
		"windDir" : 319,
		"rain" : 0,
		"cloudbase" : 8373.696,
		"flyability" : -50,
		"reason" : "orientationsUnknown",
		"timestamp" :1554703200
		},
	"2019-04-08T03:00:00-06:00" : {
		"windSpeed" : 1,
		"windDir" : 327,
		"rain" : 0,
		"cloudbase" : null,
		"flyability" : -50,
		"reason" : "orientationsUnknown",
		"timestamp" :1554714000
		},
	"2019-04-08T06:00:00-06:00" : {
		"windSpeed" : 2.2,
		"windDir" : 316,
		"rain" : 0,
		"cloudbase" : 7500,
		"flyability" : -50,
		"reason" : "orientationsUnknown",
		"timestamp" :1554724800
		},
	"2019-04-08T09:00:00-06:00" : {
		"windSpeed" : 1.9,
		"windDir" : 281,
		"rain" : 0,
		"cloudbase" : 6311.2,
		"flyability" : -50,
		"reason" : "orientationsUnknown",
		"timestamp" :1554735600
		},
	"2019-04-08T12:00:00-06:00" : {
		"windSpeed" : 3.4,
		"windDir" : 279,
		"rain" : 0,
		"cloudbase" : 7761.76,
		"flyability" : -50,
		"reason" : "orientationsUnknown",
		"timestamp" :1554746400
		},
	"2019-04-08T15:00:00-06:00" : {
		"windSpeed" : 3.5,
		"windDir" : 271,
		"rain" : 0,
		"cloudbase" : 5655.248,
		"flyability" : -50,
		"reason" : "orientationsUnknown",
		"timestamp" :1554757200
		},
	"2019-04-08T18:00:00-06:00" : {
		"windSpeed" : 3,
		"windDir" : 278,
		"rain" : 0,
		"cloudbase" : null,
		"flyability" : -50,
		"reason" : "orientationsUnknown",
		"timestamp" :1554768000
		},
	"2019-04-08T21:00:00-06:00" : {
		"windSpeed" : 2.1,
		"windDir" : 263,
		"rain" : 0,
		"cloudbase" : null,
		"flyability" : -50,
		"reason" : "orientationsUnknown",
		"timestamp" :1554778800
		},
	"2019-04-09T00:00:00-06:00" : {
		"windSpeed" : 1.5,
		"windDir" : 213,
		"rain" : 0,
		"cloudbase" : null,
		"flyability" : -50,
		"reason" : "orientationsUnknown",
		"timestamp" :1554789600
		},
	"2019-04-09T03:00:00-06:00" : {
		"windSpeed" : 0.6,
		"windDir" : 223,
		"rain" : 0,
		"cloudbase" : null,
		"flyability" : -50,
		"reason" : "orientationsUnknown",
		"timestamp" :1554800400
		},
	"2019-04-09T06:00:00-06:00" : {
		"windSpeed" : 0.6,
		"windDir" : 250,
		"rain" : 0,
		"cloudbase" : null,
		"flyability" : -50,
		"reason" : "orientationsUnknown",
		"timestamp" :1554811200
		},
	"2019-04-09T09:00:00-06:00" : {
		"windSpeed" : 1,
		"windDir" : 206,
		"rain" : 0,
		"cloudbase" : 6900,
		"flyability" : -50,
		"reason" : "orientationsUnknown",
		"timestamp" :1554822000
		},
	"2019-04-09T12:00:00-06:00" : {
		"windSpeed" : 4.3,
		"windDir" : 254,
		"rain" : 0,
		"cloudbase" : 7144.496,
		"flyability" : -50,
		"reason" : "orientationsUnknown",
		"timestamp" :1554832800
		},
	"2019-04-09T15:00:00-06:00" : {
		"windSpeed" : 4.8,
		"windDir" : 246,
		"rain" : 0,
		"cloudbase" : 5282.448,
		"flyability" : -50,
		"reason" : "orientationsUnknown",
		"timestamp" :1554843600
		},
	"2019-04-09T18:00:00-06:00" : {
		"windSpeed" : 3.5,
		"windDir" : 232,
		"rain" : 0,
		"cloudbase" : 4336.176,
		"flyability" : -50,
		"reason" : "orientationsUnknown",
		"timestamp" :1554854400
		},
	"2019-04-09T21:00:00-06:00" : {
		"windSpeed" : 3.2,
		"windDir" : 185,
		"rain" : 0,
		"cloudbase" : 2268.4,
		"flyability" : -0,
		"reason" : "orientationsUnknown, cloudbase",
		"timestamp" :1554865200
		},
	"2019-04-10T00:00:00-06:00" : {
		"windSpeed" : 2.2,
		"windDir" : 180,
		"rain" : 0,
		"cloudbase" : null,
		"flyability" : -50,
		"reason" : "orientationsUnknown",
		"timestamp" :1554876000
		},
	"2019-04-10T03:00:00-06:00" : {
		"windSpeed" : 2.9,
		"windDir" : 201,
		"rain" : 0,
		"cloudbase" : null,
		"flyability" : -50,
		"reason" : "orientationsUnknown",
		"timestamp" :1554886800
		},
	"2019-04-10T06:00:00-06:00" : {
		"windSpeed" : 1.6,
		"windDir" : 216,
		"rain" : 0,
		"cloudbase" : null,
		"flyability" : -50,
		"reason" : "orientationsUnknown",
		"timestamp" :1554897600
		},
	"2019-04-10T09:00:00-06:00" : {
		"windSpeed" : 1.9,
		"windDir" : 202,
		"rain" : 0,
		"cloudbase" : null,
		"flyability" : -50,
		"reason" : "orientationsUnknown",
		"timestamp" :1554908400
		},
	"2019-04-10T12:00:00-06:00" : {
		"windSpeed" : 2.4,
		"windDir" : 294,
		"rain" : 0,
		"cloudbase" : 900,
		"flyability" : -0,
		"reason" : "orientationsUnknown, cloudbase",
		"timestamp" :1554919200
		},
	"2019-04-10T15:00:00-06:00" : {
		"windSpeed" : 3,
		"windDir" : 314,
		"rain" : 0,
		"cloudbase" : 799.59040000001,
		"flyability" : -0,
		"reason" : "orientationsUnknown, cloudbase",
		"timestamp" :1554930000
		},
	"2019-04-10T18:00:00-06:00" : {
		"windSpeed" : 3.9,
		"windDir" : 315,
		"rain" : 0,
		"cloudbase" : 217.1296,
		"flyability" : -0,
		"reason" : "orientationsUnknown, cloudbase",
		"timestamp" :1554940800
		},
	"2019-04-10T21:00:00-06:00" : {
		"windSpeed" : 4.7,
		"windDir" : 306,
		"rain" : 0,
		"cloudbase" : 87.460000000002,
		"flyability" : -0,
		"reason" : "orientationsUnknown, cloudbase",
		"timestamp" :1554951600
		},
	"2019-04-11T00:00:00-06:00" : {
		"windSpeed" : 4.8,
		"windDir" : 302,
		"rain" : 0,
		"cloudbase" : 83.677600000001,
		"flyability" : -0,
		"reason" : "orientationsUnknown, cloudbase",
		"timestamp" :1554962400
		},
	"2019-04-11T03:00:00-06:00" : {
		"windSpeed" : 5.4,
		"windDir" : 306,
		"rain" : 0,
		"cloudbase" : 61.9728,
		"flyability" : -0,
		"reason" : "windSpeed, orientationsUnknown, cloudbase",
		"timestamp" :1554973200
		},
	"2019-04-11T06:00:00-06:00" : {
		"windSpeed" : 4.9,
		"windDir" : 297,
		"rain" : 0,
		"cloudbase" : 74.338399999999,
		"flyability" : -0,
		"reason" : "orientationsUnknown, cloudbase",
		"timestamp" :1554984000
		},
	"2019-04-11T09:00:00-06:00" : {
		"windSpeed" : 5.1,
		"windDir" : 303,
		"rain" : 0,
		"cloudbase" : 112.92,
		"flyability" : -0,
		"reason" : "windSpeed, orientationsUnknown, cloudbase",
		"timestamp" :1554994800
		},
	"2019-04-11T12:00:00-06:00" : {
		"windSpeed" : 4.6,
		"windDir" : 304,
		"rain" : 0,
		"cloudbase" : 240,
		"flyability" : -0,
		"reason" : "orientationsUnknown, cloudbase",
		"timestamp" :1555005600
		},
	"2019-04-11T15:00:00-06:00" : {
		"windSpeed" : 5.7,
		"windDir" : 311,
		"rain" : 0,
		"cloudbase" : 1193.1648,
		"flyability" : -0,
		"reason" : "windSpeed, orientationsUnknown, cloudbase",
		"timestamp" :1555016400
		},
	"2019-04-11T18:00:00-06:00" : {
		"windSpeed" : 4.1,
		"windDir" : 300,
		"rain" : 0,
		"cloudbase" : 680,
		"flyability" : -0,
		"reason" : "orientationsUnknown, cloudbase",
		"timestamp" :1555027200
		},
	"2019-04-11T21:00:00-06:00" : {
		"windSpeed" : 1.9,
		"windDir" : 303,
		"rain" : 0,
		"cloudbase" : null,
		"flyability" : -50,
		"reason" : "orientationsUnknown",
		"timestamp" :1555038000
		},
	"2019-04-12T00:00:00-06:00" : {
		"windSpeed" : 1.1,
		"windDir" : 311,
		"rain" : 0,
		"cloudbase" : 30,
		"flyability" : -0,
		"reason" : "orientationsUnknown, cloudbase",
		"timestamp" :1555048800
		},
	"2019-04-12T03:00:00-06:00" : {
		"windSpeed" : 0.2,
		"windDir" : 80,
		"rain" : 0,
		"cloudbase" : 160,
		"flyability" : -0,
		"reason" : "orientationsUnknown, cloudbase",
		"timestamp" :1555059600
		},
	"2019-04-12T06:00:00-06:00" : {
		"windSpeed" : 1.2,
		"windDir" : 89,
		"rain" : 0,
		"cloudbase" : null,
		"flyability" : -50,
		"reason" : "orientationsUnknown",
		"timestamp" :1555070400
		},
	"2019-04-12T09:00:00-06:00" : {
		"windSpeed" : 1.3,
		"windDir" : 141,
		"rain" : 0,
		"cloudbase" : 5800,
		"flyability" : -50,
		"reason" : "orientationsUnknown",
		"timestamp" :1555081200
		},
	"2019-04-12T12:00:00-06:00" : {
		"windSpeed" : 3.4,
		"windDir" : 165,
		"rain" : 1,
		"cloudbase" : 2754.696,
		"flyability" : -0,
		"reason" : "orientationsUnknown, rain, cloudbase",
		"timestamp" :1555092000
		},
	"2019-04-12T15:00:00-06:00" : {
		"windSpeed" : 4,
		"windDir" : 149,
		"rain" : 0,
		"cloudbase" : 1173.2112,
		"flyability" : -0,
		"reason" : "orientationsUnknown, cloudbase",
		"timestamp" :1555102800
		},
	"2019-04-12T18:00:00-06:00" : {
		"windSpeed" : 4.6,
		"windDir" : 123,
		"rain" : 0,
		"cloudbase" : 1640.5408000001,
		"flyability" : -0,
		"reason" : "orientationsUnknown, cloudbase",
		"timestamp" :1555113600
		}
	}
}