{
"site" : "Orofino",
"id" : 21526,
"orientations" : "00000000",
"forecasts" : { 
	"2019-04-16T20:00:00-07:00" : {
		"windSpeed" : 1,
		"windDir" : 249,
		"rain" : 0,
		"cloudbase" : 2349.4799999997,
		"flyability" : -50,
		"reason" : "orientationsUnknown",
		"timestamp" :1555473600
		},
	"2019-04-16T23:00:00-07:00" : {
		"windSpeed" : 0.9,
		"windDir" : 242,
		"rain" : 0,
		"cloudbase" : 3200,
		"flyability" : -50,
		"reason" : "orientationsUnknown",
		"timestamp" :1555484400
		},
	"2019-04-17T02:00:00-07:00" : {
		"windSpeed" : 1.2,
		"windDir" : 256,
		"rain" : 0,
		"cloudbase" : 1102.624,
		"flyability" : -0,
		"reason" : "orientationsUnknown, cloudbase",
		"timestamp" :1555495200
		},
	"2019-04-17T05:00:00-07:00" : {
		"windSpeed" : 1.3,
		"windDir" : 247,
		"rain" : 0,
		"cloudbase" : 992.53599999997,
		"flyability" : -0,
		"reason" : "orientationsUnknown, cloudbase",
		"timestamp" :1555506000
		},
	"2019-04-17T08:00:00-07:00" : {
		"windSpeed" : 1,
		"windDir" : 240,
		"rain" : 0,
		"cloudbase" : 940.21999999996,
		"flyability" : -0,
		"reason" : "orientationsUnknown, cloudbase",
		"timestamp" :1555516800
		},
	"2019-04-17T11:00:00-07:00" : {
		"windSpeed" : 2.3,
		"windDir" : 264,
		"rain" : 0,
		"cloudbase" : 1435.88,
		"flyability" : -50,
		"reason" : "orientationsUnknown",
		"timestamp" :1555527600
		},
	"2019-04-17T14:00:00-07:00" : {
		"windSpeed" : 2.4,
		"windDir" : 265,
		"rain" : 0,
		"cloudbase" : 3005.6799999999,
		"flyability" : -50,
		"reason" : "orientationsUnknown",
		"timestamp" :1555538400
		},
	"2019-04-17T17:00:00-07:00" : {
		"windSpeed" : 2.2,
		"windDir" : 267,
		"rain" : 0,
		"cloudbase" : null,
		"flyability" : -50,
		"reason" : "orientationsUnknown",
		"timestamp" :1555549200
		},
	"2019-04-17T20:00:00-07:00" : {
		"windSpeed" : 1.5,
		"windDir" : 253,
		"rain" : 0,
		"cloudbase" : null,
		"flyability" : -50,
		"reason" : "orientationsUnknown",
		"timestamp" :1555560000
		},
	"2019-04-17T23:00:00-07:00" : {
		"windSpeed" : 1.2,
		"windDir" : 251,
		"rain" : 0,
		"cloudbase" : 5410.4399999999,
		"flyability" : -50,
		"reason" : "orientationsUnknown",
		"timestamp" :1555570800
		},
	"2019-04-18T02:00:00-07:00" : {
		"windSpeed" : 1.3,
		"windDir" : 257,
		"rain" : 1,
		"cloudbase" : 4824.16,
		"flyability" : -0,
		"reason" : "orientationsUnknown, rain",
		"timestamp" :1555581600
		},
	"2019-04-18T05:00:00-07:00" : {
		"windSpeed" : 1.3,
		"windDir" : 248,
		"rain" : 1,
		"cloudbase" : 2630.16,
		"flyability" : -0,
		"reason" : "orientationsUnknown, rain",
		"timestamp" :1555592400
		},
	"2019-04-18T08:00:00-07:00" : {
		"windSpeed" : 0.7,
		"windDir" : 248,
		"rain" : 1,
		"cloudbase" : 4872.5999999998,
		"flyability" : -0,
		"reason" : "orientationsUnknown, rain",
		"timestamp" :1555603200
		},
	"2019-04-18T11:00:00-07:00" : {
		"windSpeed" : 0.9,
		"windDir" : 121,
		"rain" : 1,
		"cloudbase" : 1649.2,
		"flyability" : -0,
		"reason" : "orientationsUnknown, rain",
		"timestamp" :1555614000
		},
	"2019-04-18T14:00:00-07:00" : {
		"windSpeed" : 1.5,
		"windDir" : 121,
		"rain" : 1,
		"cloudbase" : 370.97999999997,
		"flyability" : -0,
		"reason" : "orientationsUnknown, rain, cloudbase",
		"timestamp" :1555624800
		},
	"2019-04-18T17:00:00-07:00" : {
		"windSpeed" : 0.6,
		"windDir" : 147,
		"rain" : 1,
		"cloudbase" : 1237.3,
		"flyability" : -0,
		"reason" : "orientationsUnknown, rain",
		"timestamp" :1555635600
		},
	"2019-04-18T20:00:00-07:00" : {
		"windSpeed" : 0.7,
		"windDir" : 238,
		"rain" : 1,
		"cloudbase" : 7500,
		"flyability" : -0,
		"reason" : "orientationsUnknown, rain",
		"timestamp" :1555646400
		},
	"2019-04-18T23:00:00-07:00" : {
		"windSpeed" : 1.2,
		"windDir" : 235,
		"rain" : 1,
		"cloudbase" : 1200,
		"flyability" : -0,
		"reason" : "orientationsUnknown, rain",
		"timestamp" :1555657200
		},
	"2019-04-19T02:00:00-07:00" : {
		"windSpeed" : 0.8,
		"windDir" : 270,
		"rain" : 1,
		"cloudbase" : 1350,
		"flyability" : -0,
		"reason" : "orientationsUnknown, rain",
		"timestamp" :1555668000
		},
	"2019-04-19T05:00:00-07:00" : {
		"windSpeed" : 0.7,
		"windDir" : 245,
		"rain" : 0,
		"cloudbase" : 2900,
		"flyability" : -50,
		"reason" : "orientationsUnknown",
		"timestamp" :1555678800
		},
	"2019-04-19T08:00:00-07:00" : {
		"windSpeed" : 1,
		"windDir" : 245,
		"rain" : 1,
		"cloudbase" : null,
		"flyability" : -0,
		"reason" : "orientationsUnknown, rain",
		"timestamp" :1555689600
		},
	"2019-04-19T11:00:00-07:00" : {
		"windSpeed" : 1.3,
		"windDir" : 292,
		"rain" : 1,
		"cloudbase" : 2110.78,
		"flyability" : -0,
		"reason" : "orientationsUnknown, rain",
		"timestamp" :1555700400
		},
	"2019-04-19T14:00:00-07:00" : {
		"windSpeed" : 1.7,
		"windDir" : 291,
		"rain" : 1,
		"cloudbase" : 2351.9,
		"flyability" : -0,
		"reason" : "orientationsUnknown, rain",
		"timestamp" :1555711200
		},
	"2019-04-19T17:00:00-07:00" : {
		"windSpeed" : 2.8,
		"windDir" : 294,
		"rain" : 1,
		"cloudbase" : null,
		"flyability" : -0,
		"reason" : "orientationsUnknown, rain",
		"timestamp" :1555722000
		},
	"2019-04-19T20:00:00-07:00" : {
		"windSpeed" : 1.7,
		"windDir" : 306,
		"rain" : 0,
		"cloudbase" : null,
		"flyability" : -50,
		"reason" : "orientationsUnknown",
		"timestamp" :1555732800
		},
	"2019-04-19T23:00:00-07:00" : {
		"windSpeed" : 1.4,
		"windDir" : 275,
		"rain" : 0,
		"cloudbase" : null,
		"flyability" : -50,
		"reason" : "orientationsUnknown",
		"timestamp" :1555743600
		},
	"2019-04-20T02:00:00-07:00" : {
		"windSpeed" : 1.4,
		"windDir" : 270,
		"rain" : 0,
		"cloudbase" : null,
		"flyability" : -50,
		"reason" : "orientationsUnknown",
		"timestamp" :1555754400
		},
	"2019-04-20T05:00:00-07:00" : {
		"windSpeed" : 1.1,
		"windDir" : 281,
		"rain" : 0,
		"cloudbase" : null,
		"flyability" : -50,
		"reason" : "orientationsUnknown",
		"timestamp" :1555765200
		},
	"2019-04-20T08:00:00-07:00" : {
		"windSpeed" : 1,
		"windDir" : 300,
		"rain" : 0,
		"cloudbase" : 760,
		"flyability" : -0,
		"reason" : "orientationsUnknown, cloudbase",
		"timestamp" :1555776000
		},
	"2019-04-20T11:00:00-07:00" : {
		"windSpeed" : 1.5,
		"windDir" : 9,
		"rain" : 0,
		"cloudbase" : 1450,
		"flyability" : -50,
		"reason" : "orientationsUnknown",
		"timestamp" :1555786800
		},
	"2019-04-20T14:00:00-07:00" : {
		"windSpeed" : 1.7,
		"windDir" : 76,
		"rain" : 0,
		"cloudbase" : null,
		"flyability" : -50,
		"reason" : "orientationsUnknown",
		"timestamp" :1555797600
		},
	"2019-04-20T17:00:00-07:00" : {
		"windSpeed" : 1.5,
		"windDir" : 112,
		"rain" : 0,
		"cloudbase" : null,
		"flyability" : -50,
		"reason" : "orientationsUnknown",
		"timestamp" :1555808400
		},
	"2019-04-20T20:00:00-07:00" : {
		"windSpeed" : 0.3,
		"windDir" : 191,
		"rain" : 0,
		"cloudbase" : 8579.36,
		"flyability" : -50,
		"reason" : "orientationsUnknown",
		"timestamp" :1555819200
		},
	"2019-04-20T23:00:00-07:00" : {
		"windSpeed" : 0.6,
		"windDir" : 238,
		"rain" : 0,
		"cloudbase" : 7154.6,
		"flyability" : -50,
		"reason" : "orientationsUnknown",
		"timestamp" :1555830000
		},
	"2019-04-21T02:00:00-07:00" : {
		"windSpeed" : 0.7,
		"windDir" : 233,
		"rain" : 1,
		"cloudbase" : 5105.4,
		"flyability" : -0,
		"reason" : "orientationsUnknown, rain",
		"timestamp" :1555840800
		},
	"2019-04-21T05:00:00-07:00" : {
		"windSpeed" : 0.7,
		"windDir" : 238,
		"rain" : 0,
		"cloudbase" : 4457.46,
		"flyability" : -50,
		"reason" : "orientationsUnknown",
		"timestamp" :1555851600
		},
	"2019-04-21T08:00:00-07:00" : {
		"windSpeed" : 0.6,
		"windDir" : 268,
		"rain" : 0,
		"cloudbase" : 3802.38,
		"flyability" : -50,
		"reason" : "orientationsUnknown",
		"timestamp" :1555862400
		},
	"2019-04-21T11:00:00-07:00" : {
		"windSpeed" : 0.6,
		"windDir" : 85,
		"rain" : 0,
		"cloudbase" : 8814.28,
		"flyability" : -50,
		"reason" : "orientationsUnknown",
		"timestamp" :1555873200
		},
	"2019-04-21T14:00:00-07:00" : {
		"windSpeed" : 0.4,
		"windDir" : 201,
		"rain" : 1,
		"cloudbase" : 2281.74,
		"flyability" : -0,
		"reason" : "orientationsUnknown, rain",
		"timestamp" :1555884000
		},
	"2019-04-21T17:00:00-07:00" : {
		"windSpeed" : 0.6,
		"windDir" : 332,
		"rain" : 1,
		"cloudbase" : 5774.92,
		"flyability" : -0,
		"reason" : "orientationsUnknown, rain",
		"timestamp" :1555894800
		},
	"2019-04-21T20:00:00-07:00" : {
		"windSpeed" : 1.4,
		"windDir" : 293,
		"rain" : 0,
		"cloudbase" : 7020.32,
		"flyability" : -50,
		"reason" : "orientationsUnknown",
		"timestamp" :1555905600
		},
	"2019-04-21T23:00:00-07:00" : {
		"windSpeed" : 1.1,
		"windDir" : 275,
		"rain" : 0,
		"cloudbase" : 4700,
		"flyability" : -50,
		"reason" : "orientationsUnknown",
		"timestamp" :1555916400
		},
	"2019-04-22T02:00:00-07:00" : {
		"windSpeed" : 1.6,
		"windDir" : 259,
		"rain" : 0,
		"cloudbase" : 6746.32,
		"flyability" : -50,
		"reason" : "orientationsUnknown",
		"timestamp" :1555927200
		},
	"2019-04-22T05:00:00-07:00" : {
		"windSpeed" : 1.3,
		"windDir" : 257,
		"rain" : 0,
		"cloudbase" : 2914.6,
		"flyability" : -50,
		"reason" : "orientationsUnknown",
		"timestamp" :1555938000
		},
	"2019-04-22T08:00:00-07:00" : {
		"windSpeed" : 1,
		"windDir" : 191,
		"rain" : 1,
		"cloudbase" : 6800.32,
		"flyability" : -0,
		"reason" : "orientationsUnknown, rain",
		"timestamp" :1555948800
		},
	"2019-04-22T11:00:00-07:00" : {
		"windSpeed" : 1.7,
		"windDir" : 142,
		"rain" : 1,
		"cloudbase" : 1394.9199999999,
		"flyability" : -0,
		"reason" : "orientationsUnknown, rain",
		"timestamp" :1555959600
		},
	"2019-04-22T14:00:00-07:00" : {
		"windSpeed" : 1.6,
		"windDir" : 210,
		"rain" : 1,
		"cloudbase" : 1572.54,
		"flyability" : -0,
		"reason" : "orientationsUnknown, rain",
		"timestamp" :1555970400
		},
	"2019-04-22T17:00:00-07:00" : {
		"windSpeed" : 1.4,
		"windDir" : 253,
		"rain" : 1,
		"cloudbase" : null,
		"flyability" : -0,
		"reason" : "orientationsUnknown, rain",
		"timestamp" :1555981200
		}
	}
}