{
"site" : "Western Hills",
"id" : 21868,
"orientations" : "00000000",
"forecasts" : { 
	"2019-04-20T03:00:00Z" : {
		"windSpeed" : 1.6,
		"windDir" : 268,
		"rain" : 0,
		"cloudbase" : 11500,
		"flyability" : -50,
		"reason" : "orientationsUnknown",
		"timestamp" :1555729200
		},
	"2019-04-20T06:00:00Z" : {
		"windSpeed" : 2,
		"windDir" : 288,
		"rain" : 0,
		"cloudbase" : null,
		"flyability" : -50,
		"reason" : "orientationsUnknown",
		"timestamp" :1555740000
		},
	"2019-04-20T09:00:00Z" : {
		"windSpeed" : 2.3,
		"windDir" : 249,
		"rain" : 0,
		"cloudbase" : null,
		"flyability" : -50,
		"reason" : "orientationsUnknown",
		"timestamp" :1555750800
		},
	"2019-04-20T12:00:00Z" : {
		"windSpeed" : 3.9,
		"windDir" : 187,
		"rain" : 0,
		"cloudbase" : null,
		"flyability" : -50,
		"reason" : "orientationsUnknown",
		"timestamp" :1555761600
		},
	"2019-04-20T15:00:00Z" : {
		"windSpeed" : 4.6,
		"windDir" : 196,
		"rain" : 0,
		"cloudbase" : 15500,
		"flyability" : -50,
		"reason" : "orientationsUnknown",
		"timestamp" :1555772400
		},
	"2019-04-20T18:00:00Z" : {
		"windSpeed" : 3.9,
		"windDir" : 209,
		"rain" : 1,
		"cloudbase" : null,
		"flyability" : -0,
		"reason" : "orientationsUnknown, rain",
		"timestamp" :1555783200
		},
	"2019-04-20T21:00:00Z" : {
		"windSpeed" : 2.6,
		"windDir" : 221,
		"rain" : 0,
		"cloudbase" : 13500,
		"flyability" : -50,
		"reason" : "orientationsUnknown",
		"timestamp" :1555794000
		},
	"2019-04-21T00:00:00Z" : {
		"windSpeed" : 2,
		"windDir" : 280,
		"rain" : 0,
		"cloudbase" : 11383.58,
		"flyability" : -50,
		"reason" : "orientationsUnknown",
		"timestamp" :1555804800
		},
	"2019-04-21T03:00:00Z" : {
		"windSpeed" : 1.7,
		"windDir" : 287,
		"rain" : 0,
		"cloudbase" : 12000,
		"flyability" : -50,
		"reason" : "orientationsUnknown",
		"timestamp" :1555815600
		},
	"2019-04-21T06:00:00Z" : {
		"windSpeed" : 2.7,
		"windDir" : 306,
		"rain" : 0,
		"cloudbase" : null,
		"flyability" : -50,
		"reason" : "orientationsUnknown",
		"timestamp" :1555826400
		},
	"2019-04-21T09:00:00Z" : {
		"windSpeed" : 2.4,
		"windDir" : 275,
		"rain" : 0,
		"cloudbase" : null,
		"flyability" : -50,
		"reason" : "orientationsUnknown",
		"timestamp" :1555837200
		},
	"2019-04-21T12:00:00Z" : {
		"windSpeed" : 2.4,
		"windDir" : 212,
		"rain" : 1,
		"cloudbase" : null,
		"flyability" : -0,
		"reason" : "orientationsUnknown, rain",
		"timestamp" :1555848000
		},
	"2019-04-21T15:00:00Z" : {
		"windSpeed" : 4.1,
		"windDir" : 208,
		"rain" : 0,
		"cloudbase" : null,
		"flyability" : -50,
		"reason" : "orientationsUnknown",
		"timestamp" :1555858800
		},
	"2019-04-21T18:00:00Z" : {
		"windSpeed" : 3.8,
		"windDir" : 204,
		"rain" : 0,
		"cloudbase" : 17500,
		"flyability" : -50,
		"reason" : "orientationsUnknown",
		"timestamp" :1555869600
		},
	"2019-04-21T21:00:00Z" : {
		"windSpeed" : 3,
		"windDir" : 218,
		"rain" : 0,
		"cloudbase" : 17500,
		"flyability" : -50,
		"reason" : "orientationsUnknown",
		"timestamp" :1555880400
		},
	"2019-04-22T00:00:00Z" : {
		"windSpeed" : 2.7,
		"windDir" : 234,
		"rain" : 0,
		"cloudbase" : null,
		"flyability" : -50,
		"reason" : "orientationsUnknown",
		"timestamp" :1555891200
		},
	"2019-04-22T03:00:00Z" : {
		"windSpeed" : 2.3,
		"windDir" : 273,
		"rain" : 1,
		"cloudbase" : null,
		"flyability" : -0,
		"reason" : "orientationsUnknown, rain",
		"timestamp" :1555902000
		},
	"2019-04-22T06:00:00Z" : {
		"windSpeed" : 2,
		"windDir" : 286,
		"rain" : 0,
		"cloudbase" : null,
		"flyability" : -50,
		"reason" : "orientationsUnknown",
		"timestamp" :1555912800
		},
	"2019-04-22T09:00:00Z" : {
		"windSpeed" : 3.2,
		"windDir" : 234,
		"rain" : 0,
		"cloudbase" : null,
		"flyability" : -50,
		"reason" : "orientationsUnknown",
		"timestamp" :1555923600
		},
	"2019-04-22T12:00:00Z" : {
		"windSpeed" : 4.1,
		"windDir" : 201,
		"rain" : 1,
		"cloudbase" : 16500,
		"flyability" : -0,
		"reason" : "orientationsUnknown, rain",
		"timestamp" :1555934400
		},
	"2019-04-22T15:00:00Z" : {
		"windSpeed" : 5.3,
		"windDir" : 206,
		"rain" : 0,
		"cloudbase" : 12547.138458,
		"flyability" : -0,
		"reason" : "windSpeed, orientationsUnknown",
		"timestamp" :1555945200
		},
	"2019-04-22T18:00:00Z" : {
		"windSpeed" : 3.8,
		"windDir" : 219,
		"rain" : 0,
		"cloudbase" : 13702.45,
		"flyability" : -50,
		"reason" : "orientationsUnknown",
		"timestamp" :1555956000
		},
	"2019-04-22T21:00:00Z" : {
		"windSpeed" : 3.1,
		"windDir" : 251,
		"rain" : 0,
		"cloudbase" : 11702.45,
		"flyability" : -50,
		"reason" : "orientationsUnknown",
		"timestamp" :1555966800
		},
	"2019-04-23T00:00:00Z" : {
		"windSpeed" : 2.6,
		"windDir" : 248,
		"rain" : 1,
		"cloudbase" : 11547.138458,
		"flyability" : -0,
		"reason" : "orientationsUnknown, rain",
		"timestamp" :1555977600
		},
	"2019-04-23T03:00:00Z" : {
		"windSpeed" : 3,
		"windDir" : 280,
		"rain" : 0,
		"cloudbase" : 13500,
		"flyability" : -50,
		"reason" : "orientationsUnknown",
		"timestamp" :1555988400
		},
	"2019-04-23T06:00:00Z" : {
		"windSpeed" : 2.7,
		"windDir" : 287,
		"rain" : 0,
		"cloudbase" : 12019.1691876,
		"flyability" : -50,
		"reason" : "orientationsUnknown",
		"timestamp" :1555999200
		},
	"2019-04-23T09:00:00Z" : {
		"windSpeed" : 3,
		"windDir" : 274,
		"rain" : 0,
		"cloudbase" : 13819.693084,
		"flyability" : -50,
		"reason" : "orientationsUnknown",
		"timestamp" :1556010000
		},
	"2019-04-23T12:00:00Z" : {
		"windSpeed" : 3.3,
		"windDir" : 207,
		"rain" : 0,
		"cloudbase" : 10684.297760599,
		"flyability" : -50,
		"reason" : "orientationsUnknown",
		"timestamp" :1556020800
		},
	"2019-04-23T15:00:00Z" : {
		"windSpeed" : 5.5,
		"windDir" : 204,
		"rain" : 0,
		"cloudbase" : 10450.861261201,
		"flyability" : -0,
		"reason" : "windSpeed, orientationsUnknown",
		"timestamp" :1556031600
		},
	"2019-04-23T18:00:00Z" : {
		"windSpeed" : 4.4,
		"windDir" : 219,
		"rain" : 1,
		"cloudbase" : 12142.238458,
		"flyability" : -0,
		"reason" : "orientationsUnknown, rain",
		"timestamp" :1556042400
		},
	"2019-04-23T21:00:00Z" : {
		"windSpeed" : 3.3,
		"windDir" : 225,
		"rain" : 0,
		"cloudbase" : 10408.575374,
		"flyability" : -50,
		"reason" : "orientationsUnknown",
		"timestamp" :1556053200
		},
	"2019-04-24T00:00:00Z" : {
		"windSpeed" : 2.3,
		"windDir" : 263,
		"rain" : 0,
		"cloudbase" : 8610.5066168,
		"flyability" : -50,
		"reason" : "orientationsUnknown",
		"timestamp" :1556064000
		},
	"2019-04-24T03:00:00Z" : {
		"windSpeed" : 2.3,
		"windDir" : 283,
		"rain" : 0,
		"cloudbase" : 8689.6070748,
		"flyability" : -50,
		"reason" : "orientationsUnknown",
		"timestamp" :1556074800
		},
	"2019-04-24T06:00:00Z" : {
		"windSpeed" : 2,
		"windDir" : 314,
		"rain" : 1,
		"cloudbase" : null,
		"flyability" : -0,
		"reason" : "orientationsUnknown, rain",
		"timestamp" :1556085600
		},
	"2019-04-24T09:00:00Z" : {
		"windSpeed" : 2.6,
		"windDir" : 268,
		"rain" : 0,
		"cloudbase" : null,
		"flyability" : -50,
		"reason" : "orientationsUnknown",
		"timestamp" :1556096400
		},
	"2019-04-24T12:00:00Z" : {
		"windSpeed" : 3.6,
		"windDir" : 203,
		"rain" : 1,
		"cloudbase" : 14000,
		"flyability" : -0,
		"reason" : "orientationsUnknown, rain",
		"timestamp" :1556107200
		},
	"2019-04-24T15:00:00Z" : {
		"windSpeed" : 4.3,
		"windDir" : 200,
		"rain" : 0,
		"cloudbase" : 10667.3238044,
		"flyability" : -50,
		"reason" : "orientationsUnknown",
		"timestamp" :1556118000
		},
	"2019-04-24T18:00:00Z" : {
		"windSpeed" : 3.3,
		"windDir" : 211,
		"rain" : 0,
		"cloudbase" : 3685.3943739997,
		"flyability" : -50,
		"reason" : "orientationsUnknown",
		"timestamp" :1556128800
		},
	"2019-04-24T21:00:00Z" : {
		"windSpeed" : 1.6,
		"windDir" : 235,
		"rain" : 1,
		"cloudbase" : 12569.281542,
		"flyability" : -0,
		"reason" : "orientationsUnknown, rain",
		"timestamp" :1556139600
		},
	"2019-04-25T00:00:00Z" : {
		"windSpeed" : 1.9,
		"windDir" : 255,
		"rain" : 1,
		"cloudbase" : 10202.45,
		"flyability" : -0,
		"reason" : "orientationsUnknown, rain",
		"timestamp" :1556150400
		},
	"2019-04-25T03:00:00Z" : {
		"windSpeed" : 1.6,
		"windDir" : 275,
		"rain" : 0,
		"cloudbase" : 9038.8406168,
		"flyability" : -50,
		"reason" : "orientationsUnknown",
		"timestamp" :1556161200
		},
	"2019-04-25T06:00:00Z" : {
		"windSpeed" : 2.1,
		"windDir" : 284,
		"rain" : 0,
		"cloudbase" : 11466.6361036,
		"flyability" : -50,
		"reason" : "orientationsUnknown",
		"timestamp" :1556172000
		},
	"2019-04-25T09:00:00Z" : {
		"windSpeed" : 1.9,
		"windDir" : 241,
		"rain" : 0,
		"cloudbase" : 4285.9728160407,
		"flyability" : -50,
		"reason" : "orientationsUnknown",
		"timestamp" :1556182800
		},
	"2019-04-25T12:00:00Z" : {
		"windSpeed" : 2.7,
		"windDir" : 190,
		"rain" : 0,
		"cloudbase" : null,
		"flyability" : -50,
		"reason" : "orientationsUnknown",
		"timestamp" :1556193600
		},
	"2019-04-25T15:00:00Z" : {
		"windSpeed" : 3.5,
		"windDir" : 203,
		"rain" : 0,
		"cloudbase" : 12155.311542,
		"flyability" : -50,
		"reason" : "orientationsUnknown",
		"timestamp" :1556204400
		},
	"2019-04-25T18:00:00Z" : {
		"windSpeed" : 2.2,
		"windDir" : 235,
		"rain" : 1,
		"cloudbase" : 11383.7703268,
		"flyability" : -0,
		"reason" : "orientationsUnknown, rain",
		"timestamp" :1556215200
		},
	"2019-04-25T21:00:00Z" : {
		"windSpeed" : 2.5,
		"windDir" : 247,
		"rain" : 1,
		"cloudbase" : 13069.281542,
		"flyability" : -0,
		"reason" : "orientationsUnknown, rain",
		"timestamp" :1556226000
		},
	"2019-04-26T00:00:00Z" : {
		"windSpeed" : 2.6,
		"windDir" : 289,
		"rain" : 0,
		"cloudbase" : 12000,
		"flyability" : -50,
		"reason" : "orientationsUnknown",
		"timestamp" :1556236800
		}
	}
}