{
"site" : "Mond\u00faver",
"id" : 21992,
"orientations" : "00001110",
"forecasts" : { 
	"2019-04-20T17:00:00+02:00" : {
		"windSpeed" : 9.2,
		"windDir" : 41,
		"rain" : 1,
		"cloudbase" : 1875.0514160002,
		"flyability" : 0,
		"reason" : "windSpeed, windDir, rain",
		"timestamp" :1555776000
		},
	"2019-04-20T20:00:00+02:00" : {
		"windSpeed" : 7.8,
		"windDir" : 33,
		"rain" : 1,
		"cloudbase" : 1011.4338191999,
		"flyability" : 0,
		"reason" : "windSpeed, windDir, rain",
		"timestamp" :1555786800
		},
	"2019-04-20T23:00:00+02:00" : {
		"windSpeed" : 8.5,
		"windDir" : 31,
		"rain" : 1,
		"cloudbase" : 1137.342576,
		"flyability" : 0,
		"reason" : "windSpeed, windDir, rain",
		"timestamp" :1555797600
		},
	"2019-04-21T02:00:00+02:00" : {
		"windSpeed" : 7.7,
		"windDir" : 29,
		"rain" : 1,
		"cloudbase" : 933.78615359992,
		"flyability" : 0,
		"reason" : "windSpeed, windDir, rain",
		"timestamp" :1555808400
		},
	"2019-04-21T05:00:00+02:00" : {
		"windSpeed" : 8.6,
		"windDir" : 29,
		"rain" : 1,
		"cloudbase" : 1531.043392,
		"flyability" : 0,
		"reason" : "windSpeed, windDir, rain",
		"timestamp" :1555819200
		},
	"2019-04-21T08:00:00+02:00" : {
		"windSpeed" : 7,
		"windDir" : 38,
		"rain" : 1,
		"cloudbase" : 1043.0226975999,
		"flyability" : 0,
		"reason" : "windSpeed, windDir, rain",
		"timestamp" :1555830000
		},
	"2019-04-21T11:00:00+02:00" : {
		"windSpeed" : 8.4,
		"windDir" : 39,
		"rain" : 1,
		"cloudbase" : 643.89519999997,
		"flyability" : 0,
		"reason" : "windSpeed, windDir, rain, cloudbase",
		"timestamp" :1555840800
		},
	"2019-04-21T14:00:00+02:00" : {
		"windSpeed" : 7.5,
		"windDir" : 36,
		"rain" : 1,
		"cloudbase" : 295.89435199998,
		"flyability" : 0,
		"reason" : "windSpeed, windDir, rain, cloudbase",
		"timestamp" :1555851600
		},
	"2019-04-21T17:00:00+02:00" : {
		"windSpeed" : 8,
		"windDir" : 27,
		"rain" : 1,
		"cloudbase" : 450.5590848,
		"flyability" : 0,
		"reason" : "windSpeed, windDir, rain, cloudbase",
		"timestamp" :1555862400
		},
	"2019-04-21T20:00:00+02:00" : {
		"windSpeed" : 9.2,
		"windDir" : 29,
		"rain" : 0,
		"cloudbase" : 915.8750911999,
		"flyability" : 0,
		"reason" : "windSpeed, windDir",
		"timestamp" :1555873200
		},
	"2019-04-21T23:00:00+02:00" : {
		"windSpeed" : 7.9,
		"windDir" : 17,
		"rain" : 1,
		"cloudbase" : 448.08008479991,
		"flyability" : 0,
		"reason" : "windSpeed, windDir, rain, cloudbase",
		"timestamp" :1555884000
		},
	"2019-04-22T02:00:00+02:00" : {
		"windSpeed" : 7.9,
		"windDir" : 11,
		"rain" : 1,
		"cloudbase" : 524.8372751999,
		"flyability" : 0,
		"reason" : "windSpeed, windDir, rain, cloudbase",
		"timestamp" :1555894800
		},
	"2019-04-22T05:00:00+02:00" : {
		"windSpeed" : 7.8,
		"windDir" : 4,
		"rain" : 1,
		"cloudbase" : 547.5218912,
		"flyability" : 0,
		"reason" : "windSpeed, windDir, rain, cloudbase",
		"timestamp" :1555905600
		},
	"2019-04-22T08:00:00+02:00" : {
		"windSpeed" : 7.3,
		"windDir" : 357,
		"rain" : 1,
		"cloudbase" : 702.35223039997,
		"flyability" : 0,
		"reason" : "windSpeed, windDir, rain, cloudbase",
		"timestamp" :1555916400
		},
	"2019-04-22T11:00:00+02:00" : {
		"windSpeed" : 5.9,
		"windDir" : 340,
		"rain" : 1,
		"cloudbase" : 879.31406079999,
		"flyability" : 0,
		"reason" : "windSpeed, windDir, rain",
		"timestamp" :1555927200
		},
	"2019-04-22T14:00:00+02:00" : {
		"windSpeed" : 5.3,
		"windDir" : 322,
		"rain" : 1,
		"cloudbase" : 721.07406079999,
		"flyability" : 0,
		"reason" : "windSpeed, windDir, rain, cloudbase",
		"timestamp" :1555938000
		},
	"2019-04-22T17:00:00+02:00" : {
		"windSpeed" : 4.4,
		"windDir" : 295,
		"rain" : 0,
		"cloudbase" : 812.39726080001,
		"flyability" : 0,
		"reason" : "windDir, cloudbase",
		"timestamp" :1555948800
		},
	"2019-04-22T20:00:00+02:00" : {
		"windSpeed" : 3.2,
		"windDir" : 299,
		"rain" : 1,
		"cloudbase" : 818.34669120002,
		"flyability" : 0,
		"reason" : "windDir, rain, cloudbase",
		"timestamp" :1555959600
		},
	"2019-04-22T23:00:00+02:00" : {
		"windSpeed" : 2.5,
		"windDir" : 318,
		"rain" : 1,
		"cloudbase" : 931.72599999999,
		"flyability" : 0,
		"reason" : "windDir, rain",
		"timestamp" :1555970400
		},
	"2019-04-23T02:00:00+02:00" : {
		"windSpeed" : 1,
		"windDir" : 240,
		"rain" : 1,
		"cloudbase" : 2300,
		"flyability" : 0,
		"reason" : "rain",
		"timestamp" :1555981200
		},
	"2019-04-23T05:00:00+02:00" : {
		"windSpeed" : 1.6,
		"windDir" : 210,
		"rain" : 1,
		"cloudbase" : 5500,
		"flyability" : 0,
		"reason" : "rain",
		"timestamp" :1555992000
		},
	"2019-04-23T08:00:00+02:00" : {
		"windSpeed" : 2.3,
		"windDir" : 242,
		"rain" : 1,
		"cloudbase" : 8251.246,
		"flyability" : 0,
		"reason" : "rain",
		"timestamp" :1556002800
		},
	"2019-04-23T11:00:00+02:00" : {
		"windSpeed" : 3.3,
		"windDir" : 245,
		"rain" : 0,
		"cloudbase" : 3566.5192399999,
		"flyability" : 100,
		"reason" : "",
		"timestamp" :1556013600
		},
	"2019-04-23T14:00:00+02:00" : {
		"windSpeed" : 2.9,
		"windDir" : 228,
		"rain" : 0,
		"cloudbase" : null,
		"flyability" : 100,
		"reason" : "",
		"timestamp" :1556024400
		},
	"2019-04-23T17:00:00+02:00" : {
		"windSpeed" : 2.6,
		"windDir" : 263,
		"rain" : 1,
		"cloudbase" : 4938.864272,
		"flyability" : 0,
		"reason" : "rain",
		"timestamp" :1556035200
		},
	"2019-04-23T20:00:00+02:00" : {
		"windSpeed" : 2.5,
		"windDir" : 276,
		"rain" : 1,
		"cloudbase" : 4010.239152,
		"flyability" : 0,
		"reason" : "rain",
		"timestamp" :1556046000
		},
	"2019-04-23T23:00:00+02:00" : {
		"windSpeed" : 3.6,
		"windDir" : 256,
		"rain" : 1,
		"cloudbase" : 5800,
		"flyability" : 0,
		"reason" : "rain",
		"timestamp" :1556056800
		},
	"2019-04-24T02:00:00+02:00" : {
		"windSpeed" : 4.1,
		"windDir" : 243,
		"rain" : 0,
		"cloudbase" : null,
		"flyability" : 100,
		"reason" : "",
		"timestamp" :1556067600
		},
	"2019-04-24T05:00:00+02:00" : {
		"windSpeed" : 3.6,
		"windDir" : 248,
		"rain" : 0,
		"cloudbase" : 4754.4,
		"flyability" : 100,
		"reason" : "",
		"timestamp" :1556078400
		},
	"2019-04-24T08:00:00+02:00" : {
		"windSpeed" : 3,
		"windDir" : 239,
		"rain" : 1,
		"cloudbase" : 7300,
		"flyability" : 0,
		"reason" : "rain",
		"timestamp" :1556089200
		},
	"2019-04-24T11:00:00+02:00" : {
		"windSpeed" : 4.4,
		"windDir" : 246,
		"rain" : 1,
		"cloudbase" : null,
		"flyability" : 0,
		"reason" : "rain",
		"timestamp" :1556100000
		},
	"2019-04-24T14:00:00+02:00" : {
		"windSpeed" : 5.9,
		"windDir" : 245,
		"rain" : 1,
		"cloudbase" : null,
		"flyability" : 0,
		"reason" : "windSpeed, rain",
		"timestamp" :1556110800
		},
	"2019-04-24T17:00:00+02:00" : {
		"windSpeed" : 5.3,
		"windDir" : 252,
		"rain" : 1,
		"cloudbase" : 2705.646,
		"flyability" : 0,
		"reason" : "windSpeed, rain",
		"timestamp" :1556121600
		},
	"2019-04-24T20:00:00+02:00" : {
		"windSpeed" : 3.5,
		"windDir" : 192,
		"rain" : 1,
		"cloudbase" : null,
		"flyability" : 0,
		"reason" : "rain",
		"timestamp" :1556132400
		},
	"2019-04-24T23:00:00+02:00" : {
		"windSpeed" : 3.1,
		"windDir" : 192,
		"rain" : 0,
		"cloudbase" : null,
		"flyability" : 100,
		"reason" : "",
		"timestamp" :1556143200
		},
	"2019-04-25T02:00:00+02:00" : {
		"windSpeed" : 3.2,
		"windDir" : 203,
		"rain" : 1,
		"cloudbase" : null,
		"flyability" : 0,
		"reason" : "rain",
		"timestamp" :1556154000
		},
	"2019-04-25T05:00:00+02:00" : {
		"windSpeed" : 1.8,
		"windDir" : 265,
		"rain" : 1,
		"cloudbase" : null,
		"flyability" : 0,
		"reason" : "rain",
		"timestamp" :1556164800
		},
	"2019-04-25T08:00:00+02:00" : {
		"windSpeed" : 4.5,
		"windDir" : 196,
		"rain" : 1,
		"cloudbase" : null,
		"flyability" : 0,
		"reason" : "rain",
		"timestamp" :1556175600
		},
	"2019-04-25T11:00:00+02:00" : {
		"windSpeed" : 4.7,
		"windDir" : 213,
		"rain" : 1,
		"cloudbase" : 2836.2988479999,
		"flyability" : 0,
		"reason" : "rain",
		"timestamp" :1556186400
		},
	"2019-04-25T14:00:00+02:00" : {
		"windSpeed" : 2.9,
		"windDir" : 292,
		"rain" : 1,
		"cloudbase" : 2039.485152,
		"flyability" : 0,
		"reason" : "rain",
		"timestamp" :1556197200
		},
	"2019-04-25T17:00:00+02:00" : {
		"windSpeed" : 3.3,
		"windDir" : 230,
		"rain" : 1,
		"cloudbase" : 2108.524304,
		"flyability" : 0,
		"reason" : "rain",
		"timestamp" :1556208000
		},
	"2019-04-25T20:00:00+02:00" : {
		"windSpeed" : 2.4,
		"windDir" : 266,
		"rain" : 1,
		"cloudbase" : null,
		"flyability" : 0,
		"reason" : "rain",
		"timestamp" :1556218800
		},
	"2019-04-25T23:00:00+02:00" : {
		"windSpeed" : 2.8,
		"windDir" : 273,
		"rain" : 0,
		"cloudbase" : null,
		"flyability" : 100,
		"reason" : "",
		"timestamp" :1556229600
		},
	"2019-04-26T02:00:00+02:00" : {
		"windSpeed" : 3.6,
		"windDir" : 257,
		"rain" : 1,
		"cloudbase" : null,
		"flyability" : 0,
		"reason" : "rain",
		"timestamp" :1556240400
		},
	"2019-04-26T05:00:00+02:00" : {
		"windSpeed" : 4.7,
		"windDir" : 266,
		"rain" : 1,
		"cloudbase" : null,
		"flyability" : 0,
		"reason" : "rain",
		"timestamp" :1556251200
		},
	"2019-04-26T08:00:00+02:00" : {
		"windSpeed" : 4.7,
		"windDir" : 264,
		"rain" : 1,
		"cloudbase" : null,
		"flyability" : 0,
		"reason" : "rain",
		"timestamp" :1556262000
		},
	"2019-04-26T11:00:00+02:00" : {
		"windSpeed" : 5.3,
		"windDir" : 268,
		"rain" : 0,
		"cloudbase" : null,
		"flyability" : 0,
		"reason" : "windSpeed",
		"timestamp" :1556272800
		},
	"2019-04-26T14:00:00+02:00" : {
		"windSpeed" : 2.1,
		"windDir" : 284,
		"rain" : 1,
		"cloudbase" : null,
		"flyability" : 0,
		"reason" : "rain",
		"timestamp" :1556283600
		}
	}
}