{
"site" : "niroye-havaei",
"id" : 22004,
"orientations" : "00000000",
"forecasts" : { 
	"2019-04-06T07:30:00+04:30" : {
		"windSpeed" : 3.4,
		"windDir" : 289,
		"rain" : 0,
		"cloudbase" : null,
		"flyability" : 0,
		"reason" : "orientationsUnknown",
		"timestamp" :1554516000
		},
	"2019-04-06T10:30:00+04:30" : {
		"windSpeed" : 2.2,
		"windDir" : 282,
		"rain" : 0,
		"cloudbase" : 11430,
		"flyability" : 0,
		"reason" : "orientationsUnknown",
		"timestamp" :1554526800
		},
	"2019-04-06T13:30:00+04:30" : {
		"windSpeed" : 7.2,
		"windDir" : 229,
		"rain" : 0,
		"cloudbase" : 11500,
		"flyability" : 0,
		"reason" : "windSpeed, orientationsUnknown",
		"timestamp" :1554537600
		},
	"2019-04-06T16:30:00+04:30" : {
		"windSpeed" : 8.5,
		"windDir" : 242,
		"rain" : 0,
		"cloudbase" : 10886.8,
		"flyability" : 0,
		"reason" : "windSpeed, orientationsUnknown",
		"timestamp" :1554548400
		},
	"2019-04-06T19:30:00+04:30" : {
		"windSpeed" : 7.6,
		"windDir" : 262,
		"rain" : 0,
		"cloudbase" : 11000,
		"flyability" : 0,
		"reason" : "windSpeed, orientationsUnknown",
		"timestamp" :1554559200
		},
	"2019-04-06T22:30:00+04:30" : {
		"windSpeed" : 5.2,
		"windDir" : 275,
		"rain" : 0,
		"cloudbase" : 11000,
		"flyability" : 0,
		"reason" : "windSpeed, orientationsUnknown",
		"timestamp" :1554570000
		},
	"2019-04-07T01:30:00+04:30" : {
		"windSpeed" : 3.7,
		"windDir" : 264,
		"rain" : 0,
		"cloudbase" : 11000,
		"flyability" : 0,
		"reason" : "orientationsUnknown",
		"timestamp" :1554580800
		},
	"2019-04-07T04:30:00+04:30" : {
		"windSpeed" : 5.1,
		"windDir" : 246,
		"rain" : 0,
		"cloudbase" : 11000,
		"flyability" : 0,
		"reason" : "windSpeed, orientationsUnknown",
		"timestamp" :1554591600
		},
	"2019-04-07T07:30:00+04:30" : {
		"windSpeed" : 2.5,
		"windDir" : 294,
		"rain" : 0,
		"cloudbase" : 11000,
		"flyability" : 0,
		"reason" : "orientationsUnknown",
		"timestamp" :1554602400
		},
	"2019-04-07T10:30:00+04:30" : {
		"windSpeed" : 3.5,
		"windDir" : 263,
		"rain" : 0,
		"cloudbase" : 10930,
		"flyability" : 0,
		"reason" : "orientationsUnknown",
		"timestamp" :1554613200
		},
	"2019-04-07T13:30:00+04:30" : {
		"windSpeed" : 7.3,
		"windDir" : 233,
		"rain" : 0,
		"cloudbase" : 11000,
		"flyability" : 0,
		"reason" : "windSpeed, orientationsUnknown",
		"timestamp" :1554624000
		},
	"2019-04-07T16:30:00+04:30" : {
		"windSpeed" : 9.2,
		"windDir" : 234,
		"rain" : 0,
		"cloudbase" : 10500,
		"flyability" : 0,
		"reason" : "windSpeed, orientationsUnknown",
		"timestamp" :1554634800
		},
	"2019-04-07T19:30:00+04:30" : {
		"windSpeed" : 7.3,
		"windDir" : 253,
		"rain" : 0,
		"cloudbase" : 10500,
		"flyability" : 0,
		"reason" : "windSpeed, orientationsUnknown",
		"timestamp" :1554645600
		},
	"2019-04-07T22:30:00+04:30" : {
		"windSpeed" : 4.8,
		"windDir" : 283,
		"rain" : 0,
		"cloudbase" : 10500,
		"flyability" : 0,
		"reason" : "orientationsUnknown",
		"timestamp" :1554656400
		},
	"2019-04-08T01:30:00+04:30" : {
		"windSpeed" : 4,
		"windDir" : 243,
		"rain" : 0,
		"cloudbase" : null,
		"flyability" : 0,
		"reason" : "orientationsUnknown",
		"timestamp" :1554667200
		},
	"2019-04-08T04:30:00+04:30" : {
		"windSpeed" : 4.2,
		"windDir" : 285,
		"rain" : 0,
		"cloudbase" : null,
		"flyability" : 0,
		"reason" : "orientationsUnknown",
		"timestamp" :1554678000
		},
	"2019-04-08T07:30:00+04:30" : {
		"windSpeed" : 2.1,
		"windDir" : 285,
		"rain" : 0,
		"cloudbase" : null,
		"flyability" : 0,
		"reason" : "orientationsUnknown",
		"timestamp" :1554688800
		},
	"2019-04-08T10:30:00+04:30" : {
		"windSpeed" : 1.6,
		"windDir" : 203,
		"rain" : 0,
		"cloudbase" : null,
		"flyability" : 0,
		"reason" : "orientationsUnknown",
		"timestamp" :1554699600
		},
	"2019-04-08T13:30:00+04:30" : {
		"windSpeed" : 5.9,
		"windDir" : 215,
		"rain" : 0,
		"cloudbase" : null,
		"flyability" : 0,
		"reason" : "windSpeed, orientationsUnknown",
		"timestamp" :1554710400
		},
	"2019-04-08T16:30:00+04:30" : {
		"windSpeed" : 7.6,
		"windDir" : 230,
		"rain" : 0,
		"cloudbase" : 11500,
		"flyability" : 0,
		"reason" : "windSpeed, orientationsUnknown",
		"timestamp" :1554721200
		},
	"2019-04-08T19:30:00+04:30" : {
		"windSpeed" : 7.2,
		"windDir" : 254,
		"rain" : 0,
		"cloudbase" : 7715.1200000002,
		"flyability" : 0,
		"reason" : "windSpeed, orientationsUnknown",
		"timestamp" :1554732000
		},
	"2019-04-08T22:30:00+04:30" : {
		"windSpeed" : 3.7,
		"windDir" : 279,
		"rain" : 0,
		"cloudbase" : 9969.04,
		"flyability" : 0,
		"reason" : "orientationsUnknown",
		"timestamp" :1554742800
		},
	"2019-04-09T01:30:00+04:30" : {
		"windSpeed" : 2.6,
		"windDir" : 237,
		"rain" : 0,
		"cloudbase" : 9201.68,
		"flyability" : 0,
		"reason" : "orientationsUnknown",
		"timestamp" :1554753600
		},
	"2019-04-09T04:30:00+04:30" : {
		"windSpeed" : 3.7,
		"windDir" : 260,
		"rain" : 0,
		"cloudbase" : 9976,
		"flyability" : 0,
		"reason" : "orientationsUnknown",
		"timestamp" :1554764400
		},
	"2019-04-09T07:30:00+04:30" : {
		"windSpeed" : 3,
		"windDir" : 242,
		"rain" : 0,
		"cloudbase" : 10667.28,
		"flyability" : 0,
		"reason" : "orientationsUnknown",
		"timestamp" :1554775200
		},
	"2019-04-09T10:30:00+04:30" : {
		"windSpeed" : 2.7,
		"windDir" : 247,
		"rain" : 0,
		"cloudbase" : 10500,
		"flyability" : 0,
		"reason" : "orientationsUnknown",
		"timestamp" :1554786000
		},
	"2019-04-09T13:30:00+04:30" : {
		"windSpeed" : 5.2,
		"windDir" : 222,
		"rain" : 0,
		"cloudbase" : 9641.92,
		"flyability" : 0,
		"reason" : "windSpeed, orientationsUnknown",
		"timestamp" :1554796800
		},
	"2019-04-09T16:30:00+04:30" : {
		"windSpeed" : 4.8,
		"windDir" : 216,
		"rain" : 0,
		"cloudbase" : 11000,
		"flyability" : 0,
		"reason" : "orientationsUnknown",
		"timestamp" :1554807600
		},
	"2019-04-09T19:30:00+04:30" : {
		"windSpeed" : 3.2,
		"windDir" : 231,
		"rain" : 0,
		"cloudbase" : 10500,
		"flyability" : 0,
		"reason" : "orientationsUnknown",
		"timestamp" :1554818400
		},
	"2019-04-09T22:30:00+04:30" : {
		"windSpeed" : 1.9,
		"windDir" : 236,
		"rain" : 0,
		"cloudbase" : 9548.64,
		"flyability" : 0,
		"reason" : "orientationsUnknown",
		"timestamp" :1554829200
		},
	"2019-04-10T01:30:00+04:30" : {
		"windSpeed" : 2.6,
		"windDir" : 270,
		"rain" : 0,
		"cloudbase" : 8800,
		"flyability" : 0,
		"reason" : "orientationsUnknown",
		"timestamp" :1554840000
		},
	"2019-04-10T04:30:00+04:30" : {
		"windSpeed" : 2.2,
		"windDir" : 312,
		"rain" : 0,
		"cloudbase" : 10000,
		"flyability" : 0,
		"reason" : "orientationsUnknown",
		"timestamp" :1554850800
		},
	"2019-04-10T07:30:00+04:30" : {
		"windSpeed" : 1.2,
		"windDir" : 294,
		"rain" : 0,
		"cloudbase" : null,
		"flyability" : 0,
		"reason" : "orientationsUnknown",
		"timestamp" :1554861600
		},
	"2019-04-10T10:30:00+04:30" : {
		"windSpeed" : 2.3,
		"windDir" : 207,
		"rain" : 0,
		"cloudbase" : null,
		"flyability" : 0,
		"reason" : "orientationsUnknown",
		"timestamp" :1554872400
		},
	"2019-04-10T13:30:00+04:30" : {
		"windSpeed" : 5.5,
		"windDir" : 218,
		"rain" : 0,
		"cloudbase" : null,
		"flyability" : 0,
		"reason" : "windSpeed, orientationsUnknown",
		"timestamp" :1554883200
		},
	"2019-04-10T16:30:00+04:30" : {
		"windSpeed" : 6.8,
		"windDir" : 225,
		"rain" : 0,
		"cloudbase" : null,
		"flyability" : 0,
		"reason" : "windSpeed, orientationsUnknown",
		"timestamp" :1554894000
		},
	"2019-04-10T19:30:00+04:30" : {
		"windSpeed" : 5.8,
		"windDir" : 239,
		"rain" : 0,
		"cloudbase" : null,
		"flyability" : 0,
		"reason" : "windSpeed, orientationsUnknown",
		"timestamp" :1554904800
		},
	"2019-04-10T22:30:00+04:30" : {
		"windSpeed" : 5.8,
		"windDir" : 232,
		"rain" : 0,
		"cloudbase" : null,
		"flyability" : 0,
		"reason" : "windSpeed, orientationsUnknown",
		"timestamp" :1554915600
		},
	"2019-04-11T01:30:00+04:30" : {
		"windSpeed" : 3.2,
		"windDir" : 260,
		"rain" : 0,
		"cloudbase" : null,
		"flyability" : 0,
		"reason" : "orientationsUnknown",
		"timestamp" :1554926400
		},
	"2019-04-11T04:30:00+04:30" : {
		"windSpeed" : 0.9,
		"windDir" : 343,
		"rain" : 0,
		"cloudbase" : null,
		"flyability" : 0,
		"reason" : "orientationsUnknown",
		"timestamp" :1554937200
		},
	"2019-04-11T07:30:00+04:30" : {
		"windSpeed" : 1.2,
		"windDir" : 288,
		"rain" : 0,
		"cloudbase" : 6000,
		"flyability" : 0,
		"reason" : "orientationsUnknown",
		"timestamp" :1554948000
		},
	"2019-04-11T10:30:00+04:30" : {
		"windSpeed" : 2.6,
		"windDir" : 249,
		"rain" : 0,
		"cloudbase" : 10000,
		"flyability" : 0,
		"reason" : "orientationsUnknown",
		"timestamp" :1554958800
		},
	"2019-04-11T13:30:00+04:30" : {
		"windSpeed" : 9.2,
		"windDir" : 246,
		"rain" : 0,
		"cloudbase" : 5740,
		"flyability" : 0,
		"reason" : "windSpeed, orientationsUnknown",
		"timestamp" :1554969600
		},
	"2019-04-11T16:30:00+04:30" : {
		"windSpeed" : 9.2,
		"windDir" : 248,
		"rain" : 0,
		"cloudbase" : 6607.4399999999,
		"flyability" : 0,
		"reason" : "windSpeed, orientationsUnknown",
		"timestamp" :1554980400
		},
	"2019-04-11T19:30:00+04:30" : {
		"windSpeed" : 7.7,
		"windDir" : 263,
		"rain" : 0,
		"cloudbase" : 9485.5200000001,
		"flyability" : 0,
		"reason" : "windSpeed, orientationsUnknown",
		"timestamp" :1554991200
		},
	"2019-04-11T22:30:00+04:30" : {
		"windSpeed" : 5.7,
		"windDir" : 269,
		"rain" : 0,
		"cloudbase" : 6384.8800000002,
		"flyability" : 0,
		"reason" : "windSpeed, orientationsUnknown",
		"timestamp" :1555002000
		},
	"2019-04-12T01:30:00+04:30" : {
		"windSpeed" : 5.4,
		"windDir" : 281,
		"rain" : 0,
		"cloudbase" : 9296.64,
		"flyability" : 0,
		"reason" : "windSpeed, orientationsUnknown",
		"timestamp" :1555012800
		},
	"2019-04-12T04:30:00+04:30" : {
		"windSpeed" : 4.1,
		"windDir" : 278,
		"rain" : 0,
		"cloudbase" : 9848.64,
		"flyability" : 0,
		"reason" : "orientationsUnknown",
		"timestamp" :1555023600
		}
	}
}