{
"site" : "\u5802\u5e73\u30b9\u30ab\u30a4\u30d1\u30fc\u30af",
"id" : 22036,
"orientations" : "00000000",
"forecasts" : { 
	"2019-04-13T12:00:00+09:00" : {
		"windSpeed" : 2.5,
		"windDir" : 100,
		"rain" : 0,
		"cloudbase" : null,
		"flyability" : -50,
		"reason" : "orientationsUnknown",
		"timestamp" :1555124400
		},
	"2019-04-13T15:00:00+09:00" : {
		"windSpeed" : 4,
		"windDir" : 119,
		"rain" : 0,
		"cloudbase" : null,
		"flyability" : -50,
		"reason" : "orientationsUnknown",
		"timestamp" :1555135200
		},
	"2019-04-13T18:00:00+09:00" : {
		"windSpeed" : 2.6,
		"windDir" : 158,
		"rain" : 0,
		"cloudbase" : 7579.344,
		"flyability" : -50,
		"reason" : "orientationsUnknown",
		"timestamp" :1555146000
		},
	"2019-04-13T21:00:00+09:00" : {
		"windSpeed" : 2.4,
		"windDir" : 195,
		"rain" : 0,
		"cloudbase" : 6860.144,
		"flyability" : -50,
		"reason" : "orientationsUnknown",
		"timestamp" :1555156800
		},
	"2019-04-14T00:00:00+09:00" : {
		"windSpeed" : 1.4,
		"windDir" : 267,
		"rain" : 0,
		"cloudbase" : 4944.636,
		"flyability" : -50,
		"reason" : "orientationsUnknown",
		"timestamp" :1555167600
		},
	"2019-04-14T03:00:00+09:00" : {
		"windSpeed" : 1.4,
		"windDir" : 268,
		"rain" : 0,
		"cloudbase" : 3854.236,
		"flyability" : -50,
		"reason" : "orientationsUnknown",
		"timestamp" :1555178400
		},
	"2019-04-14T06:00:00+09:00" : {
		"windSpeed" : 1,
		"windDir" : 239,
		"rain" : 0,
		"cloudbase" : 6500,
		"flyability" : -50,
		"reason" : "orientationsUnknown",
		"timestamp" :1555189200
		},
	"2019-04-14T09:00:00+09:00" : {
		"windSpeed" : 1.6,
		"windDir" : 91,
		"rain" : 0,
		"cloudbase" : 8855.672,
		"flyability" : -50,
		"reason" : "orientationsUnknown",
		"timestamp" :1555200000
		},
	"2019-04-14T12:00:00+09:00" : {
		"windSpeed" : 3.3,
		"windDir" : 96,
		"rain" : 0,
		"cloudbase" : 2464.3759999996,
		"flyability" : -50,
		"reason" : "orientationsUnknown",
		"timestamp" :1555210800
		},
	"2019-04-14T15:00:00+09:00" : {
		"windSpeed" : 3.6,
		"windDir" : 208,
		"rain" : 0,
		"cloudbase" : 2789.0800000001,
		"flyability" : -50,
		"reason" : "orientationsUnknown",
		"timestamp" :1555221600
		},
	"2019-04-14T18:00:00+09:00" : {
		"windSpeed" : 3,
		"windDir" : 153,
		"rain" : 0,
		"cloudbase" : 4603.38,
		"flyability" : -50,
		"reason" : "orientationsUnknown",
		"timestamp" :1555232400
		},
	"2019-04-14T21:00:00+09:00" : {
		"windSpeed" : 2.7,
		"windDir" : 172,
		"rain" : 1,
		"cloudbase" : 6067.672,
		"flyability" : -0,
		"reason" : "orientationsUnknown, rain",
		"timestamp" :1555243200
		},
	"2019-04-15T00:00:00+09:00" : {
		"windSpeed" : 1,
		"windDir" : 215,
		"rain" : 1,
		"cloudbase" : 5435.452,
		"flyability" : -0,
		"reason" : "orientationsUnknown, rain",
		"timestamp" :1555254000
		},
	"2019-04-15T03:00:00+09:00" : {
		"windSpeed" : 1.2,
		"windDir" : 251,
		"rain" : 1,
		"cloudbase" : 4736.248,
		"flyability" : -0,
		"reason" : "orientationsUnknown, rain",
		"timestamp" :1555264800
		},
	"2019-04-15T06:00:00+09:00" : {
		"windSpeed" : 2.2,
		"windDir" : 259,
		"rain" : 1,
		"cloudbase" : 7578.472,
		"flyability" : -0,
		"reason" : "orientationsUnknown, rain",
		"timestamp" :1555275600
		},
	"2019-04-15T09:00:00+09:00" : {
		"windSpeed" : 0.7,
		"windDir" : 44,
		"rain" : 0,
		"cloudbase" : null,
		"flyability" : -50,
		"reason" : "orientationsUnknown",
		"timestamp" :1555286400
		},
	"2019-04-15T12:00:00+09:00" : {
		"windSpeed" : 5.5,
		"windDir" : 307,
		"rain" : 0,
		"cloudbase" : null,
		"flyability" : -0,
		"reason" : "windSpeed, orientationsUnknown",
		"timestamp" :1555297200
		},
	"2019-04-15T15:00:00+09:00" : {
		"windSpeed" : 6.5,
		"windDir" : 319,
		"rain" : 0,
		"cloudbase" : null,
		"flyability" : -0,
		"reason" : "windSpeed, orientationsUnknown",
		"timestamp" :1555308000
		},
	"2019-04-15T18:00:00+09:00" : {
		"windSpeed" : 4.1,
		"windDir" : 318,
		"rain" : 0,
		"cloudbase" : null,
		"flyability" : -50,
		"reason" : "orientationsUnknown",
		"timestamp" :1555318800
		},
	"2019-04-15T21:00:00+09:00" : {
		"windSpeed" : 3.4,
		"windDir" : 277,
		"rain" : 0,
		"cloudbase" : null,
		"flyability" : -50,
		"reason" : "orientationsUnknown",
		"timestamp" :1555329600
		},
	"2019-04-16T00:00:00+09:00" : {
		"windSpeed" : 3.5,
		"windDir" : 285,
		"rain" : 0,
		"cloudbase" : null,
		"flyability" : -50,
		"reason" : "orientationsUnknown",
		"timestamp" :1555340400
		},
	"2019-04-16T03:00:00+09:00" : {
		"windSpeed" : 2.5,
		"windDir" : 282,
		"rain" : 0,
		"cloudbase" : null,
		"flyability" : -50,
		"reason" : "orientationsUnknown",
		"timestamp" :1555351200
		},
	"2019-04-16T06:00:00+09:00" : {
		"windSpeed" : 3.5,
		"windDir" : 285,
		"rain" : 0,
		"cloudbase" : null,
		"flyability" : -50,
		"reason" : "orientationsUnknown",
		"timestamp" :1555362000
		},
	"2019-04-16T09:00:00+09:00" : {
		"windSpeed" : 3.5,
		"windDir" : 326,
		"rain" : 0,
		"cloudbase" : null,
		"flyability" : -50,
		"reason" : "orientationsUnknown",
		"timestamp" :1555372800
		},
	"2019-04-16T12:00:00+09:00" : {
		"windSpeed" : 1.5,
		"windDir" : 94,
		"rain" : 0,
		"cloudbase" : null,
		"flyability" : -50,
		"reason" : "orientationsUnknown",
		"timestamp" :1555383600
		},
	"2019-04-16T15:00:00+09:00" : {
		"windSpeed" : 3.8,
		"windDir" : 139,
		"rain" : 0,
		"cloudbase" : null,
		"flyability" : -50,
		"reason" : "orientationsUnknown",
		"timestamp" :1555394400
		},
	"2019-04-16T18:00:00+09:00" : {
		"windSpeed" : 3,
		"windDir" : 161,
		"rain" : 0,
		"cloudbase" : 9074.144,
		"flyability" : -50,
		"reason" : "orientationsUnknown",
		"timestamp" :1555405200
		},
	"2019-04-16T21:00:00+09:00" : {
		"windSpeed" : 1.4,
		"windDir" : 204,
		"rain" : 0,
		"cloudbase" : 8455.672,
		"flyability" : -50,
		"reason" : "orientationsUnknown",
		"timestamp" :1555416000
		},
	"2019-04-17T00:00:00+09:00" : {
		"windSpeed" : 2.3,
		"windDir" : 283,
		"rain" : 0,
		"cloudbase" : 7700.872,
		"flyability" : -50,
		"reason" : "orientationsUnknown",
		"timestamp" :1555426800
		},
	"2019-04-17T03:00:00+09:00" : {
		"windSpeed" : 2.3,
		"windDir" : 269,
		"rain" : 0,
		"cloudbase" : 10430,
		"flyability" : -50,
		"reason" : "orientationsUnknown",
		"timestamp" :1555437600
		},
	"2019-04-17T06:00:00+09:00" : {
		"windSpeed" : 1.4,
		"windDir" : 224,
		"rain" : 0,
		"cloudbase" : 9689.016,
		"flyability" : -50,
		"reason" : "orientationsUnknown",
		"timestamp" :1555448400
		},
	"2019-04-17T09:00:00+09:00" : {
		"windSpeed" : 2.1,
		"windDir" : 116,
		"rain" : 0,
		"cloudbase" : 9063.744,
		"flyability" : -50,
		"reason" : "orientationsUnknown",
		"timestamp" :1555459200
		},
	"2019-04-17T12:00:00+09:00" : {
		"windSpeed" : 2.4,
		"windDir" : 125,
		"rain" : 0,
		"cloudbase" : 8501.5599999999,
		"flyability" : -50,
		"reason" : "orientationsUnknown",
		"timestamp" :1555470000
		},
	"2019-04-17T15:00:00+09:00" : {
		"windSpeed" : 3.9,
		"windDir" : 143,
		"rain" : 0,
		"cloudbase" : 5070.036,
		"flyability" : -50,
		"reason" : "orientationsUnknown",
		"timestamp" :1555480800
		},
	"2019-04-17T18:00:00+09:00" : {
		"windSpeed" : 1.4,
		"windDir" : 162,
		"rain" : 1,
		"cloudbase" : 4528.472,
		"flyability" : -0,
		"reason" : "orientationsUnknown, rain",
		"timestamp" :1555491600
		},
	"2019-04-17T21:00:00+09:00" : {
		"windSpeed" : 1.6,
		"windDir" : 252,
		"rain" : 1,
		"cloudbase" : 6095.0320000003,
		"flyability" : -0,
		"reason" : "orientationsUnknown, rain",
		"timestamp" :1555502400
		},
	"2019-04-18T00:00:00+09:00" : {
		"windSpeed" : 2.4,
		"windDir" : 281,
		"rain" : 0,
		"cloudbase" : null,
		"flyability" : -50,
		"reason" : "orientationsUnknown",
		"timestamp" :1555513200
		},
	"2019-04-18T03:00:00+09:00" : {
		"windSpeed" : 1.5,
		"windDir" : 249,
		"rain" : 0,
		"cloudbase" : null,
		"flyability" : -50,
		"reason" : "orientationsUnknown",
		"timestamp" :1555524000
		},
	"2019-04-18T06:00:00+09:00" : {
		"windSpeed" : 1.4,
		"windDir" : 222,
		"rain" : 0,
		"cloudbase" : null,
		"flyability" : -50,
		"reason" : "orientationsUnknown",
		"timestamp" :1555534800
		},
	"2019-04-18T09:00:00+09:00" : {
		"windSpeed" : 1.6,
		"windDir" : 110,
		"rain" : 0,
		"cloudbase" : null,
		"flyability" : -50,
		"reason" : "orientationsUnknown",
		"timestamp" :1555545600
		},
	"2019-04-18T12:00:00+09:00" : {
		"windSpeed" : 3.1,
		"windDir" : 126,
		"rain" : 1,
		"cloudbase" : null,
		"flyability" : -0,
		"reason" : "orientationsUnknown, rain",
		"timestamp" :1555556400
		},
	"2019-04-18T15:00:00+09:00" : {
		"windSpeed" : 3.2,
		"windDir" : 152,
		"rain" : 1,
		"cloudbase" : null,
		"flyability" : -0,
		"reason" : "orientationsUnknown, rain",
		"timestamp" :1555567200
		},
	"2019-04-18T18:00:00+09:00" : {
		"windSpeed" : 1,
		"windDir" : 153,
		"rain" : 0,
		"cloudbase" : null,
		"flyability" : -50,
		"reason" : "orientationsUnknown",
		"timestamp" :1555578000
		},
	"2019-04-18T21:00:00+09:00" : {
		"windSpeed" : 1.9,
		"windDir" : 281,
		"rain" : 0,
		"cloudbase" : 9100,
		"flyability" : -50,
		"reason" : "orientationsUnknown",
		"timestamp" :1555588800
		},
	"2019-04-19T00:00:00+09:00" : {
		"windSpeed" : 1.5,
		"windDir" : 265,
		"rain" : 0,
		"cloudbase" : null,
		"flyability" : -50,
		"reason" : "orientationsUnknown",
		"timestamp" :1555599600
		},
	"2019-04-19T03:00:00+09:00" : {
		"windSpeed" : 1.4,
		"windDir" : 225,
		"rain" : 0,
		"cloudbase" : 9000,
		"flyability" : -50,
		"reason" : "orientationsUnknown",
		"timestamp" :1555610400
		},
	"2019-04-19T06:00:00+09:00" : {
		"windSpeed" : 1,
		"windDir" : 265,
		"rain" : 0,
		"cloudbase" : 8500,
		"flyability" : -50,
		"reason" : "orientationsUnknown",
		"timestamp" :1555621200
		},
	"2019-04-19T09:00:00+09:00" : {
		"windSpeed" : 3.3,
		"windDir" : 318,
		"rain" : 0,
		"cloudbase" : 10500,
		"flyability" : -50,
		"reason" : "orientationsUnknown",
		"timestamp" :1555632000
		}
	}
}