{
"site" : "Roches des cuzets",
"id" : 2559,
"orientations" : "00200000",
"forecasts" : { 
	"2019-04-19T05:00:00+02:00" : {
		"windSpeed" : 5.7,
		"windDir" : 164,
		"rain" : 0,
		"cloudbase" : 9591.1548,
		"flyability" : 0,
		"reason" : "windSpeed, windDir",
		"timestamp" :1555646400
		},
	"2019-04-19T08:00:00+02:00" : {
		"windSpeed" : 5.1,
		"windDir" : 167,
		"rain" : 0,
		"cloudbase" : 10500,
		"flyability" : 0,
		"reason" : "windSpeed, windDir",
		"timestamp" :1555657200
		},
	"2019-04-19T11:00:00+02:00" : {
		"windSpeed" : 4.8,
		"windDir" : 162,
		"rain" : 0,
		"cloudbase" : 7561.218,
		"flyability" : 0,
		"reason" : "windDir",
		"timestamp" :1555668000
		},
	"2019-04-19T14:00:00+02:00" : {
		"windSpeed" : 4.7,
		"windDir" : 163,
		"rain" : 0,
		"cloudbase" : 6900,
		"flyability" : 0,
		"reason" : "windDir",
		"timestamp" :1555678800
		},
	"2019-04-19T17:00:00+02:00" : {
		"windSpeed" : 3.5,
		"windDir" : 172,
		"rain" : 0,
		"cloudbase" : null,
		"flyability" : 0,
		"reason" : "windDir",
		"timestamp" :1555689600
		},
	"2019-04-19T20:00:00+02:00" : {
		"windSpeed" : 1.3,
		"windDir" : 136,
		"rain" : 0,
		"cloudbase" : null,
		"flyability" : 0,
		"reason" : "windDir",
		"timestamp" :1555700400
		},
	"2019-04-19T23:00:00+02:00" : {
		"windSpeed" : 2.5,
		"windDir" : 212,
		"rain" : 0,
		"cloudbase" : null,
		"flyability" : 0,
		"reason" : "windDir",
		"timestamp" :1555711200
		},
	"2019-04-20T02:00:00+02:00" : {
		"windSpeed" : 2.4,
		"windDir" : 227,
		"rain" : 0,
		"cloudbase" : null,
		"flyability" : 0,
		"reason" : "windDir",
		"timestamp" :1555722000
		},
	"2019-04-20T05:00:00+02:00" : {
		"windSpeed" : 2.1,
		"windDir" : 239,
		"rain" : 0,
		"cloudbase" : null,
		"flyability" : 0,
		"reason" : "windDir",
		"timestamp" :1555732800
		},
	"2019-04-20T08:00:00+02:00" : {
		"windSpeed" : 2.4,
		"windDir" : 254,
		"rain" : 0,
		"cloudbase" : null,
		"flyability" : 0,
		"reason" : "windDir",
		"timestamp" :1555743600
		},
	"2019-04-20T11:00:00+02:00" : {
		"windSpeed" : 1.5,
		"windDir" : 267,
		"rain" : 0,
		"cloudbase" : 5321.7728,
		"flyability" : 0,
		"reason" : "windDir",
		"timestamp" :1555754400
		},
	"2019-04-20T14:00:00+02:00" : {
		"windSpeed" : 2.5,
		"windDir" : 80,
		"rain" : 1,
		"cloudbase" : 2350,
		"flyability" : 0,
		"reason" : "rain",
		"timestamp" :1555765200
		},
	"2019-04-20T17:00:00+02:00" : {
		"windSpeed" : 2.6,
		"windDir" : 111,
		"rain" : 1,
		"cloudbase" : null,
		"flyability" : 0,
		"reason" : "rain",
		"timestamp" :1555776000
		},
	"2019-04-20T20:00:00+02:00" : {
		"windSpeed" : 1.1,
		"windDir" : 115,
		"rain" : 0,
		"cloudbase" : 7882.5364,
		"flyability" : 0,
		"reason" : "windDir",
		"timestamp" :1555786800
		},
	"2019-04-20T23:00:00+02:00" : {
		"windSpeed" : 1.6,
		"windDir" : 159,
		"rain" : 0,
		"cloudbase" : 3453.5452000001,
		"flyability" : 0,
		"reason" : "windDir",
		"timestamp" :1555797600
		},
	"2019-04-21T02:00:00+02:00" : {
		"windSpeed" : 0.9,
		"windDir" : 270,
		"rain" : 0,
		"cloudbase" : 5876.3,
		"flyability" : 0,
		"reason" : "windDir",
		"timestamp" :1555808400
		},
	"2019-04-21T05:00:00+02:00" : {
		"windSpeed" : 1.5,
		"windDir" : 22,
		"rain" : 0,
		"cloudbase" : 4235.6546,
		"flyability" : 0,
		"reason" : "windDir",
		"timestamp" :1555819200
		},
	"2019-04-21T08:00:00+02:00" : {
		"windSpeed" : 1.1,
		"windDir" : 117,
		"rain" : 1,
		"cloudbase" : 2836.5864,
		"flyability" : 0,
		"reason" : "windDir, rain",
		"timestamp" :1555830000
		},
	"2019-04-21T11:00:00+02:00" : {
		"windSpeed" : 2.1,
		"windDir" : 74,
		"rain" : 0,
		"cloudbase" : 2579.1505999999,
		"flyability" : 100,
		"reason" : "",
		"timestamp" :1555840800
		},
	"2019-04-21T14:00:00+02:00" : {
		"windSpeed" : 3.1,
		"windDir" : 108,
		"rain" : 1,
		"cloudbase" : 3243.0855999999,
		"flyability" : 0,
		"reason" : "rain",
		"timestamp" :1555851600
		},
	"2019-04-21T17:00:00+02:00" : {
		"windSpeed" : 4.3,
		"windDir" : 126,
		"rain" : 0,
		"cloudbase" : 6575.3452,
		"flyability" : 0,
		"reason" : "windDir",
		"timestamp" :1555862400
		},
	"2019-04-21T20:00:00+02:00" : {
		"windSpeed" : 2,
		"windDir" : 87,
		"rain" : 0,
		"cloudbase" : null,
		"flyability" : 100,
		"reason" : "",
		"timestamp" :1555873200
		},
	"2019-04-21T23:00:00+02:00" : {
		"windSpeed" : 2.5,
		"windDir" : 81,
		"rain" : 1,
		"cloudbase" : 7621.1728,
		"flyability" : 0,
		"reason" : "rain",
		"timestamp" :1555884000
		},
	"2019-04-22T02:00:00+02:00" : {
		"windSpeed" : 1.7,
		"windDir" : 75,
		"rain" : 0,
		"cloudbase" : 9200,
		"flyability" : 100,
		"reason" : "",
		"timestamp" :1555894800
		},
	"2019-04-22T05:00:00+02:00" : {
		"windSpeed" : 1.8,
		"windDir" : 61,
		"rain" : 0,
		"cloudbase" : 8403.3724,
		"flyability" : 0,
		"reason" : "windDir",
		"timestamp" :1555905600
		},
	"2019-04-22T08:00:00+02:00" : {
		"windSpeed" : 2.2,
		"windDir" : 64,
		"rain" : 0,
		"cloudbase" : 8901.2636,
		"flyability" : 0,
		"reason" : "windDir",
		"timestamp" :1555916400
		},
	"2019-04-22T11:00:00+02:00" : {
		"windSpeed" : 2.9,
		"windDir" : 89,
		"rain" : 0,
		"cloudbase" : null,
		"flyability" : 100,
		"reason" : "",
		"timestamp" :1555927200
		},
	"2019-04-22T14:00:00+02:00" : {
		"windSpeed" : 6.1,
		"windDir" : 131,
		"rain" : 0,
		"cloudbase" : null,
		"flyability" : 0,
		"reason" : "windSpeed, windDir",
		"timestamp" :1555938000
		},
	"2019-04-22T17:00:00+02:00" : {
		"windSpeed" : 4.9,
		"windDir" : 155,
		"rain" : 0,
		"cloudbase" : 8321.1728,
		"flyability" : 0,
		"reason" : "windDir",
		"timestamp" :1555948800
		},
	"2019-04-22T20:00:00+02:00" : {
		"windSpeed" : 3.1,
		"windDir" : 171,
		"rain" : 0,
		"cloudbase" : 6724.9636,
		"flyability" : 0,
		"reason" : "windDir",
		"timestamp" :1555959600
		},
	"2019-04-22T23:00:00+02:00" : {
		"windSpeed" : 2.7,
		"windDir" : 157,
		"rain" : 0,
		"cloudbase" : 6423.854,
		"flyability" : 0,
		"reason" : "windDir",
		"timestamp" :1555970400
		},
	"2019-04-23T02:00:00+02:00" : {
		"windSpeed" : 4.3,
		"windDir" : 134,
		"rain" : 1,
		"cloudbase" : 1300,
		"flyability" : 0,
		"reason" : "windDir, rain",
		"timestamp" :1555981200
		},
	"2019-04-23T05:00:00+02:00" : {
		"windSpeed" : 4.1,
		"windDir" : 128,
		"rain" : 1,
		"cloudbase" : 1144.18096,
		"flyability" : 0,
		"reason" : "windDir, rain",
		"timestamp" :1555992000
		},
	"2019-04-23T08:00:00+02:00" : {
		"windSpeed" : 4.7,
		"windDir" : 139,
		"rain" : 1,
		"cloudbase" : 804.23824,
		"flyability" : 0,
		"reason" : "windDir, rain",
		"timestamp" :1556002800
		},
	"2019-04-23T11:00:00+02:00" : {
		"windSpeed" : 6.7,
		"windDir" : 138,
		"rain" : 1,
		"cloudbase" : 89.803699999993,
		"flyability" : 0,
		"reason" : "windSpeed, windDir, rain",
		"timestamp" :1556013600
		},
	"2019-04-23T14:00:00+02:00" : {
		"windSpeed" : 8.4,
		"windDir" : 147,
		"rain" : 1,
		"cloudbase" : 68.546439999992,
		"flyability" : 0,
		"reason" : "windSpeed, windDir, rain",
		"timestamp" :1556024400
		},
	"2019-04-23T17:00:00+02:00" : {
		"windSpeed" : 8.7,
		"windDir" : 156,
		"rain" : 1,
		"cloudbase" : 129.18245999998,
		"flyability" : 0,
		"reason" : "windSpeed, windDir, rain",
		"timestamp" :1556035200
		},
	"2019-04-23T20:00:00+02:00" : {
		"windSpeed" : 8.7,
		"windDir" : 157,
		"rain" : 1,
		"cloudbase" : 103.60268,
		"flyability" : 0,
		"reason" : "windSpeed, windDir, rain",
		"timestamp" :1556046000
		},
	"2019-04-23T23:00:00+02:00" : {
		"windSpeed" : 9.9,
		"windDir" : 156,
		"rain" : 1,
		"cloudbase" : 192.37119999997,
		"flyability" : 0,
		"reason" : "windSpeed, windDir, rain",
		"timestamp" :1556056800
		},
	"2019-04-24T02:00:00+02:00" : {
		"windSpeed" : 9.6,
		"windDir" : 152,
		"rain" : 1,
		"cloudbase" : 133.28065999998,
		"flyability" : 0,
		"reason" : "windSpeed, windDir, rain",
		"timestamp" :1556067600
		},
	"2019-04-24T05:00:00+02:00" : {
		"windSpeed" : 7,
		"windDir" : 137,
		"rain" : 1,
		"cloudbase" : 76.760999999986,
		"flyability" : 0,
		"reason" : "windSpeed, windDir, rain",
		"timestamp" :1556078400
		},
	"2019-04-24T08:00:00+02:00" : {
		"windSpeed" : 7.6,
		"windDir" : 169,
		"rain" : 1,
		"cloudbase" : 661.15718000003,
		"flyability" : 0,
		"reason" : "windSpeed, windDir, rain",
		"timestamp" :1556089200
		},
	"2019-04-24T11:00:00+02:00" : {
		"windSpeed" : 6.8,
		"windDir" : 163,
		"rain" : 1,
		"cloudbase" : 83.124559999995,
		"flyability" : 0,
		"reason" : "windSpeed, windDir, rain",
		"timestamp" :1556100000
		},
	"2019-04-24T14:00:00+02:00" : {
		"windSpeed" : 6.9,
		"windDir" : 163,
		"rain" : 1,
		"cloudbase" : 1468.60736,
		"flyability" : 0,
		"reason" : "windSpeed, windDir, rain",
		"timestamp" :1556110800
		},
	"2019-04-24T17:00:00+02:00" : {
		"windSpeed" : 7.4,
		"windDir" : 164,
		"rain" : 1,
		"cloudbase" : 200,
		"flyability" : 0,
		"reason" : "windSpeed, windDir, rain",
		"timestamp" :1556121600
		},
	"2019-04-24T20:00:00+02:00" : {
		"windSpeed" : 7.9,
		"windDir" : 154,
		"rain" : 1,
		"cloudbase" : 660,
		"flyability" : 0,
		"reason" : "windSpeed, windDir, rain",
		"timestamp" :1556132400
		},
	"2019-04-24T23:00:00+02:00" : {
		"windSpeed" : 9.3,
		"windDir" : 157,
		"rain" : 1,
		"cloudbase" : 270,
		"flyability" : 0,
		"reason" : "windSpeed, windDir, rain",
		"timestamp" :1556143200
		},
	"2019-04-25T02:00:00+02:00" : {
		"windSpeed" : 10.2,
		"windDir" : 157,
		"rain" : 0,
		"cloudbase" : 40.455919999998,
		"flyability" : 0,
		"reason" : "windSpeed, windDir",
		"timestamp" :1556154000
		}
	}
}