{
"site" : "Puy de la tourte ouest",
"id" : 2639,
"orientations" : "00200000",
"forecasts" : { 
	"2019-04-20T17:00:00+02:00" : {
		"windSpeed" : 3,
		"windDir" : 61,
		"rain" : 0,
		"cloudbase" : null,
		"flyability" : 0,
		"reason" : "windDir",
		"timestamp" :1555776000
		},
	"2019-04-20T20:00:00+02:00" : {
		"windSpeed" : 1.6,
		"windDir" : 88,
		"rain" : 1,
		"cloudbase" : null,
		"flyability" : 0,
		"reason" : "rain",
		"timestamp" :1555786800
		},
	"2019-04-20T23:00:00+02:00" : {
		"windSpeed" : 2.6,
		"windDir" : 94,
		"rain" : 0,
		"cloudbase" : 8563.8400000001,
		"flyability" : 100,
		"reason" : "",
		"timestamp" :1555797600
		},
	"2019-04-21T02:00:00+02:00" : {
		"windSpeed" : 1.6,
		"windDir" : 118,
		"rain" : 1,
		"cloudbase" : 6266.0000000001,
		"flyability" : 0,
		"reason" : "windDir, rain",
		"timestamp" :1555808400
		},
	"2019-04-21T05:00:00+02:00" : {
		"windSpeed" : 1.4,
		"windDir" : 175,
		"rain" : 0,
		"cloudbase" : 7826.0000000001,
		"flyability" : 0,
		"reason" : "windDir",
		"timestamp" :1555819200
		},
	"2019-04-21T08:00:00+02:00" : {
		"windSpeed" : 0.1,
		"windDir" : 111,
		"rain" : 0,
		"cloudbase" : 3518.76,
		"flyability" : 100,
		"reason" : "",
		"timestamp" :1555830000
		},
	"2019-04-21T11:00:00+02:00" : {
		"windSpeed" : 1.7,
		"windDir" : 163,
		"rain" : 1,
		"cloudbase" : 2417.5,
		"flyability" : 0,
		"reason" : "windDir, rain",
		"timestamp" :1555840800
		},
	"2019-04-21T14:00:00+02:00" : {
		"windSpeed" : 3.6,
		"windDir" : 106,
		"rain" : 1,
		"cloudbase" : 2460.92,
		"flyability" : 0,
		"reason" : "rain",
		"timestamp" :1555851600
		},
	"2019-04-21T17:00:00+02:00" : {
		"windSpeed" : 4.2,
		"windDir" : 111,
		"rain" : 1,
		"cloudbase" : 2575.9400000002,
		"flyability" : 0,
		"reason" : "rain",
		"timestamp" :1555862400
		},
	"2019-04-21T20:00:00+02:00" : {
		"windSpeed" : 2.3,
		"windDir" : 88,
		"rain" : 0,
		"cloudbase" : null,
		"flyability" : 100,
		"reason" : "",
		"timestamp" :1555873200
		},
	"2019-04-21T23:00:00+02:00" : {
		"windSpeed" : 3,
		"windDir" : 99,
		"rain" : 1,
		"cloudbase" : 7863.8400000001,
		"flyability" : 0,
		"reason" : "rain",
		"timestamp" :1555884000
		},
	"2019-04-22T02:00:00+02:00" : {
		"windSpeed" : 3.1,
		"windDir" : 84,
		"rain" : 0,
		"cloudbase" : 4165.9799999995,
		"flyability" : 100,
		"reason" : "",
		"timestamp" :1555894800
		},
	"2019-04-22T05:00:00+02:00" : {
		"windSpeed" : 3.1,
		"windDir" : 99,
		"rain" : 0,
		"cloudbase" : 6308.0000000001,
		"flyability" : 100,
		"reason" : "",
		"timestamp" :1555905600
		},
	"2019-04-22T08:00:00+02:00" : {
		"windSpeed" : 3.5,
		"windDir" : 68,
		"rain" : 1,
		"cloudbase" : 6256.2399999997,
		"flyability" : 0,
		"reason" : "rain",
		"timestamp" :1555916400
		},
	"2019-04-22T11:00:00+02:00" : {
		"windSpeed" : 4.6,
		"windDir" : 78,
		"rain" : 0,
		"cloudbase" : null,
		"flyability" : 100,
		"reason" : "",
		"timestamp" :1555927200
		},
	"2019-04-22T14:00:00+02:00" : {
		"windSpeed" : 4.9,
		"windDir" : 117,
		"rain" : 0,
		"cloudbase" : 1627,
		"flyability" : 0,
		"reason" : "windDir, cloudbase",
		"timestamp" :1555938000
		},
	"2019-04-22T17:00:00+02:00" : {
		"windSpeed" : 2.9,
		"windDir" : 143,
		"rain" : 1,
		"cloudbase" : 2079.58,
		"flyability" : 0,
		"reason" : "windDir, rain",
		"timestamp" :1555948800
		},
	"2019-04-22T20:00:00+02:00" : {
		"windSpeed" : 1.2,
		"windDir" : 316,
		"rain" : 1,
		"cloudbase" : 2119.92,
		"flyability" : 0,
		"reason" : "windDir, rain",
		"timestamp" :1555959600
		},
	"2019-04-22T23:00:00+02:00" : {
		"windSpeed" : 2.8,
		"windDir" : 217,
		"rain" : 0,
		"cloudbase" : 2451.8000000004,
		"flyability" : 0,
		"reason" : "windDir",
		"timestamp" :1555970400
		},
	"2019-04-23T02:00:00+02:00" : {
		"windSpeed" : 2.7,
		"windDir" : 140,
		"rain" : 0,
		"cloudbase" : 1501.84,
		"flyability" : 0,
		"reason" : "windDir, cloudbase",
		"timestamp" :1555981200
		},
	"2019-04-23T05:00:00+02:00" : {
		"windSpeed" : 3,
		"windDir" : 119,
		"rain" : 1,
		"cloudbase" : 1387.08,
		"flyability" : 0,
		"reason" : "windDir, rain, cloudbase",
		"timestamp" :1555992000
		},
	"2019-04-23T08:00:00+02:00" : {
		"windSpeed" : 5.2,
		"windDir" : 109,
		"rain" : 0,
		"cloudbase" : 4709.9999999999,
		"flyability" : 0,
		"reason" : "windSpeed",
		"timestamp" :1556002800
		},
	"2019-04-23T11:00:00+02:00" : {
		"windSpeed" : 5,
		"windDir" : 116,
		"rain" : 1,
		"cloudbase" : 5652.68,
		"flyability" : 0,
		"reason" : "windDir, rain",
		"timestamp" :1556013600
		},
	"2019-04-23T14:00:00+02:00" : {
		"windSpeed" : 4.4,
		"windDir" : 138,
		"rain" : 0,
		"cloudbase" : 2311.0400000006,
		"flyability" : 0,
		"reason" : "windDir",
		"timestamp" :1556024400
		},
	"2019-04-23T17:00:00+02:00" : {
		"windSpeed" : 4.3,
		"windDir" : 136,
		"rain" : 1,
		"cloudbase" : 1233.04,
		"flyability" : 0,
		"reason" : "windDir, rain, cloudbase",
		"timestamp" :1556035200
		},
	"2019-04-23T20:00:00+02:00" : {
		"windSpeed" : 4.9,
		"windDir" : 127,
		"rain" : 1,
		"cloudbase" : 520,
		"flyability" : 0,
		"reason" : "windDir, rain, cloudbase",
		"timestamp" :1556046000
		},
	"2019-04-23T23:00:00+02:00" : {
		"windSpeed" : 5.4,
		"windDir" : 131,
		"rain" : 0,
		"cloudbase" : 419.45600000007,
		"flyability" : 0,
		"reason" : "windSpeed, windDir, cloudbase",
		"timestamp" :1556056800
		},
	"2019-04-24T02:00:00+02:00" : {
		"windSpeed" : 5.6,
		"windDir" : 156,
		"rain" : 0,
		"cloudbase" : 110.50000000001,
		"flyability" : 0,
		"reason" : "windSpeed, windDir, cloudbase",
		"timestamp" :1556067600
		},
	"2019-04-24T05:00:00+02:00" : {
		"windSpeed" : 6.8,
		"windDir" : 167,
		"rain" : 1,
		"cloudbase" : 202.90000000001,
		"flyability" : 0,
		"reason" : "windSpeed, windDir, rain, cloudbase",
		"timestamp" :1556078400
		},
	"2019-04-24T08:00:00+02:00" : {
		"windSpeed" : 6,
		"windDir" : 174,
		"rain" : 1,
		"cloudbase" : 166.99199999998,
		"flyability" : 0,
		"reason" : "windSpeed, windDir, rain, cloudbase",
		"timestamp" :1556089200
		},
	"2019-04-24T11:00:00+02:00" : {
		"windSpeed" : 2.4,
		"windDir" : 222,
		"rain" : 1,
		"cloudbase" : 118.63400000007,
		"flyability" : 0,
		"reason" : "windDir, rain, cloudbase",
		"timestamp" :1556100000
		},
	"2019-04-24T14:00:00+02:00" : {
		"windSpeed" : 4.3,
		"windDir" : 193,
		"rain" : 1,
		"cloudbase" : 92.98800000005,
		"flyability" : 0,
		"reason" : "windDir, rain, cloudbase",
		"timestamp" :1556110800
		},
	"2019-04-24T17:00:00+02:00" : {
		"windSpeed" : 5.4,
		"windDir" : 157,
		"rain" : 1,
		"cloudbase" : 734.7680000004,
		"flyability" : 0,
		"reason" : "windSpeed, windDir, rain, cloudbase",
		"timestamp" :1556121600
		},
	"2019-04-24T20:00:00+02:00" : {
		"windSpeed" : 6.3,
		"windDir" : 169,
		"rain" : 1,
		"cloudbase" : 1200,
		"flyability" : 0,
		"reason" : "windSpeed, windDir, rain, cloudbase",
		"timestamp" :1556132400
		},
	"2019-04-24T23:00:00+02:00" : {
		"windSpeed" : 5.7,
		"windDir" : 146,
		"rain" : 1,
		"cloudbase" : null,
		"flyability" : 0,
		"reason" : "windSpeed, windDir, rain",
		"timestamp" :1556143200
		},
	"2019-04-25T02:00:00+02:00" : {
		"windSpeed" : 7,
		"windDir" : 152,
		"rain" : 0,
		"cloudbase" : 5669.16,
		"flyability" : 0,
		"reason" : "windSpeed, windDir",
		"timestamp" :1556154000
		},
	"2019-04-25T05:00:00+02:00" : {
		"windSpeed" : 6,
		"windDir" : 163,
		"rain" : 0,
		"cloudbase" : 440.90800000023,
		"flyability" : 0,
		"reason" : "windSpeed, windDir, cloudbase",
		"timestamp" :1556164800
		},
	"2019-04-25T08:00:00+02:00" : {
		"windSpeed" : 5.7,
		"windDir" : 174,
		"rain" : 1,
		"cloudbase" : 328.88800000005,
		"flyability" : 0,
		"reason" : "windSpeed, windDir, rain, cloudbase",
		"timestamp" :1556175600
		},
	"2019-04-25T11:00:00+02:00" : {
		"windSpeed" : 4.9,
		"windDir" : 219,
		"rain" : 1,
		"cloudbase" : 272.14800000024,
		"flyability" : 0,
		"reason" : "windDir, rain, cloudbase",
		"timestamp" :1556186400
		},
	"2019-04-25T14:00:00+02:00" : {
		"windSpeed" : 3.5,
		"windDir" : 202,
		"rain" : 1,
		"cloudbase" : 1587.4600000001,
		"flyability" : 0,
		"reason" : "windDir, rain, cloudbase",
		"timestamp" :1556197200
		},
	"2019-04-25T17:00:00+02:00" : {
		"windSpeed" : 3.5,
		"windDir" : 210,
		"rain" : 1,
		"cloudbase" : 263.92400000007,
		"flyability" : 0,
		"reason" : "windDir, rain, cloudbase",
		"timestamp" :1556208000
		},
	"2019-04-25T20:00:00+02:00" : {
		"windSpeed" : 3.2,
		"windDir" : 214,
		"rain" : 1,
		"cloudbase" : 50,
		"flyability" : 0,
		"reason" : "windDir, rain, cloudbase",
		"timestamp" :1556218800
		},
	"2019-04-25T23:00:00+02:00" : {
		"windSpeed" : 3,
		"windDir" : 213,
		"rain" : 1,
		"cloudbase" : null,
		"flyability" : 0,
		"reason" : "windDir, rain",
		"timestamp" :1556229600
		},
	"2019-04-26T02:00:00+02:00" : {
		"windSpeed" : 3,
		"windDir" : 205,
		"rain" : 0,
		"cloudbase" : null,
		"flyability" : 0,
		"reason" : "windDir",
		"timestamp" :1556240400
		},
	"2019-04-26T05:00:00+02:00" : {
		"windSpeed" : 3.9,
		"windDir" : 227,
		"rain" : 1,
		"cloudbase" : 4899.0000000001,
		"flyability" : 0,
		"reason" : "windDir, rain",
		"timestamp" :1556251200
		},
	"2019-04-26T08:00:00+02:00" : {
		"windSpeed" : 2.6,
		"windDir" : 242,
		"rain" : 1,
		"cloudbase" : 30,
		"flyability" : 0,
		"reason" : "windDir, rain, cloudbase",
		"timestamp" :1556262000
		},
	"2019-04-26T11:00:00+02:00" : {
		"windSpeed" : 5.1,
		"windDir" : 240,
		"rain" : 1,
		"cloudbase" : 268.98,
		"flyability" : 0,
		"reason" : "windSpeed, windDir, rain, cloudbase",
		"timestamp" :1556272800
		},
	"2019-04-26T14:00:00+02:00" : {
		"windSpeed" : 7.2,
		"windDir" : 245,
		"rain" : 1,
		"cloudbase" : 61.154000000013,
		"flyability" : 0,
		"reason" : "windSpeed, windDir, rain, cloudbase",
		"timestamp" :1556283600
		}
	}
}