{
"site" : "Kervigen",
"id" : 2752,
"orientations" : "00002200",
"forecasts" : { 
	"2019-04-21T05:00:00+02:00" : {
		"windSpeed" : 3.6,
		"windDir" : 57,
		"rain" : 0,
		"cloudbase" : null,
		"flyability" : 0,
		"reason" : "windDir",
		"timestamp" :1555819200
		},
	"2019-04-21T08:00:00+02:00" : {
		"windSpeed" : 4,
		"windDir" : 65,
		"rain" : 0,
		"cloudbase" : null,
		"flyability" : 0,
		"reason" : "windDir",
		"timestamp" :1555830000
		},
	"2019-04-21T11:00:00+02:00" : {
		"windSpeed" : 3.7,
		"windDir" : 49,
		"rain" : 0,
		"cloudbase" : null,
		"flyability" : 0,
		"reason" : "windDir",
		"timestamp" :1555840800
		},
	"2019-04-21T14:00:00+02:00" : {
		"windSpeed" : 2.4,
		"windDir" : 79,
		"rain" : 0,
		"cloudbase" : null,
		"flyability" : 0,
		"reason" : "windDir",
		"timestamp" :1555851600
		},
	"2019-04-21T17:00:00+02:00" : {
		"windSpeed" : 3.8,
		"windDir" : 214,
		"rain" : 0,
		"cloudbase" : null,
		"flyability" : 100,
		"reason" : "",
		"timestamp" :1555862400
		},
	"2019-04-21T20:00:00+02:00" : {
		"windSpeed" : 1.8,
		"windDir" : 272,
		"rain" : 0,
		"cloudbase" : null,
		"flyability" : 0,
		"reason" : "windDir",
		"timestamp" :1555873200
		},
	"2019-04-21T23:00:00+02:00" : {
		"windSpeed" : 0.7,
		"windDir" : 105,
		"rain" : 0,
		"cloudbase" : null,
		"flyability" : 0,
		"reason" : "windDir",
		"timestamp" :1555884000
		},
	"2019-04-22T02:00:00+02:00" : {
		"windSpeed" : 1.9,
		"windDir" : 141,
		"rain" : 0,
		"cloudbase" : null,
		"flyability" : 0,
		"reason" : "windDir",
		"timestamp" :1555894800
		},
	"2019-04-22T05:00:00+02:00" : {
		"windSpeed" : 2.3,
		"windDir" : 146,
		"rain" : 0,
		"cloudbase" : null,
		"flyability" : 0,
		"reason" : "windDir",
		"timestamp" :1555905600
		},
	"2019-04-22T08:00:00+02:00" : {
		"windSpeed" : 2.9,
		"windDir" : 170,
		"rain" : 1,
		"cloudbase" : 3800,
		"flyability" : 0,
		"reason" : "rain",
		"timestamp" :1555916400
		},
	"2019-04-22T11:00:00+02:00" : {
		"windSpeed" : 3.1,
		"windDir" : 151,
		"rain" : 1,
		"cloudbase" : 4050,
		"flyability" : 0,
		"reason" : "windDir, rain",
		"timestamp" :1555927200
		},
	"2019-04-22T14:00:00+02:00" : {
		"windSpeed" : 4.1,
		"windDir" : 165,
		"rain" : 0,
		"cloudbase" : null,
		"flyability" : 100,
		"reason" : "",
		"timestamp" :1555938000
		},
	"2019-04-22T17:00:00+02:00" : {
		"windSpeed" : 4.7,
		"windDir" : 148,
		"rain" : 0,
		"cloudbase" : null,
		"flyability" : 0,
		"reason" : "windDir",
		"timestamp" :1555948800
		},
	"2019-04-22T20:00:00+02:00" : {
		"windSpeed" : 1.9,
		"windDir" : 121,
		"rain" : 0,
		"cloudbase" : 3050,
		"flyability" : 0,
		"reason" : "windDir",
		"timestamp" :1555959600
		},
	"2019-04-22T23:00:00+02:00" : {
		"windSpeed" : 4,
		"windDir" : 81,
		"rain" : 0,
		"cloudbase" : 2149.23,
		"flyability" : 0,
		"reason" : "windDir",
		"timestamp" :1555970400
		},
	"2019-04-23T02:00:00+02:00" : {
		"windSpeed" : 4.8,
		"windDir" : 114,
		"rain" : 0,
		"cloudbase" : 8382.38,
		"flyability" : 0,
		"reason" : "windDir",
		"timestamp" :1555981200
		},
	"2019-04-23T05:00:00+02:00" : {
		"windSpeed" : 4.2,
		"windDir" : 135,
		"rain" : 0,
		"cloudbase" : 3550,
		"flyability" : 0,
		"reason" : "windDir",
		"timestamp" :1555992000
		},
	"2019-04-23T08:00:00+02:00" : {
		"windSpeed" : 5,
		"windDir" : 119,
		"rain" : 0,
		"cloudbase" : 2716.69,
		"flyability" : 0,
		"reason" : "windDir",
		"timestamp" :1556002800
		},
	"2019-04-23T11:00:00+02:00" : {
		"windSpeed" : 6,
		"windDir" : 125,
		"rain" : 0,
		"cloudbase" : 2968.15,
		"flyability" : 0,
		"reason" : "windSpeed, windDir",
		"timestamp" :1556013600
		},
	"2019-04-23T14:00:00+02:00" : {
		"windSpeed" : 7,
		"windDir" : 132,
		"rain" : 1,
		"cloudbase" : 2612.32,
		"flyability" : 0,
		"reason" : "windSpeed, windDir, rain",
		"timestamp" :1556024400
		},
	"2019-04-23T17:00:00+02:00" : {
		"windSpeed" : 5.9,
		"windDir" : 130,
		"rain" : 1,
		"cloudbase" : 1886.7619999999,
		"flyability" : 0,
		"reason" : "windSpeed, windDir, rain",
		"timestamp" :1556035200
		},
	"2019-04-23T20:00:00+02:00" : {
		"windSpeed" : 3.1,
		"windDir" : 135,
		"rain" : 0,
		"cloudbase" : 7000,
		"flyability" : 0,
		"reason" : "windDir",
		"timestamp" :1556046000
		},
	"2019-04-23T23:00:00+02:00" : {
		"windSpeed" : 1.9,
		"windDir" : 179,
		"rain" : 0,
		"cloudbase" : null,
		"flyability" : 100,
		"reason" : "",
		"timestamp" :1556056800
		},
	"2019-04-24T02:00:00+02:00" : {
		"windSpeed" : 1.1,
		"windDir" : 170,
		"rain" : 0,
		"cloudbase" : 200,
		"flyability" : 100,
		"reason" : "",
		"timestamp" :1556067600
		},
	"2019-04-24T05:00:00+02:00" : {
		"windSpeed" : 3.6,
		"windDir" : 279,
		"rain" : 1,
		"cloudbase" : 270.61399999999,
		"flyability" : 0,
		"reason" : "windDir, rain",
		"timestamp" :1556078400
		},
	"2019-04-24T08:00:00+02:00" : {
		"windSpeed" : 5.2,
		"windDir" : 251,
		"rain" : 1,
		"cloudbase" : 900.14399999999,
		"flyability" : 0,
		"reason" : "windSpeed, windDir, rain",
		"timestamp" :1556089200
		},
	"2019-04-24T11:00:00+02:00" : {
		"windSpeed" : 5.6,
		"windDir" : 199,
		"rain" : 1,
		"cloudbase" : 1088.27,
		"flyability" : 0,
		"reason" : "windSpeed, rain",
		"timestamp" :1556100000
		},
	"2019-04-24T14:00:00+02:00" : {
		"windSpeed" : 7.5,
		"windDir" : 215,
		"rain" : 1,
		"cloudbase" : 2173.64,
		"flyability" : 0,
		"reason" : "windSpeed, rain",
		"timestamp" :1556110800
		},
	"2019-04-24T17:00:00+02:00" : {
		"windSpeed" : 6.3,
		"windDir" : 179,
		"rain" : 1,
		"cloudbase" : 560,
		"flyability" : 0,
		"reason" : "windSpeed, rain",
		"timestamp" :1556121600
		},
	"2019-04-24T20:00:00+02:00" : {
		"windSpeed" : 7.1,
		"windDir" : 155,
		"rain" : 1,
		"cloudbase" : null,
		"flyability" : 0,
		"reason" : "windSpeed, windDir, rain",
		"timestamp" :1556132400
		},
	"2019-04-24T23:00:00+02:00" : {
		"windSpeed" : 6.8,
		"windDir" : 147,
		"rain" : 1,
		"cloudbase" : 2386.67,
		"flyability" : 0,
		"reason" : "windSpeed, windDir, rain",
		"timestamp" :1556143200
		},
	"2019-04-25T02:00:00+02:00" : {
		"windSpeed" : 4.5,
		"windDir" : 150,
		"rain" : 1,
		"cloudbase" : 1225.366,
		"flyability" : 0,
		"reason" : "windDir, rain",
		"timestamp" :1556154000
		},
	"2019-04-25T05:00:00+02:00" : {
		"windSpeed" : 6.9,
		"windDir" : 198,
		"rain" : 1,
		"cloudbase" : null,
		"flyability" : 0,
		"reason" : "windSpeed, rain",
		"timestamp" :1556164800
		},
	"2019-04-25T08:00:00+02:00" : {
		"windSpeed" : 5.8,
		"windDir" : 205,
		"rain" : 1,
		"cloudbase" : 6306.84,
		"flyability" : 0,
		"reason" : "windSpeed, rain",
		"timestamp" :1556175600
		},
	"2019-04-25T11:00:00+02:00" : {
		"windSpeed" : 8.2,
		"windDir" : 208,
		"rain" : 1,
		"cloudbase" : 6600,
		"flyability" : 0,
		"reason" : "windSpeed, rain",
		"timestamp" :1556186400
		},
	"2019-04-25T14:00:00+02:00" : {
		"windSpeed" : 9.5,
		"windDir" : 209,
		"rain" : 1,
		"cloudbase" : 6300,
		"flyability" : 0,
		"reason" : "windSpeed, rain",
		"timestamp" :1556197200
		},
	"2019-04-25T17:00:00+02:00" : {
		"windSpeed" : 8.6,
		"windDir" : 213,
		"rain" : 1,
		"cloudbase" : 6522,
		"flyability" : 0,
		"reason" : "windSpeed, rain",
		"timestamp" :1556208000
		},
	"2019-04-25T20:00:00+02:00" : {
		"windSpeed" : 6.3,
		"windDir" : 215,
		"rain" : 1,
		"cloudbase" : 5177.54,
		"flyability" : 0,
		"reason" : "windSpeed, rain",
		"timestamp" :1556218800
		},
	"2019-04-25T23:00:00+02:00" : {
		"windSpeed" : 6.4,
		"windDir" : 197,
		"rain" : 1,
		"cloudbase" : 7500,
		"flyability" : 0,
		"reason" : "windSpeed, rain",
		"timestamp" :1556229600
		},
	"2019-04-26T02:00:00+02:00" : {
		"windSpeed" : 7.8,
		"windDir" : 206,
		"rain" : 1,
		"cloudbase" : 4378.27,
		"flyability" : 0,
		"reason" : "windSpeed, rain",
		"timestamp" :1556240400
		},
	"2019-04-26T05:00:00+02:00" : {
		"windSpeed" : 10.6,
		"windDir" : 216,
		"rain" : 1,
		"cloudbase" : 1082.378,
		"flyability" : 0,
		"reason" : "windSpeed, rain",
		"timestamp" :1556251200
		},
	"2019-04-26T08:00:00+02:00" : {
		"windSpeed" : 10.7,
		"windDir" : 250,
		"rain" : 1,
		"cloudbase" : 6300,
		"flyability" : 0,
		"reason" : "windSpeed, windDir, rain",
		"timestamp" :1556262000
		},
	"2019-04-26T11:00:00+02:00" : {
		"windSpeed" : 9.8,
		"windDir" : 264,
		"rain" : 1,
		"cloudbase" : 5300,
		"flyability" : 0,
		"reason" : "windSpeed, windDir, rain",
		"timestamp" :1556272800
		},
	"2019-04-26T14:00:00+02:00" : {
		"windSpeed" : 11,
		"windDir" : 271,
		"rain" : 1,
		"cloudbase" : null,
		"flyability" : 0,
		"reason" : "windSpeed, windDir, rain",
		"timestamp" :1556283600
		},
	"2019-04-26T17:00:00+02:00" : {
		"windSpeed" : 10,
		"windDir" : 274,
		"rain" : 1,
		"cloudbase" : 1443.73,
		"flyability" : 0,
		"reason" : "windSpeed, windDir, rain",
		"timestamp" :1556294400
		},
	"2019-04-26T20:00:00+02:00" : {
		"windSpeed" : 7.8,
		"windDir" : 268,
		"rain" : 1,
		"cloudbase" : 1692.33,
		"flyability" : 0,
		"reason" : "windSpeed, windDir, rain",
		"timestamp" :1556305200
		},
	"2019-04-26T23:00:00+02:00" : {
		"windSpeed" : 7.4,
		"windDir" : 247,
		"rain" : 1,
		"cloudbase" : 1603.5,
		"flyability" : 0,
		"reason" : "windSpeed, rain",
		"timestamp" :1556316000
		},
	"2019-04-27T02:00:00+02:00" : {
		"windSpeed" : 8,
		"windDir" : 221,
		"rain" : 0,
		"cloudbase" : 1450,
		"flyability" : 0,
		"reason" : "windSpeed",
		"timestamp" :1556326800
		}
	}
}