{
"site" : "Dausse",
"id" : 2764,
"orientations" : "02000002",
"forecasts" : { 
	"2019-04-17T05:00:00+02:00" : {
		"windSpeed" : 2.1,
		"windDir" : 173,
		"rain" : 0,
		"cloudbase" : 6400,
		"flyability" : 0,
		"reason" : "windDir",
		"timestamp" :1555473600
		},
	"2019-04-17T08:00:00+02:00" : {
		"windSpeed" : 1.9,
		"windDir" : 173,
		"rain" : 0,
		"cloudbase" : null,
		"flyability" : 0,
		"reason" : "windDir",
		"timestamp" :1555484400
		},
	"2019-04-17T11:00:00+02:00" : {
		"windSpeed" : 1.8,
		"windDir" : 75,
		"rain" : 0,
		"cloudbase" : null,
		"flyability" : 0,
		"reason" : "windDir",
		"timestamp" :1555495200
		},
	"2019-04-17T14:00:00+02:00" : {
		"windSpeed" : 2.9,
		"windDir" : 70,
		"rain" : 0,
		"cloudbase" : 7304.4486,
		"flyability" : 0,
		"reason" : "windDir",
		"timestamp" :1555506000
		},
	"2019-04-17T17:00:00+02:00" : {
		"windSpeed" : 3.4,
		"windDir" : 73,
		"rain" : 0,
		"cloudbase" : 9835.4,
		"flyability" : 0,
		"reason" : "windDir",
		"timestamp" :1555516800
		},
	"2019-04-17T20:00:00+02:00" : {
		"windSpeed" : 2,
		"windDir" : 82,
		"rain" : 0,
		"cloudbase" : 8931.2,
		"flyability" : 0,
		"reason" : "windDir",
		"timestamp" :1555527600
		},
	"2019-04-17T23:00:00+02:00" : {
		"windSpeed" : 1.6,
		"windDir" : 144,
		"rain" : 0,
		"cloudbase" : 8600,
		"flyability" : 0,
		"reason" : "windDir",
		"timestamp" :1555538400
		},
	"2019-04-18T02:00:00+02:00" : {
		"windSpeed" : 1.2,
		"windDir" : 158,
		"rain" : 0,
		"cloudbase" : 6618.9243,
		"flyability" : 0,
		"reason" : "windDir",
		"timestamp" :1555549200
		},
	"2019-04-18T05:00:00+02:00" : {
		"windSpeed" : 1.3,
		"windDir" : 146,
		"rain" : 0,
		"cloudbase" : 6639.5,
		"flyability" : 0,
		"reason" : "windDir",
		"timestamp" :1555560000
		},
	"2019-04-18T08:00:00+02:00" : {
		"windSpeed" : 2.9,
		"windDir" : 274,
		"rain" : 0,
		"cloudbase" : 5670.9822000002,
		"flyability" : 0,
		"reason" : "windDir",
		"timestamp" :1555570800
		},
	"2019-04-18T11:00:00+02:00" : {
		"windSpeed" : 0.8,
		"windDir" : 11,
		"rain" : 0,
		"cloudbase" : 5579.4486,
		"flyability" : 0,
		"reason" : "windDir",
		"timestamp" :1555581600
		},
	"2019-04-18T14:00:00+02:00" : {
		"windSpeed" : 1.5,
		"windDir" : 67,
		"rain" : 1,
		"cloudbase" : 4587.1472,
		"flyability" : 0,
		"reason" : "rain",
		"timestamp" :1555592400
		},
	"2019-04-18T17:00:00+02:00" : {
		"windSpeed" : 1.5,
		"windDir" : 80,
		"rain" : 1,
		"cloudbase" : 6191.8243,
		"flyability" : 0,
		"reason" : "windDir, rain",
		"timestamp" :1555603200
		},
	"2019-04-18T20:00:00+02:00" : {
		"windSpeed" : 0.3,
		"windDir" : 185,
		"rain" : 0,
		"cloudbase" : 6850.1411499998,
		"flyability" : 0,
		"reason" : "windDir",
		"timestamp" :1555614000
		},
	"2019-04-18T23:00:00+02:00" : {
		"windSpeed" : 0.6,
		"windDir" : 296,
		"rain" : 0,
		"cloudbase" : 7004.4486,
		"flyability" : 100,
		"reason" : "",
		"timestamp" :1555624800
		},
	"2019-04-19T02:00:00+02:00" : {
		"windSpeed" : 1,
		"windDir" : 255,
		"rain" : 0,
		"cloudbase" : 8073.4972,
		"flyability" : 0,
		"reason" : "windDir",
		"timestamp" :1555635600
		},
	"2019-04-19T05:00:00+02:00" : {
		"windSpeed" : 1.3,
		"windDir" : 203,
		"rain" : 0,
		"cloudbase" : 8662.2514,
		"flyability" : 0,
		"reason" : "windDir",
		"timestamp" :1555646400
		},
	"2019-04-19T08:00:00+02:00" : {
		"windSpeed" : 0.5,
		"windDir" : 182,
		"rain" : 1,
		"cloudbase" : 6388.4701,
		"flyability" : 0,
		"reason" : "windDir, rain",
		"timestamp" :1555657200
		},
	"2019-04-19T11:00:00+02:00" : {
		"windSpeed" : 0.6,
		"windDir" : 26,
		"rain" : 0,
		"cloudbase" : 7700,
		"flyability" : 100,
		"reason" : "",
		"timestamp" :1555668000
		},
	"2019-04-19T14:00:00+02:00" : {
		"windSpeed" : 1.9,
		"windDir" : 40,
		"rain" : 0,
		"cloudbase" : 3190.1429500002,
		"flyability" : 100,
		"reason" : "",
		"timestamp" :1555678800
		},
	"2019-04-19T17:00:00+02:00" : {
		"windSpeed" : 3,
		"windDir" : 41,
		"rain" : 0,
		"cloudbase" : 11460.243,
		"flyability" : 100,
		"reason" : "",
		"timestamp" :1555689600
		},
	"2019-04-19T20:00:00+02:00" : {
		"windSpeed" : 1.4,
		"windDir" : 58,
		"rain" : 0,
		"cloudbase" : 9292.4224000001,
		"flyability" : 100,
		"reason" : "",
		"timestamp" :1555700400
		},
	"2019-04-19T23:00:00+02:00" : {
		"windSpeed" : 0.7,
		"windDir" : 137,
		"rain" : 0,
		"cloudbase" : 5143.9804000001,
		"flyability" : 0,
		"reason" : "windDir",
		"timestamp" :1555711200
		},
	"2019-04-20T02:00:00+02:00" : {
		"windSpeed" : 1.5,
		"windDir" : 210,
		"rain" : 0,
		"cloudbase" : 9339.6243,
		"flyability" : 0,
		"reason" : "windDir",
		"timestamp" :1555722000
		},
	"2019-04-20T05:00:00+02:00" : {
		"windSpeed" : 0.5,
		"windDir" : 182,
		"rain" : 0,
		"cloudbase" : 9387.4,
		"flyability" : 0,
		"reason" : "windDir",
		"timestamp" :1555732800
		},
	"2019-04-20T08:00:00+02:00" : {
		"windSpeed" : 0.5,
		"windDir" : 184,
		"rain" : 0,
		"cloudbase" : null,
		"flyability" : 0,
		"reason" : "windDir",
		"timestamp" :1555743600
		},
	"2019-04-20T11:00:00+02:00" : {
		"windSpeed" : 1.4,
		"windDir" : 21,
		"rain" : 0,
		"cloudbase" : 9443.4757,
		"flyability" : 0,
		"reason" : "windDir",
		"timestamp" :1555754400
		},
	"2019-04-20T14:00:00+02:00" : {
		"windSpeed" : 1.7,
		"windDir" : 27,
		"rain" : 0,
		"cloudbase" : 860,
		"flyability" : 100,
		"reason" : "",
		"timestamp" :1555765200
		},
	"2019-04-20T17:00:00+02:00" : {
		"windSpeed" : 3,
		"windDir" : 55,
		"rain" : 0,
		"cloudbase" : 1533.1757,
		"flyability" : 100,
		"reason" : "",
		"timestamp" :1555776000
		},
	"2019-04-20T20:00:00+02:00" : {
		"windSpeed" : 2.3,
		"windDir" : 77,
		"rain" : 0,
		"cloudbase" : 8478.9757,
		"flyability" : 0,
		"reason" : "windDir",
		"timestamp" :1555786800
		},
	"2019-04-20T23:00:00+02:00" : {
		"windSpeed" : 0.8,
		"windDir" : 183,
		"rain" : 1,
		"cloudbase" : 7722.0980999998,
		"flyability" : 0,
		"reason" : "windDir, rain",
		"timestamp" :1555797600
		},
	"2019-04-21T02:00:00+02:00" : {
		"windSpeed" : 0.6,
		"windDir" : 297,
		"rain" : 1,
		"cloudbase" : 4503.4999999999,
		"flyability" : 0,
		"reason" : "rain",
		"timestamp" :1555808400
		},
	"2019-04-21T05:00:00+02:00" : {
		"windSpeed" : 0.9,
		"windDir" : 129,
		"rain" : 1,
		"cloudbase" : 2357.8971999999,
		"flyability" : 0,
		"reason" : "windDir, rain",
		"timestamp" :1555819200
		},
	"2019-04-21T08:00:00+02:00" : {
		"windSpeed" : 0.8,
		"windDir" : 21,
		"rain" : 1,
		"cloudbase" : 2365.74345,
		"flyability" : 0,
		"reason" : "windDir, rain",
		"timestamp" :1555830000
		},
	"2019-04-21T11:00:00+02:00" : {
		"windSpeed" : 1.6,
		"windDir" : 37,
		"rain" : 1,
		"cloudbase" : 3320.2490499999,
		"flyability" : 0,
		"reason" : "rain",
		"timestamp" :1555840800
		},
	"2019-04-21T14:00:00+02:00" : {
		"windSpeed" : 4.9,
		"windDir" : 84,
		"rain" : 1,
		"cloudbase" : 4034.7574999999,
		"flyability" : 0,
		"reason" : "windDir, rain",
		"timestamp" :1555851600
		},
	"2019-04-21T17:00:00+02:00" : {
		"windSpeed" : 2.9,
		"windDir" : 59,
		"rain" : 1,
		"cloudbase" : 7635.5243,
		"flyability" : 0,
		"reason" : "rain",
		"timestamp" :1555862400
		},
	"2019-04-21T20:00:00+02:00" : {
		"windSpeed" : 1.2,
		"windDir" : 67,
		"rain" : 1,
		"cloudbase" : 7635.5243,
		"flyability" : 0,
		"reason" : "rain",
		"timestamp" :1555873200
		},
	"2019-04-21T23:00:00+02:00" : {
		"windSpeed" : 0.8,
		"windDir" : 110,
		"rain" : 1,
		"cloudbase" : 7931.2,
		"flyability" : 0,
		"reason" : "windDir, rain",
		"timestamp" :1555884000
		},
	"2019-04-22T02:00:00+02:00" : {
		"windSpeed" : 0.3,
		"windDir" : 154,
		"rain" : 1,
		"cloudbase" : 9391.4757,
		"flyability" : 0,
		"reason" : "windDir, rain",
		"timestamp" :1555894800
		},
	"2019-04-22T05:00:00+02:00" : {
		"windSpeed" : 1.4,
		"windDir" : 202,
		"rain" : 0,
		"cloudbase" : 9139.7243,
		"flyability" : 0,
		"reason" : "windDir",
		"timestamp" :1555905600
		},
	"2019-04-22T08:00:00+02:00" : {
		"windSpeed" : 1,
		"windDir" : 165,
		"rain" : 0,
		"cloudbase" : 8418.6757,
		"flyability" : 0,
		"reason" : "windDir",
		"timestamp" :1555916400
		},
	"2019-04-22T11:00:00+02:00" : {
		"windSpeed" : 0.6,
		"windDir" : 27,
		"rain" : 1,
		"cloudbase" : 8823.1243,
		"flyability" : 0,
		"reason" : "rain",
		"timestamp" :1555927200
		},
	"2019-04-22T14:00:00+02:00" : {
		"windSpeed" : 0.8,
		"windDir" : 290,
		"rain" : 0,
		"cloudbase" : 9183.6486,
		"flyability" : 0,
		"reason" : "windDir",
		"timestamp" :1555938000
		},
	"2019-04-22T17:00:00+02:00" : {
		"windSpeed" : 1.5,
		"windDir" : 323,
		"rain" : 0,
		"cloudbase" : 8447.9,
		"flyability" : 100,
		"reason" : "",
		"timestamp" :1555948800
		},
	"2019-04-22T20:00:00+02:00" : {
		"windSpeed" : 1.8,
		"windDir" : 303,
		"rain" : 0,
		"cloudbase" : 3375.18365,
		"flyability" : 100,
		"reason" : "",
		"timestamp" :1555959600
		},
	"2019-04-22T23:00:00+02:00" : {
		"windSpeed" : 0.6,
		"windDir" : 323,
		"rain" : 0,
		"cloudbase" : 6895.8,
		"flyability" : 100,
		"reason" : "",
		"timestamp" :1555970400
		},
	"2019-04-23T02:00:00+02:00" : {
		"windSpeed" : 1.2,
		"windDir" : 80,
		"rain" : 1,
		"cloudbase" : 3600,
		"flyability" : 0,
		"reason" : "windDir, rain",
		"timestamp" :1555981200
		}
	}
}