{
"site" : "Hommert",
"id" : 2873,
"orientations" : "22000000",
"forecasts" : { 
	"2019-04-22T05:00:00+02:00" : {
		"windSpeed" : 3.1,
		"windDir" : 112,
		"rain" : 0,
		"cloudbase" : null,
		"flyability" : 0,
		"reason" : "windDir",
		"timestamp" :1555905600
		},
	"2019-04-22T08:00:00+02:00" : {
		"windSpeed" : 3.4,
		"windDir" : 99,
		"rain" : 0,
		"cloudbase" : null,
		"flyability" : 0,
		"reason" : "windDir",
		"timestamp" :1555916400
		},
	"2019-04-22T11:00:00+02:00" : {
		"windSpeed" : 3.9,
		"windDir" : 84,
		"rain" : 0,
		"cloudbase" : 7865.13,
		"flyability" : 0,
		"reason" : "windDir",
		"timestamp" :1555927200
		},
	"2019-04-22T14:00:00+02:00" : {
		"windSpeed" : 5,
		"windDir" : 73,
		"rain" : 0,
		"cloudbase" : 8796.5853,
		"flyability" : 0,
		"reason" : "windDir",
		"timestamp" :1555938000
		},
	"2019-04-22T17:00:00+02:00" : {
		"windSpeed" : 5,
		"windDir" : 73,
		"rain" : 0,
		"cloudbase" : 7679.6094,
		"flyability" : 0,
		"reason" : "windDir",
		"timestamp" :1555948800
		},
	"2019-04-22T20:00:00+02:00" : {
		"windSpeed" : 4.8,
		"windDir" : 68,
		"rain" : 0,
		"cloudbase" : 7540.0241,
		"flyability" : 0,
		"reason" : "windDir",
		"timestamp" :1555959600
		},
	"2019-04-22T23:00:00+02:00" : {
		"windSpeed" : 4.9,
		"windDir" : 84,
		"rain" : 0,
		"cloudbase" : 10000,
		"flyability" : 0,
		"reason" : "windDir",
		"timestamp" :1555970400
		},
	"2019-04-23T02:00:00+02:00" : {
		"windSpeed" : 4,
		"windDir" : 90,
		"rain" : 0,
		"cloudbase" : null,
		"flyability" : 0,
		"reason" : "windDir",
		"timestamp" :1555981200
		},
	"2019-04-23T05:00:00+02:00" : {
		"windSpeed" : 4,
		"windDir" : 90,
		"rain" : 0,
		"cloudbase" : 8981,
		"flyability" : 0,
		"reason" : "windDir",
		"timestamp" :1555992000
		},
	"2019-04-23T08:00:00+02:00" : {
		"windSpeed" : 3.4,
		"windDir" : 92,
		"rain" : 0,
		"cloudbase" : 9545.0653,
		"flyability" : 0,
		"reason" : "windDir",
		"timestamp" :1556002800
		},
	"2019-04-23T11:00:00+02:00" : {
		"windSpeed" : 2.1,
		"windDir" : 102,
		"rain" : 0,
		"cloudbase" : 9205,
		"flyability" : 0,
		"reason" : "windDir",
		"timestamp" :1556013600
		},
	"2019-04-23T14:00:00+02:00" : {
		"windSpeed" : 2.8,
		"windDir" : 89,
		"rain" : 0,
		"cloudbase" : 4790.9347,
		"flyability" : 0,
		"reason" : "windDir",
		"timestamp" :1556024400
		},
	"2019-04-23T17:00:00+02:00" : {
		"windSpeed" : 2.9,
		"windDir" : 102,
		"rain" : 1,
		"cloudbase" : 4720.37,
		"flyability" : 0,
		"reason" : "windDir, rain",
		"timestamp" :1556035200
		},
	"2019-04-23T20:00:00+02:00" : {
		"windSpeed" : 1.5,
		"windDir" : 110,
		"rain" : 0,
		"cloudbase" : 6399.0665,
		"flyability" : 0,
		"reason" : "windDir",
		"timestamp" :1556046000
		},
	"2019-04-23T23:00:00+02:00" : {
		"windSpeed" : 1.7,
		"windDir" : 161,
		"rain" : 0,
		"cloudbase" : 9000,
		"flyability" : 0,
		"reason" : "windDir",
		"timestamp" :1556056800
		},
	"2019-04-24T02:00:00+02:00" : {
		"windSpeed" : 2.1,
		"windDir" : 192,
		"rain" : 0,
		"cloudbase" : null,
		"flyability" : 0,
		"reason" : "windDir",
		"timestamp" :1556067600
		},
	"2019-04-24T05:00:00+02:00" : {
		"windSpeed" : 5.2,
		"windDir" : 220,
		"rain" : 0,
		"cloudbase" : 6700,
		"flyability" : 0,
		"reason" : "windSpeed, windDir",
		"timestamp" :1556078400
		},
	"2019-04-24T08:00:00+02:00" : {
		"windSpeed" : 3.1,
		"windDir" : 216,
		"rain" : 0,
		"cloudbase" : null,
		"flyability" : 0,
		"reason" : "windDir",
		"timestamp" :1556089200
		},
	"2019-04-24T11:00:00+02:00" : {
		"windSpeed" : 1.2,
		"windDir" : 204,
		"rain" : 0,
		"cloudbase" : null,
		"flyability" : 0,
		"reason" : "windDir",
		"timestamp" :1556100000
		},
	"2019-04-24T14:00:00+02:00" : {
		"windSpeed" : 4.3,
		"windDir" : 116,
		"rain" : 0,
		"cloudbase" : 8842.3253,
		"flyability" : 0,
		"reason" : "windDir",
		"timestamp" :1556110800
		},
	"2019-04-24T17:00:00+02:00" : {
		"windSpeed" : 3.3,
		"windDir" : 236,
		"rain" : 0,
		"cloudbase" : 8256.6659,
		"flyability" : 0,
		"reason" : "windDir",
		"timestamp" :1556121600
		},
	"2019-04-24T20:00:00+02:00" : {
		"windSpeed" : 7.2,
		"windDir" : 240,
		"rain" : 0,
		"cloudbase" : 3813.8809,
		"flyability" : 0,
		"reason" : "windSpeed, windDir",
		"timestamp" :1556132400
		},
	"2019-04-24T23:00:00+02:00" : {
		"windSpeed" : 7,
		"windDir" : 235,
		"rain" : 0,
		"cloudbase" : 1729.33765,
		"flyability" : 0,
		"reason" : "windSpeed, windDir",
		"timestamp" :1556143200
		},
	"2019-04-25T02:00:00+02:00" : {
		"windSpeed" : 2.6,
		"windDir" : 148,
		"rain" : 1,
		"cloudbase" : 4431.23645,
		"flyability" : 0,
		"reason" : "windDir, rain",
		"timestamp" :1556154000
		},
	"2019-04-25T05:00:00+02:00" : {
		"windSpeed" : 2.5,
		"windDir" : 127,
		"rain" : 1,
		"cloudbase" : null,
		"flyability" : 0,
		"reason" : "windDir, rain",
		"timestamp" :1556164800
		},
	"2019-04-25T08:00:00+02:00" : {
		"windSpeed" : 4.4,
		"windDir" : 119,
		"rain" : 0,
		"cloudbase" : null,
		"flyability" : 0,
		"reason" : "windDir",
		"timestamp" :1556175600
		},
	"2019-04-25T11:00:00+02:00" : {
		"windSpeed" : 5,
		"windDir" : 120,
		"rain" : 1,
		"cloudbase" : null,
		"flyability" : 0,
		"reason" : "windDir, rain",
		"timestamp" :1556186400
		},
	"2019-04-25T14:00:00+02:00" : {
		"windSpeed" : 2.8,
		"windDir" : 124,
		"rain" : 0,
		"cloudbase" : null,
		"flyability" : 0,
		"reason" : "windDir",
		"timestamp" :1556197200
		},
	"2019-04-25T17:00:00+02:00" : {
		"windSpeed" : 2,
		"windDir" : 142,
		"rain" : 1,
		"cloudbase" : null,
		"flyability" : 0,
		"reason" : "windDir, rain",
		"timestamp" :1556208000
		},
	"2019-04-25T20:00:00+02:00" : {
		"windSpeed" : 4.9,
		"windDir" : 269,
		"rain" : 1,
		"cloudbase" : null,
		"flyability" : 0,
		"reason" : "windDir, rain",
		"timestamp" :1556218800
		},
	"2019-04-25T23:00:00+02:00" : {
		"windSpeed" : 4.9,
		"windDir" : 268,
		"rain" : 1,
		"cloudbase" : null,
		"flyability" : 0,
		"reason" : "windDir, rain",
		"timestamp" :1556229600
		},
	"2019-04-26T02:00:00+02:00" : {
		"windSpeed" : 5.8,
		"windDir" : 260,
		"rain" : 1,
		"cloudbase" : 1736.70675,
		"flyability" : 0,
		"reason" : "windSpeed, windDir, rain",
		"timestamp" :1556240400
		},
	"2019-04-26T05:00:00+02:00" : {
		"windSpeed" : 5.3,
		"windDir" : 236,
		"rain" : 1,
		"cloudbase" : 2644.1753,
		"flyability" : 0,
		"reason" : "windSpeed, windDir, rain",
		"timestamp" :1556251200
		},
	"2019-04-26T08:00:00+02:00" : {
		"windSpeed" : 3.9,
		"windDir" : 230,
		"rain" : 1,
		"cloudbase" : 4004.90265,
		"flyability" : 0,
		"reason" : "windDir, rain",
		"timestamp" :1556262000
		},
	"2019-04-26T11:00:00+02:00" : {
		"windSpeed" : 4.1,
		"windDir" : 249,
		"rain" : 0,
		"cloudbase" : 682.66711,
		"flyability" : 0,
		"reason" : "windDir",
		"timestamp" :1556272800
		},
	"2019-04-26T14:00:00+02:00" : {
		"windSpeed" : 3.8,
		"windDir" : 247,
		"rain" : 1,
		"cloudbase" : 5357.38025,
		"flyability" : 0,
		"reason" : "windDir, rain",
		"timestamp" :1556283600
		},
	"2019-04-26T17:00:00+02:00" : {
		"windSpeed" : 3.8,
		"windDir" : 246,
		"rain" : 0,
		"cloudbase" : 3648.74535,
		"flyability" : 0,
		"reason" : "windDir",
		"timestamp" :1556294400
		},
	"2019-04-26T20:00:00+02:00" : {
		"windSpeed" : 1.8,
		"windDir" : 235,
		"rain" : 0,
		"cloudbase" : 6173.3271,
		"flyability" : 0,
		"reason" : "windDir",
		"timestamp" :1556305200
		},
	"2019-04-26T23:00:00+02:00" : {
		"windSpeed" : 3.4,
		"windDir" : 206,
		"rain" : 0,
		"cloudbase" : null,
		"flyability" : 0,
		"reason" : "windDir",
		"timestamp" :1556316000
		},
	"2019-04-27T02:00:00+02:00" : {
		"windSpeed" : 4.5,
		"windDir" : 219,
		"rain" : 1,
		"cloudbase" : null,
		"flyability" : 0,
		"reason" : "windDir, rain",
		"timestamp" :1556326800
		},
	"2019-04-27T05:00:00+02:00" : {
		"windSpeed" : 4.2,
		"windDir" : 223,
		"rain" : 0,
		"cloudbase" : null,
		"flyability" : 0,
		"reason" : "windDir",
		"timestamp" :1556337600
		},
	"2019-04-27T08:00:00+02:00" : {
		"windSpeed" : 4.3,
		"windDir" : 224,
		"rain" : 0,
		"cloudbase" : 1864.71358,
		"flyability" : 0,
		"reason" : "windDir",
		"timestamp" :1556348400
		},
	"2019-04-27T11:00:00+02:00" : {
		"windSpeed" : 6.3,
		"windDir" : 247,
		"rain" : 1,
		"cloudbase" : 1014.17999,
		"flyability" : 0,
		"reason" : "windSpeed, windDir, rain",
		"timestamp" :1556359200
		},
	"2019-04-27T14:00:00+02:00" : {
		"windSpeed" : 7.4,
		"windDir" : 227,
		"rain" : 1,
		"cloudbase" : 923.39964,
		"flyability" : 0,
		"reason" : "windSpeed, windDir, rain",
		"timestamp" :1556370000
		},
	"2019-04-27T17:00:00+02:00" : {
		"windSpeed" : 7.9,
		"windDir" : 218,
		"rain" : 1,
		"cloudbase" : 2399.96615,
		"flyability" : 0,
		"reason" : "windSpeed, windDir, rain",
		"timestamp" :1556380800
		},
	"2019-04-27T20:00:00+02:00" : {
		"windSpeed" : 7.8,
		"windDir" : 251,
		"rain" : 1,
		"cloudbase" : 3056.87945,
		"flyability" : 0,
		"reason" : "windSpeed, windDir, rain",
		"timestamp" :1556391600
		},
	"2019-04-27T23:00:00+02:00" : {
		"windSpeed" : 8.7,
		"windDir" : 244,
		"rain" : 1,
		"cloudbase" : 604.93494,
		"flyability" : 0,
		"reason" : "windSpeed, windDir, rain",
		"timestamp" :1556402400
		},
	"2019-04-28T02:00:00+02:00" : {
		"windSpeed" : 8.3,
		"windDir" : 249,
		"rain" : 1,
		"cloudbase" : 385.72841,
		"flyability" : 0,
		"reason" : "windSpeed, windDir, rain, cloudbase",
		"timestamp" :1556413200
		}
	}
}