{
"site" : "La Madeleine",
"id" : 2925,
"orientations" : "22222222",
"forecasts" : { 
	"2019-04-14T05:00:00+02:00" : {
		"windSpeed" : 1.2,
		"windDir" : 250,
		"rain" : 0,
		"cloudbase" : 4446.0000000003,
		"flyability" : 100,
		"reason" : "",
		"timestamp" :1555214400
		},
	"2019-04-14T08:00:00+02:00" : {
		"windSpeed" : 0.9,
		"windDir" : 195,
		"rain" : 0,
		"cloudbase" : 2094.56,
		"flyability" : 100,
		"reason" : "",
		"timestamp" :1555225200
		},
	"2019-04-14T11:00:00+02:00" : {
		"windSpeed" : 0.6,
		"windDir" : 296,
		"rain" : 1,
		"cloudbase" : 1526,
		"flyability" : 0,
		"reason" : "rain",
		"timestamp" :1555236000
		},
	"2019-04-14T14:00:00+02:00" : {
		"windSpeed" : 0.7,
		"windDir" : 21,
		"rain" : 0,
		"cloudbase" : 1105.984,
		"flyability" : 100,
		"reason" : "",
		"timestamp" :1555246800
		},
	"2019-04-14T17:00:00+02:00" : {
		"windSpeed" : 1.1,
		"windDir" : 12,
		"rain" : 0,
		"cloudbase" : 1083.936,
		"flyability" : 100,
		"reason" : "",
		"timestamp" :1555257600
		},
	"2019-04-14T20:00:00+02:00" : {
		"windSpeed" : 0.8,
		"windDir" : 118,
		"rain" : 0,
		"cloudbase" : 10217.12,
		"flyability" : 100,
		"reason" : "",
		"timestamp" :1555268400
		},
	"2019-04-14T23:00:00+02:00" : {
		"windSpeed" : 1.4,
		"windDir" : 120,
		"rain" : 0,
		"cloudbase" : null,
		"flyability" : 100,
		"reason" : "",
		"timestamp" :1555279200
		},
	"2019-04-15T02:00:00+02:00" : {
		"windSpeed" : 1,
		"windDir" : 167,
		"rain" : 0,
		"cloudbase" : null,
		"flyability" : 100,
		"reason" : "",
		"timestamp" :1555290000
		},
	"2019-04-15T05:00:00+02:00" : {
		"windSpeed" : 1.2,
		"windDir" : 161,
		"rain" : 0,
		"cloudbase" : 10240,
		"flyability" : 100,
		"reason" : "",
		"timestamp" :1555300800
		},
	"2019-04-15T08:00:00+02:00" : {
		"windSpeed" : 1.2,
		"windDir" : 168,
		"rain" : 0,
		"cloudbase" : 8748.9600000001,
		"flyability" : 100,
		"reason" : "",
		"timestamp" :1555311600
		},
	"2019-04-15T11:00:00+02:00" : {
		"windSpeed" : 1,
		"windDir" : 75,
		"rain" : 0,
		"cloudbase" : 6114.24,
		"flyability" : 100,
		"reason" : "",
		"timestamp" :1555322400
		},
	"2019-04-15T14:00:00+02:00" : {
		"windSpeed" : 0.9,
		"windDir" : 96,
		"rain" : 0,
		"cloudbase" : 4990.32,
		"flyability" : 100,
		"reason" : "",
		"timestamp" :1555333200
		},
	"2019-04-15T17:00:00+02:00" : {
		"windSpeed" : 1.2,
		"windDir" : 38,
		"rain" : 0,
		"cloudbase" : 3927.76,
		"flyability" : 100,
		"reason" : "",
		"timestamp" :1555344000
		},
	"2019-04-15T20:00:00+02:00" : {
		"windSpeed" : 3,
		"windDir" : 312,
		"rain" : 1,
		"cloudbase" : 2768.2399999997,
		"flyability" : 0,
		"reason" : "rain",
		"timestamp" :1555354800
		},
	"2019-04-15T23:00:00+02:00" : {
		"windSpeed" : 4.6,
		"windDir" : 270,
		"rain" : 0,
		"cloudbase" : 1512.16,
		"flyability" : 100,
		"reason" : "",
		"timestamp" :1555365600
		},
	"2019-04-16T02:00:00+02:00" : {
		"windSpeed" : 2.4,
		"windDir" : 254,
		"rain" : 1,
		"cloudbase" : 1597.12,
		"flyability" : 0,
		"reason" : "rain",
		"timestamp" :1555376400
		},
	"2019-04-16T05:00:00+02:00" : {
		"windSpeed" : 3,
		"windDir" : 275,
		"rain" : 1,
		"cloudbase" : 370.64,
		"flyability" : 0,
		"reason" : "rain, cloudbase",
		"timestamp" :1555387200
		},
	"2019-04-16T08:00:00+02:00" : {
		"windSpeed" : 2.5,
		"windDir" : 270,
		"rain" : 1,
		"cloudbase" : null,
		"flyability" : 0,
		"reason" : "rain",
		"timestamp" :1555398000
		},
	"2019-04-16T11:00:00+02:00" : {
		"windSpeed" : 1.4,
		"windDir" : 285,
		"rain" : 0,
		"cloudbase" : null,
		"flyability" : 100,
		"reason" : "",
		"timestamp" :1555408800
		},
	"2019-04-16T14:00:00+02:00" : {
		"windSpeed" : 2.1,
		"windDir" : 323,
		"rain" : 0,
		"cloudbase" : null,
		"flyability" : 100,
		"reason" : "",
		"timestamp" :1555419600
		},
	"2019-04-16T17:00:00+02:00" : {
		"windSpeed" : 1.8,
		"windDir" : 45,
		"rain" : 0,
		"cloudbase" : null,
		"flyability" : 100,
		"reason" : "",
		"timestamp" :1555430400
		},
	"2019-04-16T20:00:00+02:00" : {
		"windSpeed" : 1.3,
		"windDir" : 90,
		"rain" : 0,
		"cloudbase" : null,
		"flyability" : 100,
		"reason" : "",
		"timestamp" :1555441200
		},
	"2019-04-16T23:00:00+02:00" : {
		"windSpeed" : 1.5,
		"windDir" : 146,
		"rain" : 1,
		"cloudbase" : null,
		"flyability" : 0,
		"reason" : "rain",
		"timestamp" :1555452000
		},
	"2019-04-17T02:00:00+02:00" : {
		"windSpeed" : 1.3,
		"windDir" : 192,
		"rain" : 1,
		"cloudbase" : 9578.88,
		"flyability" : 0,
		"reason" : "rain",
		"timestamp" :1555462800
		},
	"2019-04-17T05:00:00+02:00" : {
		"windSpeed" : 2,
		"windDir" : 173,
		"rain" : 0,
		"cloudbase" : 7869.12,
		"flyability" : 100,
		"reason" : "",
		"timestamp" :1555473600
		},
	"2019-04-17T08:00:00+02:00" : {
		"windSpeed" : 2,
		"windDir" : 162,
		"rain" : 0,
		"cloudbase" : 8545.76,
		"flyability" : 100,
		"reason" : "",
		"timestamp" :1555484400
		},
	"2019-04-17T11:00:00+02:00" : {
		"windSpeed" : 0.8,
		"windDir" : 99,
		"rain" : 0,
		"cloudbase" : 10217.12,
		"flyability" : 100,
		"reason" : "",
		"timestamp" :1555495200
		},
	"2019-04-17T14:00:00+02:00" : {
		"windSpeed" : 1.2,
		"windDir" : 70,
		"rain" : 1,
		"cloudbase" : 9903.52,
		"flyability" : 0,
		"reason" : "rain",
		"timestamp" :1555506000
		},
	"2019-04-17T17:00:00+02:00" : {
		"windSpeed" : 2.1,
		"windDir" : 86,
		"rain" : 1,
		"cloudbase" : null,
		"flyability" : 0,
		"reason" : "rain",
		"timestamp" :1555516800
		},
	"2019-04-17T20:00:00+02:00" : {
		"windSpeed" : 2,
		"windDir" : 70,
		"rain" : 0,
		"cloudbase" : 10583.2,
		"flyability" : 100,
		"reason" : "",
		"timestamp" :1555527600
		},
	"2019-04-17T23:00:00+02:00" : {
		"windSpeed" : 1.8,
		"windDir" : 185,
		"rain" : 1,
		"cloudbase" : 9667.36,
		"flyability" : 0,
		"reason" : "rain",
		"timestamp" :1555538400
		},
	"2019-04-18T02:00:00+02:00" : {
		"windSpeed" : 2.3,
		"windDir" : 189,
		"rain" : 0,
		"cloudbase" : 9161.76,
		"flyability" : 100,
		"reason" : "",
		"timestamp" :1555549200
		},
	"2019-04-18T05:00:00+02:00" : {
		"windSpeed" : 1.5,
		"windDir" : 190,
		"rain" : 0,
		"cloudbase" : 8470.88,
		"flyability" : 100,
		"reason" : "",
		"timestamp" :1555560000
		},
	"2019-04-18T08:00:00+02:00" : {
		"windSpeed" : 2.2,
		"windDir" : 183,
		"rain" : 0,
		"cloudbase" : 8244,
		"flyability" : 100,
		"reason" : "",
		"timestamp" :1555570800
		},
	"2019-04-18T11:00:00+02:00" : {
		"windSpeed" : 2.1,
		"windDir" : 24,
		"rain" : 0,
		"cloudbase" : 7437.9200000001,
		"flyability" : 100,
		"reason" : "",
		"timestamp" :1555581600
		},
	"2019-04-18T14:00:00+02:00" : {
		"windSpeed" : 1.4,
		"windDir" : 10,
		"rain" : 0,
		"cloudbase" : 5379.36,
		"flyability" : 100,
		"reason" : "",
		"timestamp" :1555592400
		},
	"2019-04-18T17:00:00+02:00" : {
		"windSpeed" : 0.9,
		"windDir" : 54,
		"rain" : 0,
		"cloudbase" : 8645.76,
		"flyability" : 100,
		"reason" : "",
		"timestamp" :1555603200
		},
	"2019-04-18T20:00:00+02:00" : {
		"windSpeed" : 0.5,
		"windDir" : 207,
		"rain" : 0,
		"cloudbase" : 6748,
		"flyability" : 100,
		"reason" : "",
		"timestamp" :1555614000
		},
	"2019-04-18T23:00:00+02:00" : {
		"windSpeed" : 0.9,
		"windDir" : 203,
		"rain" : 1,
		"cloudbase" : 6642.24,
		"flyability" : 0,
		"reason" : "rain",
		"timestamp" :1555624800
		},
	"2019-04-19T02:00:00+02:00" : {
		"windSpeed" : 1.2,
		"windDir" : 198,
		"rain" : 0,
		"cloudbase" : 7017.12,
		"flyability" : 100,
		"reason" : "",
		"timestamp" :1555635600
		},
	"2019-04-19T05:00:00+02:00" : {
		"windSpeed" : 1.9,
		"windDir" : 191,
		"rain" : 0,
		"cloudbase" : 8800,
		"flyability" : 100,
		"reason" : "",
		"timestamp" :1555646400
		},
	"2019-04-19T08:00:00+02:00" : {
		"windSpeed" : 1,
		"windDir" : 174,
		"rain" : 1,
		"cloudbase" : 9918.88,
		"flyability" : 0,
		"reason" : "rain",
		"timestamp" :1555657200
		},
	"2019-04-19T11:00:00+02:00" : {
		"windSpeed" : 1.3,
		"windDir" : 48,
		"rain" : 0,
		"cloudbase" : 9644,
		"flyability" : 100,
		"reason" : "",
		"timestamp" :1555668000
		},
	"2019-04-19T14:00:00+02:00" : {
		"windSpeed" : 2,
		"windDir" : 29,
		"rain" : 0,
		"cloudbase" : 8994.56,
		"flyability" : 100,
		"reason" : "",
		"timestamp" :1555678800
		},
	"2019-04-19T17:00:00+02:00" : {
		"windSpeed" : 1.7,
		"windDir" : 36,
		"rain" : 0,
		"cloudbase" : 4346,
		"flyability" : 100,
		"reason" : "",
		"timestamp" :1555689600
		},
	"2019-04-19T20:00:00+02:00" : {
		"windSpeed" : 0.7,
		"windDir" : 9,
		"rain" : 0,
		"cloudbase" : 6560.3200000003,
		"flyability" : 100,
		"reason" : "",
		"timestamp" :1555700400
		},
	"2019-04-19T23:00:00+02:00" : {
		"windSpeed" : 0.9,
		"windDir" : 253,
		"rain" : 0,
		"cloudbase" : 4382.48,
		"flyability" : 100,
		"reason" : "",
		"timestamp" :1555711200
		},
	"2019-04-20T02:00:00+02:00" : {
		"windSpeed" : 0.8,
		"windDir" : 189,
		"rain" : 0,
		"cloudbase" : null,
		"flyability" : 100,
		"reason" : "",
		"timestamp" :1555722000
		}
	}
}