{
"site" : "Serpentine",
"id" : 4663,
"orientations" : "00000111",
"forecasts" : { 
	"2019-04-04T23:00:00+08:00" : {
		"windSpeed" : 4.5,
		"windDir" : 179,
		"rain" : 0,
		"cloudbase" : null,
		"flyability" : 0,
		"reason" : "windDir",
		"timestamp" :1554393600
		},
	"2019-04-05T02:00:00+08:00" : {
		"windSpeed" : 2.6,
		"windDir" : 169,
		"rain" : 0,
		"cloudbase" : null,
		"flyability" : 0,
		"reason" : "windDir",
		"timestamp" :1554404400
		},
	"2019-04-05T05:00:00+08:00" : {
		"windSpeed" : 2.1,
		"windDir" : 135,
		"rain" : 0,
		"cloudbase" : null,
		"flyability" : 0,
		"reason" : "windDir",
		"timestamp" :1554415200
		},
	"2019-04-05T08:00:00+08:00" : {
		"windSpeed" : 2.9,
		"windDir" : 148,
		"rain" : 0,
		"cloudbase" : null,
		"flyability" : 0,
		"reason" : "windDir",
		"timestamp" :1554426000
		},
	"2019-04-05T11:00:00+08:00" : {
		"windSpeed" : 3.6,
		"windDir" : 124,
		"rain" : 0,
		"cloudbase" : null,
		"flyability" : 0,
		"reason" : "windDir",
		"timestamp" :1554436800
		},
	"2019-04-05T14:00:00+08:00" : {
		"windSpeed" : 2.9,
		"windDir" : 134,
		"rain" : 0,
		"cloudbase" : null,
		"flyability" : 0,
		"reason" : "windDir",
		"timestamp" :1554447600
		},
	"2019-04-05T17:00:00+08:00" : {
		"windSpeed" : 2.9,
		"windDir" : 122,
		"rain" : 0,
		"cloudbase" : null,
		"flyability" : 0,
		"reason" : "windDir",
		"timestamp" :1554458400
		},
	"2019-04-05T20:00:00+08:00" : {
		"windSpeed" : 1.7,
		"windDir" : 164,
		"rain" : 0,
		"cloudbase" : null,
		"flyability" : 0,
		"reason" : "windDir",
		"timestamp" :1554469200
		},
	"2019-04-05T23:00:00+08:00" : {
		"windSpeed" : 3.5,
		"windDir" : 98,
		"rain" : 0,
		"cloudbase" : null,
		"flyability" : 0,
		"reason" : "windDir",
		"timestamp" :1554480000
		},
	"2019-04-06T02:00:00+08:00" : {
		"windSpeed" : 3.4,
		"windDir" : 90,
		"rain" : 0,
		"cloudbase" : null,
		"flyability" : 0,
		"reason" : "windDir",
		"timestamp" :1554490800
		},
	"2019-04-06T05:00:00+08:00" : {
		"windSpeed" : 3.4,
		"windDir" : 99,
		"rain" : 0,
		"cloudbase" : null,
		"flyability" : 0,
		"reason" : "windDir",
		"timestamp" :1554501600
		},
	"2019-04-06T08:00:00+08:00" : {
		"windSpeed" : 3.6,
		"windDir" : 105,
		"rain" : 0,
		"cloudbase" : null,
		"flyability" : 0,
		"reason" : "windDir",
		"timestamp" :1554512400
		},
	"2019-04-06T11:00:00+08:00" : {
		"windSpeed" : 1.2,
		"windDir" : 205,
		"rain" : 0,
		"cloudbase" : null,
		"flyability" : 100,
		"reason" : "",
		"timestamp" :1554523200
		},
	"2019-04-06T14:00:00+08:00" : {
		"windSpeed" : 3.9,
		"windDir" : 230,
		"rain" : 0,
		"cloudbase" : null,
		"flyability" : 100,
		"reason" : "",
		"timestamp" :1554534000
		},
	"2019-04-06T17:00:00+08:00" : {
		"windSpeed" : 5,
		"windDir" : 217,
		"rain" : 0,
		"cloudbase" : null,
		"flyability" : 100,
		"reason" : "",
		"timestamp" :1554544800
		},
	"2019-04-06T20:00:00+08:00" : {
		"windSpeed" : 3,
		"windDir" : 189,
		"rain" : 0,
		"cloudbase" : null,
		"flyability" : 0,
		"reason" : "windDir",
		"timestamp" :1554555600
		},
	"2019-04-06T23:00:00+08:00" : {
		"windSpeed" : 3.6,
		"windDir" : 147,
		"rain" : 0,
		"cloudbase" : null,
		"flyability" : 0,
		"reason" : "windDir",
		"timestamp" :1554566400
		},
	"2019-04-07T02:00:00+08:00" : {
		"windSpeed" : 4.9,
		"windDir" : 126,
		"rain" : 0,
		"cloudbase" : null,
		"flyability" : 0,
		"reason" : "windDir",
		"timestamp" :1554577200
		},
	"2019-04-07T05:00:00+08:00" : {
		"windSpeed" : 4.7,
		"windDir" : 123,
		"rain" : 0,
		"cloudbase" : null,
		"flyability" : 0,
		"reason" : "windDir",
		"timestamp" :1554588000
		},
	"2019-04-07T08:00:00+08:00" : {
		"windSpeed" : 4.5,
		"windDir" : 117,
		"rain" : 0,
		"cloudbase" : null,
		"flyability" : 0,
		"reason" : "windDir",
		"timestamp" :1554598800
		},
	"2019-04-07T11:00:00+08:00" : {
		"windSpeed" : 4.3,
		"windDir" : 111,
		"rain" : 0,
		"cloudbase" : null,
		"flyability" : 0,
		"reason" : "windDir",
		"timestamp" :1554609600
		},
	"2019-04-07T14:00:00+08:00" : {
		"windSpeed" : 3.2,
		"windDir" : 129,
		"rain" : 0,
		"cloudbase" : null,
		"flyability" : 0,
		"reason" : "windDir",
		"timestamp" :1554620400
		},
	"2019-04-07T17:00:00+08:00" : {
		"windSpeed" : 2.5,
		"windDir" : 146,
		"rain" : 0,
		"cloudbase" : null,
		"flyability" : 0,
		"reason" : "windDir",
		"timestamp" :1554631200
		},
	"2019-04-07T20:00:00+08:00" : {
		"windSpeed" : 2.5,
		"windDir" : 143,
		"rain" : 0,
		"cloudbase" : null,
		"flyability" : 0,
		"reason" : "windDir",
		"timestamp" :1554642000
		},
	"2019-04-07T23:00:00+08:00" : {
		"windSpeed" : 4.1,
		"windDir" : 104,
		"rain" : 0,
		"cloudbase" : null,
		"flyability" : 0,
		"reason" : "windDir",
		"timestamp" :1554652800
		},
	"2019-04-08T02:00:00+08:00" : {
		"windSpeed" : 5.7,
		"windDir" : 106,
		"rain" : 0,
		"cloudbase" : null,
		"flyability" : 0,
		"reason" : "windSpeed, windDir",
		"timestamp" :1554663600
		},
	"2019-04-08T05:00:00+08:00" : {
		"windSpeed" : 6.6,
		"windDir" : 103,
		"rain" : 0,
		"cloudbase" : null,
		"flyability" : 0,
		"reason" : "windSpeed, windDir",
		"timestamp" :1554674400
		},
	"2019-04-08T08:00:00+08:00" : {
		"windSpeed" : 7.1,
		"windDir" : 102,
		"rain" : 0,
		"cloudbase" : null,
		"flyability" : 0,
		"reason" : "windSpeed, windDir",
		"timestamp" :1554685200
		},
	"2019-04-08T11:00:00+08:00" : {
		"windSpeed" : 6,
		"windDir" : 95,
		"rain" : 0,
		"cloudbase" : null,
		"flyability" : 0,
		"reason" : "windSpeed, windDir",
		"timestamp" :1554696000
		},
	"2019-04-08T14:00:00+08:00" : {
		"windSpeed" : 4,
		"windDir" : 98,
		"rain" : 0,
		"cloudbase" : null,
		"flyability" : 0,
		"reason" : "windDir",
		"timestamp" :1554706800
		},
	"2019-04-08T17:00:00+08:00" : {
		"windSpeed" : 4.2,
		"windDir" : 105,
		"rain" : 0,
		"cloudbase" : null,
		"flyability" : 0,
		"reason" : "windDir",
		"timestamp" :1554717600
		},
	"2019-04-08T20:00:00+08:00" : {
		"windSpeed" : 6.2,
		"windDir" : 104,
		"rain" : 0,
		"cloudbase" : null,
		"flyability" : 0,
		"reason" : "windSpeed, windDir",
		"timestamp" :1554728400
		},
	"2019-04-08T23:00:00+08:00" : {
		"windSpeed" : 7,
		"windDir" : 94,
		"rain" : 0,
		"cloudbase" : 10000,
		"flyability" : 0,
		"reason" : "windSpeed, windDir",
		"timestamp" :1554739200
		},
	"2019-04-09T02:00:00+08:00" : {
		"windSpeed" : 7.9,
		"windDir" : 90,
		"rain" : 0,
		"cloudbase" : null,
		"flyability" : 0,
		"reason" : "windSpeed, windDir",
		"timestamp" :1554750000
		},
	"2019-04-09T05:00:00+08:00" : {
		"windSpeed" : 7.9,
		"windDir" : 89,
		"rain" : 0,
		"cloudbase" : null,
		"flyability" : 0,
		"reason" : "windSpeed, windDir",
		"timestamp" :1554760800
		},
	"2019-04-09T08:00:00+08:00" : {
		"windSpeed" : 7.9,
		"windDir" : 86,
		"rain" : 0,
		"cloudbase" : null,
		"flyability" : 0,
		"reason" : "windSpeed, windDir",
		"timestamp" :1554771600
		},
	"2019-04-09T11:00:00+08:00" : {
		"windSpeed" : 5.2,
		"windDir" : 73,
		"rain" : 0,
		"cloudbase" : null,
		"flyability" : 0,
		"reason" : "windSpeed, windDir",
		"timestamp" :1554782400
		},
	"2019-04-09T14:00:00+08:00" : {
		"windSpeed" : 2.8,
		"windDir" : 59,
		"rain" : 0,
		"cloudbase" : null,
		"flyability" : 0,
		"reason" : "windDir",
		"timestamp" :1554793200
		},
	"2019-04-09T17:00:00+08:00" : {
		"windSpeed" : 1,
		"windDir" : 88,
		"rain" : 0,
		"cloudbase" : 7800,
		"flyability" : 0,
		"reason" : "windDir",
		"timestamp" :1554804000
		},
	"2019-04-09T20:00:00+08:00" : {
		"windSpeed" : 3.9,
		"windDir" : 90,
		"rain" : 0,
		"cloudbase" : null,
		"flyability" : 0,
		"reason" : "windDir",
		"timestamp" :1554814800
		},
	"2019-04-09T23:00:00+08:00" : {
		"windSpeed" : 5,
		"windDir" : 84,
		"rain" : 0,
		"cloudbase" : 7483.968,
		"flyability" : 0,
		"reason" : "windDir",
		"timestamp" :1554825600
		},
	"2019-04-10T02:00:00+08:00" : {
		"windSpeed" : 5.3,
		"windDir" : 68,
		"rain" : 0,
		"cloudbase" : 7655.2360000001,
		"flyability" : 0,
		"reason" : "windSpeed, windDir",
		"timestamp" :1554836400
		},
	"2019-04-10T05:00:00+08:00" : {
		"windSpeed" : 3.2,
		"windDir" : 51,
		"rain" : 0,
		"cloudbase" : null,
		"flyability" : 0,
		"reason" : "windDir",
		"timestamp" :1554847200
		},
	"2019-04-10T08:00:00+08:00" : {
		"windSpeed" : 3.1,
		"windDir" : 11,
		"rain" : 0,
		"cloudbase" : null,
		"flyability" : 0,
		"reason" : "windDir",
		"timestamp" :1554858000
		},
	"2019-04-10T11:00:00+08:00" : {
		"windSpeed" : 3.8,
		"windDir" : 293,
		"rain" : 0,
		"cloudbase" : null,
		"flyability" : 100,
		"reason" : "",
		"timestamp" :1554868800
		},
	"2019-04-10T14:00:00+08:00" : {
		"windSpeed" : 4,
		"windDir" : 264,
		"rain" : 0,
		"cloudbase" : null,
		"flyability" : 100,
		"reason" : "",
		"timestamp" :1554879600
		},
	"2019-04-10T17:00:00+08:00" : {
		"windSpeed" : 3.5,
		"windDir" : 263,
		"rain" : 0,
		"cloudbase" : null,
		"flyability" : 100,
		"reason" : "",
		"timestamp" :1554890400
		},
	"2019-04-10T20:00:00+08:00" : {
		"windSpeed" : 2.9,
		"windDir" : 239,
		"rain" : 0,
		"cloudbase" : null,
		"flyability" : 100,
		"reason" : "",
		"timestamp" :1554901200
		}
	}
}