{
"site" : "Emam Zadeh Hashem (Mosha)",
"id" : 51,
"orientations" : "00012100",
"forecasts" : { 
	"2019-04-05T07:30:00+04:30" : {
		"windSpeed" : 2,
		"windDir" : 43,
		"rain" : 0,
		"cloudbase" : null,
		"flyability" : 0,
		"reason" : "windDir",
		"timestamp" :1554429600
		},
	"2019-04-05T10:30:00+04:30" : {
		"windSpeed" : 0.3,
		"windDir" : 135,
		"rain" : 0,
		"cloudbase" : null,
		"flyability" : 100,
		"reason" : "",
		"timestamp" :1554440400
		},
	"2019-04-05T13:30:00+04:30" : {
		"windSpeed" : 1.7,
		"windDir" : 264,
		"rain" : 0,
		"cloudbase" : 7600,
		"flyability" : 0,
		"reason" : "windDir",
		"timestamp" :1554451200
		},
	"2019-04-05T16:30:00+04:30" : {
		"windSpeed" : 1.2,
		"windDir" : 313,
		"rain" : 0,
		"cloudbase" : 7385.04,
		"flyability" : 0,
		"reason" : "windDir",
		"timestamp" :1554462000
		},
	"2019-04-05T19:30:00+04:30" : {
		"windSpeed" : 2.1,
		"windDir" : 26,
		"rain" : 0,
		"cloudbase" : 5400,
		"flyability" : 0,
		"reason" : "windDir",
		"timestamp" :1554472800
		},
	"2019-04-05T22:30:00+04:30" : {
		"windSpeed" : 2.4,
		"windDir" : 31,
		"rain" : 1,
		"cloudbase" : 3447,
		"flyability" : 0,
		"reason" : "windDir, rain",
		"timestamp" :1554483600
		},
	"2019-04-06T01:30:00+04:30" : {
		"windSpeed" : 1.1,
		"windDir" : 68,
		"rain" : 0,
		"cloudbase" : 4100.38,
		"flyability" : 0,
		"reason" : "windDir",
		"timestamp" :1554494400
		},
	"2019-04-06T04:30:00+04:30" : {
		"windSpeed" : 1,
		"windDir" : 52,
		"rain" : 1,
		"cloudbase" : 1873.14,
		"flyability" : 0,
		"reason" : "windDir, rain, cloudbase",
		"timestamp" :1554505200
		},
	"2019-04-06T07:30:00+04:30" : {
		"windSpeed" : 1.8,
		"windDir" : 5,
		"rain" : 1,
		"cloudbase" : 2493.1599999999,
		"flyability" : 0,
		"reason" : "windDir, rain, cloudbase",
		"timestamp" :1554516000
		},
	"2019-04-06T10:30:00+04:30" : {
		"windSpeed" : 0.9,
		"windDir" : 23,
		"rain" : 1,
		"cloudbase" : 1403.38,
		"flyability" : 0,
		"reason" : "windDir, rain, cloudbase",
		"timestamp" :1554526800
		},
	"2019-04-06T13:30:00+04:30" : {
		"windSpeed" : 1.3,
		"windDir" : 293,
		"rain" : 0,
		"cloudbase" : 1247.76,
		"flyability" : 0,
		"reason" : "windDir, cloudbase",
		"timestamp" :1554537600
		},
	"2019-04-06T16:30:00+04:30" : {
		"windSpeed" : 1.3,
		"windDir" : 13,
		"rain" : 1,
		"cloudbase" : 5644.9999999999,
		"flyability" : 0,
		"reason" : "windDir, rain",
		"timestamp" :1554548400
		},
	"2019-04-06T19:30:00+04:30" : {
		"windSpeed" : 1.2,
		"windDir" : 17,
		"rain" : 1,
		"cloudbase" : 4600.6000000003,
		"flyability" : 0,
		"reason" : "windDir, rain",
		"timestamp" :1554559200
		},
	"2019-04-06T22:30:00+04:30" : {
		"windSpeed" : 1.5,
		"windDir" : 38,
		"rain" : 1,
		"cloudbase" : 618.532,
		"flyability" : 0,
		"reason" : "windDir, rain, cloudbase",
		"timestamp" :1554570000
		},
	"2019-04-07T01:30:00+04:30" : {
		"windSpeed" : 1.5,
		"windDir" : 38,
		"rain" : 1,
		"cloudbase" : 378.944,
		"flyability" : 0,
		"reason" : "windDir, rain, cloudbase",
		"timestamp" :1554580800
		},
	"2019-04-07T04:30:00+04:30" : {
		"windSpeed" : 1.6,
		"windDir" : 35,
		"rain" : 1,
		"cloudbase" : 1782.2680000001,
		"flyability" : 0,
		"reason" : "windDir, rain, cloudbase",
		"timestamp" :1554591600
		},
	"2019-04-07T07:30:00+04:30" : {
		"windSpeed" : 1.5,
		"windDir" : 47,
		"rain" : 1,
		"cloudbase" : 641.69999999999,
		"flyability" : 0,
		"reason" : "windDir, rain, cloudbase",
		"timestamp" :1554602400
		},
	"2019-04-07T10:30:00+04:30" : {
		"windSpeed" : 1.3,
		"windDir" : 57,
		"rain" : 1,
		"cloudbase" : 4172.1199999997,
		"flyability" : 0,
		"reason" : "windDir, rain",
		"timestamp" :1554613200
		},
	"2019-04-07T13:30:00+04:30" : {
		"windSpeed" : 1.1,
		"windDir" : 62,
		"rain" : 1,
		"cloudbase" : 1213.72,
		"flyability" : 0,
		"reason" : "windDir, rain, cloudbase",
		"timestamp" :1554624000
		},
	"2019-04-07T16:30:00+04:30" : {
		"windSpeed" : 1.4,
		"windDir" : 39,
		"rain" : 1,
		"cloudbase" : 730.43999999999,
		"flyability" : 0,
		"reason" : "windDir, rain, cloudbase",
		"timestamp" :1554634800
		},
	"2019-04-07T19:30:00+04:30" : {
		"windSpeed" : 1.7,
		"windDir" : 53,
		"rain" : 1,
		"cloudbase" : 1001.484,
		"flyability" : 0,
		"reason" : "windDir, rain, cloudbase",
		"timestamp" :1554645600
		},
	"2019-04-07T22:30:00+04:30" : {
		"windSpeed" : 1.1,
		"windDir" : 46,
		"rain" : 0,
		"cloudbase" : 1600,
		"flyability" : 0,
		"reason" : "windDir, cloudbase",
		"timestamp" :1554656400
		},
	"2019-04-08T01:30:00+04:30" : {
		"windSpeed" : 1.2,
		"windDir" : 37,
		"rain" : 0,
		"cloudbase" : null,
		"flyability" : 0,
		"reason" : "windDir",
		"timestamp" :1554667200
		},
	"2019-04-08T04:30:00+04:30" : {
		"windSpeed" : 2,
		"windDir" : 32,
		"rain" : 0,
		"cloudbase" : null,
		"flyability" : 0,
		"reason" : "windDir",
		"timestamp" :1554678000
		},
	"2019-04-08T07:30:00+04:30" : {
		"windSpeed" : 2.2,
		"windDir" : 48,
		"rain" : 0,
		"cloudbase" : 30,
		"flyability" : 0,
		"reason" : "windDir, cloudbase",
		"timestamp" :1554688800
		},
	"2019-04-08T10:30:00+04:30" : {
		"windSpeed" : 0.9,
		"windDir" : 84,
		"rain" : 0,
		"cloudbase" : null,
		"flyability" : 0,
		"reason" : "windDir",
		"timestamp" :1554699600
		},
	"2019-04-08T13:30:00+04:30" : {
		"windSpeed" : 1.2,
		"windDir" : 267,
		"rain" : 0,
		"cloudbase" : null,
		"flyability" : 0,
		"reason" : "windDir",
		"timestamp" :1554710400
		},
	"2019-04-08T16:30:00+04:30" : {
		"windSpeed" : 0.9,
		"windDir" : 310,
		"rain" : 1,
		"cloudbase" : 4901.88,
		"flyability" : 0,
		"reason" : "windDir, rain",
		"timestamp" :1554721200
		},
	"2019-04-08T19:30:00+04:30" : {
		"windSpeed" : 1.5,
		"windDir" : 31,
		"rain" : 0,
		"cloudbase" : null,
		"flyability" : 0,
		"reason" : "windDir",
		"timestamp" :1554732000
		},
	"2019-04-08T22:30:00+04:30" : {
		"windSpeed" : 1.7,
		"windDir" : 42,
		"rain" : 0,
		"cloudbase" : null,
		"flyability" : 0,
		"reason" : "windDir",
		"timestamp" :1554742800
		},
	"2019-04-09T01:30:00+04:30" : {
		"windSpeed" : 1.7,
		"windDir" : 41,
		"rain" : 0,
		"cloudbase" : null,
		"flyability" : 0,
		"reason" : "windDir",
		"timestamp" :1554753600
		},
	"2019-04-09T04:30:00+04:30" : {
		"windSpeed" : 1.8,
		"windDir" : 39,
		"rain" : 0,
		"cloudbase" : null,
		"flyability" : 0,
		"reason" : "windDir",
		"timestamp" :1554764400
		},
	"2019-04-09T07:30:00+04:30" : {
		"windSpeed" : 1.9,
		"windDir" : 39,
		"rain" : 0,
		"cloudbase" : null,
		"flyability" : 0,
		"reason" : "windDir",
		"timestamp" :1554775200
		},
	"2019-04-09T10:30:00+04:30" : {
		"windSpeed" : 0.2,
		"windDir" : 14,
		"rain" : 0,
		"cloudbase" : null,
		"flyability" : 0,
		"reason" : "windDir",
		"timestamp" :1554786000
		},
	"2019-04-09T13:30:00+04:30" : {
		"windSpeed" : 1.5,
		"windDir" : 267,
		"rain" : 0,
		"cloudbase" : null,
		"flyability" : 0,
		"reason" : "windDir",
		"timestamp" :1554796800
		},
	"2019-04-09T16:30:00+04:30" : {
		"windSpeed" : 1.7,
		"windDir" : 303,
		"rain" : 1,
		"cloudbase" : 390,
		"flyability" : 0,
		"reason" : "windDir, rain, cloudbase",
		"timestamp" :1554807600
		},
	"2019-04-09T19:30:00+04:30" : {
		"windSpeed" : 1.2,
		"windDir" : 43,
		"rain" : 0,
		"cloudbase" : null,
		"flyability" : 0,
		"reason" : "windDir",
		"timestamp" :1554818400
		},
	"2019-04-09T22:30:00+04:30" : {
		"windSpeed" : 1.5,
		"windDir" : 35,
		"rain" : 1,
		"cloudbase" : null,
		"flyability" : 0,
		"reason" : "windDir, rain",
		"timestamp" :1554829200
		},
	"2019-04-10T01:30:00+04:30" : {
		"windSpeed" : 1.5,
		"windDir" : 35,
		"rain" : 0,
		"cloudbase" : null,
		"flyability" : 0,
		"reason" : "windDir",
		"timestamp" :1554840000
		},
	"2019-04-10T04:30:00+04:30" : {
		"windSpeed" : 1.5,
		"windDir" : 35,
		"rain" : 0,
		"cloudbase" : null,
		"flyability" : 0,
		"reason" : "windDir",
		"timestamp" :1554850800
		},
	"2019-04-10T07:30:00+04:30" : {
		"windSpeed" : 1.6,
		"windDir" : 41,
		"rain" : 0,
		"cloudbase" : null,
		"flyability" : 0,
		"reason" : "windDir",
		"timestamp" :1554861600
		},
	"2019-04-10T10:30:00+04:30" : {
		"windSpeed" : 1,
		"windDir" : 229,
		"rain" : 0,
		"cloudbase" : null,
		"flyability" : 100,
		"reason" : "",
		"timestamp" :1554872400
		},
	"2019-04-10T13:30:00+04:30" : {
		"windSpeed" : 2,
		"windDir" : 265,
		"rain" : 0,
		"cloudbase" : null,
		"flyability" : 0,
		"reason" : "windDir",
		"timestamp" :1554883200
		},
	"2019-04-10T16:30:00+04:30" : {
		"windSpeed" : 1.8,
		"windDir" : 259,
		"rain" : 0,
		"cloudbase" : null,
		"flyability" : 0,
		"reason" : "windDir",
		"timestamp" :1554894000
		},
	"2019-04-10T19:30:00+04:30" : {
		"windSpeed" : 1,
		"windDir" : 26,
		"rain" : 0,
		"cloudbase" : null,
		"flyability" : 0,
		"reason" : "windDir",
		"timestamp" :1554904800
		},
	"2019-04-10T22:30:00+04:30" : {
		"windSpeed" : 1.6,
		"windDir" : 41,
		"rain" : 0,
		"cloudbase" : null,
		"flyability" : 0,
		"reason" : "windDir",
		"timestamp" :1554915600
		},
	"2019-04-11T01:30:00+04:30" : {
		"windSpeed" : 1.8,
		"windDir" : 40,
		"rain" : 0,
		"cloudbase" : null,
		"flyability" : 0,
		"reason" : "windDir",
		"timestamp" :1554926400
		},
	"2019-04-11T04:30:00+04:30" : {
		"windSpeed" : 1.6,
		"windDir" : 43,
		"rain" : 0,
		"cloudbase" : null,
		"flyability" : 0,
		"reason" : "windDir",
		"timestamp" :1554937200
		}
	}
}