{
"site" : "Branscombe",
"id" : 6208,
"orientations" : "00000000",
"forecasts" : { 
	"2019-04-21T16:00:00+01:00" : {
		"windSpeed" : 0.9,
		"windDir" : 201,
		"rain" : 0,
		"cloudbase" : null,
		"flyability" : -50,
		"reason" : "orientationsUnknown",
		"timestamp" :1555855200
		},
	"2019-04-21T19:00:00+01:00" : {
		"windSpeed" : 2,
		"windDir" : 187,
		"rain" : 0,
		"cloudbase" : null,
		"flyability" : -50,
		"reason" : "orientationsUnknown",
		"timestamp" :1555866000
		},
	"2019-04-21T22:00:00+01:00" : {
		"windSpeed" : 2.4,
		"windDir" : 76,
		"rain" : 0,
		"cloudbase" : null,
		"flyability" : -50,
		"reason" : "orientationsUnknown",
		"timestamp" :1555876800
		},
	"2019-04-22T01:00:00+01:00" : {
		"windSpeed" : 3.1,
		"windDir" : 90,
		"rain" : 0,
		"cloudbase" : null,
		"flyability" : -50,
		"reason" : "orientationsUnknown",
		"timestamp" :1555887600
		},
	"2019-04-22T04:00:00+01:00" : {
		"windSpeed" : 2.9,
		"windDir" : 89,
		"rain" : 0,
		"cloudbase" : null,
		"flyability" : -50,
		"reason" : "orientationsUnknown",
		"timestamp" :1555898400
		},
	"2019-04-22T07:00:00+01:00" : {
		"windSpeed" : 3.4,
		"windDir" : 95,
		"rain" : 0,
		"cloudbase" : null,
		"flyability" : -50,
		"reason" : "orientationsUnknown",
		"timestamp" :1555909200
		},
	"2019-04-22T10:00:00+01:00" : {
		"windSpeed" : 5.3,
		"windDir" : 105,
		"rain" : 0,
		"cloudbase" : null,
		"flyability" : -0,
		"reason" : "windSpeed, orientationsUnknown",
		"timestamp" :1555920000
		},
	"2019-04-22T13:00:00+01:00" : {
		"windSpeed" : 4.1,
		"windDir" : 121,
		"rain" : 0,
		"cloudbase" : 3690.0478,
		"flyability" : -50,
		"reason" : "orientationsUnknown",
		"timestamp" :1555930800
		},
	"2019-04-22T16:00:00+01:00" : {
		"windSpeed" : 3.9,
		"windDir" : 129,
		"rain" : 0,
		"cloudbase" : null,
		"flyability" : -50,
		"reason" : "orientationsUnknown",
		"timestamp" :1555941600
		},
	"2019-04-22T19:00:00+01:00" : {
		"windSpeed" : 3.1,
		"windDir" : 97,
		"rain" : 0,
		"cloudbase" : null,
		"flyability" : -50,
		"reason" : "orientationsUnknown",
		"timestamp" :1555952400
		},
	"2019-04-22T22:00:00+01:00" : {
		"windSpeed" : 2.5,
		"windDir" : 77,
		"rain" : 0,
		"cloudbase" : 3032.6348,
		"flyability" : -50,
		"reason" : "orientationsUnknown",
		"timestamp" :1555963200
		},
	"2019-04-23T01:00:00+01:00" : {
		"windSpeed" : 3.9,
		"windDir" : 74,
		"rain" : 0,
		"cloudbase" : 2718,
		"flyability" : -50,
		"reason" : "orientationsUnknown",
		"timestamp" :1555974000
		},
	"2019-04-23T04:00:00+01:00" : {
		"windSpeed" : 3.9,
		"windDir" : 91,
		"rain" : 0,
		"cloudbase" : 2294.71,
		"flyability" : -50,
		"reason" : "orientationsUnknown",
		"timestamp" :1555984800
		},
	"2019-04-23T07:00:00+01:00" : {
		"windSpeed" : 3.4,
		"windDir" : 88,
		"rain" : 0,
		"cloudbase" : null,
		"flyability" : -50,
		"reason" : "orientationsUnknown",
		"timestamp" :1555995600
		},
	"2019-04-23T10:00:00+01:00" : {
		"windSpeed" : 4.4,
		"windDir" : 116,
		"rain" : 0,
		"cloudbase" : null,
		"flyability" : -50,
		"reason" : "orientationsUnknown",
		"timestamp" :1556006400
		},
	"2019-04-23T13:00:00+01:00" : {
		"windSpeed" : 3.9,
		"windDir" : 128,
		"rain" : 0,
		"cloudbase" : 9200,
		"flyability" : -50,
		"reason" : "orientationsUnknown",
		"timestamp" :1556017200
		},
	"2019-04-23T16:00:00+01:00" : {
		"windSpeed" : 2.1,
		"windDir" : 100,
		"rain" : 0,
		"cloudbase" : 3136.0274,
		"flyability" : -50,
		"reason" : "orientationsUnknown",
		"timestamp" :1556028000
		},
	"2019-04-23T19:00:00+01:00" : {
		"windSpeed" : 2.1,
		"windDir" : 133,
		"rain" : 0,
		"cloudbase" : 5688,
		"flyability" : -50,
		"reason" : "orientationsUnknown",
		"timestamp" :1556038800
		},
	"2019-04-23T22:00:00+01:00" : {
		"windSpeed" : 2.1,
		"windDir" : 60,
		"rain" : 1,
		"cloudbase" : 3148.935,
		"flyability" : -0,
		"reason" : "orientationsUnknown, rain",
		"timestamp" :1556049600
		},
	"2019-04-24T01:00:00+01:00" : {
		"windSpeed" : 2.1,
		"windDir" : 90,
		"rain" : 1,
		"cloudbase" : 3534.6826,
		"flyability" : -0,
		"reason" : "orientationsUnknown, rain",
		"timestamp" :1556060400
		},
	"2019-04-24T04:00:00+01:00" : {
		"windSpeed" : 3.2,
		"windDir" : 82,
		"rain" : 1,
		"cloudbase" : 9145.3104,
		"flyability" : -0,
		"reason" : "orientationsUnknown, rain",
		"timestamp" :1556071200
		},
	"2019-04-24T07:00:00+01:00" : {
		"windSpeed" : 4.2,
		"windDir" : 104,
		"rain" : 1,
		"cloudbase" : 560,
		"flyability" : -0,
		"reason" : "orientationsUnknown, rain",
		"timestamp" :1556082000
		},
	"2019-04-24T10:00:00+01:00" : {
		"windSpeed" : 5.4,
		"windDir" : 150,
		"rain" : 1,
		"cloudbase" : 95.276479999995,
		"flyability" : -0,
		"reason" : "windSpeed, orientationsUnknown, rain, cloudbase",
		"timestamp" :1556092800
		},
	"2019-04-24T13:00:00+01:00" : {
		"windSpeed" : 5.4,
		"windDir" : 227,
		"rain" : 1,
		"cloudbase" : 1477.3174,
		"flyability" : -0,
		"reason" : "windSpeed, orientationsUnknown, rain",
		"timestamp" :1556103600
		},
	"2019-04-24T16:00:00+01:00" : {
		"windSpeed" : 6.6,
		"windDir" : 200,
		"rain" : 1,
		"cloudbase" : 3065.9522,
		"flyability" : -0,
		"reason" : "windSpeed, orientationsUnknown, rain",
		"timestamp" :1556114400
		},
	"2019-04-24T19:00:00+01:00" : {
		"windSpeed" : 4.9,
		"windDir" : 160,
		"rain" : 1,
		"cloudbase" : 4521.3174,
		"flyability" : -0,
		"reason" : "orientationsUnknown, rain",
		"timestamp" :1556125200
		},
	"2019-04-24T22:00:00+01:00" : {
		"windSpeed" : 7.1,
		"windDir" : 145,
		"rain" : 1,
		"cloudbase" : 1850,
		"flyability" : -0,
		"reason" : "windSpeed, orientationsUnknown, rain",
		"timestamp" :1556136000
		},
	"2019-04-25T01:00:00+01:00" : {
		"windSpeed" : 7.6,
		"windDir" : 138,
		"rain" : 1,
		"cloudbase" : 6076,
		"flyability" : -0,
		"reason" : "windSpeed, orientationsUnknown, rain",
		"timestamp" :1556146800
		},
	"2019-04-25T04:00:00+01:00" : {
		"windSpeed" : 8.8,
		"windDir" : 134,
		"rain" : 1,
		"cloudbase" : 1302.6826,
		"flyability" : -0,
		"reason" : "windSpeed, orientationsUnknown, rain",
		"timestamp" :1556157600
		},
	"2019-04-25T07:00:00+01:00" : {
		"windSpeed" : 7.9,
		"windDir" : 166,
		"rain" : 1,
		"cloudbase" : 621.59043999995,
		"flyability" : -0,
		"reason" : "windSpeed, orientationsUnknown, rain",
		"timestamp" :1556168400
		},
	"2019-04-25T10:00:00+01:00" : {
		"windSpeed" : 6.7,
		"windDir" : 172,
		"rain" : 1,
		"cloudbase" : null,
		"flyability" : -0,
		"reason" : "windSpeed, orientationsUnknown, rain",
		"timestamp" :1556179200
		},
	"2019-04-25T13:00:00+01:00" : {
		"windSpeed" : 7.6,
		"windDir" : 184,
		"rain" : 1,
		"cloudbase" : 6066.0204,
		"flyability" : -0,
		"reason" : "windSpeed, orientationsUnknown, rain",
		"timestamp" :1556190000
		},
	"2019-04-25T16:00:00+01:00" : {
		"windSpeed" : 6.7,
		"windDir" : 189,
		"rain" : 1,
		"cloudbase" : 6867.29,
		"flyability" : -0,
		"reason" : "windSpeed, orientationsUnknown, rain",
		"timestamp" :1556200800
		},
	"2019-04-25T19:00:00+01:00" : {
		"windSpeed" : 5.2,
		"windDir" : 201,
		"rain" : 0,
		"cloudbase" : 6484.0408,
		"flyability" : -0,
		"reason" : "windSpeed, orientationsUnknown",
		"timestamp" :1556211600
		},
	"2019-04-25T22:00:00+01:00" : {
		"windSpeed" : 5,
		"windDir" : 190,
		"rain" : 1,
		"cloudbase" : 6100,
		"flyability" : -0,
		"reason" : "orientationsUnknown, rain",
		"timestamp" :1556222400
		},
	"2019-04-26T01:00:00+01:00" : {
		"windSpeed" : 4.8,
		"windDir" : 189,
		"rain" : 1,
		"cloudbase" : null,
		"flyability" : -0,
		"reason" : "orientationsUnknown, rain",
		"timestamp" :1556233200
		},
	"2019-04-26T04:00:00+01:00" : {
		"windSpeed" : 5.4,
		"windDir" : 177,
		"rain" : 1,
		"cloudbase" : 5350.0752,
		"flyability" : -0,
		"reason" : "windSpeed, orientationsUnknown, rain",
		"timestamp" :1556244000
		},
	"2019-04-26T07:00:00+01:00" : {
		"windSpeed" : 6.3,
		"windDir" : 171,
		"rain" : 1,
		"cloudbase" : 3067.065,
		"flyability" : -0,
		"reason" : "windSpeed, orientationsUnknown, rain",
		"timestamp" :1556254800
		},
	"2019-04-26T10:00:00+01:00" : {
		"windSpeed" : 5.8,
		"windDir" : 175,
		"rain" : 0,
		"cloudbase" : 3323.0383600004,
		"flyability" : -0,
		"reason" : "windSpeed, orientationsUnknown",
		"timestamp" :1556265600
		},
	"2019-04-26T13:00:00+01:00" : {
		"windSpeed" : 4.3,
		"windDir" : 187,
		"rain" : 1,
		"cloudbase" : null,
		"flyability" : -0,
		"reason" : "orientationsUnknown, rain",
		"timestamp" :1556276400
		},
	"2019-04-26T16:00:00+01:00" : {
		"windSpeed" : 4.9,
		"windDir" : 219,
		"rain" : 1,
		"cloudbase" : 6200,
		"flyability" : -0,
		"reason" : "orientationsUnknown, rain",
		"timestamp" :1556287200
		},
	"2019-04-26T19:00:00+01:00" : {
		"windSpeed" : 7.3,
		"windDir" : 279,
		"rain" : 0,
		"cloudbase" : 6230.6348,
		"flyability" : -0,
		"reason" : "windSpeed, orientationsUnknown",
		"timestamp" :1556298000
		},
	"2019-04-26T22:00:00+01:00" : {
		"windSpeed" : 6.6,
		"windDir" : 258,
		"rain" : 0,
		"cloudbase" : 4300,
		"flyability" : -0,
		"reason" : "windSpeed, orientationsUnknown",
		"timestamp" :1556308800
		},
	"2019-04-27T01:00:00+01:00" : {
		"windSpeed" : 6.2,
		"windDir" : 213,
		"rain" : 1,
		"cloudbase" : 642.56391999999,
		"flyability" : -0,
		"reason" : "windSpeed, orientationsUnknown, rain",
		"timestamp" :1556319600
		},
	"2019-04-27T04:00:00+01:00" : {
		"windSpeed" : 8.3,
		"windDir" : 263,
		"rain" : 1,
		"cloudbase" : 680,
		"flyability" : -0,
		"reason" : "windSpeed, orientationsUnknown, rain",
		"timestamp" :1556330400
		},
	"2019-04-27T07:00:00+01:00" : {
		"windSpeed" : 8,
		"windDir" : 241,
		"rain" : 0,
		"cloudbase" : 1331.6654,
		"flyability" : -0,
		"reason" : "windSpeed, orientationsUnknown",
		"timestamp" :1556341200
		},
	"2019-04-27T10:00:00+01:00" : {
		"windSpeed" : 12.1,
		"windDir" : 252,
		"rain" : 1,
		"cloudbase" : null,
		"flyability" : -0,
		"reason" : "windSpeed, orientationsUnknown, rain",
		"timestamp" :1556352000
		},
	"2019-04-27T13:00:00+01:00" : {
		"windSpeed" : 12.8,
		"windDir" : 272,
		"rain" : 0,
		"cloudbase" : null,
		"flyability" : -0,
		"reason" : "windSpeed, orientationsUnknown",
		"timestamp" :1556362800
		}
	}
}