{
"site" : "Codden Hill",
"id" : 6211,
"orientations" : "02000000",
"forecasts" : { 
	"2019-04-21T16:00:00+01:00" : {
		"windSpeed" : 0.4,
		"windDir" : 309,
		"rain" : 0,
		"cloudbase" : null,
		"flyability" : 0,
		"reason" : "windDir",
		"timestamp" :1555855200
		},
	"2019-04-21T19:00:00+01:00" : {
		"windSpeed" : 1.7,
		"windDir" : 337,
		"rain" : 0,
		"cloudbase" : null,
		"flyability" : 0,
		"reason" : "windDir",
		"timestamp" :1555866000
		},
	"2019-04-21T22:00:00+01:00" : {
		"windSpeed" : 2.2,
		"windDir" : 90,
		"rain" : 0,
		"cloudbase" : null,
		"flyability" : 0,
		"reason" : "windDir",
		"timestamp" :1555876800
		},
	"2019-04-22T01:00:00+01:00" : {
		"windSpeed" : 2.7,
		"windDir" : 113,
		"rain" : 0,
		"cloudbase" : null,
		"flyability" : 0,
		"reason" : "windDir",
		"timestamp" :1555887600
		},
	"2019-04-22T04:00:00+01:00" : {
		"windSpeed" : 3.8,
		"windDir" : 115,
		"rain" : 0,
		"cloudbase" : null,
		"flyability" : 0,
		"reason" : "windDir",
		"timestamp" :1555898400
		},
	"2019-04-22T07:00:00+01:00" : {
		"windSpeed" : 4.8,
		"windDir" : 116,
		"rain" : 0,
		"cloudbase" : null,
		"flyability" : 0,
		"reason" : "windDir",
		"timestamp" :1555909200
		},
	"2019-04-22T10:00:00+01:00" : {
		"windSpeed" : 6.2,
		"windDir" : 121,
		"rain" : 0,
		"cloudbase" : null,
		"flyability" : 0,
		"reason" : "windSpeed, windDir",
		"timestamp" :1555920000
		},
	"2019-04-22T13:00:00+01:00" : {
		"windSpeed" : 6.7,
		"windDir" : 130,
		"rain" : 0,
		"cloudbase" : 4550,
		"flyability" : 0,
		"reason" : "windSpeed, windDir",
		"timestamp" :1555930800
		},
	"2019-04-22T16:00:00+01:00" : {
		"windSpeed" : 5.2,
		"windDir" : 125,
		"rain" : 0,
		"cloudbase" : null,
		"flyability" : 0,
		"reason" : "windSpeed, windDir",
		"timestamp" :1555941600
		},
	"2019-04-22T19:00:00+01:00" : {
		"windSpeed" : 3.7,
		"windDir" : 126,
		"rain" : 0,
		"cloudbase" : null,
		"flyability" : 0,
		"reason" : "windDir",
		"timestamp" :1555952400
		},
	"2019-04-22T22:00:00+01:00" : {
		"windSpeed" : 3.5,
		"windDir" : 118,
		"rain" : 0,
		"cloudbase" : 3801.63448,
		"flyability" : 0,
		"reason" : "windDir",
		"timestamp" :1555963200
		},
	"2019-04-23T01:00:00+01:00" : {
		"windSpeed" : 3.8,
		"windDir" : 120,
		"rain" : 0,
		"cloudbase" : 2524.00276,
		"flyability" : 0,
		"reason" : "windDir",
		"timestamp" :1555974000
		},
	"2019-04-23T04:00:00+01:00" : {
		"windSpeed" : 3.9,
		"windDir" : 123,
		"rain" : 0,
		"cloudbase" : 2386.81,
		"flyability" : 0,
		"reason" : "windDir",
		"timestamp" :1555984800
		},
	"2019-04-23T07:00:00+01:00" : {
		"windSpeed" : 3.1,
		"windDir" : 106,
		"rain" : 0,
		"cloudbase" : null,
		"flyability" : 0,
		"reason" : "windDir",
		"timestamp" :1555995600
		},
	"2019-04-23T10:00:00+01:00" : {
		"windSpeed" : 4.7,
		"windDir" : 122,
		"rain" : 0,
		"cloudbase" : null,
		"flyability" : 0,
		"reason" : "windDir",
		"timestamp" :1556006400
		},
	"2019-04-23T13:00:00+01:00" : {
		"windSpeed" : 6.4,
		"windDir" : 134,
		"rain" : 0,
		"cloudbase" : 7199.64,
		"flyability" : 0,
		"reason" : "windSpeed, windDir",
		"timestamp" :1556017200
		},
	"2019-04-23T16:00:00+01:00" : {
		"windSpeed" : 5.2,
		"windDir" : 145,
		"rain" : 0,
		"cloudbase" : 2686.18552,
		"flyability" : 0,
		"reason" : "windSpeed, windDir",
		"timestamp" :1556028000
		},
	"2019-04-23T19:00:00+01:00" : {
		"windSpeed" : 2.6,
		"windDir" : 119,
		"rain" : 0,
		"cloudbase" : 5834.37104,
		"flyability" : 0,
		"reason" : "windDir",
		"timestamp" :1556038800
		},
	"2019-04-23T22:00:00+01:00" : {
		"windSpeed" : 2.5,
		"windDir" : 110,
		"rain" : 1,
		"cloudbase" : 2741.61,
		"flyability" : 0,
		"reason" : "windDir, rain",
		"timestamp" :1556049600
		},
	"2019-04-24T01:00:00+01:00" : {
		"windSpeed" : 3,
		"windDir" : 112,
		"rain" : 1,
		"cloudbase" : 4021.42276,
		"flyability" : 0,
		"reason" : "windDir, rain",
		"timestamp" :1556060400
		},
	"2019-04-24T04:00:00+01:00" : {
		"windSpeed" : 4.1,
		"windDir" : 116,
		"rain" : 1,
		"cloudbase" : 7115.5665199998,
		"flyability" : 0,
		"reason" : "windDir, rain",
		"timestamp" :1556071200
		},
	"2019-04-24T07:00:00+01:00" : {
		"windSpeed" : 4.8,
		"windDir" : 118,
		"rain" : 1,
		"cloudbase" : null,
		"flyability" : 0,
		"reason" : "windDir, rain",
		"timestamp" :1556082000
		},
	"2019-04-24T10:00:00+01:00" : {
		"windSpeed" : 4.4,
		"windDir" : 137,
		"rain" : 1,
		"cloudbase" : 163.384416,
		"flyability" : 0,
		"reason" : "windDir, rain, cloudbase",
		"timestamp" :1556092800
		},
	"2019-04-24T13:00:00+01:00" : {
		"windSpeed" : 3.2,
		"windDir" : 224,
		"rain" : 1,
		"cloudbase" : 1385.44,
		"flyability" : 0,
		"reason" : "windDir, rain",
		"timestamp" :1556103600
		},
	"2019-04-24T16:00:00+01:00" : {
		"windSpeed" : 5.2,
		"windDir" : 191,
		"rain" : 1,
		"cloudbase" : 2966.03448,
		"flyability" : 0,
		"reason" : "windSpeed, windDir, rain",
		"timestamp" :1556114400
		},
	"2019-04-24T19:00:00+01:00" : {
		"windSpeed" : 3.4,
		"windDir" : 151,
		"rain" : 1,
		"cloudbase" : 4750,
		"flyability" : 0,
		"reason" : "windDir, rain",
		"timestamp" :1556125200
		},
	"2019-04-24T22:00:00+01:00" : {
		"windSpeed" : 5.1,
		"windDir" : 128,
		"rain" : 0,
		"cloudbase" : 5064.5782799999,
		"flyability" : 0,
		"reason" : "windSpeed, windDir",
		"timestamp" :1556136000
		},
	"2019-04-25T01:00:00+01:00" : {
		"windSpeed" : 6.8,
		"windDir" : 126,
		"rain" : 1,
		"cloudbase" : 6900,
		"flyability" : 0,
		"reason" : "windSpeed, windDir, rain",
		"timestamp" :1556146800
		},
	"2019-04-25T04:00:00+01:00" : {
		"windSpeed" : 6.7,
		"windDir" : 132,
		"rain" : 1,
		"cloudbase" : 1120.77552,
		"flyability" : 0,
		"reason" : "windSpeed, windDir, rain",
		"timestamp" :1556157600
		},
	"2019-04-25T07:00:00+01:00" : {
		"windSpeed" : 5.2,
		"windDir" : 146,
		"rain" : 1,
		"cloudbase" : 2696.54412,
		"flyability" : 0,
		"reason" : "windSpeed, windDir, rain",
		"timestamp" :1556168400
		},
	"2019-04-25T10:00:00+01:00" : {
		"windSpeed" : 4.2,
		"windDir" : 148,
		"rain" : 1,
		"cloudbase" : 430,
		"flyability" : 0,
		"reason" : "windDir, rain",
		"timestamp" :1556179200
		},
	"2019-04-25T13:00:00+01:00" : {
		"windSpeed" : 5,
		"windDir" : 170,
		"rain" : 1,
		"cloudbase" : 5358.9927599999,
		"flyability" : 0,
		"reason" : "windDir, rain",
		"timestamp" :1556190000
		},
	"2019-04-25T16:00:00+01:00" : {
		"windSpeed" : 4.9,
		"windDir" : 187,
		"rain" : 0,
		"cloudbase" : 7100,
		"flyability" : 0,
		"reason" : "windDir",
		"timestamp" :1556200800
		},
	"2019-04-25T19:00:00+01:00" : {
		"windSpeed" : 3.7,
		"windDir" : 183,
		"rain" : 1,
		"cloudbase" : 6447.6,
		"flyability" : 0,
		"reason" : "windDir, rain",
		"timestamp" :1556211600
		},
	"2019-04-25T22:00:00+01:00" : {
		"windSpeed" : 3,
		"windDir" : 149,
		"rain" : 0,
		"cloudbase" : null,
		"flyability" : 0,
		"reason" : "windDir",
		"timestamp" :1556222400
		},
	"2019-04-26T01:00:00+01:00" : {
		"windSpeed" : 3.6,
		"windDir" : 132,
		"rain" : 0,
		"cloudbase" : null,
		"flyability" : 0,
		"reason" : "windDir",
		"timestamp" :1556233200
		},
	"2019-04-26T04:00:00+01:00" : {
		"windSpeed" : 4.1,
		"windDir" : 128,
		"rain" : 0,
		"cloudbase" : 4534.59,
		"flyability" : 0,
		"reason" : "windDir",
		"timestamp" :1556244000
		},
	"2019-04-26T07:00:00+01:00" : {
		"windSpeed" : 4.7,
		"windDir" : 133,
		"rain" : 1,
		"cloudbase" : 1884.59,
		"flyability" : 0,
		"reason" : "windDir, rain",
		"timestamp" :1556254800
		},
	"2019-04-26T10:00:00+01:00" : {
		"windSpeed" : 4.7,
		"windDir" : 149,
		"rain" : 1,
		"cloudbase" : 537.748552,
		"flyability" : 0,
		"reason" : "windDir, rain",
		"timestamp" :1556265600
		},
	"2019-04-26T13:00:00+01:00" : {
		"windSpeed" : 4.4,
		"windDir" : 166,
		"rain" : 1,
		"cloudbase" : null,
		"flyability" : 0,
		"reason" : "windDir, rain",
		"timestamp" :1556276400
		},
	"2019-04-26T16:00:00+01:00" : {
		"windSpeed" : 4.4,
		"windDir" : 254,
		"rain" : 0,
		"cloudbase" : null,
		"flyability" : 0,
		"reason" : "windDir",
		"timestamp" :1556287200
		},
	"2019-04-26T19:00:00+01:00" : {
		"windSpeed" : 7.2,
		"windDir" : 276,
		"rain" : 0,
		"cloudbase" : null,
		"flyability" : 0,
		"reason" : "windSpeed, windDir",
		"timestamp" :1556298000
		},
	"2019-04-26T22:00:00+01:00" : {
		"windSpeed" : 6,
		"windDir" : 247,
		"rain" : 0,
		"cloudbase" : null,
		"flyability" : 0,
		"reason" : "windSpeed, windDir",
		"timestamp" :1556308800
		},
	"2019-04-27T01:00:00+01:00" : {
		"windSpeed" : 5.4,
		"windDir" : 183,
		"rain" : 1,
		"cloudbase" : 668.82537600001,
		"flyability" : 0,
		"reason" : "windSpeed, windDir, rain",
		"timestamp" :1556319600
		},
	"2019-04-27T04:00:00+01:00" : {
		"windSpeed" : 7.9,
		"windDir" : 255,
		"rain" : 1,
		"cloudbase" : 1008.136552,
		"flyability" : 0,
		"reason" : "windSpeed, windDir, rain",
		"timestamp" :1556330400
		},
	"2019-04-27T07:00:00+01:00" : {
		"windSpeed" : 9.8,
		"windDir" : 248,
		"rain" : 0,
		"cloudbase" : null,
		"flyability" : 0,
		"reason" : "windSpeed, windDir",
		"timestamp" :1556341200
		},
	"2019-04-27T10:00:00+01:00" : {
		"windSpeed" : 14.5,
		"windDir" : 259,
		"rain" : 1,
		"cloudbase" : 1378.08036,
		"flyability" : 0,
		"reason" : "windSpeed, windDir, rain",
		"timestamp" :1556352000
		},
	"2019-04-27T13:00:00+01:00" : {
		"windSpeed" : 12.6,
		"windDir" : 273,
		"rain" : 1,
		"cloudbase" : null,
		"flyability" : 0,
		"reason" : "windSpeed, windDir, rain",
		"timestamp" :1556362800
		}
	}
}