{
"site" : "Dizzard",
"id" : 6271,
"orientations" : "20000000",
"forecasts" : { 
	"2019-04-21T16:00:00+01:00" : {
		"windSpeed" : 2.3,
		"windDir" : 309,
		"rain" : 0,
		"cloudbase" : null,
		"flyability" : 0,
		"reason" : "windDir",
		"timestamp" :1555855200
		},
	"2019-04-21T19:00:00+01:00" : {
		"windSpeed" : 0.2,
		"windDir" : 133,
		"rain" : 0,
		"cloudbase" : null,
		"flyability" : 0,
		"reason" : "windDir",
		"timestamp" :1555866000
		},
	"2019-04-21T22:00:00+01:00" : {
		"windSpeed" : 2.7,
		"windDir" : 122,
		"rain" : 0,
		"cloudbase" : null,
		"flyability" : 0,
		"reason" : "windDir",
		"timestamp" :1555876800
		},
	"2019-04-22T01:00:00+01:00" : {
		"windSpeed" : 3.5,
		"windDir" : 134,
		"rain" : 0,
		"cloudbase" : null,
		"flyability" : 0,
		"reason" : "windDir",
		"timestamp" :1555887600
		},
	"2019-04-22T04:00:00+01:00" : {
		"windSpeed" : 5.3,
		"windDir" : 131,
		"rain" : 0,
		"cloudbase" : null,
		"flyability" : 0,
		"reason" : "windSpeed, windDir",
		"timestamp" :1555898400
		},
	"2019-04-22T07:00:00+01:00" : {
		"windSpeed" : 5,
		"windDir" : 121,
		"rain" : 0,
		"cloudbase" : null,
		"flyability" : 0,
		"reason" : "windDir",
		"timestamp" :1555909200
		},
	"2019-04-22T10:00:00+01:00" : {
		"windSpeed" : 4.6,
		"windDir" : 125,
		"rain" : 0,
		"cloudbase" : null,
		"flyability" : 0,
		"reason" : "windDir",
		"timestamp" :1555920000
		},
	"2019-04-22T13:00:00+01:00" : {
		"windSpeed" : 6.2,
		"windDir" : 149,
		"rain" : 0,
		"cloudbase" : 5820.3750400001,
		"flyability" : 0,
		"reason" : "windSpeed, windDir",
		"timestamp" :1555930800
		},
	"2019-04-22T16:00:00+01:00" : {
		"windSpeed" : 5.1,
		"windDir" : 155,
		"rain" : 0,
		"cloudbase" : null,
		"flyability" : 0,
		"reason" : "windSpeed, windDir",
		"timestamp" :1555941600
		},
	"2019-04-22T19:00:00+01:00" : {
		"windSpeed" : 3.1,
		"windDir" : 141,
		"rain" : 0,
		"cloudbase" : 4486.4702399998,
		"flyability" : 0,
		"reason" : "windDir",
		"timestamp" :1555952400
		},
	"2019-04-22T22:00:00+01:00" : {
		"windSpeed" : 3.4,
		"windDir" : 109,
		"rain" : 0,
		"cloudbase" : 2839.00688,
		"flyability" : 0,
		"reason" : "windDir",
		"timestamp" :1555963200
		},
	"2019-04-23T01:00:00+01:00" : {
		"windSpeed" : 4.8,
		"windDir" : 100,
		"rain" : 1,
		"cloudbase" : 2966.83,
		"flyability" : 0,
		"reason" : "windDir, rain",
		"timestamp" :1555974000
		},
	"2019-04-23T04:00:00+01:00" : {
		"windSpeed" : 5.1,
		"windDir" : 111,
		"rain" : 0,
		"cloudbase" : 1900,
		"flyability" : 0,
		"reason" : "windSpeed, windDir",
		"timestamp" :1555984800
		},
	"2019-04-23T07:00:00+01:00" : {
		"windSpeed" : 4,
		"windDir" : 112,
		"rain" : 0,
		"cloudbase" : 1490.18312,
		"flyability" : 0,
		"reason" : "windDir",
		"timestamp" :1555995600
		},
	"2019-04-23T10:00:00+01:00" : {
		"windSpeed" : 5.5,
		"windDir" : 115,
		"rain" : 0,
		"cloudbase" : null,
		"flyability" : 0,
		"reason" : "windSpeed, windDir",
		"timestamp" :1556006400
		},
	"2019-04-23T13:00:00+01:00" : {
		"windSpeed" : 6,
		"windDir" : 136,
		"rain" : 0,
		"cloudbase" : 8864.8,
		"flyability" : 0,
		"reason" : "windSpeed, windDir",
		"timestamp" :1556017200
		},
	"2019-04-23T16:00:00+01:00" : {
		"windSpeed" : 6.3,
		"windDir" : 145,
		"rain" : 0,
		"cloudbase" : 2507.10064,
		"flyability" : 0,
		"reason" : "windSpeed, windDir",
		"timestamp" :1556028000
		},
	"2019-04-23T19:00:00+01:00" : {
		"windSpeed" : 4.7,
		"windDir" : 124,
		"rain" : 0,
		"cloudbase" : 7637.31376,
		"flyability" : 0,
		"reason" : "windDir",
		"timestamp" :1556038800
		},
	"2019-04-23T22:00:00+01:00" : {
		"windSpeed" : 3.9,
		"windDir" : 123,
		"rain" : 0,
		"cloudbase" : 2365.65376,
		"flyability" : 0,
		"reason" : "windDir",
		"timestamp" :1556049600
		},
	"2019-04-24T01:00:00+01:00" : {
		"windSpeed" : 3.1,
		"windDir" : 109,
		"rain" : 1,
		"cloudbase" : 4215.87952,
		"flyability" : 0,
		"reason" : "windDir, rain",
		"timestamp" :1556060400
		},
	"2019-04-24T04:00:00+01:00" : {
		"windSpeed" : 3.2,
		"windDir" : 115,
		"rain" : 1,
		"cloudbase" : 3386.41,
		"flyability" : 0,
		"reason" : "windDir, rain",
		"timestamp" :1556071200
		},
	"2019-04-24T07:00:00+01:00" : {
		"windSpeed" : 4.1,
		"windDir" : 122,
		"rain" : 1,
		"cloudbase" : 1991.71936,
		"flyability" : 0,
		"reason" : "windDir, rain",
		"timestamp" :1556082000
		},
	"2019-04-24T10:00:00+01:00" : {
		"windSpeed" : 6,
		"windDir" : 238,
		"rain" : 1,
		"cloudbase" : 1221.9680320001,
		"flyability" : 0,
		"reason" : "windSpeed, windDir, rain",
		"timestamp" :1556092800
		},
	"2019-04-24T13:00:00+01:00" : {
		"windSpeed" : 5.4,
		"windDir" : 200,
		"rain" : 1,
		"cloudbase" : 2891.94064,
		"flyability" : 0,
		"reason" : "windSpeed, windDir, rain",
		"timestamp" :1556103600
		},
	"2019-04-24T16:00:00+01:00" : {
		"windSpeed" : 5.1,
		"windDir" : 191,
		"rain" : 1,
		"cloudbase" : 3852.03,
		"flyability" : 0,
		"reason" : "windSpeed, windDir, rain",
		"timestamp" :1556114400
		},
	"2019-04-24T19:00:00+01:00" : {
		"windSpeed" : 4.4,
		"windDir" : 160,
		"rain" : 0,
		"cloudbase" : 6900,
		"flyability" : 0,
		"reason" : "windDir",
		"timestamp" :1556125200
		},
	"2019-04-24T22:00:00+01:00" : {
		"windSpeed" : 5.2,
		"windDir" : 121,
		"rain" : 0,
		"cloudbase" : null,
		"flyability" : 0,
		"reason" : "windSpeed, windDir",
		"timestamp" :1556136000
		},
	"2019-04-25T01:00:00+01:00" : {
		"windSpeed" : 6.7,
		"windDir" : 122,
		"rain" : 1,
		"cloudbase" : 5163.1630399999,
		"flyability" : 0,
		"reason" : "windSpeed, windDir, rain",
		"timestamp" :1556146800
		},
	"2019-04-25T04:00:00+01:00" : {
		"windSpeed" : 6.5,
		"windDir" : 139,
		"rain" : 1,
		"cloudbase" : null,
		"flyability" : 0,
		"reason" : "windSpeed, windDir, rain",
		"timestamp" :1556157600
		},
	"2019-04-25T07:00:00+01:00" : {
		"windSpeed" : 5,
		"windDir" : 146,
		"rain" : 1,
		"cloudbase" : 2143.0830240003,
		"flyability" : 0,
		"reason" : "windDir, rain",
		"timestamp" :1556168400
		},
	"2019-04-25T10:00:00+01:00" : {
		"windSpeed" : 5.3,
		"windDir" : 160,
		"rain" : 1,
		"cloudbase" : null,
		"flyability" : 0,
		"reason" : "windSpeed, windDir, rain",
		"timestamp" :1556179200
		},
	"2019-04-25T13:00:00+01:00" : {
		"windSpeed" : 4.8,
		"windDir" : 173,
		"rain" : 1,
		"cloudbase" : 571.44612800002,
		"flyability" : 0,
		"reason" : "windDir, rain",
		"timestamp" :1556190000
		},
	"2019-04-25T16:00:00+01:00" : {
		"windSpeed" : 4.6,
		"windDir" : 195,
		"rain" : 0,
		"cloudbase" : 4565.2931200005,
		"flyability" : 0,
		"reason" : "windDir",
		"timestamp" :1556200800
		},
	"2019-04-25T19:00:00+01:00" : {
		"windSpeed" : 4.6,
		"windDir" : 180,
		"rain" : 1,
		"cloudbase" : 6900,
		"flyability" : 0,
		"reason" : "windDir, rain",
		"timestamp" :1556211600
		},
	"2019-04-25T22:00:00+01:00" : {
		"windSpeed" : 4.8,
		"windDir" : 168,
		"rain" : 0,
		"cloudbase" : null,
		"flyability" : 0,
		"reason" : "windDir",
		"timestamp" :1556222400
		},
	"2019-04-26T01:00:00+01:00" : {
		"windSpeed" : 4.6,
		"windDir" : 163,
		"rain" : 0,
		"cloudbase" : null,
		"flyability" : 0,
		"reason" : "windDir",
		"timestamp" :1556233200
		},
	"2019-04-26T04:00:00+01:00" : {
		"windSpeed" : 5.7,
		"windDir" : 163,
		"rain" : 1,
		"cloudbase" : 2845.7512320001,
		"flyability" : 0,
		"reason" : "windSpeed, windDir, rain",
		"timestamp" :1556244000
		},
	"2019-04-26T07:00:00+01:00" : {
		"windSpeed" : 5.7,
		"windDir" : 156,
		"rain" : 1,
		"cloudbase" : 5309.62368,
		"flyability" : 0,
		"reason" : "windSpeed, windDir, rain",
		"timestamp" :1556254800
		},
	"2019-04-26T10:00:00+01:00" : {
		"windSpeed" : 3.5,
		"windDir" : 187,
		"rain" : 1,
		"cloudbase" : 5691.8121600002,
		"flyability" : 0,
		"reason" : "windDir, rain",
		"timestamp" :1556265600
		},
	"2019-04-26T13:00:00+01:00" : {
		"windSpeed" : 5.5,
		"windDir" : 240,
		"rain" : 1,
		"cloudbase" : 380,
		"flyability" : 0,
		"reason" : "windSpeed, windDir, rain",
		"timestamp" :1556276400
		},
	"2019-04-26T16:00:00+01:00" : {
		"windSpeed" : 8.6,
		"windDir" : 277,
		"rain" : 1,
		"cloudbase" : 1200,
		"flyability" : 0,
		"reason" : "windSpeed, windDir, rain",
		"timestamp" :1556287200
		},
	"2019-04-26T19:00:00+01:00" : {
		"windSpeed" : 10.1,
		"windDir" : 264,
		"rain" : 1,
		"cloudbase" : 5100,
		"flyability" : 0,
		"reason" : "windSpeed, windDir, rain",
		"timestamp" :1556298000
		},
	"2019-04-26T22:00:00+01:00" : {
		"windSpeed" : 7.4,
		"windDir" : 243,
		"rain" : 1,
		"cloudbase" : null,
		"flyability" : 0,
		"reason" : "windSpeed, windDir, rain",
		"timestamp" :1556308800
		},
	"2019-04-27T01:00:00+01:00" : {
		"windSpeed" : 8.2,
		"windDir" : 203,
		"rain" : 1,
		"cloudbase" : 1047.882064,
		"flyability" : 0,
		"reason" : "windSpeed, windDir, rain",
		"timestamp" :1556319600
		},
	"2019-04-27T04:00:00+01:00" : {
		"windSpeed" : 11.5,
		"windDir" : 260,
		"rain" : 1,
		"cloudbase" : 1410.66688,
		"flyability" : 0,
		"reason" : "windSpeed, windDir, rain",
		"timestamp" :1556330400
		},
	"2019-04-27T07:00:00+01:00" : {
		"windSpeed" : 13.6,
		"windDir" : 256,
		"rain" : 1,
		"cloudbase" : null,
		"flyability" : 0,
		"reason" : "windSpeed, windDir, rain",
		"timestamp" :1556341200
		},
	"2019-04-27T10:00:00+01:00" : {
		"windSpeed" : 15.9,
		"windDir" : 263,
		"rain" : 1,
		"cloudbase" : 2925.11064,
		"flyability" : 0,
		"reason" : "windSpeed, windDir, rain",
		"timestamp" :1556352000
		},
	"2019-04-27T13:00:00+01:00" : {
		"windSpeed" : 13.6,
		"windDir" : 275,
		"rain" : 1,
		"cloudbase" : null,
		"flyability" : 0,
		"reason" : "windSpeed, windDir, rain",
		"timestamp" :1556362800
		}
	}
}