{
"site" : "Shelar Site",
"id" : 6293,
"orientations" : "00000021",
"forecasts" : { 
	"2019-04-11T08:30:00+05:30" : {
		"windSpeed" : 1.4,
		"windDir" : 314,
		"rain" : 0,
		"cloudbase" : null,
		"flyability" : 100,
		"reason" : "",
		"timestamp" :1554955200
		},
	"2019-04-11T11:30:00+05:30" : {
		"windSpeed" : 3.2,
		"windDir" : 308,
		"rain" : 0,
		"cloudbase" : null,
		"flyability" : 100,
		"reason" : "",
		"timestamp" :1554966000
		},
	"2019-04-11T14:30:00+05:30" : {
		"windSpeed" : 4.4,
		"windDir" : 292,
		"rain" : 0,
		"cloudbase" : 10500,
		"flyability" : 100,
		"reason" : "",
		"timestamp" :1554976800
		},
	"2019-04-11T17:30:00+05:30" : {
		"windSpeed" : 4.8,
		"windDir" : 312,
		"rain" : 0,
		"cloudbase" : null,
		"flyability" : 100,
		"reason" : "",
		"timestamp" :1554987600
		},
	"2019-04-11T20:30:00+05:30" : {
		"windSpeed" : 3.1,
		"windDir" : 302,
		"rain" : 0,
		"cloudbase" : null,
		"flyability" : 100,
		"reason" : "",
		"timestamp" :1554998400
		},
	"2019-04-11T23:30:00+05:30" : {
		"windSpeed" : 2.8,
		"windDir" : 322,
		"rain" : 0,
		"cloudbase" : null,
		"flyability" : 100,
		"reason" : "",
		"timestamp" :1555009200
		},
	"2019-04-12T02:30:00+05:30" : {
		"windSpeed" : 1.2,
		"windDir" : 2,
		"rain" : 0,
		"cloudbase" : null,
		"flyability" : 0,
		"reason" : "windDir",
		"timestamp" :1555020000
		},
	"2019-04-12T05:30:00+05:30" : {
		"windSpeed" : 1.2,
		"windDir" : 13,
		"rain" : 0,
		"cloudbase" : null,
		"flyability" : 0,
		"reason" : "windDir",
		"timestamp" :1555030800
		},
	"2019-04-12T08:30:00+05:30" : {
		"windSpeed" : 2.2,
		"windDir" : 332,
		"rain" : 0,
		"cloudbase" : null,
		"flyability" : 100,
		"reason" : "",
		"timestamp" :1555041600
		},
	"2019-04-12T11:30:00+05:30" : {
		"windSpeed" : 2.3,
		"windDir" : 331,
		"rain" : 0,
		"cloudbase" : null,
		"flyability" : 100,
		"reason" : "",
		"timestamp" :1555052400
		},
	"2019-04-12T14:30:00+05:30" : {
		"windSpeed" : 3.4,
		"windDir" : 323,
		"rain" : 0,
		"cloudbase" : null,
		"flyability" : 100,
		"reason" : "",
		"timestamp" :1555063200
		},
	"2019-04-12T17:30:00+05:30" : {
		"windSpeed" : 4.3,
		"windDir" : 301,
		"rain" : 0,
		"cloudbase" : null,
		"flyability" : 100,
		"reason" : "",
		"timestamp" :1555074000
		},
	"2019-04-12T20:30:00+05:30" : {
		"windSpeed" : 3.2,
		"windDir" : 304,
		"rain" : 0,
		"cloudbase" : null,
		"flyability" : 100,
		"reason" : "",
		"timestamp" :1555084800
		},
	"2019-04-12T23:30:00+05:30" : {
		"windSpeed" : 3.1,
		"windDir" : 328,
		"rain" : 0,
		"cloudbase" : null,
		"flyability" : 100,
		"reason" : "",
		"timestamp" :1555095600
		},
	"2019-04-13T02:30:00+05:30" : {
		"windSpeed" : 3.4,
		"windDir" : 329,
		"rain" : 0,
		"cloudbase" : null,
		"flyability" : 100,
		"reason" : "",
		"timestamp" :1555106400
		},
	"2019-04-13T05:30:00+05:30" : {
		"windSpeed" : 1.2,
		"windDir" : 359,
		"rain" : 0,
		"cloudbase" : null,
		"flyability" : 0,
		"reason" : "windDir",
		"timestamp" :1555117200
		},
	"2019-04-13T08:30:00+05:30" : {
		"windSpeed" : 2.5,
		"windDir" : 343,
		"rain" : 0,
		"cloudbase" : null,
		"flyability" : 0,
		"reason" : "windDir",
		"timestamp" :1555128000
		},
	"2019-04-13T11:30:00+05:30" : {
		"windSpeed" : 1.8,
		"windDir" : 356,
		"rain" : 0,
		"cloudbase" : null,
		"flyability" : 0,
		"reason" : "windDir",
		"timestamp" :1555138800
		},
	"2019-04-13T14:30:00+05:30" : {
		"windSpeed" : 2.7,
		"windDir" : 328,
		"rain" : 0,
		"cloudbase" : null,
		"flyability" : 100,
		"reason" : "",
		"timestamp" :1555149600
		},
	"2019-04-13T17:30:00+05:30" : {
		"windSpeed" : 4.9,
		"windDir" : 293,
		"rain" : 0,
		"cloudbase" : null,
		"flyability" : 100,
		"reason" : "",
		"timestamp" :1555160400
		},
	"2019-04-13T20:30:00+05:30" : {
		"windSpeed" : 3.1,
		"windDir" : 315,
		"rain" : 0,
		"cloudbase" : null,
		"flyability" : 100,
		"reason" : "",
		"timestamp" :1555171200
		},
	"2019-04-13T23:30:00+05:30" : {
		"windSpeed" : 1.4,
		"windDir" : 20,
		"rain" : 0,
		"cloudbase" : null,
		"flyability" : 0,
		"reason" : "windDir",
		"timestamp" :1555182000
		},
	"2019-04-14T02:30:00+05:30" : {
		"windSpeed" : 2.1,
		"windDir" : 331,
		"rain" : 0,
		"cloudbase" : null,
		"flyability" : 100,
		"reason" : "",
		"timestamp" :1555192800
		},
	"2019-04-14T05:30:00+05:30" : {
		"windSpeed" : 2.7,
		"windDir" : 314,
		"rain" : 0,
		"cloudbase" : null,
		"flyability" : 100,
		"reason" : "",
		"timestamp" :1555203600
		},
	"2019-04-14T08:30:00+05:30" : {
		"windSpeed" : 2.7,
		"windDir" : 337,
		"rain" : 0,
		"cloudbase" : null,
		"flyability" : 100,
		"reason" : "",
		"timestamp" :1555214400
		},
	"2019-04-14T11:30:00+05:30" : {
		"windSpeed" : 2.1,
		"windDir" : 338,
		"rain" : 0,
		"cloudbase" : null,
		"flyability" : 0,
		"reason" : "windDir",
		"timestamp" :1555225200
		},
	"2019-04-14T14:30:00+05:30" : {
		"windSpeed" : 3.5,
		"windDir" : 325,
		"rain" : 0,
		"cloudbase" : 4100,
		"flyability" : 100,
		"reason" : "",
		"timestamp" :1555236000
		},
	"2019-04-14T17:30:00+05:30" : {
		"windSpeed" : 3.7,
		"windDir" : 266,
		"rain" : 0,
		"cloudbase" : null,
		"flyability" : 100,
		"reason" : "",
		"timestamp" :1555246800
		},
	"2019-04-14T20:30:00+05:30" : {
		"windSpeed" : 1.7,
		"windDir" : 332,
		"rain" : 0,
		"cloudbase" : null,
		"flyability" : 100,
		"reason" : "",
		"timestamp" :1555257600
		},
	"2019-04-14T23:30:00+05:30" : {
		"windSpeed" : 1.8,
		"windDir" : 336,
		"rain" : 0,
		"cloudbase" : null,
		"flyability" : 100,
		"reason" : "",
		"timestamp" :1555268400
		},
	"2019-04-15T02:30:00+05:30" : {
		"windSpeed" : 1.8,
		"windDir" : 294,
		"rain" : 0,
		"cloudbase" : null,
		"flyability" : 100,
		"reason" : "",
		"timestamp" :1555279200
		},
	"2019-04-15T05:30:00+05:30" : {
		"windSpeed" : 3.4,
		"windDir" : 296,
		"rain" : 0,
		"cloudbase" : null,
		"flyability" : 100,
		"reason" : "",
		"timestamp" :1555290000
		},
	"2019-04-15T08:30:00+05:30" : {
		"windSpeed" : 2.8,
		"windDir" : 333,
		"rain" : 0,
		"cloudbase" : null,
		"flyability" : 100,
		"reason" : "",
		"timestamp" :1555300800
		},
	"2019-04-15T11:30:00+05:30" : {
		"windSpeed" : 1.2,
		"windDir" : 357,
		"rain" : 0,
		"cloudbase" : null,
		"flyability" : 0,
		"reason" : "windDir",
		"timestamp" :1555311600
		},
	"2019-04-15T14:30:00+05:30" : {
		"windSpeed" : 3.3,
		"windDir" : 290,
		"rain" : 0,
		"cloudbase" : null,
		"flyability" : 100,
		"reason" : "",
		"timestamp" :1555322400
		},
	"2019-04-15T17:30:00+05:30" : {
		"windSpeed" : 2.8,
		"windDir" : 286,
		"rain" : 0,
		"cloudbase" : null,
		"flyability" : 100,
		"reason" : "",
		"timestamp" :1555333200
		},
	"2019-04-15T20:30:00+05:30" : {
		"windSpeed" : 1.6,
		"windDir" : 311,
		"rain" : 0,
		"cloudbase" : null,
		"flyability" : 100,
		"reason" : "",
		"timestamp" :1555344000
		},
	"2019-04-15T23:30:00+05:30" : {
		"windSpeed" : 2.1,
		"windDir" : 323,
		"rain" : 0,
		"cloudbase" : 7313.7,
		"flyability" : 100,
		"reason" : "",
		"timestamp" :1555354800
		},
	"2019-04-16T02:30:00+05:30" : {
		"windSpeed" : 1.9,
		"windDir" : 322,
		"rain" : 0,
		"cloudbase" : null,
		"flyability" : 100,
		"reason" : "",
		"timestamp" :1555365600
		},
	"2019-04-16T05:30:00+05:30" : {
		"windSpeed" : 1.7,
		"windDir" : 28,
		"rain" : 0,
		"cloudbase" : null,
		"flyability" : 0,
		"reason" : "windDir",
		"timestamp" :1555376400
		},
	"2019-04-16T08:30:00+05:30" : {
		"windSpeed" : 2.4,
		"windDir" : 91,
		"rain" : 0,
		"cloudbase" : null,
		"flyability" : 0,
		"reason" : "windDir",
		"timestamp" :1555387200
		},
	"2019-04-16T11:30:00+05:30" : {
		"windSpeed" : 0.7,
		"windDir" : 123,
		"rain" : 0,
		"cloudbase" : null,
		"flyability" : 0,
		"reason" : "windDir",
		"timestamp" :1555398000
		},
	"2019-04-16T14:30:00+05:30" : {
		"windSpeed" : 2.4,
		"windDir" : 254,
		"rain" : 0,
		"cloudbase" : null,
		"flyability" : 100,
		"reason" : "",
		"timestamp" :1555408800
		},
	"2019-04-16T17:30:00+05:30" : {
		"windSpeed" : 3,
		"windDir" : 264,
		"rain" : 0,
		"cloudbase" : null,
		"flyability" : 100,
		"reason" : "",
		"timestamp" :1555419600
		},
	"2019-04-16T20:30:00+05:30" : {
		"windSpeed" : 2.1,
		"windDir" : 287,
		"rain" : 0,
		"cloudbase" : null,
		"flyability" : 100,
		"reason" : "",
		"timestamp" :1555430400
		},
	"2019-04-16T23:30:00+05:30" : {
		"windSpeed" : 2.5,
		"windDir" : 329,
		"rain" : 0,
		"cloudbase" : null,
		"flyability" : 100,
		"reason" : "",
		"timestamp" :1555441200
		},
	"2019-04-17T02:30:00+05:30" : {
		"windSpeed" : 3,
		"windDir" : 325,
		"rain" : 0,
		"cloudbase" : null,
		"flyability" : 100,
		"reason" : "",
		"timestamp" :1555452000
		},
	"2019-04-17T05:30:00+05:30" : {
		"windSpeed" : 2,
		"windDir" : 346,
		"rain" : 0,
		"cloudbase" : null,
		"flyability" : 0,
		"reason" : "windDir",
		"timestamp" :1555462800
		}
	}
}