{
"site" : "Toksotes",
"id" : 6574,
"orientations" : "00112200",
"forecasts" : { 
	"2019-04-04T06:00:00+03:00" : {
		"windSpeed" : 0.6,
		"windDir" : 320,
		"rain" : 0,
		"cloudbase" : 7906.4344,
		"flyability" : 0,
		"reason" : "windDir",
		"timestamp" :1554346800
		},
	"2019-04-04T09:00:00+03:00" : {
		"windSpeed" : 0.3,
		"windDir" : 166,
		"rain" : 0,
		"cloudbase" : 7232.6,
		"flyability" : 100,
		"reason" : "",
		"timestamp" :1554357600
		},
	"2019-04-04T12:00:00+03:00" : {
		"windSpeed" : 1.5,
		"windDir" : 151,
		"rain" : 0,
		"cloudbase" : 6724.0344,
		"flyability" : 100,
		"reason" : "",
		"timestamp" :1554368400
		},
	"2019-04-04T15:00:00+03:00" : {
		"windSpeed" : 2.7,
		"windDir" : 177,
		"rain" : 0,
		"cloudbase" : null,
		"flyability" : 100,
		"reason" : "",
		"timestamp" :1554379200
		},
	"2019-04-04T18:00:00+03:00" : {
		"windSpeed" : 1.8,
		"windDir" : 170,
		"rain" : 0,
		"cloudbase" : null,
		"flyability" : 100,
		"reason" : "",
		"timestamp" :1554390000
		},
	"2019-04-04T21:00:00+03:00" : {
		"windSpeed" : 0.6,
		"windDir" : 321,
		"rain" : 0,
		"cloudbase" : null,
		"flyability" : 0,
		"reason" : "windDir",
		"timestamp" :1554400800
		},
	"2019-04-05T00:00:00+03:00" : {
		"windSpeed" : 0.6,
		"windDir" : 321,
		"rain" : 0,
		"cloudbase" : null,
		"flyability" : 0,
		"reason" : "windDir",
		"timestamp" :1554411600
		},
	"2019-04-05T03:00:00+03:00" : {
		"windSpeed" : 0.8,
		"windDir" : 22,
		"rain" : 0,
		"cloudbase" : null,
		"flyability" : 0,
		"reason" : "windDir",
		"timestamp" :1554422400
		},
	"2019-04-05T06:00:00+03:00" : {
		"windSpeed" : 0.8,
		"windDir" : 328,
		"rain" : 0,
		"cloudbase" : null,
		"flyability" : 0,
		"reason" : "windDir",
		"timestamp" :1554433200
		},
	"2019-04-05T09:00:00+03:00" : {
		"windSpeed" : 0.3,
		"windDir" : 315,
		"rain" : 0,
		"cloudbase" : null,
		"flyability" : 0,
		"reason" : "windDir",
		"timestamp" :1554444000
		},
	"2019-04-05T12:00:00+03:00" : {
		"windSpeed" : 2.1,
		"windDir" : 164,
		"rain" : 0,
		"cloudbase" : null,
		"flyability" : 100,
		"reason" : "",
		"timestamp" :1554454800
		},
	"2019-04-05T15:00:00+03:00" : {
		"windSpeed" : 2.6,
		"windDir" : 162,
		"rain" : 0,
		"cloudbase" : null,
		"flyability" : 100,
		"reason" : "",
		"timestamp" :1554465600
		},
	"2019-04-05T18:00:00+03:00" : {
		"windSpeed" : 1.8,
		"windDir" : 146,
		"rain" : 0,
		"cloudbase" : null,
		"flyability" : 100,
		"reason" : "",
		"timestamp" :1554476400
		},
	"2019-04-05T21:00:00+03:00" : {
		"windSpeed" : 0.5,
		"windDir" : 346,
		"rain" : 0,
		"cloudbase" : null,
		"flyability" : 0,
		"reason" : "windDir",
		"timestamp" :1554487200
		},
	"2019-04-06T00:00:00+03:00" : {
		"windSpeed" : 1.1,
		"windDir" : 343,
		"rain" : 0,
		"cloudbase" : null,
		"flyability" : 0,
		"reason" : "windDir",
		"timestamp" :1554498000
		},
	"2019-04-06T03:00:00+03:00" : {
		"windSpeed" : 1.4,
		"windDir" : 337,
		"rain" : 0,
		"cloudbase" : 9606.8344,
		"flyability" : 0,
		"reason" : "windDir",
		"timestamp" :1554508800
		},
	"2019-04-06T06:00:00+03:00" : {
		"windSpeed" : 1.4,
		"windDir" : 337,
		"rain" : 0,
		"cloudbase" : 9289.6344,
		"flyability" : 0,
		"reason" : "windDir",
		"timestamp" :1554519600
		},
	"2019-04-06T09:00:00+03:00" : {
		"windSpeed" : 0.5,
		"windDir" : 1,
		"rain" : 0,
		"cloudbase" : 6244.1031999999,
		"flyability" : 0,
		"reason" : "windDir",
		"timestamp" :1554530400
		},
	"2019-04-06T12:00:00+03:00" : {
		"windSpeed" : 2.1,
		"windDir" : 99,
		"rain" : 0,
		"cloudbase" : 4919.3516,
		"flyability" : 100,
		"reason" : "",
		"timestamp" :1554541200
		},
	"2019-04-06T15:00:00+03:00" : {
		"windSpeed" : 2.3,
		"windDir" : 148,
		"rain" : 0,
		"cloudbase" : 4042.77,
		"flyability" : 100,
		"reason" : "",
		"timestamp" :1554552000
		},
	"2019-04-06T18:00:00+03:00" : {
		"windSpeed" : 1.5,
		"windDir" : 184,
		"rain" : 0,
		"cloudbase" : 3598.7344,
		"flyability" : 100,
		"reason" : "",
		"timestamp" :1554562800
		},
	"2019-04-06T21:00:00+03:00" : {
		"windSpeed" : 1.2,
		"windDir" : 318,
		"rain" : 0,
		"cloudbase" : 3585.8516,
		"flyability" : 0,
		"reason" : "windDir",
		"timestamp" :1554573600
		},
	"2019-04-07T00:00:00+03:00" : {
		"windSpeed" : 0.3,
		"windDir" : 360,
		"rain" : 0,
		"cloudbase" : 2544.7828,
		"flyability" : 0,
		"reason" : "windDir",
		"timestamp" :1554584400
		},
	"2019-04-07T03:00:00+03:00" : {
		"windSpeed" : 1.1,
		"windDir" : 309,
		"rain" : 0,
		"cloudbase" : null,
		"flyability" : 0,
		"reason" : "windDir",
		"timestamp" :1554595200
		},
	"2019-04-07T06:00:00+03:00" : {
		"windSpeed" : 0.5,
		"windDir" : 337,
		"rain" : 0,
		"cloudbase" : 2111.8172,
		"flyability" : 0,
		"reason" : "windDir",
		"timestamp" :1554606000
		},
	"2019-04-07T09:00:00+03:00" : {
		"windSpeed" : 0.6,
		"windDir" : 176,
		"rain" : 0,
		"cloudbase" : 2236.0172,
		"flyability" : 100,
		"reason" : "",
		"timestamp" :1554616800
		},
	"2019-04-07T12:00:00+03:00" : {
		"windSpeed" : 1.9,
		"windDir" : 144,
		"rain" : 0,
		"cloudbase" : 3550,
		"flyability" : 100,
		"reason" : "",
		"timestamp" :1554627600
		},
	"2019-04-07T15:00:00+03:00" : {
		"windSpeed" : 2.4,
		"windDir" : 173,
		"rain" : 0,
		"cloudbase" : 2850,
		"flyability" : 100,
		"reason" : "",
		"timestamp" :1554638400
		},
	"2019-04-07T18:00:00+03:00" : {
		"windSpeed" : 1.5,
		"windDir" : 171,
		"rain" : 0,
		"cloudbase" : 3000,
		"flyability" : 100,
		"reason" : "",
		"timestamp" :1554649200
		},
	"2019-04-07T21:00:00+03:00" : {
		"windSpeed" : 0.5,
		"windDir" : 345,
		"rain" : 1,
		"cloudbase" : 2627.5128000001,
		"flyability" : 0,
		"reason" : "windDir, rain",
		"timestamp" :1554660000
		},
	"2019-04-08T00:00:00+03:00" : {
		"windSpeed" : 0.5,
		"windDir" : 11,
		"rain" : 1,
		"cloudbase" : 517.29439999999,
		"flyability" : 0,
		"reason" : "windDir, rain, cloudbase",
		"timestamp" :1554670800
		},
	"2019-04-08T03:00:00+03:00" : {
		"windSpeed" : 0.9,
		"windDir" : 352,
		"rain" : 1,
		"cloudbase" : 397.07376,
		"flyability" : 0,
		"reason" : "windDir, rain, cloudbase",
		"timestamp" :1554681600
		},
	"2019-04-08T06:00:00+03:00" : {
		"windSpeed" : 0.7,
		"windDir" : 353,
		"rain" : 1,
		"cloudbase" : 288.22407999999,
		"flyability" : 0,
		"reason" : "windDir, rain, cloudbase",
		"timestamp" :1554692400
		},
	"2019-04-08T09:00:00+03:00" : {
		"windSpeed" : 0.9,
		"windDir" : 93,
		"rain" : 1,
		"cloudbase" : 268.88663999998,
		"flyability" : 0,
		"reason" : "rain, cloudbase",
		"timestamp" :1554703200
		},
	"2019-04-08T12:00:00+03:00" : {
		"windSpeed" : 2.7,
		"windDir" : 117,
		"rain" : 1,
		"cloudbase" : 374.06447999996,
		"flyability" : 0,
		"reason" : "rain, cloudbase",
		"timestamp" :1554714000
		},
	"2019-04-08T15:00:00+03:00" : {
		"windSpeed" : 2.7,
		"windDir" : 136,
		"rain" : 1,
		"cloudbase" : 133.97707999998,
		"flyability" : 0,
		"reason" : "rain, cloudbase",
		"timestamp" :1554724800
		},
	"2019-04-08T18:00:00+03:00" : {
		"windSpeed" : 1.6,
		"windDir" : 142,
		"rain" : 1,
		"cloudbase" : 180,
		"flyability" : 0,
		"reason" : "rain, cloudbase",
		"timestamp" :1554735600
		},
	"2019-04-08T21:00:00+03:00" : {
		"windSpeed" : 1.2,
		"windDir" : 58,
		"rain" : 1,
		"cloudbase" : 366.50103999993,
		"flyability" : 0,
		"reason" : "windDir, rain, cloudbase",
		"timestamp" :1554746400
		},
	"2019-04-09T00:00:00+03:00" : {
		"windSpeed" : 1.1,
		"windDir" : 29,
		"rain" : 1,
		"cloudbase" : 264.55375999999,
		"flyability" : 0,
		"reason" : "windDir, rain, cloudbase",
		"timestamp" :1554757200
		},
	"2019-04-09T03:00:00+03:00" : {
		"windSpeed" : 1.4,
		"windDir" : 51,
		"rain" : 1,
		"cloudbase" : 226.14063999999,
		"flyability" : 0,
		"reason" : "windDir, rain, cloudbase",
		"timestamp" :1554768000
		},
	"2019-04-09T06:00:00+03:00" : {
		"windSpeed" : 0.7,
		"windDir" : 52,
		"rain" : 1,
		"cloudbase" : 390,
		"flyability" : 0,
		"reason" : "windDir, rain, cloudbase",
		"timestamp" :1554778800
		},
	"2019-04-09T09:00:00+03:00" : {
		"windSpeed" : 0.3,
		"windDir" : 10,
		"rain" : 1,
		"cloudbase" : 860,
		"flyability" : 0,
		"reason" : "windDir, rain, cloudbase",
		"timestamp" :1554789600
		},
	"2019-04-09T12:00:00+03:00" : {
		"windSpeed" : 2.2,
		"windDir" : 118,
		"rain" : 1,
		"cloudbase" : 3438.3884000007,
		"flyability" : 0,
		"reason" : "rain",
		"timestamp" :1554800400
		},
	"2019-04-09T15:00:00+03:00" : {
		"windSpeed" : 2,
		"windDir" : 176,
		"rain" : 1,
		"cloudbase" : 1367.9303999999,
		"flyability" : 0,
		"reason" : "rain",
		"timestamp" :1554811200
		},
	"2019-04-09T18:00:00+03:00" : {
		"windSpeed" : 1.4,
		"windDir" : 180,
		"rain" : 0,
		"cloudbase" : 2349.9847999997,
		"flyability" : 100,
		"reason" : "",
		"timestamp" :1554822000
		},
	"2019-04-09T21:00:00+03:00" : {
		"windSpeed" : 0,
		"windDir" : 90,
		"rain" : 0,
		"cloudbase" : 2177.6,
		"flyability" : 100,
		"reason" : "",
		"timestamp" :1554832800
		},
	"2019-04-10T00:00:00+03:00" : {
		"windSpeed" : 0.3,
		"windDir" : 320,
		"rain" : 1,
		"cloudbase" : 1414.5344,
		"flyability" : 0,
		"reason" : "windDir, rain",
		"timestamp" :1554843600
		},
	"2019-04-10T03:00:00+03:00" : {
		"windSpeed" : 0.6,
		"windDir" : 251,
		"rain" : 1,
		"cloudbase" : 1736.9168800001,
		"flyability" : 0,
		"reason" : "windDir, rain",
		"timestamp" :1554854400
		}
	}
}