{
"site" : "Mt. Zion aka Lookout aka LO (Golden)",
"id" : 6708,
"orientations" : "12220000",
"forecasts" : { 
	"2019-04-06T21:00:00-06:00" : {
		"windSpeed" : 3.3,
		"windDir" : 278,
		"rain" : 0,
		"cloudbase" : 4545.14,
		"flyability" : 0,
		"reason" : "windDir",
		"timestamp" :1554606000
		},
	"2019-04-07T00:00:00-06:00" : {
		"windSpeed" : 2.6,
		"windDir" : 266,
		"rain" : 0,
		"cloudbase" : 5289.1799999999,
		"flyability" : 0,
		"reason" : "windDir",
		"timestamp" :1554616800
		},
	"2019-04-07T03:00:00-06:00" : {
		"windSpeed" : 2.1,
		"windDir" : 233,
		"rain" : 0,
		"cloudbase" : null,
		"flyability" : 0,
		"reason" : "windDir",
		"timestamp" :1554627600
		},
	"2019-04-07T06:00:00-06:00" : {
		"windSpeed" : 2.4,
		"windDir" : 255,
		"rain" : 0,
		"cloudbase" : null,
		"flyability" : 0,
		"reason" : "windDir",
		"timestamp" :1554638400
		},
	"2019-04-07T09:00:00-06:00" : {
		"windSpeed" : 2,
		"windDir" : 264,
		"rain" : 0,
		"cloudbase" : 5400,
		"flyability" : 0,
		"reason" : "windDir",
		"timestamp" :1554649200
		},
	"2019-04-07T12:00:00-06:00" : {
		"windSpeed" : 2.5,
		"windDir" : 125,
		"rain" : 0,
		"cloudbase" : null,
		"flyability" : 100,
		"reason" : "",
		"timestamp" :1554660000
		},
	"2019-04-07T15:00:00-06:00" : {
		"windSpeed" : 1,
		"windDir" : 99,
		"rain" : 0,
		"cloudbase" : 6377.7299999999,
		"flyability" : 100,
		"reason" : "",
		"timestamp" :1554670800
		},
	"2019-04-07T18:00:00-06:00" : {
		"windSpeed" : 1.5,
		"windDir" : 120,
		"rain" : 0,
		"cloudbase" : 6669,
		"flyability" : 100,
		"reason" : "",
		"timestamp" :1554681600
		},
	"2019-04-07T21:00:00-06:00" : {
		"windSpeed" : 3.4,
		"windDir" : 257,
		"rain" : 0,
		"cloudbase" : 5804.42,
		"flyability" : 0,
		"reason" : "windDir",
		"timestamp" :1554692400
		},
	"2019-04-08T00:00:00-06:00" : {
		"windSpeed" : 5.2,
		"windDir" : 260,
		"rain" : 0,
		"cloudbase" : 9763.14,
		"flyability" : 0,
		"reason" : "windSpeed, windDir",
		"timestamp" :1554703200
		},
	"2019-04-08T03:00:00-06:00" : {
		"windSpeed" : 5.7,
		"windDir" : 275,
		"rain" : 0,
		"cloudbase" : null,
		"flyability" : 0,
		"reason" : "windSpeed, windDir",
		"timestamp" :1554714000
		},
	"2019-04-08T06:00:00-06:00" : {
		"windSpeed" : 3.3,
		"windDir" : 269,
		"rain" : 0,
		"cloudbase" : null,
		"flyability" : 0,
		"reason" : "windDir",
		"timestamp" :1554724800
		},
	"2019-04-08T09:00:00-06:00" : {
		"windSpeed" : 1,
		"windDir" : 134,
		"rain" : 0,
		"cloudbase" : null,
		"flyability" : 100,
		"reason" : "",
		"timestamp" :1554735600
		},
	"2019-04-08T12:00:00-06:00" : {
		"windSpeed" : 1.2,
		"windDir" : 59,
		"rain" : 0,
		"cloudbase" : 7623.16,
		"flyability" : 100,
		"reason" : "",
		"timestamp" :1554746400
		},
	"2019-04-08T15:00:00-06:00" : {
		"windSpeed" : 2.2,
		"windDir" : 108,
		"rain" : 0,
		"cloudbase" : 7857.12,
		"flyability" : 100,
		"reason" : "",
		"timestamp" :1554757200
		},
	"2019-04-08T18:00:00-06:00" : {
		"windSpeed" : 1.3,
		"windDir" : 142,
		"rain" : 0,
		"cloudbase" : null,
		"flyability" : 100,
		"reason" : "",
		"timestamp" :1554768000
		},
	"2019-04-08T21:00:00-06:00" : {
		"windSpeed" : 2.7,
		"windDir" : 253,
		"rain" : 0,
		"cloudbase" : 7945.14,
		"flyability" : 0,
		"reason" : "windDir",
		"timestamp" :1554778800
		},
	"2019-04-09T00:00:00-06:00" : {
		"windSpeed" : 4.1,
		"windDir" : 259,
		"rain" : 0,
		"cloudbase" : null,
		"flyability" : 0,
		"reason" : "windDir",
		"timestamp" :1554789600
		},
	"2019-04-09T03:00:00-06:00" : {
		"windSpeed" : 4,
		"windDir" : 248,
		"rain" : 0,
		"cloudbase" : null,
		"flyability" : 0,
		"reason" : "windDir",
		"timestamp" :1554800400
		},
	"2019-04-09T06:00:00-06:00" : {
		"windSpeed" : 4.3,
		"windDir" : 250,
		"rain" : 0,
		"cloudbase" : 10000,
		"flyability" : 0,
		"reason" : "windDir",
		"timestamp" :1554811200
		},
	"2019-04-09T09:00:00-06:00" : {
		"windSpeed" : 2.9,
		"windDir" : 233,
		"rain" : 0,
		"cloudbase" : 8641.28,
		"flyability" : 0,
		"reason" : "windDir",
		"timestamp" :1554822000
		},
	"2019-04-09T12:00:00-06:00" : {
		"windSpeed" : 1.2,
		"windDir" : 154,
		"rain" : 0,
		"cloudbase" : 8266.14,
		"flyability" : 100,
		"reason" : "",
		"timestamp" :1554832800
		},
	"2019-04-09T15:00:00-06:00" : {
		"windSpeed" : 1.3,
		"windDir" : 169,
		"rain" : 1,
		"cloudbase" : 8174.4399999999,
		"flyability" : 0,
		"reason" : "windDir, rain",
		"timestamp" :1554843600
		},
	"2019-04-09T18:00:00-06:00" : {
		"windSpeed" : 1.8,
		"windDir" : 3,
		"rain" : 0,
		"cloudbase" : 7146.3,
		"flyability" : 100,
		"reason" : "",
		"timestamp" :1554854400
		},
	"2019-04-09T21:00:00-06:00" : {
		"windSpeed" : 2.7,
		"windDir" : 248,
		"rain" : 0,
		"cloudbase" : null,
		"flyability" : 0,
		"reason" : "windDir",
		"timestamp" :1554865200
		},
	"2019-04-10T00:00:00-06:00" : {
		"windSpeed" : 3.4,
		"windDir" : 261,
		"rain" : 0,
		"cloudbase" : null,
		"flyability" : 0,
		"reason" : "windDir",
		"timestamp" :1554876000
		},
	"2019-04-10T03:00:00-06:00" : {
		"windSpeed" : 1.5,
		"windDir" : 298,
		"rain" : 0,
		"cloudbase" : null,
		"flyability" : 0,
		"reason" : "windDir",
		"timestamp" :1554886800
		},
	"2019-04-10T06:00:00-06:00" : {
		"windSpeed" : 0.9,
		"windDir" : 299,
		"rain" : 0,
		"cloudbase" : null,
		"flyability" : 0,
		"reason" : "windDir",
		"timestamp" :1554897600
		},
	"2019-04-10T09:00:00-06:00" : {
		"windSpeed" : 2.9,
		"windDir" : 59,
		"rain" : 1,
		"cloudbase" : 129.76999999999,
		"flyability" : 0,
		"reason" : "rain, cloudbase",
		"timestamp" :1554908400
		},
	"2019-04-10T12:00:00-06:00" : {
		"windSpeed" : 4.6,
		"windDir" : 38,
		"rain" : 0,
		"cloudbase" : 43.850999999998,
		"flyability" : 0,
		"reason" : "cloudbase",
		"timestamp" :1554919200
		},
	"2019-04-10T15:00:00-06:00" : {
		"windSpeed" : 3.8,
		"windDir" : 13,
		"rain" : 0,
		"cloudbase" : 569.24199999998,
		"flyability" : 0,
		"reason" : "cloudbase",
		"timestamp" :1554930000
		},
	"2019-04-10T18:00:00-06:00" : {
		"windSpeed" : 4.3,
		"windDir" : 29,
		"rain" : 0,
		"cloudbase" : 504.52799999998,
		"flyability" : 0,
		"reason" : "cloudbase",
		"timestamp" :1554940800
		},
	"2019-04-10T21:00:00-06:00" : {
		"windSpeed" : 2.6,
		"windDir" : 32,
		"rain" : 0,
		"cloudbase" : 378.59799999998,
		"flyability" : 0,
		"reason" : "cloudbase",
		"timestamp" :1554951600
		},
	"2019-04-11T00:00:00-06:00" : {
		"windSpeed" : 1.7,
		"windDir" : 25,
		"rain" : 0,
		"cloudbase" : 222.01099999998,
		"flyability" : 0,
		"reason" : "cloudbase",
		"timestamp" :1554962400
		},
	"2019-04-11T03:00:00-06:00" : {
		"windSpeed" : 1.2,
		"windDir" : 13,
		"rain" : 0,
		"cloudbase" : 651.47199999998,
		"flyability" : 0,
		"reason" : "cloudbase",
		"timestamp" :1554973200
		},
	"2019-04-11T06:00:00-06:00" : {
		"windSpeed" : 0.2,
		"windDir" : 5,
		"rain" : 0,
		"cloudbase" : 1128.9979999999,
		"flyability" : 0,
		"reason" : "cloudbase",
		"timestamp" :1554984000
		},
	"2019-04-11T09:00:00-06:00" : {
		"windSpeed" : 0.9,
		"windDir" : 63,
		"rain" : 0,
		"cloudbase" : 2200.72,
		"flyability" : 100,
		"reason" : "",
		"timestamp" :1554994800
		},
	"2019-04-11T12:00:00-06:00" : {
		"windSpeed" : 2.3,
		"windDir" : 15,
		"rain" : 0,
		"cloudbase" : 1833.58,
		"flyability" : 0,
		"reason" : "cloudbase",
		"timestamp" :1555005600
		},
	"2019-04-11T15:00:00-06:00" : {
		"windSpeed" : 2.7,
		"windDir" : 32,
		"rain" : 0,
		"cloudbase" : null,
		"flyability" : 100,
		"reason" : "",
		"timestamp" :1555016400
		},
	"2019-04-11T18:00:00-06:00" : {
		"windSpeed" : 3,
		"windDir" : 49,
		"rain" : 0,
		"cloudbase" : null,
		"flyability" : 100,
		"reason" : "",
		"timestamp" :1555027200
		},
	"2019-04-11T21:00:00-06:00" : {
		"windSpeed" : 0.3,
		"windDir" : 231,
		"rain" : 0,
		"cloudbase" : 968.22399999997,
		"flyability" : 0,
		"reason" : "windDir, cloudbase",
		"timestamp" :1555038000
		},
	"2019-04-12T00:00:00-06:00" : {
		"windSpeed" : 0.2,
		"windDir" : 97,
		"rain" : 0,
		"cloudbase" : 514.35799999997,
		"flyability" : 0,
		"reason" : "cloudbase",
		"timestamp" :1555048800
		},
	"2019-04-12T03:00:00-06:00" : {
		"windSpeed" : 0.6,
		"windDir" : 158,
		"rain" : 0,
		"cloudbase" : 236.82699999998,
		"flyability" : 0,
		"reason" : "windDir, cloudbase",
		"timestamp" :1555059600
		},
	"2019-04-12T06:00:00-06:00" : {
		"windSpeed" : 0.6,
		"windDir" : 208,
		"rain" : 0,
		"cloudbase" : 180.89999999998,
		"flyability" : 0,
		"reason" : "windDir, cloudbase",
		"timestamp" :1555070400
		},
	"2019-04-12T09:00:00-06:00" : {
		"windSpeed" : 1.4,
		"windDir" : 145,
		"rain" : 0,
		"cloudbase" : 225.47199999998,
		"flyability" : 0,
		"reason" : "cloudbase",
		"timestamp" :1555081200
		},
	"2019-04-12T12:00:00-06:00" : {
		"windSpeed" : 2.7,
		"windDir" : 106,
		"rain" : 0,
		"cloudbase" : 778.37199999997,
		"flyability" : 0,
		"reason" : "cloudbase",
		"timestamp" :1555092000
		},
	"2019-04-12T15:00:00-06:00" : {
		"windSpeed" : 2.8,
		"windDir" : 105,
		"rain" : 0,
		"cloudbase" : 1189.444,
		"flyability" : 0,
		"reason" : "cloudbase",
		"timestamp" :1555102800
		},
	"2019-04-12T18:00:00-06:00" : {
		"windSpeed" : 2.2,
		"windDir" : 92,
		"rain" : 0,
		"cloudbase" : 1259.57,
		"flyability" : 0,
		"reason" : "cloudbase",
		"timestamp" :1555113600
		}
	}
}