{
"site" : "Otay Mesa",
"id" : 6780,
"orientations" : "00012110",
"forecasts" : { 
	"2019-04-08T08:00:00-07:00" : {
		"windSpeed" : 1.9,
		"windDir" : 93,
		"rain" : 0,
		"cloudbase" : 9991.12,
		"flyability" : 0,
		"reason" : "windDir",
		"timestamp" :1554739200
		},
	"2019-04-08T11:00:00-07:00" : {
		"windSpeed" : 1.6,
		"windDir" : 293,
		"rain" : 0,
		"cloudbase" : 7395.56,
		"flyability" : 0,
		"reason" : "windDir",
		"timestamp" :1554750000
		},
	"2019-04-08T14:00:00-07:00" : {
		"windSpeed" : 4.2,
		"windDir" : 287,
		"rain" : 0,
		"cloudbase" : 10630,
		"flyability" : 100,
		"reason" : "",
		"timestamp" :1554760800
		},
	"2019-04-08T17:00:00-07:00" : {
		"windSpeed" : 2.9,
		"windDir" : 283,
		"rain" : 0,
		"cloudbase" : 10500,
		"flyability" : 100,
		"reason" : "",
		"timestamp" :1554771600
		},
	"2019-04-08T20:00:00-07:00" : {
		"windSpeed" : 0.4,
		"windDir" : 359,
		"rain" : 0,
		"cloudbase" : 10500,
		"flyability" : 0,
		"reason" : "windDir",
		"timestamp" :1554782400
		},
	"2019-04-08T23:00:00-07:00" : {
		"windSpeed" : 0.9,
		"windDir" : 152,
		"rain" : 0,
		"cloudbase" : 11000,
		"flyability" : 100,
		"reason" : "",
		"timestamp" :1554793200
		},
	"2019-04-09T02:00:00-07:00" : {
		"windSpeed" : 0.5,
		"windDir" : 103,
		"rain" : 0,
		"cloudbase" : 11130,
		"flyability" : 0,
		"reason" : "windDir",
		"timestamp" :1554804000
		},
	"2019-04-09T05:00:00-07:00" : {
		"windSpeed" : 1.1,
		"windDir" : 115,
		"rain" : 0,
		"cloudbase" : 11000,
		"flyability" : 100,
		"reason" : "",
		"timestamp" :1554814800
		},
	"2019-04-09T08:00:00-07:00" : {
		"windSpeed" : 1,
		"windDir" : 188,
		"rain" : 0,
		"cloudbase" : 9091.12,
		"flyability" : 100,
		"reason" : "",
		"timestamp" :1554825600
		},
	"2019-04-09T11:00:00-07:00" : {
		"windSpeed" : 3.2,
		"windDir" : 261,
		"rain" : 0,
		"cloudbase" : 8486.68,
		"flyability" : 100,
		"reason" : "",
		"timestamp" :1554836400
		},
	"2019-04-09T14:00:00-07:00" : {
		"windSpeed" : 5.6,
		"windDir" : 281,
		"rain" : 0,
		"cloudbase" : null,
		"flyability" : 0,
		"reason" : "windSpeed",
		"timestamp" :1554847200
		},
	"2019-04-09T17:00:00-07:00" : {
		"windSpeed" : 5.1,
		"windDir" : 278,
		"rain" : 0,
		"cloudbase" : null,
		"flyability" : 0,
		"reason" : "windSpeed",
		"timestamp" :1554858000
		},
	"2019-04-09T20:00:00-07:00" : {
		"windSpeed" : 3.2,
		"windDir" : 257,
		"rain" : 0,
		"cloudbase" : null,
		"flyability" : 100,
		"reason" : "",
		"timestamp" :1554868800
		},
	"2019-04-09T23:00:00-07:00" : {
		"windSpeed" : 1.2,
		"windDir" : 213,
		"rain" : 0,
		"cloudbase" : null,
		"flyability" : 100,
		"reason" : "",
		"timestamp" :1554879600
		},
	"2019-04-10T02:00:00-07:00" : {
		"windSpeed" : 4,
		"windDir" : 334,
		"rain" : 0,
		"cloudbase" : null,
		"flyability" : 0,
		"reason" : "windDir",
		"timestamp" :1554890400
		},
	"2019-04-10T05:00:00-07:00" : {
		"windSpeed" : 0.9,
		"windDir" : 74,
		"rain" : 0,
		"cloudbase" : null,
		"flyability" : 0,
		"reason" : "windDir",
		"timestamp" :1554901200
		},
	"2019-04-10T08:00:00-07:00" : {
		"windSpeed" : 1.2,
		"windDir" : 53,
		"rain" : 0,
		"cloudbase" : null,
		"flyability" : 0,
		"reason" : "windDir",
		"timestamp" :1554912000
		},
	"2019-04-10T11:00:00-07:00" : {
		"windSpeed" : 3.6,
		"windDir" : 304,
		"rain" : 0,
		"cloudbase" : null,
		"flyability" : 0,
		"reason" : "windDir",
		"timestamp" :1554922800
		},
	"2019-04-10T14:00:00-07:00" : {
		"windSpeed" : 5.1,
		"windDir" : 273,
		"rain" : 0,
		"cloudbase" : null,
		"flyability" : 0,
		"reason" : "windSpeed",
		"timestamp" :1554933600
		},
	"2019-04-10T17:00:00-07:00" : {
		"windSpeed" : 4.6,
		"windDir" : 290,
		"rain" : 0,
		"cloudbase" : null,
		"flyability" : 100,
		"reason" : "",
		"timestamp" :1554944400
		},
	"2019-04-10T20:00:00-07:00" : {
		"windSpeed" : 1.1,
		"windDir" : 251,
		"rain" : 0,
		"cloudbase" : null,
		"flyability" : 100,
		"reason" : "",
		"timestamp" :1554955200
		},
	"2019-04-10T23:00:00-07:00" : {
		"windSpeed" : 1.6,
		"windDir" : 90,
		"rain" : 0,
		"cloudbase" : null,
		"flyability" : 0,
		"reason" : "windDir",
		"timestamp" :1554966000
		},
	"2019-04-11T02:00:00-07:00" : {
		"windSpeed" : 2.5,
		"windDir" : 98,
		"rain" : 0,
		"cloudbase" : null,
		"flyability" : 0,
		"reason" : "windDir",
		"timestamp" :1554976800
		},
	"2019-04-11T05:00:00-07:00" : {
		"windSpeed" : 1.7,
		"windDir" : 93,
		"rain" : 0,
		"cloudbase" : null,
		"flyability" : 0,
		"reason" : "windDir",
		"timestamp" :1554987600
		},
	"2019-04-11T08:00:00-07:00" : {
		"windSpeed" : 2.1,
		"windDir" : 93,
		"rain" : 0,
		"cloudbase" : null,
		"flyability" : 0,
		"reason" : "windDir",
		"timestamp" :1554998400
		},
	"2019-04-11T11:00:00-07:00" : {
		"windSpeed" : 3.3,
		"windDir" : 245,
		"rain" : 0,
		"cloudbase" : null,
		"flyability" : 100,
		"reason" : "",
		"timestamp" :1555009200
		},
	"2019-04-11T14:00:00-07:00" : {
		"windSpeed" : 4.2,
		"windDir" : 258,
		"rain" : 0,
		"cloudbase" : null,
		"flyability" : 100,
		"reason" : "",
		"timestamp" :1555020000
		},
	"2019-04-11T17:00:00-07:00" : {
		"windSpeed" : 4.7,
		"windDir" : 243,
		"rain" : 0,
		"cloudbase" : 8179.56,
		"flyability" : 100,
		"reason" : "",
		"timestamp" :1555030800
		},
	"2019-04-11T20:00:00-07:00" : {
		"windSpeed" : 3.6,
		"windDir" : 199,
		"rain" : 0,
		"cloudbase" : 5444.44,
		"flyability" : 100,
		"reason" : "",
		"timestamp" :1555041600
		},
	"2019-04-11T23:00:00-07:00" : {
		"windSpeed" : 4.1,
		"windDir" : 218,
		"rain" : 0,
		"cloudbase" : 740.88,
		"flyability" : 100,
		"reason" : "",
		"timestamp" :1555052400
		},
	"2019-04-12T02:00:00-07:00" : {
		"windSpeed" : 3.5,
		"windDir" : 226,
		"rain" : 1,
		"cloudbase" : 469.468,
		"flyability" : 0,
		"reason" : "rain",
		"timestamp" :1555063200
		},
	"2019-04-12T05:00:00-07:00" : {
		"windSpeed" : 2.3,
		"windDir" : 250,
		"rain" : 1,
		"cloudbase" : 430,
		"flyability" : 0,
		"reason" : "rain, cloudbase",
		"timestamp" :1555074000
		},
	"2019-04-12T08:00:00-07:00" : {
		"windSpeed" : 3.2,
		"windDir" : 254,
		"rain" : 1,
		"cloudbase" : 199.71200000001,
		"flyability" : 0,
		"reason" : "rain, cloudbase",
		"timestamp" :1555084800
		},
	"2019-04-12T11:00:00-07:00" : {
		"windSpeed" : 6.1,
		"windDir" : 271,
		"rain" : 1,
		"cloudbase" : 449.09200000001,
		"flyability" : 0,
		"reason" : "windSpeed, rain",
		"timestamp" :1555095600
		},
	"2019-04-12T14:00:00-07:00" : {
		"windSpeed" : 7.7,
		"windDir" : 281,
		"rain" : 1,
		"cloudbase" : 615.2,
		"flyability" : 0,
		"reason" : "windSpeed, rain",
		"timestamp" :1555106400
		},
	"2019-04-12T17:00:00-07:00" : {
		"windSpeed" : 5.6,
		"windDir" : 292,
		"rain" : 1,
		"cloudbase" : 410,
		"flyability" : 0,
		"reason" : "windSpeed, rain, cloudbase",
		"timestamp" :1555117200
		},
	"2019-04-12T20:00:00-07:00" : {
		"windSpeed" : 1.5,
		"windDir" : 312,
		"rain" : 1,
		"cloudbase" : null,
		"flyability" : 0,
		"reason" : "windDir, rain",
		"timestamp" :1555128000
		},
	"2019-04-12T23:00:00-07:00" : {
		"windSpeed" : 1.1,
		"windDir" : 117,
		"rain" : 0,
		"cloudbase" : null,
		"flyability" : 100,
		"reason" : "",
		"timestamp" :1555138800
		},
	"2019-04-13T02:00:00-07:00" : {
		"windSpeed" : 2.1,
		"windDir" : 113,
		"rain" : 0,
		"cloudbase" : null,
		"flyability" : 100,
		"reason" : "",
		"timestamp" :1555149600
		},
	"2019-04-13T05:00:00-07:00" : {
		"windSpeed" : 1.7,
		"windDir" : 106,
		"rain" : 0,
		"cloudbase" : null,
		"flyability" : 0,
		"reason" : "windDir",
		"timestamp" :1555160400
		},
	"2019-04-13T08:00:00-07:00" : {
		"windSpeed" : 2,
		"windDir" : 100,
		"rain" : 0,
		"cloudbase" : null,
		"flyability" : 0,
		"reason" : "windDir",
		"timestamp" :1555171200
		},
	"2019-04-13T11:00:00-07:00" : {
		"windSpeed" : 2,
		"windDir" : 260,
		"rain" : 0,
		"cloudbase" : null,
		"flyability" : 100,
		"reason" : "",
		"timestamp" :1555182000
		},
	"2019-04-13T14:00:00-07:00" : {
		"windSpeed" : 3.6,
		"windDir" : 255,
		"rain" : 0,
		"cloudbase" : null,
		"flyability" : 100,
		"reason" : "",
		"timestamp" :1555192800
		},
	"2019-04-13T17:00:00-07:00" : {
		"windSpeed" : 2.7,
		"windDir" : 281,
		"rain" : 0,
		"cloudbase" : null,
		"flyability" : 100,
		"reason" : "",
		"timestamp" :1555203600
		},
	"2019-04-13T20:00:00-07:00" : {
		"windSpeed" : 1,
		"windDir" : 270,
		"rain" : 0,
		"cloudbase" : null,
		"flyability" : 100,
		"reason" : "",
		"timestamp" :1555214400
		},
	"2019-04-13T23:00:00-07:00" : {
		"windSpeed" : 1.6,
		"windDir" : 90,
		"rain" : 0,
		"cloudbase" : null,
		"flyability" : 0,
		"reason" : "windDir",
		"timestamp" :1555225200
		},
	"2019-04-14T02:00:00-07:00" : {
		"windSpeed" : 1.6,
		"windDir" : 94,
		"rain" : 0,
		"cloudbase" : null,
		"flyability" : 0,
		"reason" : "windDir",
		"timestamp" :1555236000
		},
	"2019-04-14T05:00:00-07:00" : {
		"windSpeed" : 1.6,
		"windDir" : 89,
		"rain" : 0,
		"cloudbase" : null,
		"flyability" : 0,
		"reason" : "windDir",
		"timestamp" :1555246800
		}
	}
}