{
"site" : "Mont Dore",
"id" : 6884,
"orientations" : "00002200",
"forecasts" : { 
	"2019-04-19T14:00:00+11:00" : {
		"windSpeed" : 6.5,
		"windDir" : 94,
		"rain" : 1,
		"cloudbase" : 1985.14,
		"flyability" : 0,
		"reason" : "windSpeed, windDir, rain",
		"timestamp" :1555646400
		},
	"2019-04-19T17:00:00+11:00" : {
		"windSpeed" : 7.1,
		"windDir" : 96,
		"rain" : 1,
		"cloudbase" : 4052.8999999998,
		"flyability" : 0,
		"reason" : "windSpeed, windDir, rain",
		"timestamp" :1555657200
		},
	"2019-04-19T20:00:00+11:00" : {
		"windSpeed" : 7.4,
		"windDir" : 95,
		"rain" : 1,
		"cloudbase" : 4377.8199999998,
		"flyability" : 0,
		"reason" : "windSpeed, windDir, rain",
		"timestamp" :1555668000
		},
	"2019-04-19T23:00:00+11:00" : {
		"windSpeed" : 7,
		"windDir" : 92,
		"rain" : 1,
		"cloudbase" : 4990.86,
		"flyability" : 0,
		"reason" : "windSpeed, windDir, rain",
		"timestamp" :1555678800
		},
	"2019-04-20T02:00:00+11:00" : {
		"windSpeed" : 6.4,
		"windDir" : 97,
		"rain" : 1,
		"cloudbase" : 4924.4,
		"flyability" : 0,
		"reason" : "windSpeed, windDir, rain",
		"timestamp" :1555689600
		},
	"2019-04-20T05:00:00+11:00" : {
		"windSpeed" : 6.4,
		"windDir" : 94,
		"rain" : 1,
		"cloudbase" : 5384.2,
		"flyability" : 0,
		"reason" : "windSpeed, windDir, rain",
		"timestamp" :1555700400
		},
	"2019-04-20T08:00:00+11:00" : {
		"windSpeed" : 7.4,
		"windDir" : 96,
		"rain" : 1,
		"cloudbase" : 420,
		"flyability" : 0,
		"reason" : "windSpeed, windDir, rain",
		"timestamp" :1555711200
		},
	"2019-04-20T11:00:00+11:00" : {
		"windSpeed" : 8.1,
		"windDir" : 99,
		"rain" : 1,
		"cloudbase" : 380,
		"flyability" : 0,
		"reason" : "windSpeed, windDir, rain",
		"timestamp" :1555722000
		},
	"2019-04-20T14:00:00+11:00" : {
		"windSpeed" : 8,
		"windDir" : 99,
		"rain" : 1,
		"cloudbase" : null,
		"flyability" : 0,
		"reason" : "windSpeed, windDir, rain",
		"timestamp" :1555732800
		},
	"2019-04-20T17:00:00+11:00" : {
		"windSpeed" : 8.9,
		"windDir" : 95,
		"rain" : 1,
		"cloudbase" : null,
		"flyability" : 0,
		"reason" : "windSpeed, windDir, rain",
		"timestamp" :1555743600
		},
	"2019-04-20T20:00:00+11:00" : {
		"windSpeed" : 7.9,
		"windDir" : 89,
		"rain" : 1,
		"cloudbase" : null,
		"flyability" : 0,
		"reason" : "windSpeed, windDir, rain",
		"timestamp" :1555754400
		},
	"2019-04-20T23:00:00+11:00" : {
		"windSpeed" : 7.5,
		"windDir" : 89,
		"rain" : 1,
		"cloudbase" : null,
		"flyability" : 0,
		"reason" : "windSpeed, windDir, rain",
		"timestamp" :1555765200
		},
	"2019-04-21T02:00:00+11:00" : {
		"windSpeed" : 7.4,
		"windDir" : 88,
		"rain" : 1,
		"cloudbase" : 8497.9999999999,
		"flyability" : 0,
		"reason" : "windSpeed, windDir, rain",
		"timestamp" :1555776000
		},
	"2019-04-21T05:00:00+11:00" : {
		"windSpeed" : 6.9,
		"windDir" : 97,
		"rain" : 1,
		"cloudbase" : 7339.6999999997,
		"flyability" : 0,
		"reason" : "windSpeed, windDir, rain",
		"timestamp" :1555786800
		},
	"2019-04-21T08:00:00+11:00" : {
		"windSpeed" : 8,
		"windDir" : 96,
		"rain" : 1,
		"cloudbase" : 1954.1000000002,
		"flyability" : 0,
		"reason" : "windSpeed, windDir, rain",
		"timestamp" :1555797600
		},
	"2019-04-21T11:00:00+11:00" : {
		"windSpeed" : 8.4,
		"windDir" : 95,
		"rain" : 1,
		"cloudbase" : 11500,
		"flyability" : 0,
		"reason" : "windSpeed, windDir, rain",
		"timestamp" :1555808400
		},
	"2019-04-21T14:00:00+11:00" : {
		"windSpeed" : 8,
		"windDir" : 92,
		"rain" : 1,
		"cloudbase" : 2195.8999999998,
		"flyability" : 0,
		"reason" : "windSpeed, windDir, rain",
		"timestamp" :1555819200
		},
	"2019-04-21T17:00:00+11:00" : {
		"windSpeed" : 6.6,
		"windDir" : 89,
		"rain" : 1,
		"cloudbase" : 4305.4,
		"flyability" : 0,
		"reason" : "windSpeed, windDir, rain",
		"timestamp" :1555830000
		},
	"2019-04-21T20:00:00+11:00" : {
		"windSpeed" : 6.6,
		"windDir" : 84,
		"rain" : 1,
		"cloudbase" : 4827.6000000003,
		"flyability" : 0,
		"reason" : "windSpeed, windDir, rain",
		"timestamp" :1555840800
		},
	"2019-04-21T23:00:00+11:00" : {
		"windSpeed" : 6.6,
		"windDir" : 84,
		"rain" : 1,
		"cloudbase" : 7872.1999999998,
		"flyability" : 0,
		"reason" : "windSpeed, windDir, rain",
		"timestamp" :1555851600
		},
	"2019-04-22T02:00:00+11:00" : {
		"windSpeed" : 5.7,
		"windDir" : 84,
		"rain" : 1,
		"cloudbase" : 6392.1000000003,
		"flyability" : 0,
		"reason" : "windSpeed, windDir, rain",
		"timestamp" :1555862400
		},
	"2019-04-22T05:00:00+11:00" : {
		"windSpeed" : 5.6,
		"windDir" : 83,
		"rain" : 1,
		"cloudbase" : 4544.4000000001,
		"flyability" : 0,
		"reason" : "windSpeed, windDir, rain",
		"timestamp" :1555873200
		},
	"2019-04-22T08:00:00+11:00" : {
		"windSpeed" : 6.2,
		"windDir" : 81,
		"rain" : 1,
		"cloudbase" : 4775.3000000001,
		"flyability" : 0,
		"reason" : "windSpeed, windDir, rain",
		"timestamp" :1555884000
		},
	"2019-04-22T11:00:00+11:00" : {
		"windSpeed" : 7.2,
		"windDir" : 84,
		"rain" : 1,
		"cloudbase" : 4804.4999999998,
		"flyability" : 0,
		"reason" : "windSpeed, windDir, rain",
		"timestamp" :1555894800
		},
	"2019-04-22T14:00:00+11:00" : {
		"windSpeed" : 8.2,
		"windDir" : 84,
		"rain" : 1,
		"cloudbase" : 10000,
		"flyability" : 0,
		"reason" : "windSpeed, windDir, rain",
		"timestamp" :1555905600
		},
	"2019-04-22T17:00:00+11:00" : {
		"windSpeed" : 6.1,
		"windDir" : 93,
		"rain" : 1,
		"cloudbase" : 7626.3200000015,
		"flyability" : 0,
		"reason" : "windSpeed, windDir, rain",
		"timestamp" :1555916400
		},
	"2019-04-22T20:00:00+11:00" : {
		"windSpeed" : 5.2,
		"windDir" : 83,
		"rain" : 1,
		"cloudbase" : null,
		"flyability" : 0,
		"reason" : "windSpeed, windDir, rain",
		"timestamp" :1555927200
		},
	"2019-04-22T23:00:00+11:00" : {
		"windSpeed" : 5.5,
		"windDir" : 89,
		"rain" : 0,
		"cloudbase" : 600,
		"flyability" : 0,
		"reason" : "windSpeed, windDir",
		"timestamp" :1555938000
		},
	"2019-04-23T02:00:00+11:00" : {
		"windSpeed" : 5.5,
		"windDir" : 93,
		"rain" : 0,
		"cloudbase" : null,
		"flyability" : 0,
		"reason" : "windSpeed, windDir",
		"timestamp" :1555948800
		},
	"2019-04-23T05:00:00+11:00" : {
		"windSpeed" : 5.6,
		"windDir" : 85,
		"rain" : 0,
		"cloudbase" : null,
		"flyability" : 0,
		"reason" : "windSpeed, windDir",
		"timestamp" :1555959600
		},
	"2019-04-23T08:00:00+11:00" : {
		"windSpeed" : 6.3,
		"windDir" : 89,
		"rain" : 0,
		"cloudbase" : null,
		"flyability" : 0,
		"reason" : "windSpeed, windDir",
		"timestamp" :1555970400
		},
	"2019-04-23T11:00:00+11:00" : {
		"windSpeed" : 7.7,
		"windDir" : 103,
		"rain" : 1,
		"cloudbase" : null,
		"flyability" : 0,
		"reason" : "windSpeed, windDir, rain",
		"timestamp" :1555981200
		},
	"2019-04-23T14:00:00+11:00" : {
		"windSpeed" : 7.7,
		"windDir" : 100,
		"rain" : 1,
		"cloudbase" : null,
		"flyability" : 0,
		"reason" : "windSpeed, windDir, rain",
		"timestamp" :1555992000
		},
	"2019-04-23T17:00:00+11:00" : {
		"windSpeed" : 6.5,
		"windDir" : 98,
		"rain" : 0,
		"cloudbase" : null,
		"flyability" : 0,
		"reason" : "windSpeed, windDir",
		"timestamp" :1556002800
		},
	"2019-04-23T20:00:00+11:00" : {
		"windSpeed" : 5.6,
		"windDir" : 102,
		"rain" : 0,
		"cloudbase" : 1150,
		"flyability" : 0,
		"reason" : "windSpeed, windDir",
		"timestamp" :1556013600
		},
	"2019-04-23T23:00:00+11:00" : {
		"windSpeed" : 5.9,
		"windDir" : 98,
		"rain" : 0,
		"cloudbase" : null,
		"flyability" : 0,
		"reason" : "windSpeed, windDir",
		"timestamp" :1556024400
		},
	"2019-04-24T02:00:00+11:00" : {
		"windSpeed" : 6.6,
		"windDir" : 105,
		"rain" : 0,
		"cloudbase" : null,
		"flyability" : 0,
		"reason" : "windSpeed, windDir",
		"timestamp" :1556035200
		},
	"2019-04-24T05:00:00+11:00" : {
		"windSpeed" : 6,
		"windDir" : 101,
		"rain" : 1,
		"cloudbase" : null,
		"flyability" : 0,
		"reason" : "windSpeed, windDir, rain",
		"timestamp" :1556046000
		},
	"2019-04-24T08:00:00+11:00" : {
		"windSpeed" : 6.8,
		"windDir" : 102,
		"rain" : 0,
		"cloudbase" : null,
		"flyability" : 0,
		"reason" : "windSpeed, windDir",
		"timestamp" :1556056800
		},
	"2019-04-24T11:00:00+11:00" : {
		"windSpeed" : 7.3,
		"windDir" : 104,
		"rain" : 1,
		"cloudbase" : 2150,
		"flyability" : 0,
		"reason" : "windSpeed, windDir, rain",
		"timestamp" :1556067600
		},
	"2019-04-24T14:00:00+11:00" : {
		"windSpeed" : 6.8,
		"windDir" : 104,
		"rain" : 0,
		"cloudbase" : null,
		"flyability" : 0,
		"reason" : "windSpeed, windDir",
		"timestamp" :1556078400
		},
	"2019-04-24T17:00:00+11:00" : {
		"windSpeed" : 6.1,
		"windDir" : 103,
		"rain" : 0,
		"cloudbase" : null,
		"flyability" : 0,
		"reason" : "windSpeed, windDir",
		"timestamp" :1556089200
		},
	"2019-04-24T20:00:00+11:00" : {
		"windSpeed" : 5.1,
		"windDir" : 104,
		"rain" : 1,
		"cloudbase" : null,
		"flyability" : 0,
		"reason" : "windSpeed, windDir, rain",
		"timestamp" :1556100000
		},
	"2019-04-24T23:00:00+11:00" : {
		"windSpeed" : 5,
		"windDir" : 95,
		"rain" : 0,
		"cloudbase" : null,
		"flyability" : 0,
		"reason" : "windDir",
		"timestamp" :1556110800
		},
	"2019-04-25T02:00:00+11:00" : {
		"windSpeed" : 5,
		"windDir" : 95,
		"rain" : 0,
		"cloudbase" : null,
		"flyability" : 0,
		"reason" : "windDir",
		"timestamp" :1556121600
		},
	"2019-04-25T05:00:00+11:00" : {
		"windSpeed" : 4.6,
		"windDir" : 89,
		"rain" : 1,
		"cloudbase" : null,
		"flyability" : 0,
		"reason" : "windDir, rain",
		"timestamp" :1556132400
		},
	"2019-04-25T08:00:00+11:00" : {
		"windSpeed" : 5.8,
		"windDir" : 94,
		"rain" : 0,
		"cloudbase" : null,
		"flyability" : 0,
		"reason" : "windSpeed, windDir",
		"timestamp" :1556143200
		},
	"2019-04-25T11:00:00+11:00" : {
		"windSpeed" : 6.2,
		"windDir" : 102,
		"rain" : 0,
		"cloudbase" : null,
		"flyability" : 0,
		"reason" : "windSpeed, windDir",
		"timestamp" :1556154000
		}
	}
}