{
"site" : "Gadji",
"id" : 6885,
"orientations" : "00122000",
"forecasts" : { 
	"2019-04-19T14:00:00+11:00" : {
		"windSpeed" : 6.9,
		"windDir" : 106,
		"rain" : 1,
		"cloudbase" : 2195.82,
		"flyability" : 0,
		"reason" : "windSpeed, rain",
		"timestamp" :1555646400
		},
	"2019-04-19T17:00:00+11:00" : {
		"windSpeed" : 6.9,
		"windDir" : 106,
		"rain" : 1,
		"cloudbase" : 5076.184,
		"flyability" : 0,
		"reason" : "windSpeed, rain",
		"timestamp" :1555657200
		},
	"2019-04-19T20:00:00+11:00" : {
		"windSpeed" : 7.3,
		"windDir" : 108,
		"rain" : 0,
		"cloudbase" : 5646,
		"flyability" : 0,
		"reason" : "windSpeed",
		"timestamp" :1555668000
		},
	"2019-04-19T23:00:00+11:00" : {
		"windSpeed" : 6.8,
		"windDir" : 109,
		"rain" : 1,
		"cloudbase" : 5399.352,
		"flyability" : 0,
		"reason" : "windSpeed, rain",
		"timestamp" :1555678800
		},
	"2019-04-20T02:00:00+11:00" : {
		"windSpeed" : 6.9,
		"windDir" : 111,
		"rain" : 1,
		"cloudbase" : 5700,
		"flyability" : 0,
		"reason" : "windSpeed, rain",
		"timestamp" :1555689600
		},
	"2019-04-20T05:00:00+11:00" : {
		"windSpeed" : 6.3,
		"windDir" : 111,
		"rain" : 1,
		"cloudbase" : null,
		"flyability" : 0,
		"reason" : "windSpeed, rain",
		"timestamp" :1555700400
		},
	"2019-04-20T08:00:00+11:00" : {
		"windSpeed" : 6.2,
		"windDir" : 108,
		"rain" : 0,
		"cloudbase" : null,
		"flyability" : 0,
		"reason" : "windSpeed",
		"timestamp" :1555711200
		},
	"2019-04-20T11:00:00+11:00" : {
		"windSpeed" : 8.5,
		"windDir" : 110,
		"rain" : 1,
		"cloudbase" : null,
		"flyability" : 0,
		"reason" : "windSpeed, rain",
		"timestamp" :1555722000
		},
	"2019-04-20T14:00:00+11:00" : {
		"windSpeed" : 8.4,
		"windDir" : 109,
		"rain" : 1,
		"cloudbase" : null,
		"flyability" : 0,
		"reason" : "windSpeed, rain",
		"timestamp" :1555732800
		},
	"2019-04-20T17:00:00+11:00" : {
		"windSpeed" : 8.3,
		"windDir" : 107,
		"rain" : 1,
		"cloudbase" : null,
		"flyability" : 0,
		"reason" : "windSpeed, rain",
		"timestamp" :1555743600
		},
	"2019-04-20T20:00:00+11:00" : {
		"windSpeed" : 7.4,
		"windDir" : 111,
		"rain" : 0,
		"cloudbase" : null,
		"flyability" : 0,
		"reason" : "windSpeed",
		"timestamp" :1555754400
		},
	"2019-04-20T23:00:00+11:00" : {
		"windSpeed" : 7,
		"windDir" : 106,
		"rain" : 1,
		"cloudbase" : null,
		"flyability" : 0,
		"reason" : "windSpeed, rain",
		"timestamp" :1555765200
		},
	"2019-04-21T02:00:00+11:00" : {
		"windSpeed" : 6.8,
		"windDir" : 109,
		"rain" : 0,
		"cloudbase" : 9341.2,
		"flyability" : 0,
		"reason" : "windSpeed",
		"timestamp" :1555776000
		},
	"2019-04-21T05:00:00+11:00" : {
		"windSpeed" : 7.1,
		"windDir" : 110,
		"rain" : 1,
		"cloudbase" : 8441.2,
		"flyability" : 0,
		"reason" : "windSpeed, rain",
		"timestamp" :1555786800
		},
	"2019-04-21T08:00:00+11:00" : {
		"windSpeed" : 7.1,
		"windDir" : 110,
		"rain" : 1,
		"cloudbase" : 7402.496,
		"flyability" : 0,
		"reason" : "windSpeed, rain",
		"timestamp" :1555797600
		},
	"2019-04-21T11:00:00+11:00" : {
		"windSpeed" : 7,
		"windDir" : 113,
		"rain" : 1,
		"cloudbase" : 8722.1680000006,
		"flyability" : 0,
		"reason" : "windSpeed, rain",
		"timestamp" :1555808400
		},
	"2019-04-21T14:00:00+11:00" : {
		"windSpeed" : 7.1,
		"windDir" : 110,
		"rain" : 1,
		"cloudbase" : 3300,
		"flyability" : 0,
		"reason" : "windSpeed, rain",
		"timestamp" :1555819200
		},
	"2019-04-21T17:00:00+11:00" : {
		"windSpeed" : 6.4,
		"windDir" : 112,
		"rain" : 1,
		"cloudbase" : 6408.4880000002,
		"flyability" : 0,
		"reason" : "windSpeed, rain",
		"timestamp" :1555830000
		},
	"2019-04-21T20:00:00+11:00" : {
		"windSpeed" : 6.5,
		"windDir" : 107,
		"rain" : 1,
		"cloudbase" : 5877.9999999999,
		"flyability" : 0,
		"reason" : "windSpeed, rain",
		"timestamp" :1555840800
		},
	"2019-04-21T23:00:00+11:00" : {
		"windSpeed" : 6.7,
		"windDir" : 107,
		"rain" : 1,
		"cloudbase" : 7471.6560000001,
		"flyability" : 0,
		"reason" : "windSpeed, rain",
		"timestamp" :1555851600
		},
	"2019-04-22T02:00:00+11:00" : {
		"windSpeed" : 5.9,
		"windDir" : 114,
		"rain" : 1,
		"cloudbase" : 8870.2480000007,
		"flyability" : 0,
		"reason" : "windSpeed, rain",
		"timestamp" :1555862400
		},
	"2019-04-22T05:00:00+11:00" : {
		"windSpeed" : 5.2,
		"windDir" : 109,
		"rain" : 1,
		"cloudbase" : 4764.0280000001,
		"flyability" : 0,
		"reason" : "windSpeed, rain",
		"timestamp" :1555873200
		},
	"2019-04-22T08:00:00+11:00" : {
		"windSpeed" : 5.6,
		"windDir" : 105,
		"rain" : 1,
		"cloudbase" : 5438.1840000001,
		"flyability" : 0,
		"reason" : "windSpeed, rain",
		"timestamp" :1555884000
		},
	"2019-04-22T11:00:00+11:00" : {
		"windSpeed" : 7.3,
		"windDir" : 101,
		"rain" : 1,
		"cloudbase" : 4781.1800000001,
		"flyability" : 0,
		"reason" : "windSpeed, rain",
		"timestamp" :1555894800
		},
	"2019-04-22T14:00:00+11:00" : {
		"windSpeed" : 6.8,
		"windDir" : 113,
		"rain" : 1,
		"cloudbase" : null,
		"flyability" : 0,
		"reason" : "windSpeed, rain",
		"timestamp" :1555905600
		},
	"2019-04-22T17:00:00+11:00" : {
		"windSpeed" : 6.5,
		"windDir" : 114,
		"rain" : 1,
		"cloudbase" : 9400,
		"flyability" : 0,
		"reason" : "windSpeed, rain",
		"timestamp" :1555916400
		},
	"2019-04-22T20:00:00+11:00" : {
		"windSpeed" : 5.9,
		"windDir" : 104,
		"rain" : 0,
		"cloudbase" : null,
		"flyability" : 0,
		"reason" : "windSpeed",
		"timestamp" :1555927200
		},
	"2019-04-22T23:00:00+11:00" : {
		"windSpeed" : 5.9,
		"windDir" : 114,
		"rain" : 0,
		"cloudbase" : null,
		"flyability" : 0,
		"reason" : "windSpeed",
		"timestamp" :1555938000
		},
	"2019-04-23T02:00:00+11:00" : {
		"windSpeed" : 5.9,
		"windDir" : 114,
		"rain" : 0,
		"cloudbase" : null,
		"flyability" : 0,
		"reason" : "windSpeed",
		"timestamp" :1555948800
		},
	"2019-04-23T05:00:00+11:00" : {
		"windSpeed" : 5.8,
		"windDir" : 110,
		"rain" : 0,
		"cloudbase" : null,
		"flyability" : 0,
		"reason" : "windSpeed",
		"timestamp" :1555959600
		},
	"2019-04-23T08:00:00+11:00" : {
		"windSpeed" : 5.6,
		"windDir" : 111,
		"rain" : 0,
		"cloudbase" : null,
		"flyability" : 0,
		"reason" : "windSpeed",
		"timestamp" :1555970400
		},
	"2019-04-23T11:00:00+11:00" : {
		"windSpeed" : 7.2,
		"windDir" : 116,
		"rain" : 0,
		"cloudbase" : null,
		"flyability" : 0,
		"reason" : "windSpeed",
		"timestamp" :1555981200
		},
	"2019-04-23T14:00:00+11:00" : {
		"windSpeed" : 7.3,
		"windDir" : 114,
		"rain" : 1,
		"cloudbase" : null,
		"flyability" : 0,
		"reason" : "windSpeed, rain",
		"timestamp" :1555992000
		},
	"2019-04-23T17:00:00+11:00" : {
		"windSpeed" : 6.9,
		"windDir" : 111,
		"rain" : 0,
		"cloudbase" : null,
		"flyability" : 0,
		"reason" : "windSpeed",
		"timestamp" :1556002800
		},
	"2019-04-23T20:00:00+11:00" : {
		"windSpeed" : 6.1,
		"windDir" : 111,
		"rain" : 0,
		"cloudbase" : null,
		"flyability" : 0,
		"reason" : "windSpeed",
		"timestamp" :1556013600
		},
	"2019-04-23T23:00:00+11:00" : {
		"windSpeed" : 5.9,
		"windDir" : 107,
		"rain" : 0,
		"cloudbase" : null,
		"flyability" : 0,
		"reason" : "windSpeed",
		"timestamp" :1556024400
		},
	"2019-04-24T02:00:00+11:00" : {
		"windSpeed" : 6.6,
		"windDir" : 112,
		"rain" : 0,
		"cloudbase" : null,
		"flyability" : 0,
		"reason" : "windSpeed",
		"timestamp" :1556035200
		},
	"2019-04-24T05:00:00+11:00" : {
		"windSpeed" : 6.3,
		"windDir" : 103,
		"rain" : 0,
		"cloudbase" : null,
		"flyability" : 0,
		"reason" : "windSpeed",
		"timestamp" :1556046000
		},
	"2019-04-24T08:00:00+11:00" : {
		"windSpeed" : 7.3,
		"windDir" : 110,
		"rain" : 0,
		"cloudbase" : null,
		"flyability" : 0,
		"reason" : "windSpeed",
		"timestamp" :1556056800
		},
	"2019-04-24T11:00:00+11:00" : {
		"windSpeed" : 7.4,
		"windDir" : 120,
		"rain" : 0,
		"cloudbase" : null,
		"flyability" : 0,
		"reason" : "windSpeed",
		"timestamp" :1556067600
		},
	"2019-04-24T14:00:00+11:00" : {
		"windSpeed" : 7.2,
		"windDir" : 121,
		"rain" : 0,
		"cloudbase" : null,
		"flyability" : 0,
		"reason" : "windSpeed",
		"timestamp" :1556078400
		},
	"2019-04-24T17:00:00+11:00" : {
		"windSpeed" : 6.5,
		"windDir" : 114,
		"rain" : 0,
		"cloudbase" : null,
		"flyability" : 0,
		"reason" : "windSpeed",
		"timestamp" :1556089200
		},
	"2019-04-24T20:00:00+11:00" : {
		"windSpeed" : 5.8,
		"windDir" : 104,
		"rain" : 1,
		"cloudbase" : null,
		"flyability" : 0,
		"reason" : "windSpeed, rain",
		"timestamp" :1556100000
		},
	"2019-04-24T23:00:00+11:00" : {
		"windSpeed" : 6.1,
		"windDir" : 104,
		"rain" : 0,
		"cloudbase" : null,
		"flyability" : 0,
		"reason" : "windSpeed",
		"timestamp" :1556110800
		},
	"2019-04-25T02:00:00+11:00" : {
		"windSpeed" : 5.2,
		"windDir" : 109,
		"rain" : 0,
		"cloudbase" : null,
		"flyability" : 0,
		"reason" : "windSpeed",
		"timestamp" :1556121600
		},
	"2019-04-25T05:00:00+11:00" : {
		"windSpeed" : 5.4,
		"windDir" : 106,
		"rain" : 0,
		"cloudbase" : null,
		"flyability" : 0,
		"reason" : "windSpeed",
		"timestamp" :1556132400
		},
	"2019-04-25T08:00:00+11:00" : {
		"windSpeed" : 5.7,
		"windDir" : 108,
		"rain" : 0,
		"cloudbase" : null,
		"flyability" : 0,
		"reason" : "windSpeed",
		"timestamp" :1556143200
		},
	"2019-04-25T11:00:00+11:00" : {
		"windSpeed" : 6.7,
		"windDir" : 118,
		"rain" : 0,
		"cloudbase" : null,
		"flyability" : 0,
		"reason" : "windSpeed",
		"timestamp" :1556154000
		}
	}
}