{
"site" : "le dimitile",
"id" : 6895,
"orientations" : "00020000",
"forecasts" : { 
	"2019-04-03T07:00:00+04:00" : {
		"windSpeed" : 0.4,
		"windDir" : 321,
		"rain" : 0,
		"cloudbase" : 30,
		"flyability" : 0,
		"reason" : "windDir, cloudbase",
		"timestamp" :1554256800
		},
	"2019-04-03T10:00:00+04:00" : {
		"windSpeed" : 2.3,
		"windDir" : 213,
		"rain" : 1,
		"cloudbase" : null,
		"flyability" : 0,
		"reason" : "windDir, rain",
		"timestamp" :1554267600
		},
	"2019-04-03T13:00:00+04:00" : {
		"windSpeed" : 2.8,
		"windDir" : 187,
		"rain" : 1,
		"cloudbase" : null,
		"flyability" : 0,
		"reason" : "windDir, rain",
		"timestamp" :1554278400
		},
	"2019-04-03T16:00:00+04:00" : {
		"windSpeed" : 2.9,
		"windDir" : 194,
		"rain" : 1,
		"cloudbase" : 760,
		"flyability" : 0,
		"reason" : "windDir, rain, cloudbase",
		"timestamp" :1554289200
		},
	"2019-04-03T19:00:00+04:00" : {
		"windSpeed" : 0.5,
		"windDir" : 202,
		"rain" : 1,
		"cloudbase" : 140,
		"flyability" : 0,
		"reason" : "windDir, rain, cloudbase",
		"timestamp" :1554300000
		},
	"2019-04-03T22:00:00+04:00" : {
		"windSpeed" : 0.3,
		"windDir" : 249,
		"rain" : 0,
		"cloudbase" : null,
		"flyability" : 0,
		"reason" : "windDir",
		"timestamp" :1554310800
		},
	"2019-04-04T01:00:00+04:00" : {
		"windSpeed" : 0.4,
		"windDir" : 324,
		"rain" : 0,
		"cloudbase" : null,
		"flyability" : 0,
		"reason" : "windDir",
		"timestamp" :1554321600
		},
	"2019-04-04T04:00:00+04:00" : {
		"windSpeed" : 0.8,
		"windDir" : 8,
		"rain" : 0,
		"cloudbase" : null,
		"flyability" : 0,
		"reason" : "windDir",
		"timestamp" :1554332400
		},
	"2019-04-04T07:00:00+04:00" : {
		"windSpeed" : 0.8,
		"windDir" : 339,
		"rain" : 0,
		"cloudbase" : null,
		"flyability" : 0,
		"reason" : "windDir",
		"timestamp" :1554343200
		},
	"2019-04-04T10:00:00+04:00" : {
		"windSpeed" : 1.4,
		"windDir" : 246,
		"rain" : 0,
		"cloudbase" : null,
		"flyability" : 0,
		"reason" : "windDir",
		"timestamp" :1554354000
		},
	"2019-04-04T13:00:00+04:00" : {
		"windSpeed" : 2,
		"windDir" : 238,
		"rain" : 1,
		"cloudbase" : null,
		"flyability" : 0,
		"reason" : "windDir, rain",
		"timestamp" :1554364800
		},
	"2019-04-04T16:00:00+04:00" : {
		"windSpeed" : 2.5,
		"windDir" : 221,
		"rain" : 1,
		"cloudbase" : 30,
		"flyability" : 0,
		"reason" : "windDir, rain, cloudbase",
		"timestamp" :1554375600
		},
	"2019-04-04T19:00:00+04:00" : {
		"windSpeed" : 0.8,
		"windDir" : 265,
		"rain" : 1,
		"cloudbase" : 300,
		"flyability" : 0,
		"reason" : "windDir, rain, cloudbase",
		"timestamp" :1554386400
		},
	"2019-04-04T22:00:00+04:00" : {
		"windSpeed" : 0.5,
		"windDir" : 315,
		"rain" : 0,
		"cloudbase" : null,
		"flyability" : 0,
		"reason" : "windDir",
		"timestamp" :1554397200
		},
	"2019-04-05T01:00:00+04:00" : {
		"windSpeed" : 0.8,
		"windDir" : 340,
		"rain" : 0,
		"cloudbase" : null,
		"flyability" : 0,
		"reason" : "windDir",
		"timestamp" :1554408000
		},
	"2019-04-05T04:00:00+04:00" : {
		"windSpeed" : 0.8,
		"windDir" : 9,
		"rain" : 0,
		"cloudbase" : null,
		"flyability" : 0,
		"reason" : "windDir",
		"timestamp" :1554418800
		},
	"2019-04-05T07:00:00+04:00" : {
		"windSpeed" : 0.8,
		"windDir" : 9,
		"rain" : 0,
		"cloudbase" : null,
		"flyability" : 0,
		"reason" : "windDir",
		"timestamp" :1554429600
		},
	"2019-04-05T10:00:00+04:00" : {
		"windSpeed" : 1.6,
		"windDir" : 232,
		"rain" : 0,
		"cloudbase" : null,
		"flyability" : 0,
		"reason" : "windDir",
		"timestamp" :1554440400
		},
	"2019-04-05T13:00:00+04:00" : {
		"windSpeed" : 2.3,
		"windDir" : 213,
		"rain" : 1,
		"cloudbase" : 300,
		"flyability" : 0,
		"reason" : "windDir, rain, cloudbase",
		"timestamp" :1554451200
		},
	"2019-04-05T16:00:00+04:00" : {
		"windSpeed" : 2.1,
		"windDir" : 200,
		"rain" : 1,
		"cloudbase" : 2150,
		"flyability" : 0,
		"reason" : "windDir, rain",
		"timestamp" :1554462000
		},
	"2019-04-05T19:00:00+04:00" : {
		"windSpeed" : 0.8,
		"windDir" : 265,
		"rain" : 1,
		"cloudbase" : 30,
		"flyability" : 0,
		"reason" : "windDir, rain, cloudbase",
		"timestamp" :1554472800
		},
	"2019-04-05T22:00:00+04:00" : {
		"windSpeed" : 0.6,
		"windDir" : 313,
		"rain" : 1,
		"cloudbase" : 2104.5000000006,
		"flyability" : 0,
		"reason" : "windDir, rain",
		"timestamp" :1554483600
		},
	"2019-04-06T01:00:00+04:00" : {
		"windSpeed" : 0.8,
		"windDir" : 331,
		"rain" : 0,
		"cloudbase" : 1250,
		"flyability" : 0,
		"reason" : "windDir, cloudbase",
		"timestamp" :1554494400
		},
	"2019-04-06T04:00:00+04:00" : {
		"windSpeed" : 0.9,
		"windDir" : 335,
		"rain" : 1,
		"cloudbase" : 8839.7499999995,
		"flyability" : 0,
		"reason" : "windDir, rain",
		"timestamp" :1554505200
		},
	"2019-04-06T07:00:00+04:00" : {
		"windSpeed" : 0.5,
		"windDir" : 9,
		"rain" : 1,
		"cloudbase" : 9726.0000000002,
		"flyability" : 0,
		"reason" : "windDir, rain",
		"timestamp" :1554516000
		},
	"2019-04-06T10:00:00+04:00" : {
		"windSpeed" : 1.1,
		"windDir" : 177,
		"rain" : 1,
		"cloudbase" : 1250,
		"flyability" : 0,
		"reason" : "windDir, rain, cloudbase",
		"timestamp" :1554526800
		},
	"2019-04-06T13:00:00+04:00" : {
		"windSpeed" : 1.9,
		"windDir" : 177,
		"rain" : 1,
		"cloudbase" : 3347.9999999997,
		"flyability" : 0,
		"reason" : "windDir, rain",
		"timestamp" :1554537600
		},
	"2019-04-06T16:00:00+04:00" : {
		"windSpeed" : 1.5,
		"windDir" : 178,
		"rain" : 1,
		"cloudbase" : 761.74999999998,
		"flyability" : 0,
		"reason" : "windDir, rain, cloudbase",
		"timestamp" :1554548400
		},
	"2019-04-06T19:00:00+04:00" : {
		"windSpeed" : 0.9,
		"windDir" : 176,
		"rain" : 1,
		"cloudbase" : 1250,
		"flyability" : 0,
		"reason" : "windDir, rain, cloudbase",
		"timestamp" :1554559200
		},
	"2019-04-06T22:00:00+04:00" : {
		"windSpeed" : 0.4,
		"windDir" : 99,
		"rain" : 1,
		"cloudbase" : 7934.549999999,
		"flyability" : 0,
		"reason" : "windDir, rain",
		"timestamp" :1554570000
		},
	"2019-04-07T01:00:00+04:00" : {
		"windSpeed" : 0.9,
		"windDir" : 32,
		"rain" : 0,
		"cloudbase" : 2409.2000000003,
		"flyability" : 0,
		"reason" : "windDir",
		"timestamp" :1554580800
		},
	"2019-04-07T04:00:00+04:00" : {
		"windSpeed" : 1.2,
		"windDir" : 5,
		"rain" : 1,
		"cloudbase" : null,
		"flyability" : 0,
		"reason" : "windDir, rain",
		"timestamp" :1554591600
		},
	"2019-04-07T07:00:00+04:00" : {
		"windSpeed" : 1.2,
		"windDir" : 5,
		"rain" : 1,
		"cloudbase" : null,
		"flyability" : 0,
		"reason" : "windDir, rain",
		"timestamp" :1554602400
		},
	"2019-04-07T10:00:00+04:00" : {
		"windSpeed" : 1,
		"windDir" : 181,
		"rain" : 1,
		"cloudbase" : null,
		"flyability" : 0,
		"reason" : "windDir, rain",
		"timestamp" :1554613200
		},
	"2019-04-07T13:00:00+04:00" : {
		"windSpeed" : 1.1,
		"windDir" : 158,
		"rain" : 1,
		"cloudbase" : null,
		"flyability" : 0,
		"reason" : "windDir, rain",
		"timestamp" :1554624000
		},
	"2019-04-07T16:00:00+04:00" : {
		"windSpeed" : 1.1,
		"windDir" : 156,
		"rain" : 1,
		"cloudbase" : null,
		"flyability" : 0,
		"reason" : "windDir, rain",
		"timestamp" :1554634800
		},
	"2019-04-07T19:00:00+04:00" : {
		"windSpeed" : 0.1,
		"windDir" : 206,
		"rain" : 1,
		"cloudbase" : null,
		"flyability" : 0,
		"reason" : "windDir, rain",
		"timestamp" :1554645600
		},
	"2019-04-07T22:00:00+04:00" : {
		"windSpeed" : 0.4,
		"windDir" : 6,
		"rain" : 1,
		"cloudbase" : null,
		"flyability" : 0,
		"reason" : "windDir, rain",
		"timestamp" :1554656400
		},
	"2019-04-08T01:00:00+04:00" : {
		"windSpeed" : 0.3,
		"windDir" : 11,
		"rain" : 0,
		"cloudbase" : null,
		"flyability" : 0,
		"reason" : "windDir",
		"timestamp" :1554667200
		},
	"2019-04-08T04:00:00+04:00" : {
		"windSpeed" : 1.2,
		"windDir" : 5,
		"rain" : 0,
		"cloudbase" : null,
		"flyability" : 0,
		"reason" : "windDir",
		"timestamp" :1554678000
		},
	"2019-04-08T07:00:00+04:00" : {
		"windSpeed" : 0.9,
		"windDir" : 5,
		"rain" : 0,
		"cloudbase" : null,
		"flyability" : 0,
		"reason" : "windDir",
		"timestamp" :1554688800
		},
	"2019-04-08T10:00:00+04:00" : {
		"windSpeed" : 1.8,
		"windDir" : 147,
		"rain" : 0,
		"cloudbase" : null,
		"flyability" : 100,
		"reason" : "",
		"timestamp" :1554699600
		},
	"2019-04-08T13:00:00+04:00" : {
		"windSpeed" : 1.1,
		"windDir" : 158,
		"rain" : 1,
		"cloudbase" : null,
		"flyability" : 0,
		"reason" : "windDir, rain",
		"timestamp" :1554710400
		},
	"2019-04-08T16:00:00+04:00" : {
		"windSpeed" : 1.5,
		"windDir" : 162,
		"rain" : 1,
		"cloudbase" : null,
		"flyability" : 0,
		"reason" : "windDir, rain",
		"timestamp" :1554721200
		},
	"2019-04-08T19:00:00+04:00" : {
		"windSpeed" : 0.3,
		"windDir" : 7,
		"rain" : 1,
		"cloudbase" : null,
		"flyability" : 0,
		"reason" : "windDir, rain",
		"timestamp" :1554732000
		},
	"2019-04-08T22:00:00+04:00" : {
		"windSpeed" : 0.9,
		"windDir" : 7,
		"rain" : 0,
		"cloudbase" : null,
		"flyability" : 0,
		"reason" : "windDir",
		"timestamp" :1554742800
		},
	"2019-04-09T01:00:00+04:00" : {
		"windSpeed" : 1.3,
		"windDir" : 346,
		"rain" : 0,
		"cloudbase" : null,
		"flyability" : 0,
		"reason" : "windDir",
		"timestamp" :1554753600
		},
	"2019-04-09T04:00:00+04:00" : {
		"windSpeed" : 1.3,
		"windDir" : 346,
		"rain" : 1,
		"cloudbase" : null,
		"flyability" : 0,
		"reason" : "windDir, rain",
		"timestamp" :1554764400
		}
	}
}