{
"site" : "Nkawkaw",
"id" : 6921,
"orientations" : "00012100",
"forecasts" : { 
	"2019-04-08T15:00:00Z" : {
		"windSpeed" : 2.6,
		"windDir" : 201,
		"rain" : 1,
		"cloudbase" : 10757.104,
		"flyability" : 0,
		"reason" : "rain",
		"timestamp" :1554735600
		},
	"2019-04-08T18:00:00Z" : {
		"windSpeed" : 2.2,
		"windDir" : 210,
		"rain" : 0,
		"cloudbase" : 11500,
		"flyability" : 100,
		"reason" : "",
		"timestamp" :1554746400
		},
	"2019-04-08T21:00:00Z" : {
		"windSpeed" : 2.1,
		"windDir" : 207,
		"rain" : 0,
		"cloudbase" : 11500,
		"flyability" : 100,
		"reason" : "",
		"timestamp" :1554757200
		},
	"2019-04-09T00:00:00Z" : {
		"windSpeed" : 2.3,
		"windDir" : 171,
		"rain" : 0,
		"cloudbase" : null,
		"flyability" : 100,
		"reason" : "",
		"timestamp" :1554768000
		},
	"2019-04-09T03:00:00Z" : {
		"windSpeed" : 2.2,
		"windDir" : 206,
		"rain" : 0,
		"cloudbase" : 38.746079999998,
		"flyability" : 0,
		"reason" : "cloudbase",
		"timestamp" :1554778800
		},
	"2019-04-09T06:00:00Z" : {
		"windSpeed" : 2,
		"windDir" : 206,
		"rain" : 0,
		"cloudbase" : 49.586439999998,
		"flyability" : 0,
		"reason" : "cloudbase",
		"timestamp" :1554789600
		},
	"2019-04-09T09:00:00Z" : {
		"windSpeed" : 1.7,
		"windDir" : 197,
		"rain" : 0,
		"cloudbase" : null,
		"flyability" : 100,
		"reason" : "",
		"timestamp" :1554800400
		},
	"2019-04-09T12:00:00Z" : {
		"windSpeed" : 1.1,
		"windDir" : 166,
		"rain" : 0,
		"cloudbase" : null,
		"flyability" : 100,
		"reason" : "",
		"timestamp" :1554811200
		},
	"2019-04-09T15:00:00Z" : {
		"windSpeed" : 0.3,
		"windDir" : 46,
		"rain" : 0,
		"cloudbase" : 11171.288,
		"flyability" : 0,
		"reason" : "windDir",
		"timestamp" :1554822000
		},
	"2019-04-09T18:00:00Z" : {
		"windSpeed" : 1.4,
		"windDir" : 183,
		"rain" : 0,
		"cloudbase" : 10283.9008,
		"flyability" : 100,
		"reason" : "",
		"timestamp" :1554832800
		},
	"2019-04-09T21:00:00Z" : {
		"windSpeed" : 2,
		"windDir" : 171,
		"rain" : 0,
		"cloudbase" : 11897,
		"flyability" : 100,
		"reason" : "",
		"timestamp" :1554843600
		},
	"2019-04-10T00:00:00Z" : {
		"windSpeed" : 2.4,
		"windDir" : 182,
		"rain" : 1,
		"cloudbase" : 4126.1879599991,
		"flyability" : 0,
		"reason" : "rain",
		"timestamp" :1554854400
		},
	"2019-04-10T03:00:00Z" : {
		"windSpeed" : 3.1,
		"windDir" : 185,
		"rain" : 0,
		"cloudbase" : 30,
		"flyability" : 0,
		"reason" : "cloudbase",
		"timestamp" :1554865200
		},
	"2019-04-10T06:00:00Z" : {
		"windSpeed" : 2.9,
		"windDir" : 192,
		"rain" : 0,
		"cloudbase" : 31.564639999999,
		"flyability" : 0,
		"reason" : "cloudbase",
		"timestamp" :1554876000
		},
	"2019-04-10T09:00:00Z" : {
		"windSpeed" : 3.7,
		"windDir" : 203,
		"rain" : 0,
		"cloudbase" : 1911.8611199999,
		"flyability" : 100,
		"reason" : "",
		"timestamp" :1554886800
		},
	"2019-04-10T12:00:00Z" : {
		"windSpeed" : 2,
		"windDir" : 187,
		"rain" : 0,
		"cloudbase" : 2313.2627999999,
		"flyability" : 100,
		"reason" : "",
		"timestamp" :1554897600
		},
	"2019-04-10T15:00:00Z" : {
		"windSpeed" : 1.6,
		"windDir" : 166,
		"rain" : 0,
		"cloudbase" : 1400,
		"flyability" : 100,
		"reason" : "",
		"timestamp" :1554908400
		},
	"2019-04-10T18:00:00Z" : {
		"windSpeed" : 2.4,
		"windDir" : 197,
		"rain" : 0,
		"cloudbase" : 13044.464,
		"flyability" : 100,
		"reason" : "",
		"timestamp" :1554919200
		},
	"2019-04-10T21:00:00Z" : {
		"windSpeed" : 2.6,
		"windDir" : 195,
		"rain" : 0,
		"cloudbase" : 11500,
		"flyability" : 100,
		"reason" : "",
		"timestamp" :1554930000
		},
	"2019-04-11T00:00:00Z" : {
		"windSpeed" : 3.1,
		"windDir" : 197,
		"rain" : 0,
		"cloudbase" : 38.678879999996,
		"flyability" : 0,
		"reason" : "cloudbase",
		"timestamp" :1554940800
		},
	"2019-04-11T03:00:00Z" : {
		"windSpeed" : 3.4,
		"windDir" : 213,
		"rain" : 1,
		"cloudbase" : 118.88144,
		"flyability" : 0,
		"reason" : "rain, cloudbase",
		"timestamp" :1554951600
		},
	"2019-04-11T06:00:00Z" : {
		"windSpeed" : 3.1,
		"windDir" : 206,
		"rain" : 0,
		"cloudbase" : 115.57748,
		"flyability" : 0,
		"reason" : "cloudbase",
		"timestamp" :1554962400
		},
	"2019-04-11T09:00:00Z" : {
		"windSpeed" : 3,
		"windDir" : 211,
		"rain" : 1,
		"cloudbase" : 360.01432,
		"flyability" : 0,
		"reason" : "rain, cloudbase",
		"timestamp" :1554973200
		},
	"2019-04-11T12:00:00Z" : {
		"windSpeed" : 1.9,
		"windDir" : 218,
		"rain" : 0,
		"cloudbase" : 1004.26648,
		"flyability" : 100,
		"reason" : "",
		"timestamp" :1554984000
		},
	"2019-04-11T15:00:00Z" : {
		"windSpeed" : 1.2,
		"windDir" : 268,
		"rain" : 0,
		"cloudbase" : 11308.5448,
		"flyability" : 0,
		"reason" : "windDir",
		"timestamp" :1554994800
		},
	"2019-04-11T18:00:00Z" : {
		"windSpeed" : 1.7,
		"windDir" : 183,
		"rain" : 0,
		"cloudbase" : 12500,
		"flyability" : 100,
		"reason" : "",
		"timestamp" :1555005600
		},
	"2019-04-11T21:00:00Z" : {
		"windSpeed" : 2.3,
		"windDir" : 197,
		"rain" : 1,
		"cloudbase" : 12544.464,
		"flyability" : 0,
		"reason" : "rain",
		"timestamp" :1555016400
		},
	"2019-04-12T00:00:00Z" : {
		"windSpeed" : 2.4,
		"windDir" : 196,
		"rain" : 0,
		"cloudbase" : 6704.9856000001,
		"flyability" : 100,
		"reason" : "",
		"timestamp" :1555027200
		},
	"2019-04-12T03:00:00Z" : {
		"windSpeed" : 2.6,
		"windDir" : 204,
		"rain" : 0,
		"cloudbase" : 43.98644,
		"flyability" : 0,
		"reason" : "cloudbase",
		"timestamp" :1555038000
		},
	"2019-04-12T06:00:00Z" : {
		"windSpeed" : 3.5,
		"windDir" : 197,
		"rain" : 1,
		"cloudbase" : 43.98644,
		"flyability" : 0,
		"reason" : "rain, cloudbase",
		"timestamp" :1555048800
		},
	"2019-04-12T09:00:00Z" : {
		"windSpeed" : 3.9,
		"windDir" : 220,
		"rain" : 0,
		"cloudbase" : 298.3036,
		"flyability" : 0,
		"reason" : "cloudbase",
		"timestamp" :1555059600
		},
	"2019-04-12T12:00:00Z" : {
		"windSpeed" : 3.3,
		"windDir" : 236,
		"rain" : 1,
		"cloudbase" : 811.92431999999,
		"flyability" : 0,
		"reason" : "rain",
		"timestamp" :1555070400
		},
	"2019-04-12T15:00:00Z" : {
		"windSpeed" : 3,
		"windDir" : 213,
		"rain" : 0,
		"cloudbase" : 10105.2544,
		"flyability" : 100,
		"reason" : "",
		"timestamp" :1555081200
		},
	"2019-04-12T18:00:00Z" : {
		"windSpeed" : 2.5,
		"windDir" : 192,
		"rain" : 1,
		"cloudbase" : 7830.3948800005,
		"flyability" : 0,
		"reason" : "rain",
		"timestamp" :1555092000
		},
	"2019-04-12T21:00:00Z" : {
		"windSpeed" : 3,
		"windDir" : 193,
		"rain" : 1,
		"cloudbase" : 6091.92,
		"flyability" : 0,
		"reason" : "rain",
		"timestamp" :1555102800
		},
	"2019-04-13T00:00:00Z" : {
		"windSpeed" : 2.8,
		"windDir" : 217,
		"rain" : 0,
		"cloudbase" : 5480.4451999998,
		"flyability" : 100,
		"reason" : "",
		"timestamp" :1555113600
		},
	"2019-04-13T03:00:00Z" : {
		"windSpeed" : 3,
		"windDir" : 201,
		"rain" : 0,
		"cloudbase" : 33.146079999999,
		"flyability" : 0,
		"reason" : "cloudbase",
		"timestamp" :1555124400
		},
	"2019-04-13T06:00:00Z" : {
		"windSpeed" : 2.9,
		"windDir" : 200,
		"rain" : 0,
		"cloudbase" : 31.12,
		"flyability" : 0,
		"reason" : "cloudbase",
		"timestamp" :1555135200
		},
	"2019-04-13T09:00:00Z" : {
		"windSpeed" : 3.6,
		"windDir" : 216,
		"rain" : 0,
		"cloudbase" : 1201.8958399999,
		"flyability" : 100,
		"reason" : "",
		"timestamp" :1555146000
		},
	"2019-04-13T12:00:00Z" : {
		"windSpeed" : 3.5,
		"windDir" : 214,
		"rain" : 0,
		"cloudbase" : null,
		"flyability" : 100,
		"reason" : "",
		"timestamp" :1555156800
		},
	"2019-04-13T15:00:00Z" : {
		"windSpeed" : 2.2,
		"windDir" : 222,
		"rain" : 0,
		"cloudbase" : 12500,
		"flyability" : 100,
		"reason" : "",
		"timestamp" :1555167600
		},
	"2019-04-13T18:00:00Z" : {
		"windSpeed" : 2,
		"windDir" : 186,
		"rain" : 1,
		"cloudbase" : null,
		"flyability" : 0,
		"reason" : "rain",
		"timestamp" :1555178400
		},
	"2019-04-13T21:00:00Z" : {
		"windSpeed" : 2.8,
		"windDir" : 188,
		"rain" : 0,
		"cloudbase" : 10938.036,
		"flyability" : 100,
		"reason" : "",
		"timestamp" :1555189200
		},
	"2019-04-14T00:00:00Z" : {
		"windSpeed" : 2.5,
		"windDir" : 205,
		"rain" : 1,
		"cloudbase" : 6731.3008,
		"flyability" : 0,
		"reason" : "rain",
		"timestamp" :1555200000
		},
	"2019-04-14T03:00:00Z" : {
		"windSpeed" : 2.4,
		"windDir" : 198,
		"rain" : 0,
		"cloudbase" : 58.118599999996,
		"flyability" : 0,
		"reason" : "cloudbase",
		"timestamp" :1555210800
		},
	"2019-04-14T06:00:00Z" : {
		"windSpeed" : 3.1,
		"windDir" : 193,
		"rain" : 0,
		"cloudbase" : 32.898559999999,
		"flyability" : 0,
		"reason" : "cloudbase",
		"timestamp" :1555221600
		},
	"2019-04-14T09:00:00Z" : {
		"windSpeed" : 3.7,
		"windDir" : 203,
		"rain" : 0,
		"cloudbase" : 1268.8111199999,
		"flyability" : 100,
		"reason" : "",
		"timestamp" :1555232400
		},
	"2019-04-14T12:00:00Z" : {
		"windSpeed" : 2.7,
		"windDir" : 226,
		"rain" : 1,
		"cloudbase" : 740,
		"flyability" : 0,
		"reason" : "rain, cloudbase",
		"timestamp" :1555243200
		}
	}
}