{
"site" : "Atibaia - Pedra Grande",
"id" : 7022,
"orientations" : "22000002",
"forecasts" : { 
	"2019-04-12T00:00:00-03:00" : {
		"windSpeed" : 1.9,
		"windDir" : 127,
		"rain" : 0,
		"cloudbase" : 54.395599999998,
		"flyability" : 0,
		"reason" : "windDir, cloudbase",
		"timestamp" :1555038000
		},
	"2019-04-12T03:00:00-03:00" : {
		"windSpeed" : 1.8,
		"windDir" : 122,
		"rain" : 0,
		"cloudbase" : 65.451199999998,
		"flyability" : 0,
		"reason" : "windDir, cloudbase",
		"timestamp" :1555048800
		},
	"2019-04-12T06:00:00-03:00" : {
		"windSpeed" : 2,
		"windDir" : 87,
		"rain" : 0,
		"cloudbase" : 34.280399999999,
		"flyability" : 0,
		"reason" : "windDir, cloudbase",
		"timestamp" :1555059600
		},
	"2019-04-12T09:00:00-03:00" : {
		"windSpeed" : 1.6,
		"windDir" : 59,
		"rain" : 0,
		"cloudbase" : 11000,
		"flyability" : 100,
		"reason" : "",
		"timestamp" :1555070400
		},
	"2019-04-12T12:00:00-03:00" : {
		"windSpeed" : 3.2,
		"windDir" : 309,
		"rain" : 1,
		"cloudbase" : 10664,
		"flyability" : 0,
		"reason" : "rain",
		"timestamp" :1555081200
		},
	"2019-04-12T15:00:00-03:00" : {
		"windSpeed" : 3.2,
		"windDir" : 279,
		"rain" : 0,
		"cloudbase" : null,
		"flyability" : 0,
		"reason" : "windDir",
		"timestamp" :1555092000
		},
	"2019-04-12T18:00:00-03:00" : {
		"windSpeed" : 1.8,
		"windDir" : 198,
		"rain" : 0,
		"cloudbase" : null,
		"flyability" : 0,
		"reason" : "windDir",
		"timestamp" :1555102800
		},
	"2019-04-12T21:00:00-03:00" : {
		"windSpeed" : 2.3,
		"windDir" : 130,
		"rain" : 0,
		"cloudbase" : 3323.3439999997,
		"flyability" : 0,
		"reason" : "windDir",
		"timestamp" :1555113600
		},
	"2019-04-13T00:00:00-03:00" : {
		"windSpeed" : 1.8,
		"windDir" : 124,
		"rain" : 0,
		"cloudbase" : 34.326799999999,
		"flyability" : 0,
		"reason" : "windDir, cloudbase",
		"timestamp" :1555124400
		},
	"2019-04-13T03:00:00-03:00" : {
		"windSpeed" : 1.6,
		"windDir" : 112,
		"rain" : 0,
		"cloudbase" : 36.275599999999,
		"flyability" : 0,
		"reason" : "windDir, cloudbase",
		"timestamp" :1555135200
		},
	"2019-04-13T06:00:00-03:00" : {
		"windSpeed" : 2,
		"windDir" : 84,
		"rain" : 0,
		"cloudbase" : 30,
		"flyability" : 0,
		"reason" : "windDir, cloudbase",
		"timestamp" :1555146000
		},
	"2019-04-13T09:00:00-03:00" : {
		"windSpeed" : 1.1,
		"windDir" : 42,
		"rain" : 0,
		"cloudbase" : null,
		"flyability" : 100,
		"reason" : "",
		"timestamp" :1555156800
		},
	"2019-04-13T12:00:00-03:00" : {
		"windSpeed" : 1.8,
		"windDir" : 304,
		"rain" : 0,
		"cloudbase" : 13000,
		"flyability" : 100,
		"reason" : "",
		"timestamp" :1555167600
		},
	"2019-04-13T15:00:00-03:00" : {
		"windSpeed" : 1.8,
		"windDir" : 212,
		"rain" : 1,
		"cloudbase" : null,
		"flyability" : 0,
		"reason" : "windDir, rain",
		"timestamp" :1555178400
		},
	"2019-04-13T18:00:00-03:00" : {
		"windSpeed" : 3.2,
		"windDir" : 137,
		"rain" : 0,
		"cloudbase" : 13000,
		"flyability" : 0,
		"reason" : "windDir",
		"timestamp" :1555189200
		},
	"2019-04-13T21:00:00-03:00" : {
		"windSpeed" : 2.7,
		"windDir" : 123,
		"rain" : 0,
		"cloudbase" : 5669.112,
		"flyability" : 0,
		"reason" : "windDir",
		"timestamp" :1555200000
		},
	"2019-04-14T00:00:00-03:00" : {
		"windSpeed" : 2.1,
		"windDir" : 110,
		"rain" : 0,
		"cloudbase" : 5112.9599999999,
		"flyability" : 0,
		"reason" : "windDir",
		"timestamp" :1555210800
		},
	"2019-04-14T03:00:00-03:00" : {
		"windSpeed" : 2.2,
		"windDir" : 84,
		"rain" : 1,
		"cloudbase" : 1571.3383999999,
		"flyability" : 0,
		"reason" : "windDir, rain",
		"timestamp" :1555221600
		},
	"2019-04-14T06:00:00-03:00" : {
		"windSpeed" : 1.7,
		"windDir" : 115,
		"rain" : 0,
		"cloudbase" : 30,
		"flyability" : 0,
		"reason" : "windDir, cloudbase",
		"timestamp" :1555232400
		},
	"2019-04-14T09:00:00-03:00" : {
		"windSpeed" : 1.4,
		"windDir" : 69,
		"rain" : 1,
		"cloudbase" : 4000,
		"flyability" : 0,
		"reason" : "windDir, rain",
		"timestamp" :1555243200
		},
	"2019-04-14T12:00:00-03:00" : {
		"windSpeed" : 1.5,
		"windDir" : 64,
		"rain" : 1,
		"cloudbase" : 3750,
		"flyability" : 0,
		"reason" : "rain",
		"timestamp" :1555254000
		},
	"2019-04-14T15:00:00-03:00" : {
		"windSpeed" : 0.9,
		"windDir" : 109,
		"rain" : 1,
		"cloudbase" : 8764,
		"flyability" : 0,
		"reason" : "windDir, rain",
		"timestamp" :1555264800
		},
	"2019-04-14T18:00:00-03:00" : {
		"windSpeed" : 1.9,
		"windDir" : 104,
		"rain" : 0,
		"cloudbase" : 7100.088,
		"flyability" : 0,
		"reason" : "windDir",
		"timestamp" :1555275600
		},
	"2019-04-14T21:00:00-03:00" : {
		"windSpeed" : 1.8,
		"windDir" : 106,
		"rain" : 1,
		"cloudbase" : 9691.264,
		"flyability" : 0,
		"reason" : "windDir, rain",
		"timestamp" :1555286400
		},
	"2019-04-15T00:00:00-03:00" : {
		"windSpeed" : 2.1,
		"windDir" : 96,
		"rain" : 1,
		"cloudbase" : null,
		"flyability" : 0,
		"reason" : "windDir, rain",
		"timestamp" :1555297200
		},
	"2019-04-15T03:00:00-03:00" : {
		"windSpeed" : 2.1,
		"windDir" : 103,
		"rain" : 0,
		"cloudbase" : 1389.2879999999,
		"flyability" : 0,
		"reason" : "windDir",
		"timestamp" :1555308000
		},
	"2019-04-15T06:00:00-03:00" : {
		"windSpeed" : 2.1,
		"windDir" : 102,
		"rain" : 0,
		"cloudbase" : 30,
		"flyability" : 0,
		"reason" : "windDir, cloudbase",
		"timestamp" :1555318800
		},
	"2019-04-15T09:00:00-03:00" : {
		"windSpeed" : 2.1,
		"windDir" : 46,
		"rain" : 0,
		"cloudbase" : 5200,
		"flyability" : 100,
		"reason" : "",
		"timestamp" :1555329600
		},
	"2019-04-15T12:00:00-03:00" : {
		"windSpeed" : 1.8,
		"windDir" : 359,
		"rain" : 0,
		"cloudbase" : 8100,
		"flyability" : 100,
		"reason" : "",
		"timestamp" :1555340400
		},
	"2019-04-15T15:00:00-03:00" : {
		"windSpeed" : 1,
		"windDir" : 147,
		"rain" : 0,
		"cloudbase" : null,
		"flyability" : 0,
		"reason" : "windDir",
		"timestamp" :1555351200
		},
	"2019-04-15T18:00:00-03:00" : {
		"windSpeed" : 1.6,
		"windDir" : 111,
		"rain" : 0,
		"cloudbase" : null,
		"flyability" : 0,
		"reason" : "windDir",
		"timestamp" :1555362000
		},
	"2019-04-15T21:00:00-03:00" : {
		"windSpeed" : 2.8,
		"windDir" : 115,
		"rain" : 1,
		"cloudbase" : 2050,
		"flyability" : 0,
		"reason" : "windDir, rain",
		"timestamp" :1555372800
		},
	"2019-04-16T00:00:00-03:00" : {
		"windSpeed" : 2.1,
		"windDir" : 96,
		"rain" : 0,
		"cloudbase" : 30,
		"flyability" : 0,
		"reason" : "windDir, cloudbase",
		"timestamp" :1555383600
		},
	"2019-04-16T03:00:00-03:00" : {
		"windSpeed" : 2.1,
		"windDir" : 107,
		"rain" : 0,
		"cloudbase" : 30,
		"flyability" : 0,
		"reason" : "windDir, cloudbase",
		"timestamp" :1555394400
		},
	"2019-04-16T06:00:00-03:00" : {
		"windSpeed" : 2.1,
		"windDir" : 83,
		"rain" : 0,
		"cloudbase" : 31.9024,
		"flyability" : 0,
		"reason" : "windDir, cloudbase",
		"timestamp" :1555405200
		},
	"2019-04-16T09:00:00-03:00" : {
		"windSpeed" : 1.7,
		"windDir" : 61,
		"rain" : 1,
		"cloudbase" : 30,
		"flyability" : 0,
		"reason" : "rain, cloudbase",
		"timestamp" :1555416000
		},
	"2019-04-16T12:00:00-03:00" : {
		"windSpeed" : 2.6,
		"windDir" : 335,
		"rain" : 0,
		"cloudbase" : 460,
		"flyability" : 0,
		"reason" : "cloudbase",
		"timestamp" :1555426800
		},
	"2019-04-16T15:00:00-03:00" : {
		"windSpeed" : 2.7,
		"windDir" : 297,
		"rain" : 0,
		"cloudbase" : 8602.5439999999,
		"flyability" : 100,
		"reason" : "",
		"timestamp" :1555437600
		},
	"2019-04-16T18:00:00-03:00" : {
		"windSpeed" : 0.8,
		"windDir" : 31,
		"rain" : 0,
		"cloudbase" : 9593.36,
		"flyability" : 100,
		"reason" : "",
		"timestamp" :1555448400
		},
	"2019-04-16T21:00:00-03:00" : {
		"windSpeed" : 2.6,
		"windDir" : 341,
		"rain" : 0,
		"cloudbase" : 1856.2432000001,
		"flyability" : 100,
		"reason" : "",
		"timestamp" :1555459200
		},
	"2019-04-17T00:00:00-03:00" : {
		"windSpeed" : 2.7,
		"windDir" : 331,
		"rain" : 0,
		"cloudbase" : 105.2736,
		"flyability" : 0,
		"reason" : "cloudbase",
		"timestamp" :1555470000
		},
	"2019-04-17T03:00:00-03:00" : {
		"windSpeed" : 3.2,
		"windDir" : 323,
		"rain" : 0,
		"cloudbase" : 66.666399999998,
		"flyability" : 0,
		"reason" : "cloudbase",
		"timestamp" :1555480800
		},
	"2019-04-17T06:00:00-03:00" : {
		"windSpeed" : 3.6,
		"windDir" : 314,
		"rain" : 0,
		"cloudbase" : 61.137599999999,
		"flyability" : 0,
		"reason" : "cloudbase",
		"timestamp" :1555491600
		},
	"2019-04-17T09:00:00-03:00" : {
		"windSpeed" : 3.5,
		"windDir" : 296,
		"rain" : 1,
		"cloudbase" : null,
		"flyability" : 0,
		"reason" : "rain",
		"timestamp" :1555502400
		},
	"2019-04-17T12:00:00-03:00" : {
		"windSpeed" : 3.5,
		"windDir" : 281,
		"rain" : 1,
		"cloudbase" : 688.6256,
		"flyability" : 0,
		"reason" : "windDir, rain, cloudbase",
		"timestamp" :1555513200
		},
	"2019-04-17T15:00:00-03:00" : {
		"windSpeed" : 3.8,
		"windDir" : 285,
		"rain" : 1,
		"cloudbase" : null,
		"flyability" : 0,
		"reason" : "windDir, rain",
		"timestamp" :1555524000
		},
	"2019-04-17T18:00:00-03:00" : {
		"windSpeed" : 1.3,
		"windDir" : 211,
		"rain" : 1,
		"cloudbase" : null,
		"flyability" : 0,
		"reason" : "windDir, rain",
		"timestamp" :1555534800
		},
	"2019-04-17T21:00:00-03:00" : {
		"windSpeed" : 1.6,
		"windDir" : 135,
		"rain" : 0,
		"cloudbase" : 291.67039999999,
		"flyability" : 0,
		"reason" : "windDir, cloudbase",
		"timestamp" :1555545600
		}
	}
}