{
"site" : "Mingus",
"id" : 7376,
"orientations" : "00020000",
"forecasts" : { 
	"2019-04-02T20:00:00-07:00" : {
		"windSpeed" : 1.3,
		"windDir" : 234,
		"rain" : 0,
		"cloudbase" : 6940.8,
		"flyability" : 0,
		"reason" : "windDir",
		"timestamp" :1554264000
		},
	"2019-04-02T23:00:00-07:00" : {
		"windSpeed" : 1.9,
		"windDir" : 229,
		"rain" : 0,
		"cloudbase" : null,
		"flyability" : 0,
		"reason" : "windDir",
		"timestamp" :1554274800
		},
	"2019-04-03T02:00:00-07:00" : {
		"windSpeed" : 2.3,
		"windDir" : 237,
		"rain" : 1,
		"cloudbase" : null,
		"flyability" : 0,
		"reason" : "windDir, rain",
		"timestamp" :1554285600
		},
	"2019-04-03T05:00:00-07:00" : {
		"windSpeed" : 1.4,
		"windDir" : 212,
		"rain" : 1,
		"cloudbase" : null,
		"flyability" : 0,
		"reason" : "windDir, rain",
		"timestamp" :1554296400
		},
	"2019-04-03T08:00:00-07:00" : {
		"windSpeed" : 0.7,
		"windDir" : 212,
		"rain" : 0,
		"cloudbase" : null,
		"flyability" : 0,
		"reason" : "windDir",
		"timestamp" :1554307200
		},
	"2019-04-03T11:00:00-07:00" : {
		"windSpeed" : 2.4,
		"windDir" : 293,
		"rain" : 0,
		"cloudbase" : null,
		"flyability" : 0,
		"reason" : "windDir",
		"timestamp" :1554318000
		},
	"2019-04-03T14:00:00-07:00" : {
		"windSpeed" : 1.6,
		"windDir" : 235,
		"rain" : 0,
		"cloudbase" : 2640.648,
		"flyability" : 0,
		"reason" : "windDir",
		"timestamp" :1554328800
		},
	"2019-04-03T17:00:00-07:00" : {
		"windSpeed" : 2.2,
		"windDir" : 188,
		"rain" : 0,
		"cloudbase" : 2550,
		"flyability" : 0,
		"reason" : "windDir",
		"timestamp" :1554339600
		},
	"2019-04-03T20:00:00-07:00" : {
		"windSpeed" : 1.8,
		"windDir" : 207,
		"rain" : 0,
		"cloudbase" : 8492.4,
		"flyability" : 0,
		"reason" : "windDir",
		"timestamp" :1554350400
		},
	"2019-04-03T23:00:00-07:00" : {
		"windSpeed" : 0.3,
		"windDir" : 249,
		"rain" : 0,
		"cloudbase" : 8463.84,
		"flyability" : 0,
		"reason" : "windDir",
		"timestamp" :1554361200
		},
	"2019-04-04T02:00:00-07:00" : {
		"windSpeed" : 0.3,
		"windDir" : 252,
		"rain" : 0,
		"cloudbase" : 6123.504,
		"flyability" : 0,
		"reason" : "windDir",
		"timestamp" :1554372000
		},
	"2019-04-04T05:00:00-07:00" : {
		"windSpeed" : 0.6,
		"windDir" : 159,
		"rain" : 0,
		"cloudbase" : 7691.952,
		"flyability" : 0,
		"reason" : "windDir",
		"timestamp" :1554382800
		},
	"2019-04-04T08:00:00-07:00" : {
		"windSpeed" : 1.3,
		"windDir" : 152,
		"rain" : 0,
		"cloudbase" : 5856.144,
		"flyability" : 100,
		"reason" : "",
		"timestamp" :1554393600
		},
	"2019-04-04T11:00:00-07:00" : {
		"windSpeed" : 3.1,
		"windDir" : 152,
		"rain" : 0,
		"cloudbase" : 6686.8,
		"flyability" : 100,
		"reason" : "",
		"timestamp" :1554404400
		},
	"2019-04-04T14:00:00-07:00" : {
		"windSpeed" : 4.1,
		"windDir" : 183,
		"rain" : 0,
		"cloudbase" : 6574.048,
		"flyability" : 0,
		"reason" : "windDir",
		"timestamp" :1554415200
		},
	"2019-04-04T17:00:00-07:00" : {
		"windSpeed" : 3.6,
		"windDir" : 184,
		"rain" : 0,
		"cloudbase" : 5557.6,
		"flyability" : 0,
		"reason" : "windDir",
		"timestamp" :1554426000
		},
	"2019-04-04T20:00:00-07:00" : {
		"windSpeed" : 1.4,
		"windDir" : 216,
		"rain" : 0,
		"cloudbase" : null,
		"flyability" : 0,
		"reason" : "windDir",
		"timestamp" :1554436800
		},
	"2019-04-04T23:00:00-07:00" : {
		"windSpeed" : 0.7,
		"windDir" : 203,
		"rain" : 0,
		"cloudbase" : 7607.952,
		"flyability" : 0,
		"reason" : "windDir",
		"timestamp" :1554447600
		},
	"2019-04-05T02:00:00-07:00" : {
		"windSpeed" : 1.7,
		"windDir" : 206,
		"rain" : 0,
		"cloudbase" : null,
		"flyability" : 0,
		"reason" : "windDir",
		"timestamp" :1554458400
		},
	"2019-04-05T05:00:00-07:00" : {
		"windSpeed" : 0.6,
		"windDir" : 203,
		"rain" : 0,
		"cloudbase" : 8386.8,
		"flyability" : 0,
		"reason" : "windDir",
		"timestamp" :1554469200
		},
	"2019-04-05T08:00:00-07:00" : {
		"windSpeed" : 2.3,
		"windDir" : 160,
		"rain" : 0,
		"cloudbase" : 6294.752,
		"flyability" : 0,
		"reason" : "windDir",
		"timestamp" :1554480000
		},
	"2019-04-05T11:00:00-07:00" : {
		"windSpeed" : 2.6,
		"windDir" : 168,
		"rain" : 0,
		"cloudbase" : 3905.3520000003,
		"flyability" : 0,
		"reason" : "windDir",
		"timestamp" :1554490800
		},
	"2019-04-05T14:00:00-07:00" : {
		"windSpeed" : 2.7,
		"windDir" : 198,
		"rain" : 0,
		"cloudbase" : 1599.952,
		"flyability" : 0,
		"reason" : "windDir, cloudbase",
		"timestamp" :1554501600
		},
	"2019-04-05T17:00:00-07:00" : {
		"windSpeed" : 3.5,
		"windDir" : 181,
		"rain" : 0,
		"cloudbase" : 1915.824,
		"flyability" : 0,
		"reason" : "windDir, cloudbase",
		"timestamp" :1554512400
		},
	"2019-04-05T20:00:00-07:00" : {
		"windSpeed" : 1.5,
		"windDir" : 224,
		"rain" : 0,
		"cloudbase" : 1850,
		"flyability" : 0,
		"reason" : "windDir, cloudbase",
		"timestamp" :1554523200
		},
	"2019-04-05T23:00:00-07:00" : {
		"windSpeed" : 1.5,
		"windDir" : 243,
		"rain" : 0,
		"cloudbase" : 7757.6,
		"flyability" : 0,
		"reason" : "windDir",
		"timestamp" :1554534000
		},
	"2019-04-06T02:00:00-07:00" : {
		"windSpeed" : 0.8,
		"windDir" : 214,
		"rain" : 0,
		"cloudbase" : 4714.2,
		"flyability" : 0,
		"reason" : "windDir",
		"timestamp" :1554544800
		},
	"2019-04-06T05:00:00-07:00" : {
		"windSpeed" : 0.7,
		"windDir" : 216,
		"rain" : 0,
		"cloudbase" : 2874.104,
		"flyability" : 0,
		"reason" : "windDir",
		"timestamp" :1554555600
		},
	"2019-04-06T08:00:00-07:00" : {
		"windSpeed" : 0.5,
		"windDir" : 101,
		"rain" : 0,
		"cloudbase" : 2279.024,
		"flyability" : 0,
		"reason" : "windDir, cloudbase",
		"timestamp" :1554566400
		},
	"2019-04-06T11:00:00-07:00" : {
		"windSpeed" : 0.7,
		"windDir" : 324,
		"rain" : 0,
		"cloudbase" : 2200,
		"flyability" : 0,
		"reason" : "windDir, cloudbase",
		"timestamp" :1554577200
		},
	"2019-04-06T14:00:00-07:00" : {
		"windSpeed" : 0.6,
		"windDir" : 137,
		"rain" : 0,
		"cloudbase" : 2600,
		"flyability" : 100,
		"reason" : "",
		"timestamp" :1554588000
		},
	"2019-04-06T17:00:00-07:00" : {
		"windSpeed" : 2.6,
		"windDir" : 230,
		"rain" : 0,
		"cloudbase" : 5383.8880000004,
		"flyability" : 0,
		"reason" : "windDir",
		"timestamp" :1554598800
		},
	"2019-04-06T20:00:00-07:00" : {
		"windSpeed" : 1.9,
		"windDir" : 238,
		"rain" : 0,
		"cloudbase" : 7370.704,
		"flyability" : 0,
		"reason" : "windDir",
		"timestamp" :1554609600
		},
	"2019-04-06T23:00:00-07:00" : {
		"windSpeed" : 1.4,
		"windDir" : 260,
		"rain" : 0,
		"cloudbase" : null,
		"flyability" : 0,
		"reason" : "windDir",
		"timestamp" :1554620400
		},
	"2019-04-07T02:00:00-07:00" : {
		"windSpeed" : 1.1,
		"windDir" : 282,
		"rain" : 0,
		"cloudbase" : null,
		"flyability" : 0,
		"reason" : "windDir",
		"timestamp" :1554631200
		},
	"2019-04-07T05:00:00-07:00" : {
		"windSpeed" : 1,
		"windDir" : 302,
		"rain" : 0,
		"cloudbase" : null,
		"flyability" : 0,
		"reason" : "windDir",
		"timestamp" :1554642000
		},
	"2019-04-07T08:00:00-07:00" : {
		"windSpeed" : 0.4,
		"windDir" : 345,
		"rain" : 0,
		"cloudbase" : null,
		"flyability" : 0,
		"reason" : "windDir",
		"timestamp" :1554652800
		},
	"2019-04-07T11:00:00-07:00" : {
		"windSpeed" : 0.6,
		"windDir" : 9,
		"rain" : 0,
		"cloudbase" : null,
		"flyability" : 0,
		"reason" : "windDir",
		"timestamp" :1554663600
		},
	"2019-04-07T14:00:00-07:00" : {
		"windSpeed" : 2.7,
		"windDir" : 304,
		"rain" : 0,
		"cloudbase" : 7000,
		"flyability" : 0,
		"reason" : "windDir",
		"timestamp" :1554674400
		},
	"2019-04-07T17:00:00-07:00" : {
		"windSpeed" : 2.9,
		"windDir" : 313,
		"rain" : 0,
		"cloudbase" : null,
		"flyability" : 0,
		"reason" : "windDir",
		"timestamp" :1554685200
		},
	"2019-04-07T20:00:00-07:00" : {
		"windSpeed" : 2,
		"windDir" : 310,
		"rain" : 0,
		"cloudbase" : 9058.496,
		"flyability" : 0,
		"reason" : "windDir",
		"timestamp" :1554696000
		},
	"2019-04-07T23:00:00-07:00" : {
		"windSpeed" : 1.6,
		"windDir" : 293,
		"rain" : 0,
		"cloudbase" : null,
		"flyability" : 0,
		"reason" : "windDir",
		"timestamp" :1554706800
		},
	"2019-04-08T02:00:00-07:00" : {
		"windSpeed" : 1.8,
		"windDir" : 304,
		"rain" : 0,
		"cloudbase" : null,
		"flyability" : 0,
		"reason" : "windDir",
		"timestamp" :1554717600
		},
	"2019-04-08T05:00:00-07:00" : {
		"windSpeed" : 1.5,
		"windDir" : 317,
		"rain" : 0,
		"cloudbase" : 8758.496,
		"flyability" : 0,
		"reason" : "windDir",
		"timestamp" :1554728400
		},
	"2019-04-08T08:00:00-07:00" : {
		"windSpeed" : 0.4,
		"windDir" : 356,
		"rain" : 0,
		"cloudbase" : null,
		"flyability" : 0,
		"reason" : "windDir",
		"timestamp" :1554739200
		},
	"2019-04-08T11:00:00-07:00" : {
		"windSpeed" : 0.2,
		"windDir" : 86,
		"rain" : 0,
		"cloudbase" : null,
		"flyability" : 0,
		"reason" : "windDir",
		"timestamp" :1554750000
		},
	"2019-04-08T14:00:00-07:00" : {
		"windSpeed" : 0.8,
		"windDir" : 311,
		"rain" : 0,
		"cloudbase" : null,
		"flyability" : 0,
		"reason" : "windDir",
		"timestamp" :1554760800
		},
	"2019-04-08T17:00:00-07:00" : {
		"windSpeed" : 3.8,
		"windDir" : 269,
		"rain" : 0,
		"cloudbase" : null,
		"flyability" : 0,
		"reason" : "windDir",
		"timestamp" :1554771600
		}
	}
}