{
"site" : "North Brother",
"id" : 7606,
"orientations" : "02000000",
"forecasts" : { 
	"2019-04-04T14:00:00+11:00" : {
		"windSpeed" : 3.2,
		"windDir" : 166,
		"rain" : 1,
		"cloudbase" : null,
		"flyability" : 0,
		"reason" : "windDir, rain",
		"timestamp" :1554350400
		},
	"2019-04-04T17:00:00+11:00" : {
		"windSpeed" : 3.6,
		"windDir" : 170,
		"rain" : 1,
		"cloudbase" : 9878,
		"flyability" : 0,
		"reason" : "windDir, rain",
		"timestamp" :1554361200
		},
	"2019-04-04T20:00:00+11:00" : {
		"windSpeed" : 2.3,
		"windDir" : 171,
		"rain" : 1,
		"cloudbase" : 6924.6159999992,
		"flyability" : 0,
		"reason" : "windDir, rain",
		"timestamp" :1554372000
		},
	"2019-04-04T23:00:00+11:00" : {
		"windSpeed" : 1.9,
		"windDir" : 190,
		"rain" : 1,
		"cloudbase" : null,
		"flyability" : 0,
		"reason" : "windDir, rain",
		"timestamp" :1554382800
		},
	"2019-04-05T02:00:00+11:00" : {
		"windSpeed" : 2,
		"windDir" : 233,
		"rain" : 1,
		"cloudbase" : null,
		"flyability" : 0,
		"reason" : "windDir, rain",
		"timestamp" :1554393600
		},
	"2019-04-05T05:00:00+11:00" : {
		"windSpeed" : 2.8,
		"windDir" : 228,
		"rain" : 1,
		"cloudbase" : null,
		"flyability" : 0,
		"reason" : "windDir, rain",
		"timestamp" :1554404400
		},
	"2019-04-05T08:00:00+11:00" : {
		"windSpeed" : 3.4,
		"windDir" : 233,
		"rain" : 1,
		"cloudbase" : null,
		"flyability" : 0,
		"reason" : "windDir, rain",
		"timestamp" :1554415200
		},
	"2019-04-05T11:00:00+11:00" : {
		"windSpeed" : 3.3,
		"windDir" : 202,
		"rain" : 1,
		"cloudbase" : null,
		"flyability" : 0,
		"reason" : "windDir, rain",
		"timestamp" :1554426000
		},
	"2019-04-05T14:00:00+11:00" : {
		"windSpeed" : 2.9,
		"windDir" : 176,
		"rain" : 1,
		"cloudbase" : null,
		"flyability" : 0,
		"reason" : "windDir, rain",
		"timestamp" :1554436800
		},
	"2019-04-05T17:00:00+11:00" : {
		"windSpeed" : 2.6,
		"windDir" : 160,
		"rain" : 1,
		"cloudbase" : null,
		"flyability" : 0,
		"reason" : "windDir, rain",
		"timestamp" :1554447600
		},
	"2019-04-05T20:00:00+11:00" : {
		"windSpeed" : 1.7,
		"windDir" : 217,
		"rain" : 1,
		"cloudbase" : null,
		"flyability" : 0,
		"reason" : "windDir, rain",
		"timestamp" :1554458400
		},
	"2019-04-05T23:00:00+11:00" : {
		"windSpeed" : 1.9,
		"windDir" : 242,
		"rain" : 1,
		"cloudbase" : null,
		"flyability" : 0,
		"reason" : "windDir, rain",
		"timestamp" :1554469200
		},
	"2019-04-06T02:00:00+11:00" : {
		"windSpeed" : 2.4,
		"windDir" : 242,
		"rain" : 0,
		"cloudbase" : null,
		"flyability" : 0,
		"reason" : "windDir",
		"timestamp" :1554480000
		},
	"2019-04-06T05:00:00+11:00" : {
		"windSpeed" : 1.7,
		"windDir" : 233,
		"rain" : 0,
		"cloudbase" : 10000,
		"flyability" : 0,
		"reason" : "windDir",
		"timestamp" :1554490800
		},
	"2019-04-06T08:00:00+11:00" : {
		"windSpeed" : 0.9,
		"windDir" : 287,
		"rain" : 0,
		"cloudbase" : 9503.784,
		"flyability" : 0,
		"reason" : "windDir",
		"timestamp" :1554501600
		},
	"2019-04-06T11:00:00+11:00" : {
		"windSpeed" : 1.4,
		"windDir" : 3,
		"rain" : 0,
		"cloudbase" : 8411.384,
		"flyability" : 0,
		"reason" : "windDir",
		"timestamp" :1554512400
		},
	"2019-04-06T14:00:00+11:00" : {
		"windSpeed" : 2.6,
		"windDir" : 61,
		"rain" : 0,
		"cloudbase" : null,
		"flyability" : 100,
		"reason" : "",
		"timestamp" :1554523200
		},
	"2019-04-06T17:00:00+11:00" : {
		"windSpeed" : 2.7,
		"windDir" : 38,
		"rain" : 1,
		"cloudbase" : null,
		"flyability" : 0,
		"reason" : "rain",
		"timestamp" :1554534000
		},
	"2019-04-06T20:00:00+11:00" : {
		"windSpeed" : 3.2,
		"windDir" : 356,
		"rain" : 0,
		"cloudbase" : null,
		"flyability" : 0,
		"reason" : "windDir",
		"timestamp" :1554544800
		},
	"2019-04-06T23:00:00+11:00" : {
		"windSpeed" : 3.5,
		"windDir" : 348,
		"rain" : 0,
		"cloudbase" : null,
		"flyability" : 0,
		"reason" : "windDir",
		"timestamp" :1554555600
		},
	"2019-04-07T02:00:00+11:00" : {
		"windSpeed" : 2.7,
		"windDir" : 344,
		"rain" : 0,
		"cloudbase" : null,
		"flyability" : 0,
		"reason" : "windDir",
		"timestamp" :1554566400
		},
	"2019-04-07T05:00:00+11:00" : {
		"windSpeed" : 2.4,
		"windDir" : 342,
		"rain" : 0,
		"cloudbase" : null,
		"flyability" : 0,
		"reason" : "windDir",
		"timestamp" :1554577200
		},
	"2019-04-07T08:00:00+11:00" : {
		"windSpeed" : 2,
		"windDir" : 339,
		"rain" : 0,
		"cloudbase" : null,
		"flyability" : 0,
		"reason" : "windDir",
		"timestamp" :1554588000
		},
	"2019-04-07T11:00:00+11:00" : {
		"windSpeed" : 2.7,
		"windDir" : 15,
		"rain" : 0,
		"cloudbase" : null,
		"flyability" : 0,
		"reason" : "windDir",
		"timestamp" :1554598800
		},
	"2019-04-07T14:00:00+11:00" : {
		"windSpeed" : 3.2,
		"windDir" : 38,
		"rain" : 0,
		"cloudbase" : null,
		"flyability" : 100,
		"reason" : "",
		"timestamp" :1554609600
		},
	"2019-04-07T17:00:00+11:00" : {
		"windSpeed" : 5,
		"windDir" : 33,
		"rain" : 0,
		"cloudbase" : null,
		"flyability" : 100,
		"reason" : "",
		"timestamp" :1554620400
		},
	"2019-04-07T20:00:00+11:00" : {
		"windSpeed" : 4.5,
		"windDir" : 354,
		"rain" : 0,
		"cloudbase" : null,
		"flyability" : 0,
		"reason" : "windDir",
		"timestamp" :1554631200
		},
	"2019-04-07T23:00:00+11:00" : {
		"windSpeed" : 4,
		"windDir" : 353,
		"rain" : 0,
		"cloudbase" : null,
		"flyability" : 0,
		"reason" : "windDir",
		"timestamp" :1554642000
		},
	"2019-04-08T02:00:00+11:00" : {
		"windSpeed" : 3.5,
		"windDir" : 351,
		"rain" : 0,
		"cloudbase" : null,
		"flyability" : 0,
		"reason" : "windDir",
		"timestamp" :1554652800
		},
	"2019-04-08T05:00:00+11:00" : {
		"windSpeed" : 3.1,
		"windDir" : 343,
		"rain" : 0,
		"cloudbase" : null,
		"flyability" : 0,
		"reason" : "windDir",
		"timestamp" :1554663600
		},
	"2019-04-08T08:00:00+11:00" : {
		"windSpeed" : 2.2,
		"windDir" : 336,
		"rain" : 0,
		"cloudbase" : null,
		"flyability" : 0,
		"reason" : "windDir",
		"timestamp" :1554674400
		},
	"2019-04-08T11:00:00+11:00" : {
		"windSpeed" : 1.7,
		"windDir" : 340,
		"rain" : 0,
		"cloudbase" : null,
		"flyability" : 0,
		"reason" : "windDir",
		"timestamp" :1554685200
		},
	"2019-04-08T14:00:00+11:00" : {
		"windSpeed" : 1.6,
		"windDir" : 333,
		"rain" : 0,
		"cloudbase" : null,
		"flyability" : 0,
		"reason" : "windDir",
		"timestamp" :1554696000
		},
	"2019-04-08T17:00:00+11:00" : {
		"windSpeed" : 2.4,
		"windDir" : 19,
		"rain" : 0,
		"cloudbase" : null,
		"flyability" : 0,
		"reason" : "windDir",
		"timestamp" :1554706800
		},
	"2019-04-08T20:00:00+11:00" : {
		"windSpeed" : 2.7,
		"windDir" : 321,
		"rain" : 0,
		"cloudbase" : null,
		"flyability" : 0,
		"reason" : "windDir",
		"timestamp" :1554717600
		},
	"2019-04-08T23:00:00+11:00" : {
		"windSpeed" : 3.2,
		"windDir" : 328,
		"rain" : 0,
		"cloudbase" : null,
		"flyability" : 0,
		"reason" : "windDir",
		"timestamp" :1554728400
		},
	"2019-04-09T02:00:00+11:00" : {
		"windSpeed" : 3.2,
		"windDir" : 331,
		"rain" : 0,
		"cloudbase" : null,
		"flyability" : 0,
		"reason" : "windDir",
		"timestamp" :1554739200
		},
	"2019-04-09T05:00:00+11:00" : {
		"windSpeed" : 2,
		"windDir" : 313,
		"rain" : 0,
		"cloudbase" : null,
		"flyability" : 0,
		"reason" : "windDir",
		"timestamp" :1554750000
		},
	"2019-04-09T08:00:00+11:00" : {
		"windSpeed" : 1.5,
		"windDir" : 317,
		"rain" : 0,
		"cloudbase" : null,
		"flyability" : 0,
		"reason" : "windDir",
		"timestamp" :1554760800
		},
	"2019-04-09T11:00:00+11:00" : {
		"windSpeed" : 1.4,
		"windDir" : 29,
		"rain" : 0,
		"cloudbase" : null,
		"flyability" : 100,
		"reason" : "",
		"timestamp" :1554771600
		},
	"2019-04-09T14:00:00+11:00" : {
		"windSpeed" : 3,
		"windDir" : 188,
		"rain" : 0,
		"cloudbase" : 6762.248,
		"flyability" : 0,
		"reason" : "windDir",
		"timestamp" :1554782400
		},
	"2019-04-09T17:00:00+11:00" : {
		"windSpeed" : 2,
		"windDir" : 261,
		"rain" : 0,
		"cloudbase" : null,
		"flyability" : 0,
		"reason" : "windDir",
		"timestamp" :1554793200
		},
	"2019-04-09T20:00:00+11:00" : {
		"windSpeed" : 1.4,
		"windDir" : 279,
		"rain" : 0,
		"cloudbase" : null,
		"flyability" : 0,
		"reason" : "windDir",
		"timestamp" :1554804000
		},
	"2019-04-09T23:00:00+11:00" : {
		"windSpeed" : 1.8,
		"windDir" : 250,
		"rain" : 0,
		"cloudbase" : null,
		"flyability" : 0,
		"reason" : "windDir",
		"timestamp" :1554814800
		},
	"2019-04-10T02:00:00+11:00" : {
		"windSpeed" : 4.1,
		"windDir" : 215,
		"rain" : 0,
		"cloudbase" : null,
		"flyability" : 0,
		"reason" : "windDir",
		"timestamp" :1554825600
		},
	"2019-04-10T05:00:00+11:00" : {
		"windSpeed" : 5,
		"windDir" : 220,
		"rain" : 0,
		"cloudbase" : 640,
		"flyability" : 0,
		"reason" : "windDir",
		"timestamp" :1554836400
		},
	"2019-04-10T08:00:00+11:00" : {
		"windSpeed" : 4.8,
		"windDir" : 232,
		"rain" : 1,
		"cloudbase" : null,
		"flyability" : 0,
		"reason" : "windDir, rain",
		"timestamp" :1554847200
		},
	"2019-04-10T11:00:00+11:00" : {
		"windSpeed" : 5.4,
		"windDir" : 217,
		"rain" : 1,
		"cloudbase" : null,
		"flyability" : 0,
		"reason" : "windSpeed, windDir, rain",
		"timestamp" :1554858000
		}
	}
}