{
"site" : "Verbier - Croix de Coeur",
"id" : 7718,
"orientations" : "00022200",
"forecasts" : { 
	"2019-04-21T17:00:00+02:00" : {
		"windSpeed" : 0.1,
		"windDir" : 192,
		"rain" : 1,
		"cloudbase" : 4828.61478,
		"flyability" : 0,
		"reason" : "rain",
		"timestamp" :1555862400
		},
	"2019-04-21T20:00:00+02:00" : {
		"windSpeed" : 0.3,
		"windDir" : 111,
		"rain" : 0,
		"cloudbase" : null,
		"flyability" : 0,
		"reason" : "windDir",
		"timestamp" :1555873200
		},
	"2019-04-21T23:00:00+02:00" : {
		"windSpeed" : 1,
		"windDir" : 123,
		"rain" : 0,
		"cloudbase" : 8926.3291200001,
		"flyability" : 100,
		"reason" : "",
		"timestamp" :1555884000
		},
	"2019-04-22T02:00:00+02:00" : {
		"windSpeed" : 1.1,
		"windDir" : 121,
		"rain" : 0,
		"cloudbase" : 6936.7197799999,
		"flyability" : 100,
		"reason" : "",
		"timestamp" :1555894800
		},
	"2019-04-22T05:00:00+02:00" : {
		"windSpeed" : 0.9,
		"windDir" : 132,
		"rain" : 0,
		"cloudbase" : 4690.70324,
		"flyability" : 100,
		"reason" : "",
		"timestamp" :1555905600
		},
	"2019-04-22T08:00:00+02:00" : {
		"windSpeed" : 0.8,
		"windDir" : 114,
		"rain" : 1,
		"cloudbase" : 7624.38912,
		"flyability" : 0,
		"reason" : "rain",
		"timestamp" :1555916400
		},
	"2019-04-22T11:00:00+02:00" : {
		"windSpeed" : 0.9,
		"windDir" : 156,
		"rain" : 0,
		"cloudbase" : null,
		"flyability" : 100,
		"reason" : "",
		"timestamp" :1555927200
		},
	"2019-04-22T14:00:00+02:00" : {
		"windSpeed" : 0.7,
		"windDir" : 190,
		"rain" : 0,
		"cloudbase" : null,
		"flyability" : 100,
		"reason" : "",
		"timestamp" :1555938000
		},
	"2019-04-22T17:00:00+02:00" : {
		"windSpeed" : 0.4,
		"windDir" : 188,
		"rain" : 0,
		"cloudbase" : null,
		"flyability" : 100,
		"reason" : "",
		"timestamp" :1555948800
		},
	"2019-04-22T20:00:00+02:00" : {
		"windSpeed" : 0.8,
		"windDir" : 99,
		"rain" : 0,
		"cloudbase" : 7300,
		"flyability" : 0,
		"reason" : "windDir",
		"timestamp" :1555959600
		},
	"2019-04-22T23:00:00+02:00" : {
		"windSpeed" : 1.5,
		"windDir" : 129,
		"rain" : 0,
		"cloudbase" : 5709.41022,
		"flyability" : 100,
		"reason" : "",
		"timestamp" :1555970400
		},
	"2019-04-23T02:00:00+02:00" : {
		"windSpeed" : 1.3,
		"windDir" : 132,
		"rain" : 0,
		"cloudbase" : 5762.0115400001,
		"flyability" : 100,
		"reason" : "",
		"timestamp" :1555981200
		},
	"2019-04-23T05:00:00+02:00" : {
		"windSpeed" : 1,
		"windDir" : 140,
		"rain" : 0,
		"cloudbase" : 4384.48989,
		"flyability" : 100,
		"reason" : "",
		"timestamp" :1555992000
		},
	"2019-04-23T08:00:00+02:00" : {
		"windSpeed" : 0.8,
		"windDir" : 112,
		"rain" : 1,
		"cloudbase" : 5433.8547200003,
		"flyability" : 0,
		"reason" : "windDir, rain",
		"timestamp" :1556002800
		},
	"2019-04-23T11:00:00+02:00" : {
		"windSpeed" : 0.3,
		"windDir" : 251,
		"rain" : 0,
		"cloudbase" : 4748.67621,
		"flyability" : 0,
		"reason" : "windDir",
		"timestamp" :1556013600
		},
	"2019-04-23T14:00:00+02:00" : {
		"windSpeed" : 0.7,
		"windDir" : 195,
		"rain" : 0,
		"cloudbase" : 5414.23956,
		"flyability" : 100,
		"reason" : "",
		"timestamp" :1556024400
		},
	"2019-04-23T17:00:00+02:00" : {
		"windSpeed" : 0.6,
		"windDir" : 192,
		"rain" : 0,
		"cloudbase" : 5030.2393900003,
		"flyability" : 100,
		"reason" : "",
		"timestamp" :1556035200
		},
	"2019-04-23T20:00:00+02:00" : {
		"windSpeed" : 0.1,
		"windDir" : 291,
		"rain" : 0,
		"cloudbase" : 5347.69956,
		"flyability" : 0,
		"reason" : "windDir",
		"timestamp" :1556046000
		},
	"2019-04-23T23:00:00+02:00" : {
		"windSpeed" : 0.3,
		"windDir" : 121,
		"rain" : 1,
		"cloudbase" : 3291.9944500002,
		"flyability" : 0,
		"reason" : "rain",
		"timestamp" :1556056800
		},
	"2019-04-24T02:00:00+02:00" : {
		"windSpeed" : 0.6,
		"windDir" : 135,
		"rain" : 1,
		"cloudbase" : 2035.9463200002,
		"flyability" : 0,
		"reason" : "rain, cloudbase",
		"timestamp" :1556067600
		},
	"2019-04-24T05:00:00+02:00" : {
		"windSpeed" : 0.5,
		"windDir" : 146,
		"rain" : 1,
		"cloudbase" : null,
		"flyability" : 0,
		"reason" : "rain",
		"timestamp" :1556078400
		},
	"2019-04-24T08:00:00+02:00" : {
		"windSpeed" : 0.8,
		"windDir" : 114,
		"rain" : 0,
		"cloudbase" : 639.95534000002,
		"flyability" : 0,
		"reason" : "cloudbase",
		"timestamp" :1556089200
		},
	"2019-04-24T11:00:00+02:00" : {
		"windSpeed" : 0.3,
		"windDir" : 124,
		"rain" : 0,
		"cloudbase" : 599.93138400002,
		"flyability" : 0,
		"reason" : "cloudbase",
		"timestamp" :1556100000
		},
	"2019-04-24T14:00:00+02:00" : {
		"windSpeed" : 0.6,
		"windDir" : 94,
		"rain" : 1,
		"cloudbase" : 1000,
		"flyability" : 0,
		"reason" : "windDir, rain, cloudbase",
		"timestamp" :1556110800
		},
	"2019-04-24T17:00:00+02:00" : {
		"windSpeed" : 0.4,
		"windDir" : 122,
		"rain" : 1,
		"cloudbase" : 1601.2346700001,
		"flyability" : 0,
		"reason" : "rain, cloudbase",
		"timestamp" :1556121600
		},
	"2019-04-24T20:00:00+02:00" : {
		"windSpeed" : 0.8,
		"windDir" : 329,
		"rain" : 1,
		"cloudbase" : 1420.1848900001,
		"flyability" : 0,
		"reason" : "windDir, rain, cloudbase",
		"timestamp" :1556132400
		},
	"2019-04-24T23:00:00+02:00" : {
		"windSpeed" : 0.7,
		"windDir" : 104,
		"rain" : 1,
		"cloudbase" : 340,
		"flyability" : 0,
		"reason" : "windDir, rain, cloudbase",
		"timestamp" :1556143200
		},
	"2019-04-25T02:00:00+02:00" : {
		"windSpeed" : 0.9,
		"windDir" : 129,
		"rain" : 1,
		"cloudbase" : 100,
		"flyability" : 0,
		"reason" : "rain, cloudbase",
		"timestamp" :1556154000
		},
	"2019-04-25T05:00:00+02:00" : {
		"windSpeed" : 0.9,
		"windDir" : 128,
		"rain" : 0,
		"cloudbase" : null,
		"flyability" : 100,
		"reason" : "",
		"timestamp" :1556164800
		},
	"2019-04-25T08:00:00+02:00" : {
		"windSpeed" : 0.8,
		"windDir" : 117,
		"rain" : 1,
		"cloudbase" : null,
		"flyability" : 0,
		"reason" : "rain",
		"timestamp" :1556175600
		},
	"2019-04-25T11:00:00+02:00" : {
		"windSpeed" : 0.6,
		"windDir" : 113,
		"rain" : 0,
		"cloudbase" : null,
		"flyability" : 100,
		"reason" : "",
		"timestamp" :1556186400
		},
	"2019-04-25T14:00:00+02:00" : {
		"windSpeed" : 0.7,
		"windDir" : 107,
		"rain" : 0,
		"cloudbase" : null,
		"flyability" : 0,
		"reason" : "windDir",
		"timestamp" :1556197200
		},
	"2019-04-25T17:00:00+02:00" : {
		"windSpeed" : 0.3,
		"windDir" : 233,
		"rain" : 0,
		"cloudbase" : 789.84975800004,
		"flyability" : 0,
		"reason" : "cloudbase",
		"timestamp" :1556208000
		},
	"2019-04-25T20:00:00+02:00" : {
		"windSpeed" : 0.8,
		"windDir" : 128,
		"rain" : 0,
		"cloudbase" : 498.50742800002,
		"flyability" : 0,
		"reason" : "cloudbase",
		"timestamp" :1556218800
		},
	"2019-04-25T23:00:00+02:00" : {
		"windSpeed" : 0.8,
		"windDir" : 288,
		"rain" : 0,
		"cloudbase" : 835.46986800005,
		"flyability" : 0,
		"reason" : "windDir, cloudbase",
		"timestamp" :1556229600
		},
	"2019-04-26T02:00:00+02:00" : {
		"windSpeed" : 1.2,
		"windDir" : 321,
		"rain" : 1,
		"cloudbase" : 876.91395399999,
		"flyability" : 0,
		"reason" : "windDir, rain, cloudbase",
		"timestamp" :1556240400
		},
	"2019-04-26T05:00:00+02:00" : {
		"windSpeed" : 0.8,
		"windDir" : 353,
		"rain" : 0,
		"cloudbase" : 32.377511,
		"flyability" : 0,
		"reason" : "windDir, cloudbase",
		"timestamp" :1556251200
		},
	"2019-04-26T08:00:00+02:00" : {
		"windSpeed" : 0.6,
		"windDir" : 354,
		"rain" : 0,
		"cloudbase" : 527.939846,
		"flyability" : 0,
		"reason" : "windDir, cloudbase",
		"timestamp" :1556262000
		},
	"2019-04-26T11:00:00+02:00" : {
		"windSpeed" : 0.7,
		"windDir" : 45,
		"rain" : 0,
		"cloudbase" : 1568.64154,
		"flyability" : 0,
		"reason" : "windDir, cloudbase",
		"timestamp" :1556272800
		},
	"2019-04-26T14:00:00+02:00" : {
		"windSpeed" : 0.2,
		"windDir" : 70,
		"rain" : 1,
		"cloudbase" : 3100,
		"flyability" : 0,
		"reason" : "windDir, rain",
		"timestamp" :1556283600
		},
	"2019-04-26T17:00:00+02:00" : {
		"windSpeed" : 0.3,
		"windDir" : 20,
		"rain" : 1,
		"cloudbase" : 980,
		"flyability" : 0,
		"reason" : "windDir, rain, cloudbase",
		"timestamp" :1556294400
		},
	"2019-04-26T20:00:00+02:00" : {
		"windSpeed" : 0.3,
		"windDir" : 152,
		"rain" : 1,
		"cloudbase" : 620,
		"flyability" : 0,
		"reason" : "rain, cloudbase",
		"timestamp" :1556305200
		},
	"2019-04-26T23:00:00+02:00" : {
		"windSpeed" : 0.4,
		"windDir" : 321,
		"rain" : 0,
		"cloudbase" : 590.71662600003,
		"flyability" : 0,
		"reason" : "windDir, cloudbase",
		"timestamp" :1556316000
		},
	"2019-04-27T02:00:00+02:00" : {
		"windSpeed" : 0.2,
		"windDir" : 113,
		"rain" : 0,
		"cloudbase" : 459.66182400002,
		"flyability" : 0,
		"reason" : "cloudbase",
		"timestamp" :1556326800
		},
	"2019-04-27T05:00:00+02:00" : {
		"windSpeed" : 0.3,
		"windDir" : 126,
		"rain" : 0,
		"cloudbase" : 518.77875800004,
		"flyability" : 0,
		"reason" : "cloudbase",
		"timestamp" :1556337600
		},
	"2019-04-27T08:00:00+02:00" : {
		"windSpeed" : 0.3,
		"windDir" : 126,
		"rain" : 0,
		"cloudbase" : 513.11827400004,
		"flyability" : 0,
		"reason" : "cloudbase",
		"timestamp" :1556348400
		},
	"2019-04-27T11:00:00+02:00" : {
		"windSpeed" : 0.2,
		"windDir" : 43,
		"rain" : 0,
		"cloudbase" : 656.62862600004,
		"flyability" : 0,
		"reason" : "windDir, cloudbase",
		"timestamp" :1556359200
		},
	"2019-04-27T14:00:00+02:00" : {
		"windSpeed" : 0.4,
		"windDir" : 323,
		"rain" : 1,
		"cloudbase" : 772.02791200001,
		"flyability" : 0,
		"reason" : "windDir, rain, cloudbase",
		"timestamp" :1556370000
		}
	}
}