{
"site" : "G\u00e4rtle",
"id" : 7790,
"orientations" : "00000020",
"forecasts" : { 
	"2019-04-16T17:00:00+02:00" : {
		"windSpeed" : 1.7,
		"windDir" : 296,
		"rain" : 1,
		"cloudbase" : 1438.85,
		"flyability" : 0,
		"reason" : "windDir, rain, cloudbase",
		"timestamp" :1555430400
		},
	"2019-04-16T20:00:00+02:00" : {
		"windSpeed" : 0.3,
		"windDir" : 238,
		"rain" : 1,
		"cloudbase" : 1322.7749360001,
		"flyability" : 0,
		"reason" : "windDir, rain, cloudbase",
		"timestamp" :1555441200
		},
	"2019-04-16T23:00:00+02:00" : {
		"windSpeed" : 0.8,
		"windDir" : 135,
		"rain" : 1,
		"cloudbase" : 1599.26423,
		"flyability" : 0,
		"reason" : "windDir, rain",
		"timestamp" :1555452000
		},
	"2019-04-17T02:00:00+02:00" : {
		"windSpeed" : 0.8,
		"windDir" : 159,
		"rain" : 1,
		"cloudbase" : 1236.23423,
		"flyability" : 0,
		"reason" : "windDir, rain, cloudbase",
		"timestamp" :1555462800
		},
	"2019-04-17T05:00:00+02:00" : {
		"windSpeed" : 0.3,
		"windDir" : 120,
		"rain" : 0,
		"cloudbase" : 2250,
		"flyability" : 0,
		"reason" : "windDir",
		"timestamp" :1555473600
		},
	"2019-04-17T08:00:00+02:00" : {
		"windSpeed" : 0.8,
		"windDir" : 80,
		"rain" : 0,
		"cloudbase" : null,
		"flyability" : 0,
		"reason" : "windDir",
		"timestamp" :1555484400
		},
	"2019-04-17T11:00:00+02:00" : {
		"windSpeed" : 1.6,
		"windDir" : 56,
		"rain" : 0,
		"cloudbase" : 860,
		"flyability" : 0,
		"reason" : "windDir, cloudbase",
		"timestamp" :1555495200
		},
	"2019-04-17T14:00:00+02:00" : {
		"windSpeed" : 0.9,
		"windDir" : 26,
		"rain" : 0,
		"cloudbase" : 1350,
		"flyability" : 0,
		"reason" : "windDir, cloudbase",
		"timestamp" :1555506000
		},
	"2019-04-17T17:00:00+02:00" : {
		"windSpeed" : 1.5,
		"windDir" : 58,
		"rain" : 1,
		"cloudbase" : 2400,
		"flyability" : 0,
		"reason" : "windDir, rain",
		"timestamp" :1555516800
		},
	"2019-04-17T20:00:00+02:00" : {
		"windSpeed" : 1.3,
		"windDir" : 59,
		"rain" : 1,
		"cloudbase" : null,
		"flyability" : 0,
		"reason" : "windDir, rain",
		"timestamp" :1555527600
		},
	"2019-04-17T23:00:00+02:00" : {
		"windSpeed" : 1.4,
		"windDir" : 103,
		"rain" : 0,
		"cloudbase" : null,
		"flyability" : 0,
		"reason" : "windDir",
		"timestamp" :1555538400
		},
	"2019-04-18T02:00:00+02:00" : {
		"windSpeed" : 0.9,
		"windDir" : 130,
		"rain" : 0,
		"cloudbase" : null,
		"flyability" : 0,
		"reason" : "windDir",
		"timestamp" :1555549200
		},
	"2019-04-18T05:00:00+02:00" : {
		"windSpeed" : 0.8,
		"windDir" : 131,
		"rain" : 0,
		"cloudbase" : null,
		"flyability" : 0,
		"reason" : "windDir",
		"timestamp" :1555560000
		},
	"2019-04-18T08:00:00+02:00" : {
		"windSpeed" : 0.7,
		"windDir" : 118,
		"rain" : 0,
		"cloudbase" : null,
		"flyability" : 0,
		"reason" : "windDir",
		"timestamp" :1555570800
		},
	"2019-04-18T11:00:00+02:00" : {
		"windSpeed" : 0.8,
		"windDir" : 63,
		"rain" : 0,
		"cloudbase" : 9500,
		"flyability" : 0,
		"reason" : "windDir",
		"timestamp" :1555581600
		},
	"2019-04-18T14:00:00+02:00" : {
		"windSpeed" : 0.5,
		"windDir" : 316,
		"rain" : 0,
		"cloudbase" : 9246.33154,
		"flyability" : 0,
		"reason" : "windDir",
		"timestamp" :1555592400
		},
	"2019-04-18T17:00:00+02:00" : {
		"windSpeed" : 2,
		"windDir" : 38,
		"rain" : 1,
		"cloudbase" : 6100,
		"flyability" : 0,
		"reason" : "windDir, rain",
		"timestamp" :1555603200
		},
	"2019-04-18T20:00:00+02:00" : {
		"windSpeed" : 1.8,
		"windDir" : 90,
		"rain" : 0,
		"cloudbase" : null,
		"flyability" : 0,
		"reason" : "windDir",
		"timestamp" :1555614000
		},
	"2019-04-18T23:00:00+02:00" : {
		"windSpeed" : 2,
		"windDir" : 120,
		"rain" : 0,
		"cloudbase" : 7350.88,
		"flyability" : 0,
		"reason" : "windDir",
		"timestamp" :1555624800
		},
	"2019-04-19T02:00:00+02:00" : {
		"windSpeed" : 1.8,
		"windDir" : 112,
		"rain" : 0,
		"cloudbase" : 3794.0146600002,
		"flyability" : 0,
		"reason" : "windDir",
		"timestamp" :1555635600
		},
	"2019-04-19T05:00:00+02:00" : {
		"windSpeed" : 1.5,
		"windDir" : 128,
		"rain" : 0,
		"cloudbase" : 5800,
		"flyability" : 0,
		"reason" : "windDir",
		"timestamp" :1555646400
		},
	"2019-04-19T08:00:00+02:00" : {
		"windSpeed" : 1.3,
		"windDir" : 114,
		"rain" : 0,
		"cloudbase" : 5488.56154,
		"flyability" : 0,
		"reason" : "windDir",
		"timestamp" :1555657200
		},
	"2019-04-19T11:00:00+02:00" : {
		"windSpeed" : 0.1,
		"windDir" : 63,
		"rain" : 0,
		"cloudbase" : null,
		"flyability" : 0,
		"reason" : "windDir",
		"timestamp" :1555668000
		},
	"2019-04-19T14:00:00+02:00" : {
		"windSpeed" : 1,
		"windDir" : 47,
		"rain" : 1,
		"cloudbase" : 2100,
		"flyability" : 0,
		"reason" : "windDir, rain",
		"timestamp" :1555678800
		},
	"2019-04-19T17:00:00+02:00" : {
		"windSpeed" : 1.6,
		"windDir" : 14,
		"rain" : 1,
		"cloudbase" : null,
		"flyability" : 0,
		"reason" : "windDir, rain",
		"timestamp" :1555689600
		},
	"2019-04-19T20:00:00+02:00" : {
		"windSpeed" : 1.1,
		"windDir" : 82,
		"rain" : 1,
		"cloudbase" : null,
		"flyability" : 0,
		"reason" : "windDir, rain",
		"timestamp" :1555700400
		},
	"2019-04-19T23:00:00+02:00" : {
		"windSpeed" : 1.1,
		"windDir" : 127,
		"rain" : 0,
		"cloudbase" : null,
		"flyability" : 0,
		"reason" : "windDir",
		"timestamp" :1555711200
		},
	"2019-04-20T02:00:00+02:00" : {
		"windSpeed" : 0.8,
		"windDir" : 163,
		"rain" : 1,
		"cloudbase" : null,
		"flyability" : 0,
		"reason" : "windDir, rain",
		"timestamp" :1555722000
		},
	"2019-04-20T05:00:00+02:00" : {
		"windSpeed" : 1,
		"windDir" : 141,
		"rain" : 1,
		"cloudbase" : null,
		"flyability" : 0,
		"reason" : "windDir, rain",
		"timestamp" :1555732800
		},
	"2019-04-20T08:00:00+02:00" : {
		"windSpeed" : 0.6,
		"windDir" : 137,
		"rain" : 1,
		"cloudbase" : null,
		"flyability" : 0,
		"reason" : "windDir, rain",
		"timestamp" :1555743600
		},
	"2019-04-20T11:00:00+02:00" : {
		"windSpeed" : 0.2,
		"windDir" : 11,
		"rain" : 1,
		"cloudbase" : null,
		"flyability" : 0,
		"reason" : "windDir, rain",
		"timestamp" :1555754400
		},
	"2019-04-20T14:00:00+02:00" : {
		"windSpeed" : 1.3,
		"windDir" : 319,
		"rain" : 0,
		"cloudbase" : 560,
		"flyability" : 0,
		"reason" : "windDir, cloudbase",
		"timestamp" :1555765200
		},
	"2019-04-20T17:00:00+02:00" : {
		"windSpeed" : 0.5,
		"windDir" : 14,
		"rain" : 1,
		"cloudbase" : null,
		"flyability" : 0,
		"reason" : "windDir, rain",
		"timestamp" :1555776000
		},
	"2019-04-20T20:00:00+02:00" : {
		"windSpeed" : 0.9,
		"windDir" : 294,
		"rain" : 1,
		"cloudbase" : 6993.26846,
		"flyability" : 0,
		"reason" : "windDir, rain",
		"timestamp" :1555786800
		},
	"2019-04-20T23:00:00+02:00" : {
		"windSpeed" : 0.4,
		"windDir" : 137,
		"rain" : 0,
		"cloudbase" : null,
		"flyability" : 0,
		"reason" : "windDir",
		"timestamp" :1555797600
		},
	"2019-04-21T02:00:00+02:00" : {
		"windSpeed" : 0.7,
		"windDir" : 135,
		"rain" : 0,
		"cloudbase" : null,
		"flyability" : 0,
		"reason" : "windDir",
		"timestamp" :1555808400
		},
	"2019-04-21T05:00:00+02:00" : {
		"windSpeed" : 0.3,
		"windDir" : 145,
		"rain" : 0,
		"cloudbase" : null,
		"flyability" : 0,
		"reason" : "windDir",
		"timestamp" :1555819200
		},
	"2019-04-21T08:00:00+02:00" : {
		"windSpeed" : 0.5,
		"windDir" : 155,
		"rain" : 0,
		"cloudbase" : null,
		"flyability" : 0,
		"reason" : "windDir",
		"timestamp" :1555830000
		},
	"2019-04-21T11:00:00+02:00" : {
		"windSpeed" : 0.4,
		"windDir" : 313,
		"rain" : 0,
		"cloudbase" : null,
		"flyability" : 0,
		"reason" : "windDir",
		"timestamp" :1555840800
		},
	"2019-04-21T14:00:00+02:00" : {
		"windSpeed" : 0.6,
		"windDir" : 46,
		"rain" : 0,
		"cloudbase" : null,
		"flyability" : 0,
		"reason" : "windDir",
		"timestamp" :1555851600
		},
	"2019-04-21T17:00:00+02:00" : {
		"windSpeed" : 1.1,
		"windDir" : 66,
		"rain" : 0,
		"cloudbase" : 7300,
		"flyability" : 0,
		"reason" : "windDir",
		"timestamp" :1555862400
		},
	"2019-04-21T20:00:00+02:00" : {
		"windSpeed" : 1.3,
		"windDir" : 93,
		"rain" : 0,
		"cloudbase" : 6725.53154,
		"flyability" : 0,
		"reason" : "windDir",
		"timestamp" :1555873200
		},
	"2019-04-21T23:00:00+02:00" : {
		"windSpeed" : 1.4,
		"windDir" : 132,
		"rain" : 0,
		"cloudbase" : null,
		"flyability" : 0,
		"reason" : "windDir",
		"timestamp" :1555884000
		},
	"2019-04-22T02:00:00+02:00" : {
		"windSpeed" : 1.5,
		"windDir" : 128,
		"rain" : 0,
		"cloudbase" : 8900,
		"flyability" : 0,
		"reason" : "windDir",
		"timestamp" :1555894800
		},
	"2019-04-22T05:00:00+02:00" : {
		"windSpeed" : 1.8,
		"windDir" : 112,
		"rain" : 0,
		"cloudbase" : 8200,
		"flyability" : 0,
		"reason" : "windDir",
		"timestamp" :1555905600
		},
	"2019-04-22T08:00:00+02:00" : {
		"windSpeed" : 1.7,
		"windDir" : 118,
		"rain" : 0,
		"cloudbase" : 5494.3177,
		"flyability" : 0,
		"reason" : "windDir",
		"timestamp" :1555916400
		},
	"2019-04-22T11:00:00+02:00" : {
		"windSpeed" : 1.8,
		"windDir" : 117,
		"rain" : 0,
		"cloudbase" : null,
		"flyability" : 0,
		"reason" : "windDir",
		"timestamp" :1555927200
		},
	"2019-04-22T14:00:00+02:00" : {
		"windSpeed" : 1.4,
		"windDir" : 151,
		"rain" : 0,
		"cloudbase" : null,
		"flyability" : 0,
		"reason" : "windDir",
		"timestamp" :1555938000
		}
	}
}