{
"site" : "Piz Scalottas-2160",
"id" : 8055,
"orientations" : "00202000",
"forecasts" : { 
	"2019-04-19T05:00:00+02:00" : {
		"windSpeed" : 1.5,
		"windDir" : 167,
		"rain" : 0,
		"cloudbase" : null,
		"flyability" : 100,
		"reason" : "",
		"timestamp" :1555646400
		},
	"2019-04-19T08:00:00+02:00" : {
		"windSpeed" : 1.1,
		"windDir" : 166,
		"rain" : 0,
		"cloudbase" : null,
		"flyability" : 100,
		"reason" : "",
		"timestamp" :1555657200
		},
	"2019-04-19T11:00:00+02:00" : {
		"windSpeed" : 1.2,
		"windDir" : 213,
		"rain" : 0,
		"cloudbase" : null,
		"flyability" : 0,
		"reason" : "windDir",
		"timestamp" :1555668000
		},
	"2019-04-19T14:00:00+02:00" : {
		"windSpeed" : 1.3,
		"windDir" : 187,
		"rain" : 0,
		"cloudbase" : null,
		"flyability" : 100,
		"reason" : "",
		"timestamp" :1555678800
		},
	"2019-04-19T17:00:00+02:00" : {
		"windSpeed" : 1.4,
		"windDir" : 211,
		"rain" : 0,
		"cloudbase" : null,
		"flyability" : 0,
		"reason" : "windDir",
		"timestamp" :1555689600
		},
	"2019-04-19T20:00:00+02:00" : {
		"windSpeed" : 1.1,
		"windDir" : 215,
		"rain" : 0,
		"cloudbase" : null,
		"flyability" : 0,
		"reason" : "windDir",
		"timestamp" :1555700400
		},
	"2019-04-19T23:00:00+02:00" : {
		"windSpeed" : 1.4,
		"windDir" : 161,
		"rain" : 0,
		"cloudbase" : null,
		"flyability" : 100,
		"reason" : "",
		"timestamp" :1555711200
		},
	"2019-04-20T02:00:00+02:00" : {
		"windSpeed" : 1.1,
		"windDir" : 157,
		"rain" : 0,
		"cloudbase" : null,
		"flyability" : 100,
		"reason" : "",
		"timestamp" :1555722000
		},
	"2019-04-20T05:00:00+02:00" : {
		"windSpeed" : 1.3,
		"windDir" : 166,
		"rain" : 0,
		"cloudbase" : null,
		"flyability" : 100,
		"reason" : "",
		"timestamp" :1555732800
		},
	"2019-04-20T08:00:00+02:00" : {
		"windSpeed" : 1,
		"windDir" : 157,
		"rain" : 0,
		"cloudbase" : null,
		"flyability" : 100,
		"reason" : "",
		"timestamp" :1555743600
		},
	"2019-04-20T11:00:00+02:00" : {
		"windSpeed" : 0.2,
		"windDir" : 256,
		"rain" : 0,
		"cloudbase" : null,
		"flyability" : 0,
		"reason" : "windDir",
		"timestamp" :1555754400
		},
	"2019-04-20T14:00:00+02:00" : {
		"windSpeed" : 1.4,
		"windDir" : 202,
		"rain" : 0,
		"cloudbase" : null,
		"flyability" : 100,
		"reason" : "",
		"timestamp" :1555765200
		},
	"2019-04-20T17:00:00+02:00" : {
		"windSpeed" : 0.9,
		"windDir" : 198,
		"rain" : 0,
		"cloudbase" : null,
		"flyability" : 100,
		"reason" : "",
		"timestamp" :1555776000
		},
	"2019-04-20T20:00:00+02:00" : {
		"windSpeed" : 0.8,
		"windDir" : 183,
		"rain" : 0,
		"cloudbase" : null,
		"flyability" : 100,
		"reason" : "",
		"timestamp" :1555786800
		},
	"2019-04-20T23:00:00+02:00" : {
		"windSpeed" : 1.4,
		"windDir" : 161,
		"rain" : 0,
		"cloudbase" : null,
		"flyability" : 100,
		"reason" : "",
		"timestamp" :1555797600
		},
	"2019-04-21T02:00:00+02:00" : {
		"windSpeed" : 1.3,
		"windDir" : 166,
		"rain" : 0,
		"cloudbase" : 7625.04,
		"flyability" : 100,
		"reason" : "",
		"timestamp" :1555808400
		},
	"2019-04-21T05:00:00+02:00" : {
		"windSpeed" : 1.3,
		"windDir" : 160,
		"rain" : 0,
		"cloudbase" : 6900,
		"flyability" : 100,
		"reason" : "",
		"timestamp" :1555819200
		},
	"2019-04-21T08:00:00+02:00" : {
		"windSpeed" : 0.9,
		"windDir" : 160,
		"rain" : 0,
		"cloudbase" : null,
		"flyability" : 100,
		"reason" : "",
		"timestamp" :1555830000
		},
	"2019-04-21T11:00:00+02:00" : {
		"windSpeed" : 0.9,
		"windDir" : 201,
		"rain" : 0,
		"cloudbase" : null,
		"flyability" : 100,
		"reason" : "",
		"timestamp" :1555840800
		},
	"2019-04-21T14:00:00+02:00" : {
		"windSpeed" : 1.9,
		"windDir" : 186,
		"rain" : 0,
		"cloudbase" : 8926.08,
		"flyability" : 100,
		"reason" : "",
		"timestamp" :1555851600
		},
	"2019-04-21T17:00:00+02:00" : {
		"windSpeed" : 1.5,
		"windDir" : 186,
		"rain" : 0,
		"cloudbase" : 6758.2688,
		"flyability" : 100,
		"reason" : "",
		"timestamp" :1555862400
		},
	"2019-04-21T20:00:00+02:00" : {
		"windSpeed" : 1.5,
		"windDir" : 202,
		"rain" : 0,
		"cloudbase" : 5601.4912,
		"flyability" : 100,
		"reason" : "",
		"timestamp" :1555873200
		},
	"2019-04-21T23:00:00+02:00" : {
		"windSpeed" : 1.8,
		"windDir" : 170,
		"rain" : 0,
		"cloudbase" : 9221.7664,
		"flyability" : 100,
		"reason" : "",
		"timestamp" :1555884000
		},
	"2019-04-22T02:00:00+02:00" : {
		"windSpeed" : 1.6,
		"windDir" : 169,
		"rain" : 0,
		"cloudbase" : 8515.3088,
		"flyability" : 100,
		"reason" : "",
		"timestamp" :1555894800
		},
	"2019-04-22T05:00:00+02:00" : {
		"windSpeed" : 1.9,
		"windDir" : 170,
		"rain" : 0,
		"cloudbase" : null,
		"flyability" : 100,
		"reason" : "",
		"timestamp" :1555905600
		},
	"2019-04-22T08:00:00+02:00" : {
		"windSpeed" : 1.3,
		"windDir" : 170,
		"rain" : 0,
		"cloudbase" : null,
		"flyability" : 100,
		"reason" : "",
		"timestamp" :1555916400
		},
	"2019-04-22T11:00:00+02:00" : {
		"windSpeed" : 1.5,
		"windDir" : 191,
		"rain" : 0,
		"cloudbase" : 8600,
		"flyability" : 100,
		"reason" : "",
		"timestamp" :1555927200
		},
	"2019-04-22T14:00:00+02:00" : {
		"windSpeed" : 2,
		"windDir" : 197,
		"rain" : 0,
		"cloudbase" : 4858.992,
		"flyability" : 100,
		"reason" : "",
		"timestamp" :1555938000
		},
	"2019-04-22T17:00:00+02:00" : {
		"windSpeed" : 1.7,
		"windDir" : 207,
		"rain" : 0,
		"cloudbase" : 4942.9776,
		"flyability" : 0,
		"reason" : "windDir",
		"timestamp" :1555948800
		},
	"2019-04-22T20:00:00+02:00" : {
		"windSpeed" : 2.1,
		"windDir" : 200,
		"rain" : 0,
		"cloudbase" : 6400,
		"flyability" : 100,
		"reason" : "",
		"timestamp" :1555959600
		},
	"2019-04-22T23:00:00+02:00" : {
		"windSpeed" : 1.3,
		"windDir" : 207,
		"rain" : 0,
		"cloudbase" : 4965.824,
		"flyability" : 0,
		"reason" : "windDir",
		"timestamp" :1555970400
		},
	"2019-04-23T02:00:00+02:00" : {
		"windSpeed" : 1.1,
		"windDir" : 198,
		"rain" : 1,
		"cloudbase" : 4111.7312,
		"flyability" : 0,
		"reason" : "rain",
		"timestamp" :1555981200
		},
	"2019-04-23T05:00:00+02:00" : {
		"windSpeed" : 1.1,
		"windDir" : 169,
		"rain" : 1,
		"cloudbase" : null,
		"flyability" : 0,
		"reason" : "rain",
		"timestamp" :1555992000
		},
	"2019-04-23T08:00:00+02:00" : {
		"windSpeed" : 1.1,
		"windDir" : 163,
		"rain" : 1,
		"cloudbase" : 1650,
		"flyability" : 0,
		"reason" : "rain, cloudbase",
		"timestamp" :1556002800
		},
	"2019-04-23T11:00:00+02:00" : {
		"windSpeed" : 1.8,
		"windDir" : 177,
		"rain" : 1,
		"cloudbase" : null,
		"flyability" : 0,
		"reason" : "rain",
		"timestamp" :1556013600
		},
	"2019-04-23T14:00:00+02:00" : {
		"windSpeed" : 2.1,
		"windDir" : 196,
		"rain" : 1,
		"cloudbase" : 4902.2816000002,
		"flyability" : 0,
		"reason" : "rain",
		"timestamp" :1556024400
		},
	"2019-04-23T17:00:00+02:00" : {
		"windSpeed" : 1.7,
		"windDir" : 190,
		"rain" : 1,
		"cloudbase" : 2293.3232,
		"flyability" : 0,
		"reason" : "rain",
		"timestamp" :1556035200
		},
	"2019-04-23T20:00:00+02:00" : {
		"windSpeed" : 1,
		"windDir" : 188,
		"rain" : 1,
		"cloudbase" : 1375.352,
		"flyability" : 0,
		"reason" : "rain, cloudbase",
		"timestamp" :1556046000
		},
	"2019-04-23T23:00:00+02:00" : {
		"windSpeed" : 1.5,
		"windDir" : 171,
		"rain" : 0,
		"cloudbase" : 6790.368,
		"flyability" : 100,
		"reason" : "",
		"timestamp" :1556056800
		},
	"2019-04-24T02:00:00+02:00" : {
		"windSpeed" : 1.2,
		"windDir" : 168,
		"rain" : 1,
		"cloudbase" : 1989.5088000001,
		"flyability" : 0,
		"reason" : "rain, cloudbase",
		"timestamp" :1556067600
		},
	"2019-04-24T05:00:00+02:00" : {
		"windSpeed" : 1.2,
		"windDir" : 167,
		"rain" : 0,
		"cloudbase" : 579.75488000001,
		"flyability" : 0,
		"reason" : "cloudbase",
		"timestamp" :1556078400
		},
	"2019-04-24T08:00:00+02:00" : {
		"windSpeed" : 1.1,
		"windDir" : 168,
		"rain" : 0,
		"cloudbase" : 618.79040000001,
		"flyability" : 0,
		"reason" : "cloudbase",
		"timestamp" :1556089200
		},
	"2019-04-24T11:00:00+02:00" : {
		"windSpeed" : 2.8,
		"windDir" : 179,
		"rain" : 0,
		"cloudbase" : 1093.28032,
		"flyability" : 0,
		"reason" : "cloudbase",
		"timestamp" :1556100000
		},
	"2019-04-24T14:00:00+02:00" : {
		"windSpeed" : 2.7,
		"windDir" : 175,
		"rain" : 0,
		"cloudbase" : 5491.3232,
		"flyability" : 100,
		"reason" : "",
		"timestamp" :1556110800
		},
	"2019-04-24T17:00:00+02:00" : {
		"windSpeed" : 2.5,
		"windDir" : 186,
		"rain" : 1,
		"cloudbase" : 3050,
		"flyability" : 0,
		"reason" : "rain",
		"timestamp" :1556121600
		},
	"2019-04-24T20:00:00+02:00" : {
		"windSpeed" : 1.2,
		"windDir" : 192,
		"rain" : 1,
		"cloudbase" : 2930.7936,
		"flyability" : 0,
		"reason" : "rain",
		"timestamp" :1556132400
		},
	"2019-04-24T23:00:00+02:00" : {
		"windSpeed" : 1.1,
		"windDir" : 183,
		"rain" : 1,
		"cloudbase" : 2381.0064000001,
		"flyability" : 0,
		"reason" : "rain",
		"timestamp" :1556143200
		},
	"2019-04-25T02:00:00+02:00" : {
		"windSpeed" : 1,
		"windDir" : 162,
		"rain" : 1,
		"cloudbase" : 560,
		"flyability" : 0,
		"reason" : "rain, cloudbase",
		"timestamp" :1556154000
		}
	}
}