{
"site" : "Mount Nebo",
"id" : 81,
"orientations" : "00000012",
"forecasts" : { 
	"2019-04-04T18:00:00+03:00" : {
		"windSpeed" : 2.8,
		"windDir" : 331,
		"rain" : 0,
		"cloudbase" : 6620.3900000001,
		"flyability" : 100,
		"reason" : "",
		"timestamp" :1554390000
		},
	"2019-04-04T21:00:00+03:00" : {
		"windSpeed" : 0.7,
		"windDir" : 16,
		"rain" : 0,
		"cloudbase" : null,
		"flyability" : 0,
		"reason" : "windDir",
		"timestamp" :1554400800
		},
	"2019-04-05T00:00:00+03:00" : {
		"windSpeed" : 0.6,
		"windDir" : 96,
		"rain" : 1,
		"cloudbase" : null,
		"flyability" : 0,
		"reason" : "windDir, rain",
		"timestamp" :1554411600
		},
	"2019-04-05T03:00:00+03:00" : {
		"windSpeed" : 0.5,
		"windDir" : 219,
		"rain" : 1,
		"cloudbase" : null,
		"flyability" : 0,
		"reason" : "windDir, rain",
		"timestamp" :1554422400
		},
	"2019-04-05T06:00:00+03:00" : {
		"windSpeed" : 0.7,
		"windDir" : 254,
		"rain" : 0,
		"cloudbase" : null,
		"flyability" : 100,
		"reason" : "",
		"timestamp" :1554433200
		},
	"2019-04-05T09:00:00+03:00" : {
		"windSpeed" : 2,
		"windDir" : 306,
		"rain" : 0,
		"cloudbase" : null,
		"flyability" : 100,
		"reason" : "",
		"timestamp" :1554444000
		},
	"2019-04-05T12:00:00+03:00" : {
		"windSpeed" : 2.9,
		"windDir" : 282,
		"rain" : 0,
		"cloudbase" : null,
		"flyability" : 100,
		"reason" : "",
		"timestamp" :1554454800
		},
	"2019-04-05T15:00:00+03:00" : {
		"windSpeed" : 4.1,
		"windDir" : 299,
		"rain" : 0,
		"cloudbase" : 8999.2600000001,
		"flyability" : 100,
		"reason" : "",
		"timestamp" :1554465600
		},
	"2019-04-05T18:00:00+03:00" : {
		"windSpeed" : 2.2,
		"windDir" : 300,
		"rain" : 0,
		"cloudbase" : 7865.63,
		"flyability" : 100,
		"reason" : "",
		"timestamp" :1554476400
		},
	"2019-04-05T21:00:00+03:00" : {
		"windSpeed" : 1.8,
		"windDir" : 349,
		"rain" : 0,
		"cloudbase" : 7800,
		"flyability" : 0,
		"reason" : "windDir",
		"timestamp" :1554487200
		},
	"2019-04-06T00:00:00+03:00" : {
		"windSpeed" : 0.5,
		"windDir" : 61,
		"rain" : 0,
		"cloudbase" : null,
		"flyability" : 0,
		"reason" : "windDir",
		"timestamp" :1554498000
		},
	"2019-04-06T03:00:00+03:00" : {
		"windSpeed" : 1,
		"windDir" : 121,
		"rain" : 0,
		"cloudbase" : 9233.24,
		"flyability" : 0,
		"reason" : "windDir",
		"timestamp" :1554508800
		},
	"2019-04-06T06:00:00+03:00" : {
		"windSpeed" : 2.1,
		"windDir" : 108,
		"rain" : 0,
		"cloudbase" : 8286.7600000001,
		"flyability" : 0,
		"reason" : "windDir",
		"timestamp" :1554519600
		},
	"2019-04-06T09:00:00+03:00" : {
		"windSpeed" : 1,
		"windDir" : 129,
		"rain" : 0,
		"cloudbase" : 7741.5000000001,
		"flyability" : 0,
		"reason" : "windDir",
		"timestamp" :1554530400
		},
	"2019-04-06T12:00:00+03:00" : {
		"windSpeed" : 1.6,
		"windDir" : 271,
		"rain" : 0,
		"cloudbase" : 8144.1300000001,
		"flyability" : 100,
		"reason" : "",
		"timestamp" :1554541200
		},
	"2019-04-06T15:00:00+03:00" : {
		"windSpeed" : 1.9,
		"windDir" : 291,
		"rain" : 0,
		"cloudbase" : 5669.3800000009,
		"flyability" : 100,
		"reason" : "",
		"timestamp" :1554552000
		},
	"2019-04-06T18:00:00+03:00" : {
		"windSpeed" : 0.5,
		"windDir" : 307,
		"rain" : 0,
		"cloudbase" : 6733.6500000001,
		"flyability" : 100,
		"reason" : "",
		"timestamp" :1554562800
		},
	"2019-04-06T21:00:00+03:00" : {
		"windSpeed" : 1.3,
		"windDir" : 257,
		"rain" : 0,
		"cloudbase" : 5597.6799999997,
		"flyability" : 100,
		"reason" : "",
		"timestamp" :1554573600
		},
	"2019-04-07T00:00:00+03:00" : {
		"windSpeed" : 0.5,
		"windDir" : 98,
		"rain" : 1,
		"cloudbase" : 5170.0000000006,
		"flyability" : 0,
		"reason" : "windDir, rain",
		"timestamp" :1554584400
		},
	"2019-04-07T03:00:00+03:00" : {
		"windSpeed" : 2.3,
		"windDir" : 100,
		"rain" : 1,
		"cloudbase" : 4150,
		"flyability" : 0,
		"reason" : "windDir, rain",
		"timestamp" :1554595200
		},
	"2019-04-07T06:00:00+03:00" : {
		"windSpeed" : 3.5,
		"windDir" : 106,
		"rain" : 1,
		"cloudbase" : null,
		"flyability" : 0,
		"reason" : "windDir, rain",
		"timestamp" :1554606000
		},
	"2019-04-07T09:00:00+03:00" : {
		"windSpeed" : 3.2,
		"windDir" : 105,
		"rain" : 1,
		"cloudbase" : null,
		"flyability" : 0,
		"reason" : "windDir, rain",
		"timestamp" :1554616800
		},
	"2019-04-07T12:00:00+03:00" : {
		"windSpeed" : 1.1,
		"windDir" : 264,
		"rain" : 0,
		"cloudbase" : null,
		"flyability" : 100,
		"reason" : "",
		"timestamp" :1554627600
		},
	"2019-04-07T15:00:00+03:00" : {
		"windSpeed" : 2.6,
		"windDir" : 280,
		"rain" : 0,
		"cloudbase" : null,
		"flyability" : 100,
		"reason" : "",
		"timestamp" :1554638400
		},
	"2019-04-07T18:00:00+03:00" : {
		"windSpeed" : 1.9,
		"windDir" : 310,
		"rain" : 0,
		"cloudbase" : null,
		"flyability" : 100,
		"reason" : "",
		"timestamp" :1554649200
		},
	"2019-04-07T21:00:00+03:00" : {
		"windSpeed" : 0.6,
		"windDir" : 325,
		"rain" : 0,
		"cloudbase" : null,
		"flyability" : 100,
		"reason" : "",
		"timestamp" :1554660000
		},
	"2019-04-08T00:00:00+03:00" : {
		"windSpeed" : 0.5,
		"windDir" : 118,
		"rain" : 0,
		"cloudbase" : null,
		"flyability" : 0,
		"reason" : "windDir",
		"timestamp" :1554670800
		},
	"2019-04-08T03:00:00+03:00" : {
		"windSpeed" : 0.5,
		"windDir" : 311,
		"rain" : 0,
		"cloudbase" : null,
		"flyability" : 100,
		"reason" : "",
		"timestamp" :1554681600
		},
	"2019-04-08T06:00:00+03:00" : {
		"windSpeed" : 0.5,
		"windDir" : 266,
		"rain" : 0,
		"cloudbase" : null,
		"flyability" : 100,
		"reason" : "",
		"timestamp" :1554692400
		},
	"2019-04-08T09:00:00+03:00" : {
		"windSpeed" : 1.4,
		"windDir" : 301,
		"rain" : 0,
		"cloudbase" : null,
		"flyability" : 100,
		"reason" : "",
		"timestamp" :1554703200
		},
	"2019-04-08T12:00:00+03:00" : {
		"windSpeed" : 2.7,
		"windDir" : 303,
		"rain" : 0,
		"cloudbase" : null,
		"flyability" : 100,
		"reason" : "",
		"timestamp" :1554714000
		},
	"2019-04-08T15:00:00+03:00" : {
		"windSpeed" : 4.1,
		"windDir" : 298,
		"rain" : 0,
		"cloudbase" : null,
		"flyability" : 100,
		"reason" : "",
		"timestamp" :1554724800
		},
	"2019-04-08T18:00:00+03:00" : {
		"windSpeed" : 3.1,
		"windDir" : 311,
		"rain" : 0,
		"cloudbase" : null,
		"flyability" : 100,
		"reason" : "",
		"timestamp" :1554735600
		},
	"2019-04-08T21:00:00+03:00" : {
		"windSpeed" : 2.2,
		"windDir" : 6,
		"rain" : 0,
		"cloudbase" : null,
		"flyability" : 0,
		"reason" : "windDir",
		"timestamp" :1554746400
		},
	"2019-04-09T00:00:00+03:00" : {
		"windSpeed" : 1.2,
		"windDir" : 351,
		"rain" : 0,
		"cloudbase" : null,
		"flyability" : 0,
		"reason" : "windDir",
		"timestamp" :1554757200
		},
	"2019-04-09T03:00:00+03:00" : {
		"windSpeed" : 0.5,
		"windDir" : 345,
		"rain" : 0,
		"cloudbase" : null,
		"flyability" : 0,
		"reason" : "windDir",
		"timestamp" :1554768000
		},
	"2019-04-09T06:00:00+03:00" : {
		"windSpeed" : 0.1,
		"windDir" : 277,
		"rain" : 0,
		"cloudbase" : null,
		"flyability" : 100,
		"reason" : "",
		"timestamp" :1554778800
		},
	"2019-04-09T09:00:00+03:00" : {
		"windSpeed" : 0.9,
		"windDir" : 286,
		"rain" : 0,
		"cloudbase" : null,
		"flyability" : 100,
		"reason" : "",
		"timestamp" :1554789600
		},
	"2019-04-09T12:00:00+03:00" : {
		"windSpeed" : 3.1,
		"windDir" : 279,
		"rain" : 0,
		"cloudbase" : null,
		"flyability" : 100,
		"reason" : "",
		"timestamp" :1554800400
		},
	"2019-04-09T15:00:00+03:00" : {
		"windSpeed" : 3.7,
		"windDir" : 290,
		"rain" : 0,
		"cloudbase" : null,
		"flyability" : 100,
		"reason" : "",
		"timestamp" :1554811200
		},
	"2019-04-09T18:00:00+03:00" : {
		"windSpeed" : 2.6,
		"windDir" : 321,
		"rain" : 0,
		"cloudbase" : null,
		"flyability" : 100,
		"reason" : "",
		"timestamp" :1554822000
		},
	"2019-04-09T21:00:00+03:00" : {
		"windSpeed" : 1.7,
		"windDir" : 4,
		"rain" : 0,
		"cloudbase" : null,
		"flyability" : 0,
		"reason" : "windDir",
		"timestamp" :1554832800
		},
	"2019-04-10T00:00:00+03:00" : {
		"windSpeed" : 0.4,
		"windDir" : 215,
		"rain" : 0,
		"cloudbase" : null,
		"flyability" : 0,
		"reason" : "windDir",
		"timestamp" :1554843600
		},
	"2019-04-10T03:00:00+03:00" : {
		"windSpeed" : 1.6,
		"windDir" : 344,
		"rain" : 0,
		"cloudbase" : null,
		"flyability" : 0,
		"reason" : "windDir",
		"timestamp" :1554854400
		},
	"2019-04-10T06:00:00+03:00" : {
		"windSpeed" : 1.3,
		"windDir" : 300,
		"rain" : 0,
		"cloudbase" : null,
		"flyability" : 100,
		"reason" : "",
		"timestamp" :1554865200
		},
	"2019-04-10T09:00:00+03:00" : {
		"windSpeed" : 2.4,
		"windDir" : 315,
		"rain" : 0,
		"cloudbase" : null,
		"flyability" : 100,
		"reason" : "",
		"timestamp" :1554876000
		},
	"2019-04-10T12:00:00+03:00" : {
		"windSpeed" : 3.3,
		"windDir" : 287,
		"rain" : 0,
		"cloudbase" : null,
		"flyability" : 100,
		"reason" : "",
		"timestamp" :1554886800
		},
	"2019-04-10T15:00:00+03:00" : {
		"windSpeed" : 3.2,
		"windDir" : 292,
		"rain" : 0,
		"cloudbase" : null,
		"flyability" : 100,
		"reason" : "",
		"timestamp" :1554897600
		}
	}
}