{
"site" : "Siegritz",
"id" : 8703,
"orientations" : "00000000",
"forecasts" : { 
	"2019-04-10T05:00:00+02:00" : {
		"windSpeed" : 4.5,
		"windDir" : 60,
		"rain" : 0,
		"cloudbase" : 2132.275,
		"flyability" : -50,
		"reason" : "orientationsUnknown",
		"timestamp" :1554868800
		},
	"2019-04-10T08:00:00+02:00" : {
		"windSpeed" : 4.4,
		"windDir" : 59,
		"rain" : 0,
		"cloudbase" : 5516.4249999999,
		"flyability" : -50,
		"reason" : "orientationsUnknown",
		"timestamp" :1554879600
		},
	"2019-04-10T11:00:00+02:00" : {
		"windSpeed" : 4.4,
		"windDir" : 48,
		"rain" : 0,
		"cloudbase" : 2584.4399999999,
		"flyability" : -50,
		"reason" : "orientationsUnknown",
		"timestamp" :1554890400
		},
	"2019-04-10T14:00:00+02:00" : {
		"windSpeed" : 4.8,
		"windDir" : 43,
		"rain" : 0,
		"cloudbase" : 1940.945,
		"flyability" : -50,
		"reason" : "orientationsUnknown",
		"timestamp" :1554901200
		},
	"2019-04-10T17:00:00+02:00" : {
		"windSpeed" : 4.8,
		"windDir" : 28,
		"rain" : 0,
		"cloudbase" : 2047.445,
		"flyability" : -50,
		"reason" : "orientationsUnknown",
		"timestamp" :1554912000
		},
	"2019-04-10T20:00:00+02:00" : {
		"windSpeed" : 5.5,
		"windDir" : 39,
		"rain" : 0,
		"cloudbase" : 1850.835,
		"flyability" : -0,
		"reason" : "windSpeed, orientationsUnknown",
		"timestamp" :1554922800
		},
	"2019-04-10T23:00:00+02:00" : {
		"windSpeed" : 5.2,
		"windDir" : 54,
		"rain" : 0,
		"cloudbase" : null,
		"flyability" : -0,
		"reason" : "windSpeed, orientationsUnknown",
		"timestamp" :1554933600
		},
	"2019-04-11T02:00:00+02:00" : {
		"windSpeed" : 4.5,
		"windDir" : 56,
		"rain" : 0,
		"cloudbase" : null,
		"flyability" : -50,
		"reason" : "orientationsUnknown",
		"timestamp" :1554944400
		},
	"2019-04-11T05:00:00+02:00" : {
		"windSpeed" : 4.6,
		"windDir" : 49,
		"rain" : 0,
		"cloudbase" : 8740.89,
		"flyability" : -50,
		"reason" : "orientationsUnknown",
		"timestamp" :1554955200
		},
	"2019-04-11T08:00:00+02:00" : {
		"windSpeed" : 4.6,
		"windDir" : 48,
		"rain" : 0,
		"cloudbase" : null,
		"flyability" : -50,
		"reason" : "orientationsUnknown",
		"timestamp" :1554966000
		},
	"2019-04-11T11:00:00+02:00" : {
		"windSpeed" : 4.9,
		"windDir" : 45,
		"rain" : 0,
		"cloudbase" : 9300,
		"flyability" : -50,
		"reason" : "orientationsUnknown",
		"timestamp" :1554976800
		},
	"2019-04-11T14:00:00+02:00" : {
		"windSpeed" : 4.3,
		"windDir" : 50,
		"rain" : 0,
		"cloudbase" : 8472.4500000002,
		"flyability" : -50,
		"reason" : "orientationsUnknown",
		"timestamp" :1554987600
		},
	"2019-04-11T17:00:00+02:00" : {
		"windSpeed" : 4.8,
		"windDir" : 43,
		"rain" : 0,
		"cloudbase" : 1597,
		"flyability" : -50,
		"reason" : "orientationsUnknown",
		"timestamp" :1554998400
		},
	"2019-04-11T20:00:00+02:00" : {
		"windSpeed" : 5,
		"windDir" : 36,
		"rain" : 0,
		"cloudbase" : 8800,
		"flyability" : -50,
		"reason" : "orientationsUnknown",
		"timestamp" :1555009200
		},
	"2019-04-11T23:00:00+02:00" : {
		"windSpeed" : 4.9,
		"windDir" : 52,
		"rain" : 0,
		"cloudbase" : null,
		"flyability" : -50,
		"reason" : "orientationsUnknown",
		"timestamp" :1555020000
		},
	"2019-04-12T02:00:00+02:00" : {
		"windSpeed" : 3.7,
		"windDir" : 53,
		"rain" : 0,
		"cloudbase" : null,
		"flyability" : -50,
		"reason" : "orientationsUnknown",
		"timestamp" :1555030800
		},
	"2019-04-12T05:00:00+02:00" : {
		"windSpeed" : 3.9,
		"windDir" : 50,
		"rain" : 0,
		"cloudbase" : null,
		"flyability" : -50,
		"reason" : "orientationsUnknown",
		"timestamp" :1555041600
		},
	"2019-04-12T08:00:00+02:00" : {
		"windSpeed" : 3.6,
		"windDir" : 56,
		"rain" : 0,
		"cloudbase" : null,
		"flyability" : -50,
		"reason" : "orientationsUnknown",
		"timestamp" :1555052400
		},
	"2019-04-12T11:00:00+02:00" : {
		"windSpeed" : 3.4,
		"windDir" : 63,
		"rain" : 0,
		"cloudbase" : 1263.945,
		"flyability" : -50,
		"reason" : "orientationsUnknown",
		"timestamp" :1555063200
		},
	"2019-04-12T14:00:00+02:00" : {
		"windSpeed" : 3,
		"windDir" : 48,
		"rain" : 0,
		"cloudbase" : 1297,
		"flyability" : -50,
		"reason" : "orientationsUnknown",
		"timestamp" :1555074000
		},
	"2019-04-12T17:00:00+02:00" : {
		"windSpeed" : 3.4,
		"windDir" : 36,
		"rain" : 0,
		"cloudbase" : 1370.445,
		"flyability" : -50,
		"reason" : "orientationsUnknown",
		"timestamp" :1555084800
		},
	"2019-04-12T20:00:00+02:00" : {
		"windSpeed" : 4.3,
		"windDir" : 35,
		"rain" : 0,
		"cloudbase" : 1343.945,
		"flyability" : -50,
		"reason" : "orientationsUnknown",
		"timestamp" :1555095600
		},
	"2019-04-12T23:00:00+02:00" : {
		"windSpeed" : 3.7,
		"windDir" : 42,
		"rain" : 0,
		"cloudbase" : 1500,
		"flyability" : -50,
		"reason" : "orientationsUnknown",
		"timestamp" :1555106400
		},
	"2019-04-13T02:00:00+02:00" : {
		"windSpeed" : 3.3,
		"windDir" : 47,
		"rain" : 0,
		"cloudbase" : 1513.61,
		"flyability" : -50,
		"reason" : "orientationsUnknown",
		"timestamp" :1555117200
		},
	"2019-04-13T05:00:00+02:00" : {
		"windSpeed" : 2.9,
		"windDir" : 59,
		"rain" : 0,
		"cloudbase" : 1513.555,
		"flyability" : -50,
		"reason" : "orientationsUnknown",
		"timestamp" :1555128000
		},
	"2019-04-13T08:00:00+02:00" : {
		"windSpeed" : 2.9,
		"windDir" : 59,
		"rain" : 0,
		"cloudbase" : 1493.61,
		"flyability" : -50,
		"reason" : "orientationsUnknown",
		"timestamp" :1555138800
		},
	"2019-04-13T11:00:00+02:00" : {
		"windSpeed" : 2.8,
		"windDir" : 46,
		"rain" : 0,
		"cloudbase" : 1521.335,
		"flyability" : -50,
		"reason" : "orientationsUnknown",
		"timestamp" :1555149600
		},
	"2019-04-13T14:00:00+02:00" : {
		"windSpeed" : 3.5,
		"windDir" : 66,
		"rain" : 0,
		"cloudbase" : 1076.945,
		"flyability" : -50,
		"reason" : "orientationsUnknown",
		"timestamp" :1555160400
		},
	"2019-04-13T17:00:00+02:00" : {
		"windSpeed" : 3,
		"windDir" : 41,
		"rain" : 0,
		"cloudbase" : 1523.5,
		"flyability" : -50,
		"reason" : "orientationsUnknown",
		"timestamp" :1555171200
		},
	"2019-04-13T20:00:00+02:00" : {
		"windSpeed" : 3.9,
		"windDir" : 44,
		"rain" : 0,
		"cloudbase" : 1320.5,
		"flyability" : -50,
		"reason" : "orientationsUnknown",
		"timestamp" :1555182000
		},
	"2019-04-13T23:00:00+02:00" : {
		"windSpeed" : 4.2,
		"windDir" : 45,
		"rain" : 0,
		"cloudbase" : 1205.28,
		"flyability" : -50,
		"reason" : "orientationsUnknown",
		"timestamp" :1555192800
		},
	"2019-04-14T02:00:00+02:00" : {
		"windSpeed" : 3.7,
		"windDir" : 41,
		"rain" : 0,
		"cloudbase" : 2471.94,
		"flyability" : -50,
		"reason" : "orientationsUnknown",
		"timestamp" :1555203600
		},
	"2019-04-14T05:00:00+02:00" : {
		"windSpeed" : 3.3,
		"windDir" : 38,
		"rain" : 0,
		"cloudbase" : 711.20900000002,
		"flyability" : -50,
		"reason" : "orientationsUnknown",
		"timestamp" :1555214400
		},
	"2019-04-14T08:00:00+02:00" : {
		"windSpeed" : 4.2,
		"windDir" : 45,
		"rain" : 0,
		"cloudbase" : 330.511,
		"flyability" : -0,
		"reason" : "orientationsUnknown, cloudbase",
		"timestamp" :1555225200
		},
	"2019-04-14T11:00:00+02:00" : {
		"windSpeed" : 3.4,
		"windDir" : 48,
		"rain" : 0,
		"cloudbase" : 516.378,
		"flyability" : -50,
		"reason" : "orientationsUnknown",
		"timestamp" :1555236000
		},
	"2019-04-14T14:00:00+02:00" : {
		"windSpeed" : 4.6,
		"windDir" : 60,
		"rain" : 1,
		"cloudbase" : 601.778,
		"flyability" : -0,
		"reason" : "orientationsUnknown, rain",
		"timestamp" :1555246800
		},
	"2019-04-14T17:00:00+02:00" : {
		"windSpeed" : 4.6,
		"windDir" : 61,
		"rain" : 0,
		"cloudbase" : 769.89,
		"flyability" : -50,
		"reason" : "orientationsUnknown",
		"timestamp" :1555257600
		},
	"2019-04-14T20:00:00+02:00" : {
		"windSpeed" : 4.6,
		"windDir" : 45,
		"rain" : 0,
		"cloudbase" : 1252.39,
		"flyability" : -50,
		"reason" : "orientationsUnknown",
		"timestamp" :1555268400
		},
	"2019-04-14T23:00:00+02:00" : {
		"windSpeed" : 3.7,
		"windDir" : 47,
		"rain" : 0,
		"cloudbase" : 8198.89,
		"flyability" : -50,
		"reason" : "orientationsUnknown",
		"timestamp" :1555279200
		},
	"2019-04-15T02:00:00+02:00" : {
		"windSpeed" : 3.9,
		"windDir" : 50,
		"rain" : 0,
		"cloudbase" : 7300,
		"flyability" : -50,
		"reason" : "orientationsUnknown",
		"timestamp" :1555290000
		},
	"2019-04-15T05:00:00+02:00" : {
		"windSpeed" : 4.2,
		"windDir" : 54,
		"rain" : 0,
		"cloudbase" : 7346.11,
		"flyability" : -50,
		"reason" : "orientationsUnknown",
		"timestamp" :1555300800
		},
	"2019-04-15T08:00:00+02:00" : {
		"windSpeed" : 4.1,
		"windDir" : 64,
		"rain" : 0,
		"cloudbase" : null,
		"flyability" : -50,
		"reason" : "orientationsUnknown",
		"timestamp" :1555311600
		},
	"2019-04-15T11:00:00+02:00" : {
		"windSpeed" : 5,
		"windDir" : 84,
		"rain" : 0,
		"cloudbase" : 1200,
		"flyability" : -50,
		"reason" : "orientationsUnknown",
		"timestamp" :1555322400
		},
	"2019-04-15T14:00:00+02:00" : {
		"windSpeed" : 4.1,
		"windDir" : 79,
		"rain" : 0,
		"cloudbase" : 1520.445,
		"flyability" : -50,
		"reason" : "orientationsUnknown",
		"timestamp" :1555333200
		},
	"2019-04-15T17:00:00+02:00" : {
		"windSpeed" : 4.4,
		"windDir" : 77,
		"rain" : 0,
		"cloudbase" : 1743.555,
		"flyability" : -50,
		"reason" : "orientationsUnknown",
		"timestamp" :1555344000
		},
	"2019-04-15T20:00:00+02:00" : {
		"windSpeed" : 3,
		"windDir" : 84,
		"rain" : 0,
		"cloudbase" : null,
		"flyability" : -50,
		"reason" : "orientationsUnknown",
		"timestamp" :1555354800
		},
	"2019-04-15T23:00:00+02:00" : {
		"windSpeed" : 4.1,
		"windDir" : 76,
		"rain" : 0,
		"cloudbase" : null,
		"flyability" : -50,
		"reason" : "orientationsUnknown",
		"timestamp" :1555365600
		},
	"2019-04-16T02:00:00+02:00" : {
		"windSpeed" : 4,
		"windDir" : 90,
		"rain" : 0,
		"cloudbase" : null,
		"flyability" : -50,
		"reason" : "orientationsUnknown",
		"timestamp" :1555376400
		}
	}
}