{
"site" : "Cerdal PPD",
"id" : 9799,
"orientations" : "10000122",
"forecasts" : { 
	"2019-04-09T04:00:00+01:00" : {
		"windSpeed" : 3.3,
		"windDir" : 203,
		"rain" : 1,
		"cloudbase" : 326.092,
		"flyability" : 0,
		"reason" : "rain, cloudbase",
		"timestamp" :1554775200
		},
	"2019-04-09T07:00:00+01:00" : {
		"windSpeed" : 1.8,
		"windDir" : 293,
		"rain" : 1,
		"cloudbase" : 682.45599999996,
		"flyability" : 0,
		"reason" : "rain",
		"timestamp" :1554786000
		},
	"2019-04-09T10:00:00+01:00" : {
		"windSpeed" : 1.4,
		"windDir" : 211,
		"rain" : 1,
		"cloudbase" : 812.32000000005,
		"flyability" : 0,
		"reason" : "rain",
		"timestamp" :1554796800
		},
	"2019-04-09T13:00:00+01:00" : {
		"windSpeed" : 5,
		"windDir" : 254,
		"rain" : 1,
		"cloudbase" : 700,
		"flyability" : 0,
		"reason" : "rain",
		"timestamp" :1554807600
		},
	"2019-04-09T16:00:00+01:00" : {
		"windSpeed" : 3.9,
		"windDir" : 244,
		"rain" : 1,
		"cloudbase" : 156.176,
		"flyability" : 0,
		"reason" : "rain, cloudbase",
		"timestamp" :1554818400
		},
	"2019-04-09T19:00:00+01:00" : {
		"windSpeed" : 3.3,
		"windDir" : 275,
		"rain" : 1,
		"cloudbase" : 413.96400000002,
		"flyability" : 0,
		"reason" : "rain, cloudbase",
		"timestamp" :1554829200
		},
	"2019-04-09T22:00:00+01:00" : {
		"windSpeed" : 2.9,
		"windDir" : 281,
		"rain" : 1,
		"cloudbase" : 468.38800000002,
		"flyability" : 0,
		"reason" : "rain, cloudbase",
		"timestamp" :1554840000
		},
	"2019-04-10T01:00:00+01:00" : {
		"windSpeed" : 3.1,
		"windDir" : 284,
		"rain" : 1,
		"cloudbase" : 321.48600000001,
		"flyability" : 0,
		"reason" : "rain, cloudbase",
		"timestamp" :1554850800
		},
	"2019-04-10T04:00:00+01:00" : {
		"windSpeed" : 3.8,
		"windDir" : 306,
		"rain" : 1,
		"cloudbase" : 453.24600000002,
		"flyability" : 0,
		"reason" : "rain, cloudbase",
		"timestamp" :1554861600
		},
	"2019-04-10T07:00:00+01:00" : {
		"windSpeed" : 2,
		"windDir" : 308,
		"rain" : 1,
		"cloudbase" : 91.406000000008,
		"flyability" : 0,
		"reason" : "rain, cloudbase",
		"timestamp" :1554872400
		},
	"2019-04-10T10:00:00+01:00" : {
		"windSpeed" : 2,
		"windDir" : 339,
		"rain" : 1,
		"cloudbase" : 130,
		"flyability" : 0,
		"reason" : "rain, cloudbase",
		"timestamp" :1554883200
		},
	"2019-04-10T13:00:00+01:00" : {
		"windSpeed" : 3.5,
		"windDir" : 323,
		"rain" : 1,
		"cloudbase" : 330,
		"flyability" : 0,
		"reason" : "rain, cloudbase",
		"timestamp" :1554894000
		},
	"2019-04-10T16:00:00+01:00" : {
		"windSpeed" : 4.8,
		"windDir" : 321,
		"rain" : 1,
		"cloudbase" : null,
		"flyability" : 0,
		"reason" : "rain",
		"timestamp" :1554904800
		},
	"2019-04-10T19:00:00+01:00" : {
		"windSpeed" : 3.6,
		"windDir" : 327,
		"rain" : 1,
		"cloudbase" : 700,
		"flyability" : 0,
		"reason" : "rain",
		"timestamp" :1554915600
		},
	"2019-04-10T22:00:00+01:00" : {
		"windSpeed" : 2.1,
		"windDir" : 333,
		"rain" : 0,
		"cloudbase" : null,
		"flyability" : 100,
		"reason" : "",
		"timestamp" :1554926400
		},
	"2019-04-11T01:00:00+01:00" : {
		"windSpeed" : 1.6,
		"windDir" : 6,
		"rain" : 1,
		"cloudbase" : null,
		"flyability" : 0,
		"reason" : "rain",
		"timestamp" :1554937200
		},
	"2019-04-11T04:00:00+01:00" : {
		"windSpeed" : 1.6,
		"windDir" : 37,
		"rain" : 1,
		"cloudbase" : 30,
		"flyability" : 0,
		"reason" : "windDir, rain, cloudbase",
		"timestamp" :1554948000
		},
	"2019-04-11T07:00:00+01:00" : {
		"windSpeed" : 1.4,
		"windDir" : 46,
		"rain" : 1,
		"cloudbase" : 3050,
		"flyability" : 0,
		"reason" : "windDir, rain",
		"timestamp" :1554958800
		},
	"2019-04-11T10:00:00+01:00" : {
		"windSpeed" : 1.6,
		"windDir" : 34,
		"rain" : 1,
		"cloudbase" : null,
		"flyability" : 0,
		"reason" : "windDir, rain",
		"timestamp" :1554969600
		},
	"2019-04-11T13:00:00+01:00" : {
		"windSpeed" : 2,
		"windDir" : 338,
		"rain" : 0,
		"cloudbase" : null,
		"flyability" : 100,
		"reason" : "",
		"timestamp" :1554980400
		},
	"2019-04-11T16:00:00+01:00" : {
		"windSpeed" : 3.1,
		"windDir" : 324,
		"rain" : 1,
		"cloudbase" : 7977.0400000001,
		"flyability" : 0,
		"reason" : "rain",
		"timestamp" :1554991200
		},
	"2019-04-11T19:00:00+01:00" : {
		"windSpeed" : 2.9,
		"windDir" : 319,
		"rain" : 0,
		"cloudbase" : 6812.0000000001,
		"flyability" : 100,
		"reason" : "",
		"timestamp" :1555002000
		},
	"2019-04-11T22:00:00+01:00" : {
		"windSpeed" : 1,
		"windDir" : 353,
		"rain" : 1,
		"cloudbase" : 6883.2800000002,
		"flyability" : 0,
		"reason" : "rain",
		"timestamp" :1555012800
		},
	"2019-04-12T01:00:00+01:00" : {
		"windSpeed" : 1.6,
		"windDir" : 61,
		"rain" : 1,
		"cloudbase" : 5956.94,
		"flyability" : 0,
		"reason" : "windDir, rain",
		"timestamp" :1555023600
		},
	"2019-04-12T04:00:00+01:00" : {
		"windSpeed" : 1,
		"windDir" : 64,
		"rain" : 0,
		"cloudbase" : null,
		"flyability" : 0,
		"reason" : "windDir",
		"timestamp" :1555034400
		},
	"2019-04-12T07:00:00+01:00" : {
		"windSpeed" : 1,
		"windDir" : 67,
		"rain" : 0,
		"cloudbase" : null,
		"flyability" : 0,
		"reason" : "windDir",
		"timestamp" :1555045200
		},
	"2019-04-12T10:00:00+01:00" : {
		"windSpeed" : 0.6,
		"windDir" : 350,
		"rain" : 0,
		"cloudbase" : null,
		"flyability" : 100,
		"reason" : "",
		"timestamp" :1555056000
		},
	"2019-04-12T13:00:00+01:00" : {
		"windSpeed" : 1.6,
		"windDir" : 342,
		"rain" : 0,
		"cloudbase" : null,
		"flyability" : 100,
		"reason" : "",
		"timestamp" :1555066800
		},
	"2019-04-12T16:00:00+01:00" : {
		"windSpeed" : 2.8,
		"windDir" : 319,
		"rain" : 0,
		"cloudbase" : null,
		"flyability" : 100,
		"reason" : "",
		"timestamp" :1555077600
		},
	"2019-04-12T19:00:00+01:00" : {
		"windSpeed" : 2.2,
		"windDir" : 321,
		"rain" : 0,
		"cloudbase" : null,
		"flyability" : 100,
		"reason" : "",
		"timestamp" :1555088400
		},
	"2019-04-12T22:00:00+01:00" : {
		"windSpeed" : 1.5,
		"windDir" : 329,
		"rain" : 1,
		"cloudbase" : 8294.06,
		"flyability" : 0,
		"reason" : "rain",
		"timestamp" :1555099200
		},
	"2019-04-13T01:00:00+01:00" : {
		"windSpeed" : 0.5,
		"windDir" : 316,
		"rain" : 1,
		"cloudbase" : 8000,
		"flyability" : 0,
		"reason" : "rain",
		"timestamp" :1555110000
		},
	"2019-04-13T04:00:00+01:00" : {
		"windSpeed" : 0.4,
		"windDir" : 160,
		"rain" : 1,
		"cloudbase" : null,
		"flyability" : 0,
		"reason" : "windDir, rain",
		"timestamp" :1555120800
		},
	"2019-04-13T07:00:00+01:00" : {
		"windSpeed" : 1,
		"windDir" : 170,
		"rain" : 1,
		"cloudbase" : null,
		"flyability" : 0,
		"reason" : "windDir, rain",
		"timestamp" :1555131600
		},
	"2019-04-13T10:00:00+01:00" : {
		"windSpeed" : 1.1,
		"windDir" : 173,
		"rain" : 0,
		"cloudbase" : null,
		"flyability" : 0,
		"reason" : "windDir",
		"timestamp" :1555142400
		},
	"2019-04-13T13:00:00+01:00" : {
		"windSpeed" : 1.8,
		"windDir" : 231,
		"rain" : 0,
		"cloudbase" : null,
		"flyability" : 100,
		"reason" : "",
		"timestamp" :1555153200
		},
	"2019-04-13T16:00:00+01:00" : {
		"windSpeed" : 2.9,
		"windDir" : 259,
		"rain" : 0,
		"cloudbase" : 2639,
		"flyability" : 100,
		"reason" : "",
		"timestamp" :1555164000
		},
	"2019-04-13T19:00:00+01:00" : {
		"windSpeed" : 2.3,
		"windDir" : 260,
		"rain" : 0,
		"cloudbase" : null,
		"flyability" : 100,
		"reason" : "",
		"timestamp" :1555174800
		},
	"2019-04-13T22:00:00+01:00" : {
		"windSpeed" : 0.9,
		"windDir" : 158,
		"rain" : 0,
		"cloudbase" : 10865,
		"flyability" : 0,
		"reason" : "windDir",
		"timestamp" :1555185600
		},
	"2019-04-14T01:00:00+01:00" : {
		"windSpeed" : 1.6,
		"windDir" : 157,
		"rain" : 0,
		"cloudbase" : 4651.3399999988,
		"flyability" : 0,
		"reason" : "windDir",
		"timestamp" :1555196400
		},
	"2019-04-14T04:00:00+01:00" : {
		"windSpeed" : 1.6,
		"windDir" : 168,
		"rain" : 0,
		"cloudbase" : 325.09999999999,
		"flyability" : 0,
		"reason" : "windDir, cloudbase",
		"timestamp" :1555207200
		},
	"2019-04-14T07:00:00+01:00" : {
		"windSpeed" : 1.9,
		"windDir" : 169,
		"rain" : 0,
		"cloudbase" : 316.31199999999,
		"flyability" : 0,
		"reason" : "windDir, cloudbase",
		"timestamp" :1555218000
		},
	"2019-04-14T10:00:00+01:00" : {
		"windSpeed" : 3.4,
		"windDir" : 169,
		"rain" : 0,
		"cloudbase" : 745.10200000001,
		"flyability" : 0,
		"reason" : "windDir",
		"timestamp" :1555228800
		},
	"2019-04-14T13:00:00+01:00" : {
		"windSpeed" : 3.5,
		"windDir" : 178,
		"rain" : 0,
		"cloudbase" : 639.424,
		"flyability" : 0,
		"reason" : "windDir",
		"timestamp" :1555239600
		},
	"2019-04-14T16:00:00+01:00" : {
		"windSpeed" : 4.2,
		"windDir" : 202,
		"rain" : 0,
		"cloudbase" : 632.26799999998,
		"flyability" : 0,
		"reason" : "windDir",
		"timestamp" :1555250400
		},
	"2019-04-14T19:00:00+01:00" : {
		"windSpeed" : 3.6,
		"windDir" : 200,
		"rain" : 0,
		"cloudbase" : 1066.4140000001,
		"flyability" : 0,
		"reason" : "windDir",
		"timestamp" :1555261200
		},
	"2019-04-14T22:00:00+01:00" : {
		"windSpeed" : 2.5,
		"windDir" : 174,
		"rain" : 1,
		"cloudbase" : 190.79499999999,
		"flyability" : 0,
		"reason" : "windDir, rain, cloudbase",
		"timestamp" :1555272000
		},
	"2019-04-15T01:00:00+01:00" : {
		"windSpeed" : 3.5,
		"windDir" : 176,
		"rain" : 1,
		"cloudbase" : 325.93799999997,
		"flyability" : 0,
		"reason" : "windDir, rain, cloudbase",
		"timestamp" :1555282800
		}
	}
}