{
"site" : "Polvoeira",
"id" : 9819,
"orientations" : "00000210",
"forecasts" : { 
	"2019-04-20T16:00:00+01:00" : {
		"windSpeed" : 5.5,
		"windDir" : 343,
		"rain" : 0,
		"cloudbase" : null,
		"flyability" : 0,
		"reason" : "windSpeed, windDir",
		"timestamp" :1555768800
		},
	"2019-04-20T19:00:00+01:00" : {
		"windSpeed" : 4.3,
		"windDir" : 343,
		"rain" : 0,
		"cloudbase" : null,
		"flyability" : 0,
		"reason" : "windDir",
		"timestamp" :1555779600
		},
	"2019-04-20T22:00:00+01:00" : {
		"windSpeed" : 2.5,
		"windDir" : 21,
		"rain" : 0,
		"cloudbase" : null,
		"flyability" : 0,
		"reason" : "windDir",
		"timestamp" :1555790400
		},
	"2019-04-21T01:00:00+01:00" : {
		"windSpeed" : 3.6,
		"windDir" : 150,
		"rain" : 0,
		"cloudbase" : null,
		"flyability" : 0,
		"reason" : "windDir",
		"timestamp" :1555801200
		},
	"2019-04-21T04:00:00+01:00" : {
		"windSpeed" : 4.1,
		"windDir" : 133,
		"rain" : 0,
		"cloudbase" : null,
		"flyability" : 0,
		"reason" : "windDir",
		"timestamp" :1555812000
		},
	"2019-04-21T07:00:00+01:00" : {
		"windSpeed" : 3.3,
		"windDir" : 45,
		"rain" : 0,
		"cloudbase" : null,
		"flyability" : 0,
		"reason" : "windDir",
		"timestamp" :1555822800
		},
	"2019-04-21T10:00:00+01:00" : {
		"windSpeed" : 3.5,
		"windDir" : 18,
		"rain" : 0,
		"cloudbase" : null,
		"flyability" : 0,
		"reason" : "windDir",
		"timestamp" :1555833600
		},
	"2019-04-21T13:00:00+01:00" : {
		"windSpeed" : 5.9,
		"windDir" : 337,
		"rain" : 0,
		"cloudbase" : null,
		"flyability" : 0,
		"reason" : "windSpeed, windDir",
		"timestamp" :1555844400
		},
	"2019-04-21T16:00:00+01:00" : {
		"windSpeed" : 6.6,
		"windDir" : 355,
		"rain" : 0,
		"cloudbase" : null,
		"flyability" : 0,
		"reason" : "windSpeed, windDir",
		"timestamp" :1555855200
		},
	"2019-04-21T19:00:00+01:00" : {
		"windSpeed" : 6.2,
		"windDir" : 350,
		"rain" : 0,
		"cloudbase" : null,
		"flyability" : 0,
		"reason" : "windSpeed, windDir",
		"timestamp" :1555866000
		},
	"2019-04-21T22:00:00+01:00" : {
		"windSpeed" : 3.7,
		"windDir" : 350,
		"rain" : 0,
		"cloudbase" : null,
		"flyability" : 0,
		"reason" : "windDir",
		"timestamp" :1555876800
		},
	"2019-04-22T01:00:00+01:00" : {
		"windSpeed" : 2.9,
		"windDir" : 343,
		"rain" : 0,
		"cloudbase" : null,
		"flyability" : 0,
		"reason" : "windDir",
		"timestamp" :1555887600
		},
	"2019-04-22T04:00:00+01:00" : {
		"windSpeed" : 3.1,
		"windDir" : 313,
		"rain" : 0,
		"cloudbase" : null,
		"flyability" : 0,
		"reason" : "windDir",
		"timestamp" :1555898400
		},
	"2019-04-22T07:00:00+01:00" : {
		"windSpeed" : 3.1,
		"windDir" : 318,
		"rain" : 0,
		"cloudbase" : null,
		"flyability" : 0,
		"reason" : "windDir",
		"timestamp" :1555909200
		},
	"2019-04-22T10:00:00+01:00" : {
		"windSpeed" : 4.3,
		"windDir" : 290,
		"rain" : 0,
		"cloudbase" : 620,
		"flyability" : 100,
		"reason" : "",
		"timestamp" :1555920000
		},
	"2019-04-22T13:00:00+01:00" : {
		"windSpeed" : 5,
		"windDir" : 285,
		"rain" : 0,
		"cloudbase" : 3758.9150240012,
		"flyability" : 100,
		"reason" : "",
		"timestamp" :1555930800
		},
	"2019-04-22T16:00:00+01:00" : {
		"windSpeed" : 5.6,
		"windDir" : 265,
		"rain" : 0,
		"cloudbase" : 5128.2145700001,
		"flyability" : 0,
		"reason" : "windSpeed",
		"timestamp" :1555941600
		},
	"2019-04-22T19:00:00+01:00" : {
		"windSpeed" : 5.9,
		"windDir" : 231,
		"rain" : 1,
		"cloudbase" : 987.58269000005,
		"flyability" : 0,
		"reason" : "windSpeed, rain",
		"timestamp" :1555952400
		},
	"2019-04-22T22:00:00+01:00" : {
		"windSpeed" : 7.3,
		"windDir" : 306,
		"rain" : 1,
		"cloudbase" : 1507.62,
		"flyability" : 0,
		"reason" : "windSpeed, windDir, rain",
		"timestamp" :1555963200
		},
	"2019-04-23T01:00:00+01:00" : {
		"windSpeed" : 8.1,
		"windDir" : 290,
		"rain" : 1,
		"cloudbase" : 3000,
		"flyability" : 0,
		"reason" : "windSpeed, rain",
		"timestamp" :1555974000
		},
	"2019-04-23T04:00:00+01:00" : {
		"windSpeed" : 7.2,
		"windDir" : 278,
		"rain" : 1,
		"cloudbase" : null,
		"flyability" : 0,
		"reason" : "windSpeed, rain",
		"timestamp" :1555984800
		},
	"2019-04-23T07:00:00+01:00" : {
		"windSpeed" : 8.3,
		"windDir" : 293,
		"rain" : 1,
		"cloudbase" : 5314.509645,
		"flyability" : 0,
		"reason" : "windSpeed, windDir, rain",
		"timestamp" :1555995600
		},
	"2019-04-23T10:00:00+01:00" : {
		"windSpeed" : 9.1,
		"windDir" : 307,
		"rain" : 1,
		"cloudbase" : 5942.3603050001,
		"flyability" : 0,
		"reason" : "windSpeed, windDir, rain",
		"timestamp" :1556006400
		},
	"2019-04-23T13:00:00+01:00" : {
		"windSpeed" : 6.3,
		"windDir" : 292,
		"rain" : 1,
		"cloudbase" : null,
		"flyability" : 0,
		"reason" : "windSpeed, rain",
		"timestamp" :1556017200
		},
	"2019-04-23T16:00:00+01:00" : {
		"windSpeed" : 6.8,
		"windDir" : 279,
		"rain" : 1,
		"cloudbase" : null,
		"flyability" : 0,
		"reason" : "windSpeed, rain",
		"timestamp" :1556028000
		},
	"2019-04-23T19:00:00+01:00" : {
		"windSpeed" : 6.4,
		"windDir" : 275,
		"rain" : 1,
		"cloudbase" : 6400,
		"flyability" : 0,
		"reason" : "windSpeed, rain",
		"timestamp" :1556038800
		},
	"2019-04-23T22:00:00+01:00" : {
		"windSpeed" : 4.7,
		"windDir" : 289,
		"rain" : 1,
		"cloudbase" : 1215.5591890001,
		"flyability" : 0,
		"reason" : "rain",
		"timestamp" :1556049600
		},
	"2019-04-24T01:00:00+01:00" : {
		"windSpeed" : 4.2,
		"windDir" : 265,
		"rain" : 1,
		"cloudbase" : 811.92,
		"flyability" : 0,
		"reason" : "rain",
		"timestamp" :1556060400
		},
	"2019-04-24T04:00:00+01:00" : {
		"windSpeed" : 3.8,
		"windDir" : 234,
		"rain" : 0,
		"cloudbase" : null,
		"flyability" : 100,
		"reason" : "",
		"timestamp" :1556071200
		},
	"2019-04-24T07:00:00+01:00" : {
		"windSpeed" : 5.6,
		"windDir" : 175,
		"rain" : 1,
		"cloudbase" : 1518.467665,
		"flyability" : 0,
		"reason" : "windSpeed, windDir, rain",
		"timestamp" :1556082000
		},
	"2019-04-24T10:00:00+01:00" : {
		"windSpeed" : 8.3,
		"windDir" : 168,
		"rain" : 1,
		"cloudbase" : 696.42253800001,
		"flyability" : 0,
		"reason" : "windSpeed, windDir, rain",
		"timestamp" :1556092800
		},
	"2019-04-24T13:00:00+01:00" : {
		"windSpeed" : 11.3,
		"windDir" : 216,
		"rain" : 1,
		"cloudbase" : 1590.03566,
		"flyability" : 0,
		"reason" : "windSpeed, rain",
		"timestamp" :1556103600
		},
	"2019-04-24T16:00:00+01:00" : {
		"windSpeed" : 10.6,
		"windDir" : 252,
		"rain" : 1,
		"cloudbase" : 2053.712335,
		"flyability" : 0,
		"reason" : "windSpeed, rain",
		"timestamp" :1556114400
		},
	"2019-04-24T19:00:00+01:00" : {
		"windSpeed" : 10.2,
		"windDir" : 266,
		"rain" : 1,
		"cloudbase" : null,
		"flyability" : 0,
		"reason" : "windSpeed, rain",
		"timestamp" :1556125200
		},
	"2019-04-24T22:00:00+01:00" : {
		"windSpeed" : 9.9,
		"windDir" : 253,
		"rain" : 1,
		"cloudbase" : null,
		"flyability" : 0,
		"reason" : "windSpeed, rain",
		"timestamp" :1556136000
		},
	"2019-04-25T01:00:00+01:00" : {
		"windSpeed" : 8.4,
		"windDir" : 251,
		"rain" : 1,
		"cloudbase" : null,
		"flyability" : 0,
		"reason" : "windSpeed, rain",
		"timestamp" :1556146800
		},
	"2019-04-25T04:00:00+01:00" : {
		"windSpeed" : 9.5,
		"windDir" : 255,
		"rain" : 0,
		"cloudbase" : 3750,
		"flyability" : 0,
		"reason" : "windSpeed",
		"timestamp" :1556157600
		},
	"2019-04-25T07:00:00+01:00" : {
		"windSpeed" : 9.4,
		"windDir" : 256,
		"rain" : 1,
		"cloudbase" : null,
		"flyability" : 0,
		"reason" : "windSpeed, rain",
		"timestamp" :1556168400
		},
	"2019-04-25T10:00:00+01:00" : {
		"windSpeed" : 10.2,
		"windDir" : 256,
		"rain" : 1,
		"cloudbase" : null,
		"flyability" : 0,
		"reason" : "windSpeed, rain",
		"timestamp" :1556179200
		},
	"2019-04-25T13:00:00+01:00" : {
		"windSpeed" : 10.3,
		"windDir" : 267,
		"rain" : 1,
		"cloudbase" : null,
		"flyability" : 0,
		"reason" : "windSpeed, rain",
		"timestamp" :1556190000
		},
	"2019-04-25T16:00:00+01:00" : {
		"windSpeed" : 9.3,
		"windDir" : 273,
		"rain" : 1,
		"cloudbase" : null,
		"flyability" : 0,
		"reason" : "windSpeed, rain",
		"timestamp" :1556200800
		},
	"2019-04-25T19:00:00+01:00" : {
		"windSpeed" : 8.4,
		"windDir" : 275,
		"rain" : 1,
		"cloudbase" : null,
		"flyability" : 0,
		"reason" : "windSpeed, rain",
		"timestamp" :1556211600
		},
	"2019-04-25T22:00:00+01:00" : {
		"windSpeed" : 6.2,
		"windDir" : 289,
		"rain" : 1,
		"cloudbase" : null,
		"flyability" : 0,
		"reason" : "windSpeed, rain",
		"timestamp" :1556222400
		},
	"2019-04-26T01:00:00+01:00" : {
		"windSpeed" : 6,
		"windDir" : 290,
		"rain" : 1,
		"cloudbase" : 1450,
		"flyability" : 0,
		"reason" : "windSpeed, rain",
		"timestamp" :1556233200
		},
	"2019-04-26T04:00:00+01:00" : {
		"windSpeed" : 4.8,
		"windDir" : 292,
		"rain" : 1,
		"cloudbase" : null,
		"flyability" : 0,
		"reason" : "rain",
		"timestamp" :1556244000
		},
	"2019-04-26T07:00:00+01:00" : {
		"windSpeed" : 4.1,
		"windDir" : 305,
		"rain" : 1,
		"cloudbase" : null,
		"flyability" : 0,
		"reason" : "windDir, rain",
		"timestamp" :1556254800
		},
	"2019-04-26T10:00:00+01:00" : {
		"windSpeed" : 4.5,
		"windDir" : 326,
		"rain" : 1,
		"cloudbase" : null,
		"flyability" : 0,
		"reason" : "windDir, rain",
		"timestamp" :1556265600
		},
	"2019-04-26T13:00:00+01:00" : {
		"windSpeed" : 4,
		"windDir" : 326,
		"rain" : 1,
		"cloudbase" : null,
		"flyability" : 0,
		"reason" : "windDir, rain",
		"timestamp" :1556276400
		}
	}
}