{
"site" : "Serra Boa Viagem",
"id" : 9829,
"orientations" : "21000012",
"forecasts" : { 
	"2019-04-04T16:00:00+01:00" : {
		"windSpeed" : 5.6,
		"windDir" : 218,
		"rain" : 1,
		"cloudbase" : 1496.0940799999,
		"flyability" : 0,
		"reason" : "windSpeed, windDir, rain",
		"timestamp" :1554386400
		},
	"2019-04-04T19:00:00+01:00" : {
		"windSpeed" : 8,
		"windDir" : 212,
		"rain" : 1,
		"cloudbase" : 1006.036464,
		"flyability" : 0,
		"reason" : "windSpeed, windDir, rain",
		"timestamp" :1554397200
		},
	"2019-04-04T22:00:00+01:00" : {
		"windSpeed" : 6.6,
		"windDir" : 308,
		"rain" : 1,
		"cloudbase" : 1349.30176,
		"flyability" : 0,
		"reason" : "windSpeed, rain",
		"timestamp" :1554408000
		},
	"2019-04-05T01:00:00+01:00" : {
		"windSpeed" : 5.9,
		"windDir" : 284,
		"rain" : 1,
		"cloudbase" : 2723.95528,
		"flyability" : 0,
		"reason" : "windSpeed, rain",
		"timestamp" :1554418800
		},
	"2019-04-05T04:00:00+01:00" : {
		"windSpeed" : 5.4,
		"windDir" : 280,
		"rain" : 1,
		"cloudbase" : 4045.74,
		"flyability" : 0,
		"reason" : "windSpeed, rain",
		"timestamp" :1554429600
		},
	"2019-04-05T07:00:00+01:00" : {
		"windSpeed" : 4.3,
		"windDir" : 275,
		"rain" : 1,
		"cloudbase" : 1118.6786559999,
		"flyability" : 0,
		"reason" : "rain",
		"timestamp" :1554440400
		},
	"2019-04-05T10:00:00+01:00" : {
		"windSpeed" : 4.3,
		"windDir" : 256,
		"rain" : 1,
		"cloudbase" : null,
		"flyability" : 0,
		"reason" : "rain",
		"timestamp" :1554451200
		},
	"2019-04-05T13:00:00+01:00" : {
		"windSpeed" : 6.9,
		"windDir" : 231,
		"rain" : 1,
		"cloudbase" : 976.7079839999,
		"flyability" : 0,
		"reason" : "windSpeed, windDir, rain",
		"timestamp" :1554462000
		},
	"2019-04-05T16:00:00+01:00" : {
		"windSpeed" : 9.1,
		"windDir" : 301,
		"rain" : 1,
		"cloudbase" : 7000,
		"flyability" : 0,
		"reason" : "windSpeed, rain",
		"timestamp" :1554472800
		},
	"2019-04-05T19:00:00+01:00" : {
		"windSpeed" : 8.7,
		"windDir" : 296,
		"rain" : 1,
		"cloudbase" : null,
		"flyability" : 0,
		"reason" : "windSpeed, rain",
		"timestamp" :1554483600
		},
	"2019-04-05T22:00:00+01:00" : {
		"windSpeed" : 6,
		"windDir" : 321,
		"rain" : 1,
		"cloudbase" : 6275.27648,
		"flyability" : 0,
		"reason" : "windSpeed, rain",
		"timestamp" :1554494400
		},
	"2019-04-06T01:00:00+01:00" : {
		"windSpeed" : 5.8,
		"windDir" : 294,
		"rain" : 1,
		"cloudbase" : 1756.7890559995,
		"flyability" : 0,
		"reason" : "windSpeed, rain",
		"timestamp" :1554505200
		},
	"2019-04-06T04:00:00+01:00" : {
		"windSpeed" : 8.2,
		"windDir" : 276,
		"rain" : 1,
		"cloudbase" : 6359.21296,
		"flyability" : 0,
		"reason" : "windSpeed, rain",
		"timestamp" :1554516000
		},
	"2019-04-06T07:00:00+01:00" : {
		"windSpeed" : 6.9,
		"windDir" : 283,
		"rain" : 1,
		"cloudbase" : 6700,
		"flyability" : 0,
		"reason" : "windSpeed, rain",
		"timestamp" :1554526800
		},
	"2019-04-06T10:00:00+01:00" : {
		"windSpeed" : 7.7,
		"windDir" : 300,
		"rain" : 0,
		"cloudbase" : 5046.3411200003,
		"flyability" : 0,
		"reason" : "windSpeed",
		"timestamp" :1554537600
		},
	"2019-04-06T13:00:00+01:00" : {
		"windSpeed" : 7.4,
		"windDir" : 278,
		"rain" : 0,
		"cloudbase" : 4500,
		"flyability" : 0,
		"reason" : "windSpeed",
		"timestamp" :1554548400
		},
	"2019-04-06T16:00:00+01:00" : {
		"windSpeed" : 8.6,
		"windDir" : 287,
		"rain" : 1,
		"cloudbase" : null,
		"flyability" : 0,
		"reason" : "windSpeed, rain",
		"timestamp" :1554559200
		},
	"2019-04-06T19:00:00+01:00" : {
		"windSpeed" : 8.2,
		"windDir" : 291,
		"rain" : 1,
		"cloudbase" : null,
		"flyability" : 0,
		"reason" : "windSpeed, rain",
		"timestamp" :1554570000
		},
	"2019-04-06T22:00:00+01:00" : {
		"windSpeed" : 6.4,
		"windDir" : 296,
		"rain" : 1,
		"cloudbase" : null,
		"flyability" : 0,
		"reason" : "windSpeed, rain",
		"timestamp" :1554580800
		},
	"2019-04-07T01:00:00+01:00" : {
		"windSpeed" : 4.4,
		"windDir" : 259,
		"rain" : 1,
		"cloudbase" : null,
		"flyability" : 0,
		"reason" : "rain",
		"timestamp" :1554591600
		},
	"2019-04-07T04:00:00+01:00" : {
		"windSpeed" : 4.8,
		"windDir" : 251,
		"rain" : 1,
		"cloudbase" : 4403.9112,
		"flyability" : 0,
		"reason" : "rain",
		"timestamp" :1554602400
		},
	"2019-04-07T07:00:00+01:00" : {
		"windSpeed" : 5.5,
		"windDir" : 239,
		"rain" : 0,
		"cloudbase" : 2165.0695200001,
		"flyability" : 0,
		"reason" : "windSpeed, windDir",
		"timestamp" :1554613200
		},
	"2019-04-07T10:00:00+01:00" : {
		"windSpeed" : 3.4,
		"windDir" : 179,
		"rain" : 1,
		"cloudbase" : 1853.63176,
		"flyability" : 0,
		"reason" : "windDir, rain",
		"timestamp" :1554624000
		},
	"2019-04-07T13:00:00+01:00" : {
		"windSpeed" : 4.2,
		"windDir" : 145,
		"rain" : 0,
		"cloudbase" : 1216.76176,
		"flyability" : 0,
		"reason" : "windDir",
		"timestamp" :1554634800
		},
	"2019-04-07T16:00:00+01:00" : {
		"windSpeed" : 6.1,
		"windDir" : 224,
		"rain" : 1,
		"cloudbase" : 10000,
		"flyability" : 0,
		"reason" : "windSpeed, windDir, rain",
		"timestamp" :1554645600
		},
	"2019-04-07T19:00:00+01:00" : {
		"windSpeed" : 8,
		"windDir" : 228,
		"rain" : 0,
		"cloudbase" : 4788.4182399999,
		"flyability" : 0,
		"reason" : "windSpeed, windDir",
		"timestamp" :1554656400
		},
	"2019-04-07T22:00:00+01:00" : {
		"windSpeed" : 8.7,
		"windDir" : 213,
		"rain" : 1,
		"cloudbase" : 707.51248000001,
		"flyability" : 0,
		"reason" : "windSpeed, windDir, rain",
		"timestamp" :1554667200
		},
	"2019-04-08T01:00:00+01:00" : {
		"windSpeed" : 8.2,
		"windDir" : 252,
		"rain" : 1,
		"cloudbase" : 7501.67648,
		"flyability" : 0,
		"reason" : "windSpeed, rain",
		"timestamp" :1554678000
		},
	"2019-04-08T04:00:00+01:00" : {
		"windSpeed" : 7.6,
		"windDir" : 252,
		"rain" : 1,
		"cloudbase" : null,
		"flyability" : 0,
		"reason" : "windSpeed, rain",
		"timestamp" :1554688800
		},
	"2019-04-08T07:00:00+01:00" : {
		"windSpeed" : 7.8,
		"windDir" : 248,
		"rain" : 0,
		"cloudbase" : 2800,
		"flyability" : 0,
		"reason" : "windSpeed",
		"timestamp" :1554699600
		},
	"2019-04-08T10:00:00+01:00" : {
		"windSpeed" : 8.6,
		"windDir" : 246,
		"rain" : 0,
		"cloudbase" : 3050,
		"flyability" : 0,
		"reason" : "windSpeed, windDir",
		"timestamp" :1554710400
		},
	"2019-04-08T13:00:00+01:00" : {
		"windSpeed" : 8.8,
		"windDir" : 236,
		"rain" : 0,
		"cloudbase" : null,
		"flyability" : 0,
		"reason" : "windSpeed, windDir",
		"timestamp" :1554721200
		},
	"2019-04-08T16:00:00+01:00" : {
		"windSpeed" : 10.1,
		"windDir" : 231,
		"rain" : 1,
		"cloudbase" : 5100,
		"flyability" : 0,
		"reason" : "windSpeed, windDir, rain",
		"timestamp" :1554732000
		},
	"2019-04-08T19:00:00+01:00" : {
		"windSpeed" : 10.9,
		"windDir" : 234,
		"rain" : 1,
		"cloudbase" : null,
		"flyability" : 0,
		"reason" : "windSpeed, windDir, rain",
		"timestamp" :1554742800
		},
	"2019-04-08T22:00:00+01:00" : {
		"windSpeed" : 9.6,
		"windDir" : 224,
		"rain" : 1,
		"cloudbase" : null,
		"flyability" : 0,
		"reason" : "windSpeed, windDir, rain",
		"timestamp" :1554753600
		},
	"2019-04-09T01:00:00+01:00" : {
		"windSpeed" : 8.6,
		"windDir" : 235,
		"rain" : 0,
		"cloudbase" : null,
		"flyability" : 0,
		"reason" : "windSpeed, windDir",
		"timestamp" :1554764400
		},
	"2019-04-09T04:00:00+01:00" : {
		"windSpeed" : 6.9,
		"windDir" : 257,
		"rain" : 0,
		"cloudbase" : 6346.4699200004,
		"flyability" : 0,
		"reason" : "windSpeed",
		"timestamp" :1554775200
		},
	"2019-04-09T07:00:00+01:00" : {
		"windSpeed" : 6.6,
		"windDir" : 269,
		"rain" : 1,
		"cloudbase" : null,
		"flyability" : 0,
		"reason" : "windSpeed, rain",
		"timestamp" :1554786000
		},
	"2019-04-09T10:00:00+01:00" : {
		"windSpeed" : 4.9,
		"windDir" : 263,
		"rain" : 1,
		"cloudbase" : null,
		"flyability" : 0,
		"reason" : "rain",
		"timestamp" :1554796800
		},
	"2019-04-09T13:00:00+01:00" : {
		"windSpeed" : 9.5,
		"windDir" : 282,
		"rain" : 1,
		"cloudbase" : null,
		"flyability" : 0,
		"reason" : "windSpeed, rain",
		"timestamp" :1554807600
		},
	"2019-04-09T16:00:00+01:00" : {
		"windSpeed" : 10.8,
		"windDir" : 286,
		"rain" : 1,
		"cloudbase" : null,
		"flyability" : 0,
		"reason" : "windSpeed, rain",
		"timestamp" :1554818400
		},
	"2019-04-09T19:00:00+01:00" : {
		"windSpeed" : 8.9,
		"windDir" : 299,
		"rain" : 1,
		"cloudbase" : 420,
		"flyability" : 0,
		"reason" : "windSpeed, rain",
		"timestamp" :1554829200
		},
	"2019-04-09T22:00:00+01:00" : {
		"windSpeed" : 7.2,
		"windDir" : 313,
		"rain" : 1,
		"cloudbase" : null,
		"flyability" : 0,
		"reason" : "windSpeed, rain",
		"timestamp" :1554840000
		},
	"2019-04-10T01:00:00+01:00" : {
		"windSpeed" : 6.8,
		"windDir" : 315,
		"rain" : 1,
		"cloudbase" : null,
		"flyability" : 0,
		"reason" : "windSpeed, rain",
		"timestamp" :1554850800
		},
	"2019-04-10T04:00:00+01:00" : {
		"windSpeed" : 7.5,
		"windDir" : 310,
		"rain" : 1,
		"cloudbase" : null,
		"flyability" : 0,
		"reason" : "windSpeed, rain",
		"timestamp" :1554861600
		},
	"2019-04-10T07:00:00+01:00" : {
		"windSpeed" : 6.2,
		"windDir" : 321,
		"rain" : 1,
		"cloudbase" : 350,
		"flyability" : 0,
		"reason" : "windSpeed, rain",
		"timestamp" :1554872400
		},
	"2019-04-10T10:00:00+01:00" : {
		"windSpeed" : 7.1,
		"windDir" : 317,
		"rain" : 1,
		"cloudbase" : 6710.0134400004,
		"flyability" : 0,
		"reason" : "windSpeed, rain",
		"timestamp" :1554883200
		},
	"2019-04-10T13:00:00+01:00" : {
		"windSpeed" : 7.2,
		"windDir" : 312,
		"rain" : 0,
		"cloudbase" : 8900,
		"flyability" : 0,
		"reason" : "windSpeed",
		"timestamp" :1554894000
		}
	}
}