{
"site" : "Haikou",
"id" : 9842,
"orientations" : "00221222",
"forecasts" : { 
	"2019-04-03T11:00:00+08:00" : {
		"windSpeed" : 0.8,
		"windDir" : 310,
		"rain" : 1,
		"cloudbase" : 4932.42,
		"flyability" : 0,
		"reason" : "rain",
		"timestamp" :1554264000
		},
	"2019-04-03T14:00:00+08:00" : {
		"windSpeed" : 1,
		"windDir" : 87,
		"rain" : 0,
		"cloudbase" : 760,
		"flyability" : 0,
		"reason" : "cloudbase",
		"timestamp" :1554274800
		},
	"2019-04-03T17:00:00+08:00" : {
		"windSpeed" : 6.1,
		"windDir" : 194,
		"rain" : 0,
		"cloudbase" : 1450,
		"flyability" : 0,
		"reason" : "windSpeed, cloudbase",
		"timestamp" :1554285600
		},
	"2019-04-03T20:00:00+08:00" : {
		"windSpeed" : 4.1,
		"windDir" : 202,
		"rain" : 1,
		"cloudbase" : null,
		"flyability" : 0,
		"reason" : "rain",
		"timestamp" :1554296400
		},
	"2019-04-03T23:00:00+08:00" : {
		"windSpeed" : 3.6,
		"windDir" : 208,
		"rain" : 1,
		"cloudbase" : null,
		"flyability" : 0,
		"reason" : "rain",
		"timestamp" :1554307200
		},
	"2019-04-04T02:00:00+08:00" : {
		"windSpeed" : 2.6,
		"windDir" : 229,
		"rain" : 0,
		"cloudbase" : null,
		"flyability" : 100,
		"reason" : "",
		"timestamp" :1554318000
		},
	"2019-04-04T05:00:00+08:00" : {
		"windSpeed" : 1.6,
		"windDir" : 244,
		"rain" : 1,
		"cloudbase" : 30,
		"flyability" : 0,
		"reason" : "rain, cloudbase",
		"timestamp" :1554328800
		},
	"2019-04-04T08:00:00+08:00" : {
		"windSpeed" : 2,
		"windDir" : 268,
		"rain" : 0,
		"cloudbase" : 32.144999999998,
		"flyability" : 0,
		"reason" : "cloudbase",
		"timestamp" :1554339600
		},
	"2019-04-04T11:00:00+08:00" : {
		"windSpeed" : 4,
		"windDir" : 262,
		"rain" : 0,
		"cloudbase" : null,
		"flyability" : 100,
		"reason" : "",
		"timestamp" :1554350400
		},
	"2019-04-04T14:00:00+08:00" : {
		"windSpeed" : 6.3,
		"windDir" : 259,
		"rain" : 0,
		"cloudbase" : null,
		"flyability" : 0,
		"reason" : "windSpeed",
		"timestamp" :1554361200
		},
	"2019-04-04T17:00:00+08:00" : {
		"windSpeed" : 6,
		"windDir" : 257,
		"rain" : 0,
		"cloudbase" : null,
		"flyability" : 0,
		"reason" : "windSpeed",
		"timestamp" :1554372000
		},
	"2019-04-04T20:00:00+08:00" : {
		"windSpeed" : 2.8,
		"windDir" : 224,
		"rain" : 0,
		"cloudbase" : null,
		"flyability" : 100,
		"reason" : "",
		"timestamp" :1554382800
		},
	"2019-04-04T23:00:00+08:00" : {
		"windSpeed" : 3.5,
		"windDir" : 203,
		"rain" : 0,
		"cloudbase" : null,
		"flyability" : 100,
		"reason" : "",
		"timestamp" :1554393600
		},
	"2019-04-05T02:00:00+08:00" : {
		"windSpeed" : 1.6,
		"windDir" : 57,
		"rain" : 0,
		"cloudbase" : null,
		"flyability" : 0,
		"reason" : "windDir",
		"timestamp" :1554404400
		},
	"2019-04-05T05:00:00+08:00" : {
		"windSpeed" : 1.6,
		"windDir" : 84,
		"rain" : 0,
		"cloudbase" : null,
		"flyability" : 100,
		"reason" : "",
		"timestamp" :1554415200
		},
	"2019-04-05T08:00:00+08:00" : {
		"windSpeed" : 2.1,
		"windDir" : 145,
		"rain" : 0,
		"cloudbase" : 160,
		"flyability" : 0,
		"reason" : "cloudbase",
		"timestamp" :1554426000
		},
	"2019-04-05T11:00:00+08:00" : {
		"windSpeed" : 2.4,
		"windDir" : 213,
		"rain" : 0,
		"cloudbase" : null,
		"flyability" : 100,
		"reason" : "",
		"timestamp" :1554436800
		},
	"2019-04-05T14:00:00+08:00" : {
		"windSpeed" : 4.4,
		"windDir" : 249,
		"rain" : 1,
		"cloudbase" : null,
		"flyability" : 0,
		"reason" : "rain",
		"timestamp" :1554447600
		},
	"2019-04-05T17:00:00+08:00" : {
		"windSpeed" : 4.8,
		"windDir" : 256,
		"rain" : 0,
		"cloudbase" : null,
		"flyability" : 100,
		"reason" : "",
		"timestamp" :1554458400
		},
	"2019-04-05T20:00:00+08:00" : {
		"windSpeed" : 2,
		"windDir" : 169,
		"rain" : 1,
		"cloudbase" : null,
		"flyability" : 0,
		"reason" : "rain",
		"timestamp" :1554469200
		},
	"2019-04-05T23:00:00+08:00" : {
		"windSpeed" : 4.3,
		"windDir" : 72,
		"rain" : 0,
		"cloudbase" : null,
		"flyability" : 100,
		"reason" : "",
		"timestamp" :1554480000
		},
	"2019-04-06T02:00:00+08:00" : {
		"windSpeed" : 3.8,
		"windDir" : 99,
		"rain" : 0,
		"cloudbase" : 378.61999999994,
		"flyability" : 0,
		"reason" : "cloudbase",
		"timestamp" :1554490800
		},
	"2019-04-06T05:00:00+08:00" : {
		"windSpeed" : 2.2,
		"windDir" : 146,
		"rain" : 0,
		"cloudbase" : 280,
		"flyability" : 0,
		"reason" : "cloudbase",
		"timestamp" :1554501600
		},
	"2019-04-06T08:00:00+08:00" : {
		"windSpeed" : 1,
		"windDir" : 187,
		"rain" : 0,
		"cloudbase" : 660,
		"flyability" : 0,
		"reason" : "cloudbase",
		"timestamp" :1554512400
		},
	"2019-04-06T11:00:00+08:00" : {
		"windSpeed" : 2.6,
		"windDir" : 157,
		"rain" : 1,
		"cloudbase" : 517.646,
		"flyability" : 0,
		"reason" : "rain, cloudbase",
		"timestamp" :1554523200
		},
	"2019-04-06T14:00:00+08:00" : {
		"windSpeed" : 1.4,
		"windDir" : 145,
		"rain" : 0,
		"cloudbase" : 701.36799999994,
		"flyability" : 0,
		"reason" : "cloudbase",
		"timestamp" :1554534000
		},
	"2019-04-06T17:00:00+08:00" : {
		"windSpeed" : 2.8,
		"windDir" : 236,
		"rain" : 0,
		"cloudbase" : null,
		"flyability" : 100,
		"reason" : "",
		"timestamp" :1554544800
		},
	"2019-04-06T20:00:00+08:00" : {
		"windSpeed" : 2.1,
		"windDir" : 290,
		"rain" : 0,
		"cloudbase" : 1300,
		"flyability" : 0,
		"reason" : "cloudbase",
		"timestamp" :1554555600
		},
	"2019-04-06T23:00:00+08:00" : {
		"windSpeed" : 1.1,
		"windDir" : 126,
		"rain" : 0,
		"cloudbase" : null,
		"flyability" : 100,
		"reason" : "",
		"timestamp" :1554566400
		},
	"2019-04-07T02:00:00+08:00" : {
		"windSpeed" : 1.1,
		"windDir" : 140,
		"rain" : 0,
		"cloudbase" : 360,
		"flyability" : 0,
		"reason" : "cloudbase",
		"timestamp" :1554577200
		},
	"2019-04-07T05:00:00+08:00" : {
		"windSpeed" : 1.3,
		"windDir" : 251,
		"rain" : 0,
		"cloudbase" : 30,
		"flyability" : 0,
		"reason" : "cloudbase",
		"timestamp" :1554588000
		},
	"2019-04-07T08:00:00+08:00" : {
		"windSpeed" : 1.8,
		"windDir" : 270,
		"rain" : 1,
		"cloudbase" : 30,
		"flyability" : 0,
		"reason" : "rain, cloudbase",
		"timestamp" :1554598800
		},
	"2019-04-07T11:00:00+08:00" : {
		"windSpeed" : 4.2,
		"windDir" : 253,
		"rain" : 1,
		"cloudbase" : null,
		"flyability" : 0,
		"reason" : "rain",
		"timestamp" :1554609600
		},
	"2019-04-07T14:00:00+08:00" : {
		"windSpeed" : 5.1,
		"windDir" : 249,
		"rain" : 1,
		"cloudbase" : null,
		"flyability" : 0,
		"reason" : "windSpeed, rain",
		"timestamp" :1554620400
		},
	"2019-04-07T17:00:00+08:00" : {
		"windSpeed" : 6.1,
		"windDir" : 241,
		"rain" : 0,
		"cloudbase" : null,
		"flyability" : 0,
		"reason" : "windSpeed",
		"timestamp" :1554631200
		},
	"2019-04-07T20:00:00+08:00" : {
		"windSpeed" : 5.1,
		"windDir" : 191,
		"rain" : 0,
		"cloudbase" : null,
		"flyability" : 0,
		"reason" : "windSpeed",
		"timestamp" :1554642000
		},
	"2019-04-07T23:00:00+08:00" : {
		"windSpeed" : 5.5,
		"windDir" : 213,
		"rain" : 0,
		"cloudbase" : null,
		"flyability" : 0,
		"reason" : "windSpeed",
		"timestamp" :1554652800
		},
	"2019-04-08T02:00:00+08:00" : {
		"windSpeed" : 3.8,
		"windDir" : 223,
		"rain" : 0,
		"cloudbase" : null,
		"flyability" : 100,
		"reason" : "",
		"timestamp" :1554663600
		},
	"2019-04-08T05:00:00+08:00" : {
		"windSpeed" : 2.8,
		"windDir" : 229,
		"rain" : 0,
		"cloudbase" : null,
		"flyability" : 100,
		"reason" : "",
		"timestamp" :1554674400
		},
	"2019-04-08T08:00:00+08:00" : {
		"windSpeed" : 3.8,
		"windDir" : 228,
		"rain" : 0,
		"cloudbase" : null,
		"flyability" : 100,
		"reason" : "",
		"timestamp" :1554685200
		},
	"2019-04-08T11:00:00+08:00" : {
		"windSpeed" : 7.2,
		"windDir" : 244,
		"rain" : 1,
		"cloudbase" : null,
		"flyability" : 0,
		"reason" : "windSpeed, rain",
		"timestamp" :1554696000
		},
	"2019-04-08T14:00:00+08:00" : {
		"windSpeed" : 8,
		"windDir" : 247,
		"rain" : 0,
		"cloudbase" : null,
		"flyability" : 0,
		"reason" : "windSpeed",
		"timestamp" :1554706800
		},
	"2019-04-08T17:00:00+08:00" : {
		"windSpeed" : 7.3,
		"windDir" : 245,
		"rain" : 0,
		"cloudbase" : null,
		"flyability" : 0,
		"reason" : "windSpeed",
		"timestamp" :1554717600
		},
	"2019-04-08T20:00:00+08:00" : {
		"windSpeed" : 3.9,
		"windDir" : 216,
		"rain" : 0,
		"cloudbase" : null,
		"flyability" : 100,
		"reason" : "",
		"timestamp" :1554728400
		},
	"2019-04-08T23:00:00+08:00" : {
		"windSpeed" : 3.1,
		"windDir" : 234,
		"rain" : 0,
		"cloudbase" : null,
		"flyability" : 100,
		"reason" : "",
		"timestamp" :1554739200
		},
	"2019-04-09T02:00:00+08:00" : {
		"windSpeed" : 2.7,
		"windDir" : 250,
		"rain" : 0,
		"cloudbase" : null,
		"flyability" : 100,
		"reason" : "",
		"timestamp" :1554750000
		},
	"2019-04-09T05:00:00+08:00" : {
		"windSpeed" : 2.8,
		"windDir" : 266,
		"rain" : 0,
		"cloudbase" : null,
		"flyability" : 100,
		"reason" : "",
		"timestamp" :1554760800
		},
	"2019-04-09T08:00:00+08:00" : {
		"windSpeed" : 2.1,
		"windDir" : 300,
		"rain" : 0,
		"cloudbase" : null,
		"flyability" : 100,
		"reason" : "",
		"timestamp" :1554771600
		}
	}
}