{
"site" : "Spil Karlik",
"id" : 9843,
"orientations" : "21100011",
"forecasts" : { 
	"2019-04-04T06:00:00+03:00" : {
		"windSpeed" : 1.2,
		"windDir" : 131,
		"rain" : 0,
		"cloudbase" : 7298.2900000001,
		"flyability" : 0,
		"reason" : "windDir",
		"timestamp" :1554346800
		},
	"2019-04-04T09:00:00+03:00" : {
		"windSpeed" : 1,
		"windDir" : 69,
		"rain" : 0,
		"cloudbase" : 6418.29,
		"flyability" : 100,
		"reason" : "",
		"timestamp" :1554357600
		},
	"2019-04-04T12:00:00+03:00" : {
		"windSpeed" : 0.3,
		"windDir" : 40,
		"rain" : 0,
		"cloudbase" : 5955.71,
		"flyability" : 100,
		"reason" : "",
		"timestamp" :1554368400
		},
	"2019-04-04T15:00:00+03:00" : {
		"windSpeed" : 1.2,
		"windDir" : 294,
		"rain" : 1,
		"cloudbase" : 6887.7400000001,
		"flyability" : 0,
		"reason" : "rain",
		"timestamp" :1554379200
		},
	"2019-04-04T18:00:00+03:00" : {
		"windSpeed" : 1.3,
		"windDir" : 258,
		"rain" : 1,
		"cloudbase" : 7336,
		"flyability" : 0,
		"reason" : "rain",
		"timestamp" :1554390000
		},
	"2019-04-04T21:00:00+03:00" : {
		"windSpeed" : 1.2,
		"windDir" : 264,
		"rain" : 0,
		"cloudbase" : null,
		"flyability" : 100,
		"reason" : "",
		"timestamp" :1554400800
		},
	"2019-04-05T00:00:00+03:00" : {
		"windSpeed" : 0.5,
		"windDir" : 222,
		"rain" : 0,
		"cloudbase" : null,
		"flyability" : 0,
		"reason" : "windDir",
		"timestamp" :1554411600
		},
	"2019-04-05T03:00:00+03:00" : {
		"windSpeed" : 0.7,
		"windDir" : 211,
		"rain" : 0,
		"cloudbase" : null,
		"flyability" : 0,
		"reason" : "windDir",
		"timestamp" :1554422400
		},
	"2019-04-05T06:00:00+03:00" : {
		"windSpeed" : 0.2,
		"windDir" : 197,
		"rain" : 0,
		"cloudbase" : null,
		"flyability" : 0,
		"reason" : "windDir",
		"timestamp" :1554433200
		},
	"2019-04-05T09:00:00+03:00" : {
		"windSpeed" : 0.5,
		"windDir" : 101,
		"rain" : 0,
		"cloudbase" : 7400,
		"flyability" : 100,
		"reason" : "",
		"timestamp" :1554444000
		},
	"2019-04-05T12:00:00+03:00" : {
		"windSpeed" : 0.9,
		"windDir" : 87,
		"rain" : 1,
		"cloudbase" : null,
		"flyability" : 0,
		"reason" : "rain",
		"timestamp" :1554454800
		},
	"2019-04-05T15:00:00+03:00" : {
		"windSpeed" : 1.1,
		"windDir" : 203,
		"rain" : 1,
		"cloudbase" : 2050,
		"flyability" : 0,
		"reason" : "windDir, rain",
		"timestamp" :1554465600
		},
	"2019-04-05T18:00:00+03:00" : {
		"windSpeed" : 2.2,
		"windDir" : 232,
		"rain" : 0,
		"cloudbase" : 8700,
		"flyability" : 0,
		"reason" : "windDir",
		"timestamp" :1554476400
		},
	"2019-04-05T21:00:00+03:00" : {
		"windSpeed" : 1.1,
		"windDir" : 259,
		"rain" : 0,
		"cloudbase" : 9214,
		"flyability" : 100,
		"reason" : "",
		"timestamp" :1554487200
		},
	"2019-04-06T00:00:00+03:00" : {
		"windSpeed" : 0.5,
		"windDir" : 203,
		"rain" : 0,
		"cloudbase" : 8268.71,
		"flyability" : 0,
		"reason" : "windDir",
		"timestamp" :1554498000
		},
	"2019-04-06T03:00:00+03:00" : {
		"windSpeed" : 0.4,
		"windDir" : 169,
		"rain" : 0,
		"cloudbase" : 7640.0000000001,
		"flyability" : 0,
		"reason" : "windDir",
		"timestamp" :1554508800
		},
	"2019-04-06T06:00:00+03:00" : {
		"windSpeed" : 0.5,
		"windDir" : 131,
		"rain" : 0,
		"cloudbase" : 5066.645,
		"flyability" : 0,
		"reason" : "windDir",
		"timestamp" :1554519600
		},
	"2019-04-06T09:00:00+03:00" : {
		"windSpeed" : 0.6,
		"windDir" : 74,
		"rain" : 0,
		"cloudbase" : 4110.355,
		"flyability" : 100,
		"reason" : "",
		"timestamp" :1554530400
		},
	"2019-04-06T12:00:00+03:00" : {
		"windSpeed" : 0.9,
		"windDir" : 99,
		"rain" : 0,
		"cloudbase" : 3032.1600000001,
		"flyability" : 100,
		"reason" : "",
		"timestamp" :1554541200
		},
	"2019-04-06T15:00:00+03:00" : {
		"windSpeed" : 2.3,
		"windDir" : 114,
		"rain" : 1,
		"cloudbase" : 2158.6600000001,
		"flyability" : 0,
		"reason" : "windDir, rain",
		"timestamp" :1554552000
		},
	"2019-04-06T18:00:00+03:00" : {
		"windSpeed" : 1.2,
		"windDir" : 101,
		"rain" : 1,
		"cloudbase" : 2138.645,
		"flyability" : 0,
		"reason" : "rain",
		"timestamp" :1554562800
		},
	"2019-04-06T21:00:00+03:00" : {
		"windSpeed" : 0.6,
		"windDir" : 123,
		"rain" : 1,
		"cloudbase" : 2286.565,
		"flyability" : 0,
		"reason" : "windDir, rain",
		"timestamp" :1554573600
		},
	"2019-04-07T00:00:00+03:00" : {
		"windSpeed" : 0.6,
		"windDir" : 123,
		"rain" : 1,
		"cloudbase" : 1724.855,
		"flyability" : 0,
		"reason" : "windDir, rain",
		"timestamp" :1554584400
		},
	"2019-04-07T03:00:00+03:00" : {
		"windSpeed" : 0.7,
		"windDir" : 120,
		"rain" : 1,
		"cloudbase" : 1197.855,
		"flyability" : 0,
		"reason" : "windDir, rain, cloudbase",
		"timestamp" :1554595200
		},
	"2019-04-07T06:00:00+03:00" : {
		"windSpeed" : 0.9,
		"windDir" : 101,
		"rain" : 1,
		"cloudbase" : 1550,
		"flyability" : 0,
		"reason" : "rain",
		"timestamp" :1554606000
		},
	"2019-04-07T09:00:00+03:00" : {
		"windSpeed" : 1.4,
		"windDir" : 105,
		"rain" : 0,
		"cloudbase" : 1150,
		"flyability" : 0,
		"reason" : "cloudbase",
		"timestamp" :1554616800
		},
	"2019-04-07T12:00:00+03:00" : {
		"windSpeed" : 1.2,
		"windDir" : 142,
		"rain" : 1,
		"cloudbase" : 2198.6300000002,
		"flyability" : 0,
		"reason" : "windDir, rain",
		"timestamp" :1554627600
		},
	"2019-04-07T15:00:00+03:00" : {
		"windSpeed" : 0.9,
		"windDir" : 163,
		"rain" : 1,
		"cloudbase" : 3783.725,
		"flyability" : 0,
		"reason" : "windDir, rain",
		"timestamp" :1554638400
		},
	"2019-04-07T18:00:00+03:00" : {
		"windSpeed" : 1.3,
		"windDir" : 187,
		"rain" : 1,
		"cloudbase" : 2400,
		"flyability" : 0,
		"reason" : "windDir, rain",
		"timestamp" :1554649200
		},
	"2019-04-07T21:00:00+03:00" : {
		"windSpeed" : 0.8,
		"windDir" : 210,
		"rain" : 0,
		"cloudbase" : null,
		"flyability" : 0,
		"reason" : "windDir",
		"timestamp" :1554660000
		},
	"2019-04-08T00:00:00+03:00" : {
		"windSpeed" : 1.2,
		"windDir" : 198,
		"rain" : 0,
		"cloudbase" : null,
		"flyability" : 0,
		"reason" : "windDir",
		"timestamp" :1554670800
		},
	"2019-04-08T03:00:00+03:00" : {
		"windSpeed" : 1.4,
		"windDir" : 181,
		"rain" : 0,
		"cloudbase" : null,
		"flyability" : 0,
		"reason" : "windDir",
		"timestamp" :1554681600
		},
	"2019-04-08T06:00:00+03:00" : {
		"windSpeed" : 1.4,
		"windDir" : 181,
		"rain" : 1,
		"cloudbase" : 1200,
		"flyability" : 0,
		"reason" : "windDir, rain, cloudbase",
		"timestamp" :1554692400
		},
	"2019-04-08T09:00:00+03:00" : {
		"windSpeed" : 1.3,
		"windDir" : 207,
		"rain" : 1,
		"cloudbase" : 6603.6600000005,
		"flyability" : 0,
		"reason" : "windDir, rain",
		"timestamp" :1554703200
		},
	"2019-04-08T12:00:00+03:00" : {
		"windSpeed" : 2.4,
		"windDir" : 196,
		"rain" : 0,
		"cloudbase" : 4624.3150000001,
		"flyability" : 0,
		"reason" : "windDir",
		"timestamp" :1554714000
		},
	"2019-04-08T15:00:00+03:00" : {
		"windSpeed" : 2.7,
		"windDir" : 206,
		"rain" : 0,
		"cloudbase" : 240,
		"flyability" : 0,
		"reason" : "windDir, cloudbase",
		"timestamp" :1554724800
		},
	"2019-04-08T18:00:00+03:00" : {
		"windSpeed" : 2.5,
		"windDir" : 230,
		"rain" : 1,
		"cloudbase" : null,
		"flyability" : 0,
		"reason" : "windDir, rain",
		"timestamp" :1554735600
		},
	"2019-04-08T21:00:00+03:00" : {
		"windSpeed" : 1.5,
		"windDir" : 171,
		"rain" : 1,
		"cloudbase" : null,
		"flyability" : 0,
		"reason" : "windDir, rain",
		"timestamp" :1554746400
		},
	"2019-04-09T00:00:00+03:00" : {
		"windSpeed" : 1.1,
		"windDir" : 187,
		"rain" : 1,
		"cloudbase" : 560,
		"flyability" : 0,
		"reason" : "windDir, rain, cloudbase",
		"timestamp" :1554757200
		},
	"2019-04-09T03:00:00+03:00" : {
		"windSpeed" : 1.1,
		"windDir" : 194,
		"rain" : 1,
		"cloudbase" : 1320.2150000004,
		"flyability" : 0,
		"reason" : "windDir, rain, cloudbase",
		"timestamp" :1554768000
		},
	"2019-04-09T06:00:00+03:00" : {
		"windSpeed" : 1.2,
		"windDir" : 209,
		"rain" : 1,
		"cloudbase" : 1168.1190000005,
		"flyability" : 0,
		"reason" : "windDir, rain, cloudbase",
		"timestamp" :1554778800
		},
	"2019-04-09T09:00:00+03:00" : {
		"windSpeed" : 1.2,
		"windDir" : 136,
		"rain" : 1,
		"cloudbase" : 2235.1100000002,
		"flyability" : 0,
		"reason" : "windDir, rain",
		"timestamp" :1554789600
		},
	"2019-04-09T12:00:00+03:00" : {
		"windSpeed" : 0.9,
		"windDir" : 208,
		"rain" : 1,
		"cloudbase" : 755.60200000008,
		"flyability" : 0,
		"reason" : "windDir, rain, cloudbase",
		"timestamp" :1554800400
		},
	"2019-04-09T15:00:00+03:00" : {
		"windSpeed" : 2.1,
		"windDir" : 232,
		"rain" : 1,
		"cloudbase" : 1650,
		"flyability" : 0,
		"reason" : "windDir, rain",
		"timestamp" :1554811200
		},
	"2019-04-09T18:00:00+03:00" : {
		"windSpeed" : 2,
		"windDir" : 223,
		"rain" : 1,
		"cloudbase" : 680,
		"flyability" : 0,
		"reason" : "windDir, rain, cloudbase",
		"timestamp" :1554822000
		},
	"2019-04-09T21:00:00+03:00" : {
		"windSpeed" : 1.2,
		"windDir" : 208,
		"rain" : 1,
		"cloudbase" : null,
		"flyability" : 0,
		"reason" : "windDir, rain",
		"timestamp" :1554832800
		},
	"2019-04-10T00:00:00+03:00" : {
		"windSpeed" : 1.3,
		"windDir" : 209,
		"rain" : 1,
		"cloudbase" : 8100,
		"flyability" : 0,
		"reason" : "windDir, rain",
		"timestamp" :1554843600
		},
	"2019-04-10T03:00:00+03:00" : {
		"windSpeed" : 1.2,
		"windDir" : 204,
		"rain" : 1,
		"cloudbase" : null,
		"flyability" : 0,
		"reason" : "windDir, rain",
		"timestamp" :1554854400
		}
	}
}