{
"site" : "Esenli",
"id" : 9931,
"orientations" : "10000012",
"forecasts" : { 
	"2019-04-04T18:00:00+03:00" : {
		"windSpeed" : 1.4,
		"windDir" : 249,
		"rain" : 1,
		"cloudbase" : 5684.5390000001,
		"flyability" : 0,
		"reason" : "rain",
		"timestamp" :1554390000
		},
	"2019-04-04T21:00:00+03:00" : {
		"windSpeed" : 0.3,
		"windDir" : 347,
		"rain" : 0,
		"cloudbase" : null,
		"flyability" : 100,
		"reason" : "",
		"timestamp" :1554400800
		},
	"2019-04-05T00:00:00+03:00" : {
		"windSpeed" : 1.3,
		"windDir" : 91,
		"rain" : 0,
		"cloudbase" : null,
		"flyability" : 0,
		"reason" : "windDir",
		"timestamp" :1554411600
		},
	"2019-04-05T03:00:00+03:00" : {
		"windSpeed" : 0.9,
		"windDir" : 86,
		"rain" : 0,
		"cloudbase" : null,
		"flyability" : 0,
		"reason" : "windDir",
		"timestamp" :1554422400
		},
	"2019-04-05T06:00:00+03:00" : {
		"windSpeed" : 1.1,
		"windDir" : 84,
		"rain" : 0,
		"cloudbase" : null,
		"flyability" : 0,
		"reason" : "windDir",
		"timestamp" :1554433200
		},
	"2019-04-05T09:00:00+03:00" : {
		"windSpeed" : 0.7,
		"windDir" : 116,
		"rain" : 0,
		"cloudbase" : null,
		"flyability" : 0,
		"reason" : "windDir",
		"timestamp" :1554444000
		},
	"2019-04-05T12:00:00+03:00" : {
		"windSpeed" : 0.6,
		"windDir" : 133,
		"rain" : 0,
		"cloudbase" : null,
		"flyability" : 0,
		"reason" : "windDir",
		"timestamp" :1554454800
		},
	"2019-04-05T15:00:00+03:00" : {
		"windSpeed" : 2.1,
		"windDir" : 270,
		"rain" : 0,
		"cloudbase" : 5776.8615000004,
		"flyability" : 100,
		"reason" : "",
		"timestamp" :1554465600
		},
	"2019-04-05T18:00:00+03:00" : {
		"windSpeed" : 3.3,
		"windDir" : 291,
		"rain" : 0,
		"cloudbase" : null,
		"flyability" : 100,
		"reason" : "",
		"timestamp" :1554476400
		},
	"2019-04-05T21:00:00+03:00" : {
		"windSpeed" : 1,
		"windDir" : 49,
		"rain" : 0,
		"cloudbase" : 8431.165,
		"flyability" : 0,
		"reason" : "windDir",
		"timestamp" :1554487200
		},
	"2019-04-06T00:00:00+03:00" : {
		"windSpeed" : 0.9,
		"windDir" : 96,
		"rain" : 0,
		"cloudbase" : 8270.387,
		"flyability" : 0,
		"reason" : "windDir",
		"timestamp" :1554498000
		},
	"2019-04-06T03:00:00+03:00" : {
		"windSpeed" : 1.6,
		"windDir" : 78,
		"rain" : 0,
		"cloudbase" : 7997.996,
		"flyability" : 0,
		"reason" : "windDir",
		"timestamp" :1554508800
		},
	"2019-04-06T06:00:00+03:00" : {
		"windSpeed" : 1.5,
		"windDir" : 99,
		"rain" : 0,
		"cloudbase" : 5307.139,
		"flyability" : 0,
		"reason" : "windDir",
		"timestamp" :1554519600
		},
	"2019-04-06T09:00:00+03:00" : {
		"windSpeed" : 1.4,
		"windDir" : 79,
		"rain" : 0,
		"cloudbase" : 3365.826,
		"flyability" : 0,
		"reason" : "windDir",
		"timestamp" :1554530400
		},
	"2019-04-06T12:00:00+03:00" : {
		"windSpeed" : 2.2,
		"windDir" : 88,
		"rain" : 1,
		"cloudbase" : 2437.0890000001,
		"flyability" : 0,
		"reason" : "windDir, rain",
		"timestamp" :1554541200
		},
	"2019-04-06T15:00:00+03:00" : {
		"windSpeed" : 2.3,
		"windDir" : 77,
		"rain" : 1,
		"cloudbase" : 2688.5780000001,
		"flyability" : 0,
		"reason" : "windDir, rain",
		"timestamp" :1554552000
		},
	"2019-04-06T18:00:00+03:00" : {
		"windSpeed" : 3.4,
		"windDir" : 72,
		"rain" : 1,
		"cloudbase" : 2725.1565,
		"flyability" : 0,
		"reason" : "windDir, rain",
		"timestamp" :1554562800
		},
	"2019-04-06T21:00:00+03:00" : {
		"windSpeed" : 3,
		"windDir" : 77,
		"rain" : 1,
		"cloudbase" : 2116.2565000001,
		"flyability" : 0,
		"reason" : "windDir, rain",
		"timestamp" :1554573600
		},
	"2019-04-07T00:00:00+03:00" : {
		"windSpeed" : 2.4,
		"windDir" : 74,
		"rain" : 1,
		"cloudbase" : 2739.0825,
		"flyability" : 0,
		"reason" : "windDir, rain",
		"timestamp" :1554584400
		},
	"2019-04-07T03:00:00+03:00" : {
		"windSpeed" : 2,
		"windDir" : 86,
		"rain" : 1,
		"cloudbase" : 4336.8135000004,
		"flyability" : 0,
		"reason" : "windDir, rain",
		"timestamp" :1554595200
		},
	"2019-04-07T06:00:00+03:00" : {
		"windSpeed" : 1.9,
		"windDir" : 86,
		"rain" : 0,
		"cloudbase" : 4617.8210000001,
		"flyability" : 0,
		"reason" : "windDir",
		"timestamp" :1554606000
		},
	"2019-04-07T09:00:00+03:00" : {
		"windSpeed" : 1.8,
		"windDir" : 81,
		"rain" : 0,
		"cloudbase" : null,
		"flyability" : 0,
		"reason" : "windDir",
		"timestamp" :1554616800
		},
	"2019-04-07T12:00:00+03:00" : {
		"windSpeed" : 1.3,
		"windDir" : 148,
		"rain" : 0,
		"cloudbase" : 2697.676,
		"flyability" : 0,
		"reason" : "windDir",
		"timestamp" :1554627600
		},
	"2019-04-07T15:00:00+03:00" : {
		"windSpeed" : 1.1,
		"windDir" : 130,
		"rain" : 1,
		"cloudbase" : 2162.413,
		"flyability" : 0,
		"reason" : "windDir, rain",
		"timestamp" :1554638400
		},
	"2019-04-07T18:00:00+03:00" : {
		"windSpeed" : 1.1,
		"windDir" : 127,
		"rain" : 0,
		"cloudbase" : 1235.7065,
		"flyability" : 0,
		"reason" : "windDir",
		"timestamp" :1554649200
		},
	"2019-04-07T21:00:00+03:00" : {
		"windSpeed" : 0.5,
		"windDir" : 76,
		"rain" : 1,
		"cloudbase" : 982.47640000001,
		"flyability" : 0,
		"reason" : "windDir, rain",
		"timestamp" :1554660000
		},
	"2019-04-08T00:00:00+03:00" : {
		"windSpeed" : 0.3,
		"windDir" : 37,
		"rain" : 1,
		"cloudbase" : 822.05820000001,
		"flyability" : 0,
		"reason" : "windDir, rain",
		"timestamp" :1554670800
		},
	"2019-04-08T03:00:00+03:00" : {
		"windSpeed" : 0.6,
		"windDir" : 85,
		"rain" : 1,
		"cloudbase" : 707.3852,
		"flyability" : 0,
		"reason" : "windDir, rain",
		"timestamp" :1554681600
		},
	"2019-04-08T06:00:00+03:00" : {
		"windSpeed" : 1.1,
		"windDir" : 69,
		"rain" : 0,
		"cloudbase" : 704.84,
		"flyability" : 0,
		"reason" : "windDir",
		"timestamp" :1554692400
		},
	"2019-04-08T09:00:00+03:00" : {
		"windSpeed" : 1.3,
		"windDir" : 75,
		"rain" : 1,
		"cloudbase" : 660,
		"flyability" : 0,
		"reason" : "windDir, rain",
		"timestamp" :1554703200
		},
	"2019-04-08T12:00:00+03:00" : {
		"windSpeed" : 0.3,
		"windDir" : 94,
		"rain" : 1,
		"cloudbase" : null,
		"flyability" : 0,
		"reason" : "windDir, rain",
		"timestamp" :1554714000
		},
	"2019-04-08T15:00:00+03:00" : {
		"windSpeed" : 1.6,
		"windDir" : 251,
		"rain" : 0,
		"cloudbase" : 5700,
		"flyability" : 100,
		"reason" : "",
		"timestamp" :1554724800
		},
	"2019-04-08T18:00:00+03:00" : {
		"windSpeed" : 2.3,
		"windDir" : 288,
		"rain" : 0,
		"cloudbase" : 1300,
		"flyability" : 100,
		"reason" : "",
		"timestamp" :1554735600
		},
	"2019-04-08T21:00:00+03:00" : {
		"windSpeed" : 0.5,
		"windDir" : 35,
		"rain" : 0,
		"cloudbase" : null,
		"flyability" : 0,
		"reason" : "windDir",
		"timestamp" :1554746400
		},
	"2019-04-09T00:00:00+03:00" : {
		"windSpeed" : 0.5,
		"windDir" : 40,
		"rain" : 1,
		"cloudbase" : null,
		"flyability" : 0,
		"reason" : "windDir, rain",
		"timestamp" :1554757200
		},
	"2019-04-09T03:00:00+03:00" : {
		"windSpeed" : 0.8,
		"windDir" : 71,
		"rain" : 1,
		"cloudbase" : null,
		"flyability" : 0,
		"reason" : "windDir, rain",
		"timestamp" :1554768000
		},
	"2019-04-09T06:00:00+03:00" : {
		"windSpeed" : 0.9,
		"windDir" : 78,
		"rain" : 1,
		"cloudbase" : 6045.3589999998,
		"flyability" : 0,
		"reason" : "windDir, rain",
		"timestamp" :1554778800
		},
	"2019-04-09T09:00:00+03:00" : {
		"windSpeed" : 1,
		"windDir" : 91,
		"rain" : 1,
		"cloudbase" : null,
		"flyability" : 0,
		"reason" : "windDir, rain",
		"timestamp" :1554789600
		},
	"2019-04-09T12:00:00+03:00" : {
		"windSpeed" : 1.8,
		"windDir" : 219,
		"rain" : 1,
		"cloudbase" : null,
		"flyability" : 0,
		"reason" : "windDir, rain",
		"timestamp" :1554800400
		},
	"2019-04-09T15:00:00+03:00" : {
		"windSpeed" : 2.8,
		"windDir" : 248,
		"rain" : 0,
		"cloudbase" : 8400,
		"flyability" : 100,
		"reason" : "",
		"timestamp" :1554811200
		},
	"2019-04-09T18:00:00+03:00" : {
		"windSpeed" : 0.3,
		"windDir" : 283,
		"rain" : 0,
		"cloudbase" : 3668,
		"flyability" : 100,
		"reason" : "",
		"timestamp" :1554822000
		},
	"2019-04-09T21:00:00+03:00" : {
		"windSpeed" : 0.4,
		"windDir" : 80,
		"rain" : 0,
		"cloudbase" : 2333.1825,
		"flyability" : 0,
		"reason" : "windDir",
		"timestamp" :1554832800
		},
	"2019-04-10T00:00:00+03:00" : {
		"windSpeed" : 0.7,
		"windDir" : 75,
		"rain" : 0,
		"cloudbase" : 1923.1415000001,
		"flyability" : 0,
		"reason" : "windDir",
		"timestamp" :1554843600
		},
	"2019-04-10T03:00:00+03:00" : {
		"windSpeed" : 1.1,
		"windDir" : 84,
		"rain" : 0,
		"cloudbase" : 1761.037,
		"flyability" : 0,
		"reason" : "windDir",
		"timestamp" :1554854400
		},
	"2019-04-10T06:00:00+03:00" : {
		"windSpeed" : 1.1,
		"windDir" : 81,
		"rain" : 1,
		"cloudbase" : null,
		"flyability" : 0,
		"reason" : "windDir, rain",
		"timestamp" :1554865200
		},
	"2019-04-10T09:00:00+03:00" : {
		"windSpeed" : 1,
		"windDir" : 60,
		"rain" : 1,
		"cloudbase" : null,
		"flyability" : 0,
		"reason" : "windDir, rain",
		"timestamp" :1554876000
		},
	"2019-04-10T12:00:00+03:00" : {
		"windSpeed" : 1.2,
		"windDir" : 277,
		"rain" : 1,
		"cloudbase" : null,
		"flyability" : 0,
		"reason" : "rain",
		"timestamp" :1554886800
		},
	"2019-04-10T15:00:00+03:00" : {
		"windSpeed" : 2.6,
		"windDir" : 267,
		"rain" : 0,
		"cloudbase" : 940,
		"flyability" : 100,
		"reason" : "",
		"timestamp" :1554897600
		}
	}
}