{
"site" : "Chervonyi Kut",
"id" : 9958,
"orientations" : "02200000",
"forecasts" : { 
	"2019-04-14T06:00:00+03:00" : {
		"windSpeed" : 4.1,
		"windDir" : 14,
		"rain" : 1,
		"cloudbase" : 689.99999999999,
		"flyability" : 0,
		"reason" : "windDir, rain",
		"timestamp" :1555210800
		},
	"2019-04-14T09:00:00+03:00" : {
		"windSpeed" : 4.6,
		"windDir" : 13,
		"rain" : 1,
		"cloudbase" : 741.66000000002,
		"flyability" : 0,
		"reason" : "windDir, rain",
		"timestamp" :1555221600
		},
	"2019-04-14T12:00:00+03:00" : {
		"windSpeed" : 5.4,
		"windDir" : 22,
		"rain" : 1,
		"cloudbase" : 421.66,
		"flyability" : 0,
		"reason" : "windSpeed, windDir, rain",
		"timestamp" :1555232400
		},
	"2019-04-14T15:00:00+03:00" : {
		"windSpeed" : 5.6,
		"windDir" : 21,
		"rain" : 0,
		"cloudbase" : 742.49000000002,
		"flyability" : 0,
		"reason" : "windSpeed, windDir",
		"timestamp" :1555243200
		},
	"2019-04-14T18:00:00+03:00" : {
		"windSpeed" : 5.1,
		"windDir" : 11,
		"rain" : 1,
		"cloudbase" : 814.14999999997,
		"flyability" : 0,
		"reason" : "windSpeed, windDir, rain",
		"timestamp" :1555254000
		},
	"2019-04-14T21:00:00+03:00" : {
		"windSpeed" : 5.5,
		"windDir" : 10,
		"rain" : 1,
		"cloudbase" : 1406.225,
		"flyability" : 0,
		"reason" : "windSpeed, windDir, rain",
		"timestamp" :1555264800
		},
	"2019-04-15T00:00:00+03:00" : {
		"windSpeed" : 5.7,
		"windDir" : 18,
		"rain" : 0,
		"cloudbase" : 1337.55,
		"flyability" : 0,
		"reason" : "windSpeed, windDir",
		"timestamp" :1555275600
		},
	"2019-04-15T03:00:00+03:00" : {
		"windSpeed" : 6.1,
		"windDir" : 14,
		"rain" : 1,
		"cloudbase" : 1152.075,
		"flyability" : 0,
		"reason" : "windSpeed, windDir, rain",
		"timestamp" :1555286400
		},
	"2019-04-15T06:00:00+03:00" : {
		"windSpeed" : 6,
		"windDir" : 2,
		"rain" : 1,
		"cloudbase" : 1447.8250000001,
		"flyability" : 0,
		"reason" : "windSpeed, windDir, rain",
		"timestamp" :1555297200
		},
	"2019-04-15T09:00:00+03:00" : {
		"windSpeed" : 6.5,
		"windDir" : 356,
		"rain" : 0,
		"cloudbase" : 4154.2500000001,
		"flyability" : 0,
		"reason" : "windSpeed, windDir",
		"timestamp" :1555308000
		},
	"2019-04-15T12:00:00+03:00" : {
		"windSpeed" : 7,
		"windDir" : 356,
		"rain" : 0,
		"cloudbase" : 1104.15,
		"flyability" : 0,
		"reason" : "windSpeed, windDir",
		"timestamp" :1555318800
		},
	"2019-04-15T15:00:00+03:00" : {
		"windSpeed" : 6.5,
		"windDir" : 356,
		"rain" : 0,
		"cloudbase" : 1229.15,
		"flyability" : 0,
		"reason" : "windSpeed, windDir",
		"timestamp" :1555329600
		},
	"2019-04-15T18:00:00+03:00" : {
		"windSpeed" : 6.1,
		"windDir" : 351,
		"rain" : 1,
		"cloudbase" : 1512.45,
		"flyability" : 0,
		"reason" : "windSpeed, windDir, rain",
		"timestamp" :1555340400
		},
	"2019-04-15T21:00:00+03:00" : {
		"windSpeed" : 5.9,
		"windDir" : 340,
		"rain" : 1,
		"cloudbase" : 1403.95,
		"flyability" : 0,
		"reason" : "windSpeed, windDir, rain",
		"timestamp" :1555351200
		},
	"2019-04-16T00:00:00+03:00" : {
		"windSpeed" : 6.4,
		"windDir" : 322,
		"rain" : 1,
		"cloudbase" : 859.17,
		"flyability" : 0,
		"reason" : "windSpeed, windDir, rain",
		"timestamp" :1555362000
		},
	"2019-04-16T03:00:00+03:00" : {
		"windSpeed" : 6.7,
		"windDir" : 318,
		"rain" : 1,
		"cloudbase" : 526.68000000003,
		"flyability" : 0,
		"reason" : "windSpeed, windDir, rain",
		"timestamp" :1555372800
		},
	"2019-04-16T06:00:00+03:00" : {
		"windSpeed" : 6.5,
		"windDir" : 328,
		"rain" : 1,
		"cloudbase" : 355.41500000001,
		"flyability" : 0,
		"reason" : "windSpeed, windDir, rain",
		"timestamp" :1555383600
		},
	"2019-04-16T09:00:00+03:00" : {
		"windSpeed" : 5.3,
		"windDir" : 352,
		"rain" : 1,
		"cloudbase" : 230.83000000001,
		"flyability" : 0,
		"reason" : "windSpeed, windDir, rain",
		"timestamp" :1555394400
		},
	"2019-04-16T12:00:00+03:00" : {
		"windSpeed" : 5.4,
		"windDir" : 57,
		"rain" : 1,
		"cloudbase" : 454.17000000001,
		"flyability" : 0,
		"reason" : "windSpeed, rain",
		"timestamp" :1555405200
		},
	"2019-04-16T15:00:00+03:00" : {
		"windSpeed" : 4.1,
		"windDir" : 75,
		"rain" : 0,
		"cloudbase" : 841.66,
		"flyability" : 100,
		"reason" : "",
		"timestamp" :1555416000
		},
	"2019-04-16T18:00:00+03:00" : {
		"windSpeed" : 2.8,
		"windDir" : 63,
		"rain" : 1,
		"cloudbase" : 769.34500000001,
		"flyability" : 0,
		"reason" : "rain",
		"timestamp" :1555426800
		},
	"2019-04-16T21:00:00+03:00" : {
		"windSpeed" : 1.7,
		"windDir" : 98,
		"rain" : 1,
		"cloudbase" : 852.56999999989,
		"flyability" : 0,
		"reason" : "rain",
		"timestamp" :1555437600
		},
	"2019-04-17T00:00:00+03:00" : {
		"windSpeed" : 2.3,
		"windDir" : 59,
		"rain" : 1,
		"cloudbase" : 791.7,
		"flyability" : 0,
		"reason" : "rain",
		"timestamp" :1555448400
		},
	"2019-04-17T03:00:00+03:00" : {
		"windSpeed" : 1.8,
		"windDir" : 54,
		"rain" : 1,
		"cloudbase" : 663.40000000002,
		"flyability" : 0,
		"reason" : "rain",
		"timestamp" :1555459200
		},
	"2019-04-17T06:00:00+03:00" : {
		"windSpeed" : 2.2,
		"windDir" : 27,
		"rain" : 1,
		"cloudbase" : 868.3,
		"flyability" : 0,
		"reason" : "rain",
		"timestamp" :1555470000
		},
	"2019-04-17T09:00:00+03:00" : {
		"windSpeed" : 3.9,
		"windDir" : 40,
		"rain" : 1,
		"cloudbase" : 325.81,
		"flyability" : 0,
		"reason" : "rain",
		"timestamp" :1555480800
		},
	"2019-04-17T12:00:00+03:00" : {
		"windSpeed" : 5,
		"windDir" : 37,
		"rain" : 1,
		"cloudbase" : 689.96,
		"flyability" : 0,
		"reason" : "rain",
		"timestamp" :1555491600
		},
	"2019-04-17T15:00:00+03:00" : {
		"windSpeed" : 5.3,
		"windDir" : 41,
		"rain" : 1,
		"cloudbase" : 858.29999999999,
		"flyability" : 0,
		"reason" : "windSpeed, rain",
		"timestamp" :1555502400
		},
	"2019-04-17T18:00:00+03:00" : {
		"windSpeed" : 5,
		"windDir" : 37,
		"rain" : 1,
		"cloudbase" : 908.29999999998,
		"flyability" : 0,
		"reason" : "rain",
		"timestamp" :1555513200
		},
	"2019-04-17T21:00:00+03:00" : {
		"windSpeed" : 3.9,
		"windDir" : 40,
		"rain" : 1,
		"cloudbase" : 1300,
		"flyability" : 0,
		"reason" : "rain",
		"timestamp" :1555524000
		},
	"2019-04-18T00:00:00+03:00" : {
		"windSpeed" : 3.6,
		"windDir" : 34,
		"rain" : 1,
		"cloudbase" : 1437.55,
		"flyability" : 0,
		"reason" : "rain",
		"timestamp" :1555534800
		},
	"2019-04-18T03:00:00+03:00" : {
		"windSpeed" : 3.5,
		"windDir" : 45,
		"rain" : 0,
		"cloudbase" : 1552.075,
		"flyability" : 100,
		"reason" : "",
		"timestamp" :1555545600
		},
	"2019-04-18T06:00:00+03:00" : {
		"windSpeed" : 3.4,
		"windDir" : 36,
		"rain" : 1,
		"cloudbase" : 1687.55,
		"flyability" : 0,
		"reason" : "rain",
		"timestamp" :1555556400
		},
	"2019-04-18T09:00:00+03:00" : {
		"windSpeed" : 4.1,
		"windDir" : 42,
		"rain" : 0,
		"cloudbase" : 1700,
		"flyability" : 100,
		"reason" : "",
		"timestamp" :1555567200
		},
	"2019-04-18T12:00:00+03:00" : {
		"windSpeed" : 4.7,
		"windDir" : 32,
		"rain" : 0,
		"cloudbase" : 1447.925,
		"flyability" : 100,
		"reason" : "",
		"timestamp" :1555578000
		},
	"2019-04-18T15:00:00+03:00" : {
		"windSpeed" : 4,
		"windDir" : 29,
		"rain" : 0,
		"cloudbase" : 1541.7,
		"flyability" : 100,
		"reason" : "",
		"timestamp" :1555588800
		},
	"2019-04-18T18:00:00+03:00" : {
		"windSpeed" : 4.2,
		"windDir" : 20,
		"rain" : 1,
		"cloudbase" : 1550,
		"flyability" : 0,
		"reason" : "windDir, rain",
		"timestamp" :1555599600
		},
	"2019-04-18T21:00:00+03:00" : {
		"windSpeed" : 3.5,
		"windDir" : 45,
		"rain" : 0,
		"cloudbase" : 1572.9250000001,
		"flyability" : 100,
		"reason" : "",
		"timestamp" :1555610400
		},
	"2019-04-19T00:00:00+03:00" : {
		"windSpeed" : 2.3,
		"windDir" : 12,
		"rain" : 1,
		"cloudbase" : 1645.85,
		"flyability" : 0,
		"reason" : "windDir, rain",
		"timestamp" :1555621200
		},
	"2019-04-19T03:00:00+03:00" : {
		"windSpeed" : 2.1,
		"windDir" : 352,
		"rain" : 1,
		"cloudbase" : 1595.85,
		"flyability" : 0,
		"reason" : "windDir, rain",
		"timestamp" :1555632000
		},
	"2019-04-19T06:00:00+03:00" : {
		"windSpeed" : 3.5,
		"windDir" : 360,
		"rain" : 1,
		"cloudbase" : 1741.7,
		"flyability" : 0,
		"reason" : "windDir, rain",
		"timestamp" :1555642800
		},
	"2019-04-19T09:00:00+03:00" : {
		"windSpeed" : 4.7,
		"windDir" : 18,
		"rain" : 0,
		"cloudbase" : 1850,
		"flyability" : 0,
		"reason" : "windDir",
		"timestamp" :1555653600
		},
	"2019-04-19T12:00:00+03:00" : {
		"windSpeed" : 4.8,
		"windDir" : 38,
		"rain" : 1,
		"cloudbase" : 1502.5899999996,
		"flyability" : 0,
		"reason" : "rain",
		"timestamp" :1555664400
		},
	"2019-04-19T15:00:00+03:00" : {
		"windSpeed" : 4.7,
		"windDir" : 33,
		"rain" : 0,
		"cloudbase" : 2752.075,
		"flyability" : 100,
		"reason" : "",
		"timestamp" :1555675200
		},
	"2019-04-19T18:00:00+03:00" : {
		"windSpeed" : 3.1,
		"windDir" : 20,
		"rain" : 1,
		"cloudbase" : 2793.775,
		"flyability" : 0,
		"reason" : "windDir, rain",
		"timestamp" :1555686000
		},
	"2019-04-19T21:00:00+03:00" : {
		"windSpeed" : 3.5,
		"windDir" : 40,
		"rain" : 0,
		"cloudbase" : 1952.075,
		"flyability" : 100,
		"reason" : "",
		"timestamp" :1555696800
		},
	"2019-04-20T00:00:00+03:00" : {
		"windSpeed" : 3,
		"windDir" : 10,
		"rain" : 0,
		"cloudbase" : 4257.9000000011,
		"flyability" : 0,
		"reason" : "windDir",
		"timestamp" :1555707600
		},
	"2019-04-20T03:00:00+03:00" : {
		"windSpeed" : 3,
		"windDir" : 5,
		"rain" : 0,
		"cloudbase" : null,
		"flyability" : 0,
		"reason" : "windDir",
		"timestamp" :1555718400
		}
	}
}